%!PS
%%BoundingBox: -1 -1 100 68 
%%HiResBoundingBox: -0.19925 -0.19925 99.82541 67.9725 
%%Creator: MetaPost 2.000
%%CreationDate: 2018.01.27:1123
%%Pages: 1
%*Font: cmmi5 4.98132 4.98132 41:88
%*Font: cmr5 4.98132 4.98132 3d:8
%*Font: msam5 4.98132 4.98132 7b:8
%*Font: cmcsc10 4.98132 9.96265 45:8
%%BeginProlog
%%EndProlog
%%Page: 1 1
 0.9 0.9 0.9 setrgbcolor
newpath 0 0 moveto
99.62616 0 lineto
99.62616 61.56859 lineto
0 61.56859 lineto
 closepath fill
 0 0 0 setrgbcolor
newpath -0.19925 0.19925 moveto
-0.19925 -0.19925 lineto
0.19925 -0.19925 lineto
99.82541 -0.19925 lineto
99.82541 0.19925 lineto
99.82541 61.76784 lineto
99.42691 61.76784 lineto
-0.19925 61.76784 lineto
-0.19925 61.36934 lineto
-0.19925 -0.19925 lineto
0.19925 -0.19925 lineto
0.19925 0.19925 lineto
0.19925 61.76784 lineto
0.19925 61.36934 lineto
99.82541 61.36934 lineto
99.42691 61.36934 lineto
99.42691 -0.19925 lineto
99.42691 0.19925 lineto
 closepath fill
 1 1 1 setrgbcolor
newpath 65.20523 30.7843 moveto
65.20523 34.86673 63.58325 38.78148 60.69675 41.66797 curveto
57.81026 44.55447 53.89551 46.17645 49.81308 46.17645 curveto
45.73065 46.17645 41.8159 44.55447 38.92941 41.66797 curveto
36.04291 38.78148 34.42093 34.86673 34.42093 30.7843 curveto
34.42093 26.70187 36.04291 22.78712 38.92941 19.90063 curveto
41.8159 17.01413 45.73065 15.39215 49.81308 15.39215 curveto
53.89551 15.39215 57.81026 17.01413 60.69675 19.90063 curveto
63.58325 22.78712 65.20523 26.70187 65.20523 30.7843 curveto closepath fill
 0 0 0 setrgbcolor 0 0.3985 dtransform truncate idtransform setlinewidth pop
 [] 0 setdash 1 setlinejoin 10 setmiterlimit
newpath 65.20523 30.7843 moveto
65.20523 34.86673 63.58325 38.78148 60.69675 41.66797 curveto
57.81026 44.55447 53.89551 46.17645 49.81308 46.17645 curveto
45.73065 46.17645 41.8159 44.55447 38.92941 41.66797 curveto
36.04291 38.78148 34.42093 34.86673 34.42093 30.7843 curveto
34.42093 26.70187 36.04291 22.78712 38.92941 19.90063 curveto
41.8159 17.01413 45.73065 15.39215 49.81308 15.39215 curveto
53.89551 15.39215 57.81026 17.01413 60.69675 19.90063 curveto
63.58325 22.78712 65.20523 26.70187 65.20523 30.7843 curveto closepath stroke
 0 0.2419 dtransform truncate idtransform setlinewidth pop 0 setlinecap
newpath 11.21854 12.02925 moveto
16.37984 12.02925 lineto stroke
11.21854 7.77855 moveto
(A) cmmi5 4.98132 fshow
18.41693 7.77855 moveto
(=) cmr5 4.98132 fshow
25.57384 7.77855 moveto
({) msam5 4.98132 fshow
29.24063 6.09045 moveto
(E) cmcsc10 4.98132 fshow
33.43324 7.77855 moveto
(A) cmmi5 4.98132 fshow
12.30807 64.5686 moveto
(E) cmmi5 4.98132 fshow
42.25081 33.69981 moveto
(A) cmmi5 4.98132 fshow
showpage
%%EOF
