input TEX;
input venn.mp;

verbatimtex
%&latex
 \documentclass{article}
 \usepackage[latin1]{inputenc}
 \usepackage[frenchb]{babel}
 \usepackage{amsmath}
 \begin{document}
etex


outputtemplate := "intersection.mps";
beginfig(1);
  % Dessine le diagramme de Venn
  draw_venn_two(false,false,true,false);
  % La fleche permettant d'indiquer l'objet
  pair A, B, E;
  E:=(0.3venn_circle_left_shift,2venn_circle_top_shift);
  label.top(btex \tiny $E$ etex, E);
  A:=(0.5venn_circle_left_shift,0.3venn_circle_bottom_shift); B:=(1.3venn_circle_left_shift,venn_circle_top_shift);
  drawarrow A{dir 60}..B withpen pencircle scaled 0.3bp;
  label.bot(btex \tiny $A\cap B$ etex, A);
  % Label les éléments
  picture pa, pb;
  pa = thelabel(btex \tiny $A$ etex,   (.9venn_circle_left_shift,1.15venn_circle_top_shift));
  pb = thelabel(btex \tiny $B$ etex, (1.1venn_circle_right_shift,1.15venn_circle_top_shift));
%  unfill bbox pa;
  draw pa;
%  unfill bbox pb;
  draw pb;
endfig;

end;
