%!PS
%%BoundingBox: -1 -1 100 68 
%%HiResBoundingBox: -0.19925 -0.19925 99.82541 67.9725 
%%Creator: MetaPost 2.000
%%CreationDate: 2018.01.27:1123
%%Pages: 1
%*Font: cmmi5 4.98132 4.98132 41:c8
%*Font: cmsy5 4.98132 4.98132 5b:8
%%BeginProlog
%%EndProlog
%%Page: 1 1
 1 1 1 setrgbcolor
newpath 0 0 moveto
99.62616 0 lineto
99.62616 61.56859 lineto
0 61.56859 lineto
 closepath fill
 0 0 0 setrgbcolor
newpath -0.19925 0.19925 moveto
-0.19925 -0.19925 lineto
0.19925 -0.19925 lineto
99.82541 -0.19925 lineto
99.82541 0.19925 lineto
99.82541 61.76784 lineto
99.42691 61.76784 lineto
-0.19925 61.76784 lineto
-0.19925 61.36934 lineto
-0.19925 -0.19925 lineto
0.19925 -0.19925 lineto
0.19925 0.19925 lineto
0.19925 61.76784 lineto
0.19925 61.36934 lineto
99.82541 61.36934 lineto
99.42691 61.36934 lineto
99.42691 -0.19925 lineto
99.42691 0.19925 lineto
 closepath fill
 0.9 0.9 0.9 setrgbcolor
newpath 24.4577 30.7843 moveto
24.4577 26.70187 26.07968 22.78712 28.96619 19.90063 curveto
31.85268 17.01413 35.76743 15.39215 39.84985 15.39215 curveto
43.93228 15.39215 47.84703 17.01413 50.73352 19.90063 curveto
53.62003 22.78712 55.242 26.70187 55.242 30.7843 curveto
55.242 34.86673 53.62003 38.78148 50.73352 41.66797 curveto
47.84703 44.55447 43.93228 46.17645 39.84985 46.17645 curveto
35.76743 46.17645 31.85268 44.55447 28.96619 41.66797 curveto
26.07968 38.78148 24.4577 34.86673 24.4577 30.7843 curveto closepath fill
newpath 75.16846 30.7843 moveto
75.16846 34.86673 73.54648 38.78148 70.65997 41.66797 curveto
67.77348 44.55447 63.85873 46.17645 59.7763 46.17645 curveto
55.69388 46.17645 51.77913 44.55447 48.89264 41.66797 curveto
46.00613 38.78148 44.38416 34.86673 44.38416 30.7843 curveto
44.38416 26.70187 46.00613 22.78712 48.89264 19.90063 curveto
51.77913 17.01413 55.69388 15.39215 59.7763 15.39215 curveto
63.85873 15.39215 67.77348 17.01413 70.65997 19.90063 curveto
73.54648 22.78712 75.16846 26.70187 75.16846 30.7843 curveto closepath fill
newpath 49.8131 19.05212 moveto
50.13011 19.32138 50.43724 19.60434 50.73352 19.90063 curveto
53.62003 22.78712 55.242 26.70187 55.242 30.7843 curveto
55.242 34.86673 53.62003 38.78148 50.73352 41.66797 curveto
50.43724 41.96426 50.13011 42.24722 49.8131 42.51648 curveto
49.81306 42.51648 lineto
49.49605 42.24722 49.18892 41.96426 48.89264 41.66797 curveto
46.00613 38.78148 44.38416 34.86673 44.38416 30.7843 curveto
44.38416 26.70187 46.00613 22.78712 48.89264 19.90063 curveto
49.18892 19.60434 49.49605 19.32138 49.81306 19.05212 curveto
 closepath fill
 0 0 0 setrgbcolor 0 0.3985 dtransform truncate idtransform setlinewidth pop
 [] 0 setdash 1 setlinejoin 10 setmiterlimit
newpath 24.4577 30.7843 moveto
24.4577 26.70187 26.07968 22.78712 28.96619 19.90063 curveto
31.85268 17.01413 35.76743 15.39215 39.84985 15.39215 curveto
43.93228 15.39215 47.84703 17.01413 50.73352 19.90063 curveto
53.62003 22.78712 55.242 26.70187 55.242 30.7843 curveto
55.242 34.86673 53.62003 38.78148 50.73352 41.66797 curveto
47.84703 44.55447 43.93228 46.17645 39.84985 46.17645 curveto
35.76743 46.17645 31.85268 44.55447 28.96619 41.66797 curveto
26.07968 38.78148 24.4577 34.86673 24.4577 30.7843 curveto closepath stroke
newpath 75.16846 30.7843 moveto
75.16846 34.86673 73.54648 38.78148 70.65997 41.66797 curveto
67.77348 44.55447 63.85873 46.17645 59.7763 46.17645 curveto
55.69388 46.17645 51.77913 44.55447 48.89264 41.66797 curveto
46.00613 38.78148 44.38416 34.86673 44.38416 30.7843 curveto
44.38416 26.70187 46.00613 22.78712 48.89264 19.90063 curveto
51.77913 17.01413 55.69388 15.39215 59.7763 15.39215 curveto
63.85873 15.39215 67.77348 17.01413 70.65997 19.90063 curveto
73.54648 22.78712 75.16846 26.70187 75.16846 30.7843 curveto closepath stroke
9.31908 64.5686 moveto
(E) cmmi5 4.98132 fshow
 0 0.3 dtransform truncate idtransform setlinewidth pop 1 setlinecap
newpath 19.92493 9.23538 moveto
23.41248 15.27602 29.13905 19.69984 35.86462 21.54892 curveto stroke
newpath 32.90125 18.86229 moveto
33.81454 19.82542 34.8042 20.7242 35.86462 21.54892 curveto
34.53162 21.71562 33.19632 21.77989 31.86948 21.74467 curveto
 closepath
gsave fill grestore stroke
10.66318 2.83148 moveto
(A) cmmi5 4.98132 fshow
17.45418 2.83148 moveto
([) cmsy5 4.98132 fshow
23.78848 2.83148 moveto
(B) cmmi5 4.98132 fshow
33.28397 33.69981 moveto
(A) cmmi5 4.98132 fshow
63.0552 33.69981 moveto
(B) cmmi5 4.98132 fshow
showpage
%%EOF
