%!PS-Adobe-3.0 EPSF-3.0
%%Creator: EpsGraphics 1.0.0 by Thomas Abeel, http://www.sourceforge.net/epsgraphics/
%%Title: GeoGebra, http://www.geogebra.org/
%%CreationDate: Mon Aug 18 13:45:08 CEST 2014
%%BoundingBox: 0 0 373 305
%%DocumentData: Clean7Bit
%%LanguageLevel: 2
%%DocumentProcessColors: Black
%%ColorUsage: Color
%%Origin: 0 0
%%Pages: 1
%%Page: 1 1
%%EndComments

gsave
0.0 305.0 translate
0.0 0.0 0.0 setrgbcolor
0.0 0.0 0.0 setrgbcolor
gsave
newpath
0.0 -0.0 moveto
373.932598176869 -0.0 lineto
373.932598176869 -305.0502774600774 lineto
0.0 -305.0502774600774 lineto
0.0 -0.0 lineto
closepath
clip
newpath
1.0 1.0 1.0 setrgbcolor
newpath
0.0 -0.0 moveto
373.932598176869 -0.0 lineto
373.932598176869 -305.0502774600774 lineto
0.0 -305.0502774600774 lineto
0.0 -0.0 lineto
closepath
fill
newpath
0.0 0.0 0.0 setrgbcolor
1.0 setlinewidth
10.0 setmiterlimit
0 setlinejoin
0 setlinecap
[ ] 0 setdash
newpath
173.7301418835588 -1.7891511874491342 moveto
173.7301418835588 -305.0502774600774 lineto
stroke
newpath
1.0 setlinewidth
10.0 setmiterlimit
0 setlinejoin
0 setlinecap
[ ] 0 setdash
newpath
174.17742968042106 -0.8945755937245671 moveto
171.04641510238508 -3.5783023748982683 lineto
stroke
newpath
1.0 setlinewidth
10.0 setmiterlimit
0 setlinejoin
0 setlinecap
[ ] 0 setdash
newpath
173.2828540866965 -0.8945755937245671 moveto
176.41386866473246 -3.5783023748982683 lineto
stroke
newpath
1.0 setlinewidth
10.0 setmiterlimit
0 setlinejoin
0 setlinecap
[ ] 0 setdash
newpath
0.0 -165.08801337102778 moveto
372.1434469894199 -165.08801337102778 lineto
stroke
newpath
1.0 setlinewidth
10.0 setmiterlimit
0 setlinejoin
0 setlinecap
[ ] 0 setdash
newpath
373.0380225831445 -165.53530116789008 moveto
370.35429580197075 -162.40428658985408 lineto
stroke
newpath
1.0 setlinewidth
10.0 setmiterlimit
0 setlinejoin
0 setlinecap
[ ] 0 setdash
newpath
373.0380225831445 -164.64072557416551 moveto
370.35429580197075 -167.7717401522015 lineto
stroke
newpath
1.0 setlinewidth
10.0 setmiterlimit
0 setlinejoin
0 setlinecap
[ ] 0 setdash
newpath
31.99785841899185 -165.08801337102778 moveto
31.99785841899185 -168.66631574592606 lineto
stroke
newpath
1.0 setlinewidth
10.0 setmiterlimit
0 setlinejoin
0 setlinecap
[ ] 0 setdash
newpath
102.8640001512753 -165.08801337102778 moveto
102.8640001512753 -168.66631574592606 lineto
stroke
newpath
1.0 setlinewidth
10.0 setmiterlimit
0 setlinejoin
0 setlinecap
[ ] 0 setdash
newpath
173.7301418835588 -165.08801337102778 moveto
173.7301418835588 -168.66631574592606 lineto
stroke
newpath
1.0 setlinewidth
10.0 setmiterlimit
0 setlinejoin
0 setlinecap
[ ] 0 setdash
newpath
244.59628361584225 -165.08801337102778 moveto
244.59628361584225 -168.66631574592606 lineto
stroke
newpath
1.0 setlinewidth
10.0 setmiterlimit
0 setlinejoin
0 setlinecap
[ ] 0 setdash
newpath
315.46242534812575 -165.08801337102778 moveto
315.46242534812575 -168.66631574592606 lineto
stroke
newpath
1.0 setlinewidth
10.0 setmiterlimit
0 setlinejoin
0 setlinecap
[ ] 0 setdash
newpath
170.15183950866052 -235.95415510331142 moveto
173.7301418835588 -235.95415510331142 lineto
stroke
newpath
1.0 setlinewidth
10.0 setmiterlimit
0 setlinejoin
0 setlinecap
[ ] 0 setdash
newpath
170.15183950866052 -165.08801337102778 moveto
173.7301418835588 -165.08801337102778 lineto
stroke
newpath
1.0 setlinewidth
10.0 setmiterlimit
0 setlinejoin
0 setlinecap
[ ] 0 setdash
newpath
170.15183950866052 -94.22187163874416 moveto
173.7301418835588 -94.22187163874416 lineto
stroke
newpath
1.0 setlinewidth
10.0 setmiterlimit
0 setlinejoin
0 setlinecap
[ ] 0 setdash
newpath
170.15183950866052 -23.355729906460535 moveto
173.7301418835588 -23.355729906460535 lineto
stroke
newpath
1.0 0.0 0.0 setrgbcolor
2.0 setlinewidth
10.0 setmiterlimit
1 setlinejoin
1 setlinecap
[ ] 0 setdash
newpath
29.213484232567893 -315.33860659520474 moveto
32.13483265582468 -306.40977683191255 lineto
35.05618107908147 -297.84188407803913 lineto
37.977529502338264 -289.6274753569888 lineto
40.89887792559505 -281.75912499244635 lineto
43.82022634885184 -274.22935270753567 lineto
46.74157477210863 -267.0307601262221 lineto
49.662923195365416 -260.155839671349 lineto
52.58427161862221 -253.59719296688172 lineto
55.505620041879 -247.34733973594408 lineto
58.426968465135786 -241.39885430222094 lineto
61.348316888392574 -235.74428368911666 lineto
64.26966531164936 -230.37617492003557 lineto
67.19101373490615 -225.2870886685223 lineto
70.11236215816294 -220.46958560812143 lineto
73.03371058141974 -215.91621276223734 lineto
75.95505900467653 -211.61950350413406 lineto
78.87640742793332 -207.57204580763675 lineto
81.7977558511901 -203.76637304600953 lineto
84.71910427444689 -200.19503224265665 lineto
87.64045269770368 -196.85059772126309 lineto
90.56180112096047 -193.72560285509283 lineto
93.48314954421726 -190.8126219678308 lineto
96.40449796747404 -188.10418843274107 lineto
99.32584639073083 -185.59286292336822 lineto
102.24719481398763 -183.27119246311662 lineto
105.16854323724442 -181.13173772553085 lineto
108.08989166050121 -179.16705938415558 lineto
111.011240083758 -177.36969081225482 lineto
113.93258850701478 -175.73220633351346 lineto
116.85393693027157 -174.2471393211956 lineto
119.77528535352836 -172.9070640989861 lineto
122.69663377678515 -171.704514040149 lineto
125.61798220004194 -170.63206346836924 lineto
128.53933062329872 -169.68224575691087 lineto
131.46067904655553 -168.84762157931848 lineto
134.3820274698123 -168.1207516091367 lineto
137.3033758930691 -167.49416921962958 lineto
140.22472431632588 -166.96044873448201 lineto
143.14607273958268 -166.51213717709834 lineto
146.06742116283948 -166.1417815708829 lineto
148.98876958609625 -165.84194258938032 lineto
151.91011800935306 -165.6051809061352 lineto
154.83146643260983 -165.42402989441158 lineto
157.75281485586663 -165.29105022775408 lineto
160.6741632791234 -165.19880257970738 lineto
163.5955117023802 -165.1398339736757 lineto
166.51686012563698 -165.10669143306347 lineto
169.43820854889378 -165.09194928155557 lineto
172.35955697215059 -165.08814089241602 lineto
175.28090539540736 -165.08782693918948 lineto
178.20225381866416 -165.08355444528024 lineto
181.12360224192093 -165.06789773437322 lineto
184.04495066517774 -165.0333765295922 lineto
186.9662990884345 -164.97257880476235 lineto
189.8876475116913 -164.87802428300742 lineto
192.8089959349481 -164.74230093815262 lineto
195.7303443582049 -164.55792849332173 lineto
198.65169278146166 -164.31748127219964 lineto
201.57304120471846 -164.01351994833095 lineto
204.49438962797527 -163.63856424483942 lineto
207.41573805123204 -163.18520213555027 lineto
210.33708647448884 -162.6459669937275 lineto
213.25843489774562 -162.0134331430561 lineto
216.17978332100242 -161.28012030665974 lineto
219.1011317442592 -160.43861645836367 lineto
222.022480167516 -159.4814413212916 lineto
224.94382859077277 -158.40118286926878 lineto
227.86517701402957 -157.1903608254189 lineto
230.78652543728637 -155.84156316356723 lineto
233.70787386054315 -154.34730960683748 lineto
236.62922228379995 -152.70017447891456 lineto
239.55057070705672 -150.89271845334312 lineto
242.47191913031352 -148.91746125324687 lineto
245.3932675535703 -146.76699085245104 lineto
248.3146159768271 -144.43384062421967 lineto
251.23596440008387 -141.91057124209735 lineto
254.15731282334067 -139.18974337962874 lineto
257.07866124659745 -136.26389041007786 lineto
260.00000966985425 -133.12558665712965 lineto
262.92135809311105 -129.7673654940481 lineto
265.84270651636785 -126.18178759437787 lineto
268.7640549396246 -122.36141363166357 lineto
271.6854033628814 -118.29880427944983 lineto
274.6067517861382 -113.98648608593052 lineto
277.528100209395 -109.41703337479058 lineto
280.44944863265175 -104.58299316943432 lineto
283.37079705590855 -99.47691931833623 lineto
286.29214547916536 -94.09135884490063 lineto
289.21349390242216 -88.4188792477423 lineto
292.13484232567896 -82.45202072519541 lineto
295.0561907489357 -76.18333712573445 lineto
297.9775391721925 -69.60538912290404 lineto
300.8988875954493 -62.71073056517865 lineto
303.8202360187061 -55.49190847596261 lineto
306.74158444196286 -47.941480116265474 lineto
309.66293286521966 -40.051995922026634 lineto
312.58428128847646 -31.816009741720585 lineto
315.50562971173326 -23.226077130089323 lineto
316.96630392336164 -18.79605377689157 lineto
318.42697813499007 -14.274749376206024 lineto
319.88765234661844 -9.6612357184933 lineto
321.3483265582468 -4.954581181678937 lineto
322.80900076987524 -0.15385406370718624 lineto
324.2696749815036 4.7418757378518865 lineto
stroke
newpath
1.0 0.0 0.0 setrgbcolor
2.0 setlinewidth
10.0 setmiterlimit
1 setlinejoin
1 setlinecap
[ ] 0 setdash
newpath
46.098598564119094 -295.6607281618824 moveto
46.098598564119094 -300.5773994914545 lineto
45.06075109796208 -300.5773994914545 lineto
45.06075109796208 -295.6607281618824 lineto
44.253536402062174 -295.6607281618824 lineto
44.253536402062174 -294.88496338919936 lineto
45.06075109796208 -294.88496338919936 lineto
45.06075109796208 -294.203548386167 lineto
45.06075109796208 -292.84770721152097 45.6792662729939 -292.1697866848088 46.91629656775796 -292.1697866848088 curveto
47.262245733453724 -292.1697866848088 47.65536976991559 -292.2274448790914 48.09566868839093 -292.34276126250165 curveto
48.09566868839093 -293.1604592661405 lineto
47.63090869811279 -293.0171873894382 47.25875128306495 -292.94555145749183 46.97919641419172 -292.94555145749183 curveto
46.64023612053022 -292.94555145749183 46.40872974954813 -293.02679709489007 46.28467727648563 -293.18928836242264 curveto
46.16062479787755 -293.3517796372191 46.098598564119094 -293.65317473643256 46.098598564119094 -294.09347365490794 curveto
46.098598564119094 -294.88496338919936 lineto
47.519086762748145 -294.88496338919936 lineto
47.519086762748145 -295.6607281618824 lineto
closepath
fill
newpath
0.0 0.0 1.0 setrgbcolor
2.0 setlinewidth
10.0 setmiterlimit
1 setlinejoin
1 setlinecap
[ ] 0 setdash
newpath
102.8640001512753 -165.08801337102778 moveto
244.59628361584225 -165.08801337102778 lineto
stroke
newpath
0.0 0.0 1.0 setrgbcolor
2.0 setlinewidth
10.0 setmiterlimit
1 setlinejoin
1 setlinecap
[ ] 0 setdash
newpath
176.3938832336936 -178.91511874491343 moveto
176.3938832336936 -171.98041067559151 lineto
173.64201495221664 -171.98041067559151 lineto
173.64201495221664 -171.15747101808319 lineto
180.24649882776131 -171.15747101808319 lineto
180.24649882776131 -171.98041067559151 lineto
177.49463054628436 -171.98041067559151 lineto
177.49463054628436 -178.91511874491343 lineto
closepath
184.30353892273874 -178.19177051092518 moveto
183.68502374770694 -178.7613635817172 183.08922243443624 -179.04616009165042 182.5161349532461 -179.04616009165042 curveto
182.0443860909337 -179.04616009165042 181.65300927810407 -178.8985201699267 181.3420044864826 -178.60324033967936 curveto
181.03099968095813 -178.30796049623197 180.87549729209888 -177.9349294646035 180.87549729209888 -177.4841472385454 curveto
180.87549729209888 -176.86213762749645 181.13670638437927 -176.38427352996007 181.65912454558614 -176.05055490524265 curveto
182.1815427301469 -175.71683626560684 182.93022562346286 -175.54997696070734 183.90517322865827 -175.54997696070734 curveto
184.15153096052381 -175.54997696070734 lineto
184.15153096052381 -174.86332030380547 lineto
184.15153096052381 -174.2028718965681 183.8125706668623 -173.87264772247377 183.13465010984473 -173.87264772247377 curveto
182.5895180911726 -173.87264772247377 182.0007056466557 -174.04038065129595 181.36821275583 -174.37584649394384 curveto
181.36821275583 -173.5214569132186 lineto
182.06360552323866 -173.23840759583118 182.71531780934671 -173.09688294979074 183.323349649146 -173.09688294979074 curveto
183.95933700426346 -173.09688294979074 184.42846501113218 -173.240154826493 184.73073371310136 -173.5266985670881 curveto
185.03300242858302 -173.81324232049266 185.18413677281137 -174.2587828998671 185.18413677281137 -174.86332030380547 curveto
185.18413677281137 -177.44221400758957 lineto
185.18413677281137 -178.03277369448435 185.36584744570206 -178.32805351153166 185.72926877523727 -178.32805351153166 curveto
185.77469644345993 -178.32805351153166 185.8410907257546 -178.32106463949742 185.9284516222775 -178.30708689605376 curveto
186.0018347764502 -178.87842716782706 lineto
185.76770756330257 -178.99024912037518 185.50911930850134 -179.04616009165042 185.2260700037672 -179.04616009165042 curveto
184.74383783340343 -179.04616009165042 184.43632748545355 -178.76136355625442 184.30353892273874 -178.19177051092518 curveto
closepath
184.15153096052381 -177.63091354689084 moveto
184.15153096052381 -176.158008809567 lineto
183.80558180513816 -176.14752550182803 lineto
183.2394831703633 -176.14752550182803 182.78171207742596 -176.25497940935475 182.4322684913344 -176.46988721480105 curveto
182.08282488962155 -176.68479502985448 181.90810310438644 -176.9669707286305 181.90810310438644 -177.31641431472204 curveto
181.90810310438644 -177.5645192719382 181.99546400481466 -177.77418542187476 182.17018579786043 -177.94541277905964 curveto
182.34490759871687 -178.11664014389896 182.55806818795105 -178.20225381866416 182.80966756993698 -178.20225381866416 curveto
183.23948320004382 -178.20225381866416 183.68677099102206 -178.01180705573063 184.15153096052381 -177.63091354689084 curveto
closepath
187.29652328221175 -178.91511874491343 moveto
187.29652328221175 -173.22268264265827 lineto
188.32912909449928 -173.22268264265827 lineto
188.32912909449928 -174.29198003203214 lineto
188.8742611131714 -173.49524862012677 189.54169836807372 -173.09688294979074 190.3314408726406 -173.09688294979074 curveto
190.82415635105576 -173.09688294979074 191.21728038095668 -173.25325896155726 191.5108129932736 -173.5660109711092 curveto
191.8043456187124 -173.87876299464224 191.9511119183099 -174.29896891172086 191.9511119183099 -174.8266287267191 curveto
191.9511119183099 -178.91511874491343 lineto
190.91850610602236 -178.91511874491343 lineto
190.91850610602236 -175.16209457436582 lineto
190.91850610602236 -174.73926781629322 190.85647986671833 -174.43787272871768 190.73242739365583 -174.25790928188053 curveto
190.60837491504776 -174.0779458269984 190.40307680458702 -173.98796410760232 190.11653306399194 -173.98796410760232 curveto
189.4840401448916 -173.98796410760232 188.88823883224575 -174.4020547756321 188.32912909449928 -175.23023607466905 curveto
188.32912909449928 -178.91511874491343 lineto
closepath
193.9796319657986 -180.80735579179566 moveto
194.10019000479664 -179.91103298011458 lineto
194.69773856372566 -180.19408229750204 195.28655100589938 -180.33560694354247 195.86662735881137 -180.33560694354247 curveto
197.0302745525153 -180.33560694354247 197.61209809734817 -179.71883898651922 197.61209809734817 -178.48530312761608 curveto
197.61209809734817 -177.588980315935 lineto
197.23120457148113 -178.38571172784037 196.60570054144233 -178.7840773981764 195.73558601207438 -178.7840773981764 curveto
195.05417098873426 -178.7840773981764 194.51253343654088 -178.53597244096025 194.1106733125356 -178.03976254871029 curveto
193.70881317056578 -177.54355263427797 193.50788311754542 -176.8743681591801 193.50788311754542 -176.03220911669948 curveto
193.50788311754542 -175.16558898445152 193.73676867666737 -174.4597129477324 194.1945397744473 -173.9145809534296 curveto
194.65231089269116 -173.3694489347575 195.24461777713054 -173.09688294979074 195.97146043620097 -173.09688294979074 curveto
196.6074477913184 -173.09688294979074 197.15432699956824 -173.3554712150583 197.61209809734817 -173.87264772247377 curveto
197.61209809734817 -173.22268264265827 lineto
198.64994556350518 -173.22268264265827 lineto
198.64994556350518 -177.36358919954736 lineto
198.64994556350518 -178.25467038391523 198.60364428627824 -178.9142451423139 198.51104173596397 -179.34231353527602 curveto
198.41843918151005 -179.77038194737432 198.24459099379754 -180.12069913895533 197.98949717595073 -180.39326513610675 curveto
197.5387149297411 -180.8720028704534 196.83808052845828 -181.11137171622548 195.88759397428927 -181.11137171622548 curveto
195.22365113103479 -181.11137171622548 194.5876638055979 -181.01003307172874 193.9796319657986 -180.80735579179566 curveto
closepath
197.61209809734817 -176.944256889989 moveto
197.61209809734817 -174.58027099485355 lineto
197.15782141512142 -174.10852213254114 196.66335873900542 -173.87264772247377 196.12871005228536 -173.87264772247377 curveto
195.65346675395583 -173.87264772247377 195.28130933937663 -174.0630944854073 195.01223777808613 -174.44398799424707 curveto
194.74316620476722 -174.82488152011413 194.6086304301362 -175.34729968764762 194.6086304301362 -176.01124250122155 curveto
194.6086304301362 -177.25875615933657 195.04718215028586 -177.88251293262587 195.92428555137565 -177.88251293262587 curveto
196.52183411030467 -177.88251293262587 197.08443828234994 -177.56976090909285 197.61209809734817 -176.944256889989 curveto
closepath
204.82461382175248 -178.73166085948162 moveto
204.13271549036097 -178.94132702050936 203.54040861638788 -179.04616009165042 203.0476931599988 -179.04616009165042 curveto
202.20902851588787 -179.04616009165042 201.52499270302613 -178.7674788192844 200.99558567009743 -178.21011629946838 curveto
200.4661786135024 -177.65275375473632 200.20147510887122 -176.93027913311096 200.20147510887122 -176.04269242443843 curveto
200.20147510887122 -175.1795667282076 200.43472871301458 -174.47194347332373 200.9012359004468 -173.9198226072991 curveto
201.36774310873352 -173.3677017165927 201.96441803780377 -173.09164129592125 202.69126069687417 -173.09164129592125 curveto
203.37966459224856 -173.09164129592125 203.9116924450824 -173.33625181712029 204.2873443001308 -173.82547283764845 curveto
204.66299617197217 -174.3146938800465 204.8508220910999 -175.01008662558525 204.8508220910999 -175.91165107770144 curveto
204.8455804372304 -176.23139196373972 lineto
201.25504753663668 -176.23139196373972 lineto
201.40530828537322 -177.5837387023686 202.06750390390198 -178.25991201122844 203.24163435316956 -178.25991201122844 curveto
203.67144998327643 -178.25991201122844 204.19910980264862 -178.1445956226632 204.82461382175248 -177.91396285584275 curveto
closepath
201.302222421462 -175.4556271910567 moveto
203.81297462494288 -175.4556271910567 lineto
203.81297462494288 -174.39681307786663 203.4181033550073 -173.86740606860428 202.62836085044043 -173.86740606860428 curveto
201.83512387455215 -173.86740606860428 201.3930777538458 -174.39681312519932 201.302222421462 -175.4556271910567 curveto
closepath
206.63298440672304 -178.91511874491343 moveto
206.63298440672304 -173.22268264265827 lineto
207.6655902190106 -173.22268264265827 lineto
207.6655902190106 -174.29198003203214 lineto
208.2107222376827 -173.49524862012677 208.878159492585 -173.09688294979074 209.66790199715192 -173.09688294979074 curveto
210.16061747556708 -173.09688294979074 210.553741505468 -173.25325896155726 210.84727411778488 -173.5660109711092 curveto
211.1408067432237 -173.87876299464224 211.28757304282118 -174.29896891172086 211.28757304282118 -174.8266287267191 curveto
211.28757304282118 -178.91511874491343 lineto
210.25496723053365 -178.91511874491343 lineto
210.25496723053365 -175.16209457436582 lineto
210.25496723053365 -174.73926781629322 210.19294099122962 -174.43787272871768 210.0688885181671 -174.25790928188053 curveto
209.94483603955905 -174.0779458269984 209.7395379290983 -173.98796410760232 209.45299418850323 -173.98796410760232 curveto
208.82050126940288 -173.98796410760232 208.22469995675706 -174.4020547756321 207.6655902190106 -175.23023607466905 curveto
207.6655902190106 -178.91511874491343 lineto
closepath
215.0039056362824 -179.04616009165042 moveto
214.4797402337131 -179.04616009165042 214.07089124314103 -178.89589934291388 213.77735863082412 -178.59537785887514 curveto
213.4838260053853 -178.29485636140205 213.33705970578782 -177.87727127078952 213.33705970578782 -177.34262258406946 curveto
213.33705970578782 -173.99844741534127 lineto
212.62419477953856 -173.99844741534127 lineto
212.62419477953856 -173.22268264265827 lineto
213.33705970578782 -173.22268264265827 lineto
213.33705970578782 -172.1900768303707 lineto
214.36966551807535 -172.0904854068506 lineto
214.36966551807535 -173.22268264265827 lineto
215.85829521700765 -173.22268264265827 lineto
215.85829521700765 -173.99844741534127 lineto
214.36966551807535 -173.99844741534127 lineto
214.36966551807535 -177.15392304476816 lineto
214.36966551807535 -177.89823791641663 214.69115363165122 -178.2703953189674 215.33412983005965 -178.2703953189674 curveto
215.47041283472768 -178.2703953189674 215.63639853944898 -178.24768148485606 215.83208694766026 -178.20225381866416 curveto
215.83208694766026 -178.91511874491343 lineto
215.5140932701015 -179.00247964534165 215.23803283896376 -179.04616009165042 215.0039056362824 -179.04616009165042 curveto
closepath
221.48258981895955 -178.73166085948162 moveto
220.79069148756804 -178.94132702050936 220.19838461359495 -179.04616009165042 219.70566915720588 -179.04616009165042 curveto
218.86700451309494 -179.04616009165042 218.1829687002332 -178.7674788192844 217.6535616673045 -178.21011629946838 curveto
217.12415461070947 -177.65275375473632 216.8594511060783 -176.93027913311096 216.8594511060783 -176.04269242443843 curveto
216.8594511060783 -175.1795667282076 217.09270471022165 -174.47194347332373 217.55921189765388 -173.9198226072991 curveto
218.0257191059406 -173.3677017165927 218.62239403501084 -173.09164129592125 219.34923669408124 -173.09164129592125 curveto
220.03764058945563 -173.09164129592125 220.56966844228947 -173.33625181712029 220.94532029733787 -173.82547283764845 curveto
221.32097216917924 -174.3146938800465 221.50879808830697 -175.01008662558525 221.50879808830697 -175.91165107770144 curveto
221.50355643443748 -176.23139196373972 lineto
217.91302353384376 -176.23139196373972 lineto
218.0632842825803 -177.5837387023686 218.72547990110905 -178.25991201122844 219.89961035037663 -178.25991201122844 curveto
220.3294259804835 -178.25991201122844 220.8570857998557 -178.1445956226632 221.48258981895955 -177.91396285584275 curveto
closepath
217.96019841866908 -175.4556271910567 moveto
220.47095062214996 -175.4556271910567 lineto
220.47095062214996 -174.39681307786663 220.07607935221438 -173.86740606860428 219.2863368476475 -173.86740606860428 curveto
218.49309987175923 -173.86740606860428 218.05105375105288 -174.39681312519932 217.96019841866908 -175.4556271910567 curveto
closepath
fill
newpath
grestore
grestore
showpage

%%EOF