input latexmp;

verbatimtex
%&latex
 \documentclass{article}
 \usepackage[latin1]{inputenc}
 \usepackage[frenchb]{babel}
 \usepackage{amsmath}
 \begin{document}
etex


outputtemplate := "gendarme.mps";
beginfig(1);
			  
  u := 1cm;
  v := 1cm;

  % draw (0,0) withpen pencircle scaled 4bp;
  
  % Repère
  drawarrow (-0.5u, 0*v) -- (10.5*u,0*v);
  drawarrow (0*u, -0.5*v) -- (0*u, 4.2*v);
  
  % La suite u
  for i=1 upto 10:
    draw (i*u, (2-2.7/i)*v) withpen pencircle scaled 2bp withcolor .8[red,green];
	label.bot (textext("\tiny $u_{" & decimal(i) & "}$"), (i*u, (2-2.7/i)*v)) withcolor .8[red,green];
  endfor;
  % La suite w
  for i=1 upto 10:
    draw (i*u, (2+2/i)*v) withpen pencircle scaled 2bp withcolor blue;
	label.top(textext("\tiny $w_{" & decimal(i) & "}$"), (i*u, (2+2/i)*v)) withcolor blue;
  endfor;
  % La suite v
  for i=1 upto 10:
    draw (i*u, (2+(-1)**i*.4/i)*v) withpen pencircle scaled 2bp withcolor red;
	label.bot (textext("\tiny $v_{" & decimal(i) & "}$"), (i*u, (2+(-1)**i*.4/i)*v)) withcolor red;
  endfor;
    
endfig;

end;
