PWD /Users/antoinecrouzet/Cloud/Enseignement/ECE1/Cours/tex/Chap13
INPUT /usr/local/texlive/2020/texmf.cnf
INPUT /usr/local/texlive/2020/texmf-dist/web2c/texmf.cnf
INPUT /usr/local/texlive/2020/texmf-var/web2c/pdftex/pdflatex.fmt
INPUT Exo.tex
OUTPUT Exo.log
