# Fdb version 3
["pdflatex"] 1611699264 "Cours.tex" "Cours.pdf" "Cours" 1611699266
  "/usr/local/texlive/2020/texmf-dist/fonts/map/fontname/texfonts.map" 1577235249 3524 cb3e574dea2d1052e39280babc910dc8 ""
  "/usr/local/texlive/2020/texmf-dist/fonts/tfm/public/cm/cmbx10.tfm" 1136768653 1328 c834bbb027764024c09d3d2bf908b5f0 ""
  "/usr/local/texlive/2020/texmf-dist/fonts/tfm/public/cm/cmti10.tfm" 1136768653 1480 aa8e34af0eb6a2941b776984cf1dfdc4 ""
  "/usr/local/texlive/2020/texmf-dist/web2c/texmf.cnf" 1583102494 39451 60d7debd9ef8ece44cbe965493576c2d ""
  "/usr/local/texlive/2020/texmf-var/fonts/map/pdftex/updmap/pdftex.map" 1601497259 4812642 554f132f71dc161c0c001de0c93092b9 ""
  "/usr/local/texlive/2020/texmf-var/web2c/pdftex/pdflatex.fmt" 1601482406 2432463 21c0c918ef2f2592c335a6ebca2c601a ""
  "/usr/local/texlive/2020/texmf.cnf" 1586288231 577 d60164b4589a341208aff7a667fbbdcb ""
  "Cours.aux" 1611699109 6429 a62ff13bfeac17a610a524ed14411849 ""
  "Cours.tex" 1611699261 22454 eaa6d8a40133c99d096bd56728509a59 ""
  (generated)
  "Cours.pdf"
  "Cours.log"
