input TEX;

verbatimtex
%&latex
 \documentclass{article}
 \usepackage[latin1]{inputenc}
 \usepackage[frenchb]{babel}
 \usepackage{amsmath}
 \begin{document}
etex

vardef func (expr X) = 
  1/X
enddef;

outputtemplate := "fonction_inverse.mps";
beginfig(1)
  u:=1cm;

  path fonca, foncb; numeric N;
  
  fonca=(-4, func (-4)) for i=-4 step .1 until -0.1: ..(i, func (i)) endfor;
  foncb=(0.2, func (0.2)) for i=0.2 step .1 until 4.1: ..(i, func (i)) endfor;

  draw fonca scaled u withpen pencircle scaled 2bp withcolor red;
  draw foncb scaled u withpen pencircle scaled 2bp withcolor red;

  pair O,A,B,C;
  O:=(0,0);
  A:=(1u,0);
  B:=(0,1u);

  for i=-4 upto 4: draw (i*u,-0.1u)--(i*u,0.1u); endfor;
  for j=-5 upto 5: draw (-0.1u,j*u)--(0.1u,j*u); endfor;
  drawarrow (-4.2u,0)--(4.2u,0);
  drawarrow (0,-5.2u)--(0,5.2u);

  label.bot (btex $1$ etex, A);
  label.rt (btex $1$ etex, B);
  label.llft (btex $0$ etex, O);

endfig;

end
