input TEX;

verbatimtex
%&latex
 \documentclass{article}
 \usepackage[latin1]{inputenc}
 \usepackage[frenchb]{babel}
 \usepackage{amsmath}
 \begin{document}
etex

vardef func (expr X) = 
  -1*(X+3)*(X-1)
enddef;

outputtemplate := "fonction_graph.mps";
beginfig(1)
  u:=1cm;

  path parabole; numeric N;
  
  parabole=(-3, func (-3)) for i=-3 step .1 until 1.1: ..(i, func (i)) endfor;

  draw parabole scaled u withcolor red withpen pencircle scaled 2bp ;

  pair O,A,B,C;
  O:=(0,0);

  for i=-3 upto 1: draw (i*u,-0.1u)--(i*u,0.1u); endfor;
  for i=-3 upto 1: label.lrt(TEX("$" & decimal i & "$"), (i*u,-0.1u)); endfor;
  for j=0 upto 4: draw (-0.1u,j*u)--(0.1u,j*u); endfor;
  for j=1 upto 4: label.lft(TEX("$" & decimal j & "$"), (-0.1u,j*u)); endfor;
  drawarrow (-4u,0)--(2u,0);
  drawarrow (0,-1u)--(0,5u);

  label.urt(btex $\mathcal{C}_f$ etex, (-u,(func (-1))*u)) withcolor red;

%  pair O,A,B,C,D,E,F,G,H;
%  label.bot (btex $a$ etex, (xpart H,0));
%  label.lft (btex $f(x)$ etex, (0,ypart B));
%  label.lft (btex $f(x+h)$ etex, (0,ypart C));
%  label.urt(btex $\mathcal{C}_f$ etex, (3.4u,2.3u));
endfig;

end
