input TEX;

verbatimtex
%&latex
 \documentclass{article}
 \usepackage[latin1]{inputenc}
 \usepackage[frenchb]{babel}
 \usepackage{amsmath}
 \begin{document}
etex

vardef func (expr X) = 
  X-floor(X)
enddef;

outputtemplate := "periodique.mps";
beginfig(1)
  u:=1cm;

  path parabolea,paraboleb,parabolec,paraboled,parabolee,parabolef,parabolez,paraboleg; numeric N;

  parabolez=(-4, func (-4)) for i=-4 step .01 until -3: ..(i, func (i)) endfor;  
  parabolea=(-3, func (-3)) for i=-3 step .01 until -2: ..(i, func (i)) endfor;
  paraboleb=(-2,func(-2)) for i=-2 step .01 until -1: ..(i, func (i)) endfor;
  parabolec=(-1,func(-1)) for i=-1 step .01 until 0: ..(i, func (i)) endfor;
  paraboled=(0,func(0)) for i=0 step .01 until 1: ..(i, func (i)) endfor;
  parabolee=(1,func(1)) for i=1 step .01 until 2: ..(i, func (i)) endfor;
  parabolef=(2,func(2)) for i=2 step .01 until 3: ..(i, func (i)) endfor;
  paraboleg=(3,func(3)) for i=3 step .01 until 4: ..(i, func (i)) endfor;

  draw parabolez scaled u withcolor red withpen pencircle scaled 2bp ;
  draw parabolea scaled u withcolor red withpen pencircle scaled 2bp ;
  draw paraboleb scaled u withcolor red withpen pencircle scaled 2bp ;
  draw parabolec scaled u withcolor red withpen pencircle scaled 2bp ;
  draw paraboled scaled u withcolor red withpen pencircle scaled 2bp ;
  draw parabolee scaled u withcolor red withpen pencircle scaled 2bp ;
  draw parabolef scaled u withcolor red withpen pencircle scaled 2bp ;
  draw paraboleg scaled u withcolor red withpen pencircle scaled 2bp ;

  pair O,A,B,C;
  O:=(0,0);

  for i=-3 upto 3: draw (i*u,-0.1u)--(i*u,0.1u); endfor;
  for i=-3 upto 3: label.lrt(TEX("$" & decimal i & "$") scaled .7, (i*u,-0.1u)); endfor;
  for j=0 upto 1: draw (-0.1u,j*u)--(0.1u,j*u); endfor;
  for j=1 upto 1: label.rt(TEX("$" & decimal j & "$") scaled .7, (0.1u,j*u)); endfor;
  drawarrow (-4u,0)--(4u,0);
  drawarrow (0,-1u)--(0,2u);

%  pair O,A,B,C,D,E,F,G,H;
%  label.bot (btex $a$ etex, (xpart H,0));
%  label.lft (btex $f(x)$ etex, (0,ypart B));
%  label.lft (btex $f(x+h)$ etex, (0,ypart C));
%  label.urt(btex $\mathcal{C}_f$ etex, (3.4u,2.3u));
endfig;

end
