%!PS-Adobe-3.0 EPSF-3.0
%%Creator: EpsGraphics2D 0.9.0 by Paul Mutton, http://www.jibble.org/
%%Title: GeoGebra, http://www.geogebra.org
%%CreationDate: Fri Jul 08 20:48:27 CEST 2011
%%BoundingBox: 0 0 276 233
%%DocumentData: Clean7Bit
%%DocumentProcessColors: Black
%%ColorUsage: Color
%%Origin: 0 0
%%Pages: 1
%%Page: 1 1
%%EndComments

gsave
-0.0 233.0 translate
1.0 setlinewidth
10.0 setmiterlimit
0 setlinejoin
2 setlinecap
[ ] 0 setdash
gsave
newpath
0.0 -0.0 moveto
276.4505 -0.0 lineto
276.4505 -233.68707 lineto
0.0 -233.68707 lineto
0.0 -0.0 lineto
closepath
clip
newpath
1.0 1.0 1.0 setrgbcolor
newpath
0.0 -0.0 moveto
276.4505 -0.0 lineto
276.4505 -233.68707 lineto
0.0 -233.68707 lineto
0.0 -0.0 lineto
closepath
fill
newpath
0.0 0.0 0.0 setrgbcolor
1.0 setlinewidth
10.0 setmiterlimit
1 setlinejoin
1 setlinecap
[ ] 0 setdash
newpath
58.498356 -106.590904 moveto
115.19127 -49.89799 lineto
stroke
newpath
0.0 0.0 0.0 setrgbcolor
1.0 setlinewidth
10.0 setmiterlimit
1 setlinejoin
1 setlinecap
[ ] 0 setdash
newpath
115.19127 -49.89799 moveto
171.88419 -21.551533 lineto
stroke
newpath
0.0 0.0 0.0 setrgbcolor
1.0 setlinewidth
10.0 setmiterlimit
1 setlinejoin
1 setlinecap
[ ] 0 setdash
newpath
115.19127 -49.89799 moveto
171.88419 -49.89799 lineto
stroke
newpath
0.0 0.0 0.0 setrgbcolor
1.0 setlinewidth
10.0 setmiterlimit
1 setlinejoin
1 setlinecap
[ ] 0 setdash
newpath
115.19127 -49.89799 moveto
171.88419 -78.244446 lineto
stroke
newpath
0.0 0.0 0.0 setrgbcolor
1.0 setlinewidth
10.0 setmiterlimit
1 setlinejoin
1 setlinecap
[ ] 0 setdash
newpath
115.19127 -163.28381 moveto
171.88419 -134.93736 lineto
stroke
newpath
0.0 0.0 0.0 setrgbcolor
1.0 setlinewidth
10.0 setmiterlimit
1 setlinejoin
1 setlinecap
[ ] 0 setdash
newpath
115.19127 -163.28381 moveto
171.88419 -191.63028 lineto
stroke
newpath
0.0 0.0 0.0 setrgbcolor
1.0 setlinewidth
10.0 setmiterlimit
1 setlinejoin
1 setlinecap
[ ] 0 setdash
newpath
115.19127 -163.28381 moveto
58.498356 -106.590904 lineto
stroke
newpath
0.0 0.0 1.0 setrgbcolor
newpath
59.794216 -106.590904 moveto
59.794216 -107.30659 59.21404 -107.886765 58.498356 -107.886765 curveto
57.78267 -107.886765 57.20249 -107.30659 57.20249 -106.590904 curveto
57.20249 -105.87522 57.78267 -105.295044 58.498356 -105.295044 curveto
59.21404 -105.295044 59.794216 -105.87522 59.794216 -106.590904 curveto
closepath
fill
newpath
0.0 0.0 0.0 setrgbcolor
1.0 setlinewidth
10.0 setmiterlimit
1 setlinejoin
1 setlinecap
[ ] 0 setdash
newpath
59.794216 -106.590904 moveto
59.794216 -107.30659 59.21404 -107.886765 58.498356 -107.886765 curveto
57.78267 -107.886765 57.20249 -107.30659 57.20249 -106.590904 curveto
57.20249 -105.87522 57.78267 -105.295044 58.498356 -105.295044 curveto
59.21404 -105.295044 59.794216 -105.87522 59.794216 -106.590904 curveto
closepath
stroke
newpath
0.0 0.0 1.0 setrgbcolor
newpath
116.48713 -49.89799 moveto
116.48713 -50.613674 115.90695 -51.19385 115.19127 -51.19385 curveto
114.475586 -51.19385 113.89541 -50.613674 113.89541 -49.89799 curveto
113.89541 -49.182304 114.475586 -48.602127 115.19127 -48.602127 curveto
115.90695 -48.602127 116.48713 -49.182304 116.48713 -49.89799 curveto
closepath
fill
newpath
0.0 0.0 0.0 setrgbcolor
1.0 setlinewidth
10.0 setmiterlimit
1 setlinejoin
1 setlinecap
[ ] 0 setdash
newpath
116.48713 -49.89799 moveto
116.48713 -50.613674 115.90695 -51.19385 115.19127 -51.19385 curveto
114.475586 -51.19385 113.89541 -50.613674 113.89541 -49.89799 curveto
113.89541 -49.182304 114.475586 -48.602127 115.19127 -48.602127 curveto
115.90695 -48.602127 116.48713 -49.182304 116.48713 -49.89799 curveto
closepath
stroke
newpath
0.0 0.0 1.0 setrgbcolor
newpath
116.48713 -163.28381 moveto
116.48713 -163.9995 115.90695 -164.57968 115.19127 -164.57968 curveto
114.475586 -164.57968 113.89541 -163.9995 113.89541 -163.28381 curveto
113.89541 -162.56813 114.475586 -161.98796 115.19127 -161.98796 curveto
115.90695 -161.98796 116.48713 -162.56813 116.48713 -163.28381 curveto
closepath
fill
newpath
0.0 0.0 0.0 setrgbcolor
1.0 setlinewidth
10.0 setmiterlimit
1 setlinejoin
1 setlinecap
[ ] 0 setdash
newpath
116.48713 -163.28381 moveto
116.48713 -163.9995 115.90695 -164.57968 115.19127 -164.57968 curveto
114.475586 -164.57968 113.89541 -163.9995 113.89541 -163.28381 curveto
113.89541 -162.56813 114.475586 -161.98796 115.19127 -161.98796 curveto
115.90695 -161.98796 116.48713 -162.56813 116.48713 -163.28381 curveto
closepath
stroke
newpath
0.0 0.0 1.0 setrgbcolor
newpath
173.18004 -21.551533 moveto
173.18004 -22.267218 172.59987 -22.847395 171.88419 -22.847395 curveto
171.1685 -22.847395 170.58832 -22.267218 170.58832 -21.551533 curveto
170.58832 -20.835848 171.1685 -20.25567 171.88419 -20.25567 curveto
172.59987 -20.25567 173.18004 -20.835848 173.18004 -21.551533 curveto
closepath
fill
newpath
0.0 0.0 0.0 setrgbcolor
1.0 setlinewidth
10.0 setmiterlimit
1 setlinejoin
1 setlinecap
[ ] 0 setdash
newpath
173.18004 -21.551533 moveto
173.18004 -22.267218 172.59987 -22.847395 171.88419 -22.847395 curveto
171.1685 -22.847395 170.58832 -22.267218 170.58832 -21.551533 curveto
170.58832 -20.835848 171.1685 -20.25567 171.88419 -20.25567 curveto
172.59987 -20.25567 173.18004 -20.835848 173.18004 -21.551533 curveto
closepath
stroke
newpath
0.0 0.0 1.0 setrgbcolor
newpath
173.18004 -49.89799 moveto
173.18004 -50.613674 172.59987 -51.19385 171.88419 -51.19385 curveto
171.1685 -51.19385 170.58832 -50.613674 170.58832 -49.89799 curveto
170.58832 -49.182304 171.1685 -48.602127 171.88419 -48.602127 curveto
172.59987 -48.602127 173.18004 -49.182304 173.18004 -49.89799 curveto
closepath
fill
newpath
0.0 0.0 0.0 setrgbcolor
1.0 setlinewidth
10.0 setmiterlimit
1 setlinejoin
1 setlinecap
[ ] 0 setdash
newpath
173.18004 -49.89799 moveto
173.18004 -50.613674 172.59987 -51.19385 171.88419 -51.19385 curveto
171.1685 -51.19385 170.58832 -50.613674 170.58832 -49.89799 curveto
170.58832 -49.182304 171.1685 -48.602127 171.88419 -48.602127 curveto
172.59987 -48.602127 173.18004 -49.182304 173.18004 -49.89799 curveto
closepath
stroke
newpath
0.0 0.0 1.0 setrgbcolor
newpath
173.18004 -78.244446 moveto
173.18004 -78.96013 172.59987 -79.540306 171.88419 -79.540306 curveto
171.1685 -79.540306 170.58832 -78.96013 170.58832 -78.244446 curveto
170.58832 -77.52876 171.1685 -76.948586 171.88419 -76.948586 curveto
172.59987 -76.948586 173.18004 -77.52876 173.18004 -78.244446 curveto
closepath
fill
newpath
0.0 0.0 0.0 setrgbcolor
1.0 setlinewidth
10.0 setmiterlimit
1 setlinejoin
1 setlinecap
[ ] 0 setdash
newpath
173.18004 -78.244446 moveto
173.18004 -78.96013 172.59987 -79.540306 171.88419 -79.540306 curveto
171.1685 -79.540306 170.58832 -78.96013 170.58832 -78.244446 curveto
170.58832 -77.52876 171.1685 -76.948586 171.88419 -76.948586 curveto
172.59987 -76.948586 173.18004 -77.52876 173.18004 -78.244446 curveto
closepath
stroke
newpath
0.0 0.0 1.0 setrgbcolor
newpath
173.18004 -134.93736 moveto
173.18004 -135.65305 172.59987 -136.23322 171.88419 -136.23322 curveto
171.1685 -136.23322 170.58832 -135.65305 170.58832 -134.93736 curveto
170.58832 -134.22168 171.1685 -133.6415 171.88419 -133.6415 curveto
172.59987 -133.6415 173.18004 -134.22168 173.18004 -134.93736 curveto
closepath
fill
newpath
0.0 0.0 0.0 setrgbcolor
1.0 setlinewidth
10.0 setmiterlimit
1 setlinejoin
1 setlinecap
[ ] 0 setdash
newpath
173.18004 -134.93736 moveto
173.18004 -135.65305 172.59987 -136.23322 171.88419 -136.23322 curveto
171.1685 -136.23322 170.58832 -135.65305 170.58832 -134.93736 curveto
170.58832 -134.22168 171.1685 -133.6415 171.88419 -133.6415 curveto
172.59987 -133.6415 173.18004 -134.22168 173.18004 -134.93736 curveto
closepath
stroke
newpath
0.0 0.0 1.0 setrgbcolor
newpath
173.18004 -191.63028 moveto
173.18004 -192.34596 172.59987 -192.92613 171.88419 -192.92613 curveto
171.1685 -192.92613 170.58832 -192.34596 170.58832 -191.63028 curveto
170.58832 -190.91458 171.1685 -190.33441 171.88419 -190.33441 curveto
172.59987 -190.33441 173.18004 -190.91458 173.18004 -191.63028 curveto
closepath
fill
newpath
0.0 0.0 0.0 setrgbcolor
1.0 setlinewidth
10.0 setmiterlimit
1 setlinejoin
1 setlinecap
[ ] 0 setdash
newpath
173.18004 -191.63028 moveto
173.18004 -192.34596 172.59987 -192.92613 171.88419 -192.92613 curveto
171.1685 -192.92613 170.58832 -192.34596 170.58832 -191.63028 curveto
170.58832 -190.91458 171.1685 -190.33441 171.88419 -190.33441 curveto
172.59987 -190.33441 173.18004 -190.91458 173.18004 -191.63028 curveto
closepath
stroke
newpath
0.0 0.0 0.0 setrgbcolor
newpath
113.7182 -41.899532 moveto
113.7182 -37.529373 lineto
115.35406 -37.529373 lineto
116.24187 -37.529373 116.685776 -37.8906 116.685776 -38.613052 curveto
116.685776 -38.882744 116.61048 -39.12832 116.459885 -39.34978 curveto
116.30929 -39.57124 116.102104 -39.741024 115.83832 -39.85914 curveto
117.26748 -41.899532 lineto
116.16017 -41.899532 lineto
115.07649 -40.11308 lineto
114.57452 -40.11308 lineto
114.57452 -41.899532 lineto
closepath
114.57452 -39.51366 moveto
114.784164 -39.51366 lineto
115.44363 -39.51366 115.77335 -39.24692 115.77335 -38.713448 curveto
115.77335 -38.323677 115.47906 -38.12879 114.890465 -38.12879 curveto
114.57452 -38.12879 lineto
closepath
fill
newpath
0.0 0.0 0.0 setrgbcolor
newpath
116.58875 -155.93536 moveto
114.973564 -151.5652 lineto
115.94504 -151.5652 lineto
117.19703 -154.94618 lineto
118.407684 -151.5652 lineto
119.06321 -151.5652 lineto
117.50117 -155.93536 lineto
closepath
fill
newpath
0.0 0.0 0.0 setrgbcolor
newpath
178.38347 -22.02965 moveto
178.38347 -21.518814 lineto
179.2575 -21.518814 lineto
179.2575 -18.294346 lineto
178.38347 -18.512854 lineto
178.38347 -17.987253 lineto
180.13449 -17.550238 lineto
180.13449 -21.518814 lineto
181.00851 -21.518814 lineto
181.00851 -22.02965 lineto
closepath
fill
newpath
0.0 0.0 0.0 setrgbcolor
newpath
177.10323 -50.53861 moveto
177.10323 -49.847652 lineto
177.15047 -49.78269 lineto
177.38472 -49.469692 177.62488 -49.20591 177.87096 -48.991337 curveto
178.22824 -48.675385 lineto
178.81683 -48.15569 179.11113 -47.699974 179.11113 -47.308235 curveto
179.11113 -46.851536 178.85129 -46.623184 178.33159 -46.623184 curveto
178.01071 -46.623184 177.63866 -46.731453 177.21542 -46.94799 curveto
177.21542 -46.30723 lineto
177.66032 -46.141876 178.09044 -46.059196 178.5058 -46.059196 curveto
178.97038 -46.059196 179.34244 -46.16894 179.62196 -46.388435 curveto
179.90149 -46.60793 180.04126 -46.901733 180.04126 -47.269848 curveto
180.04126 -47.52379 179.97334 -47.755093 179.83752 -47.96376 curveto
179.70169 -48.172424 179.46251 -48.414555 179.12 -48.69015 curveto
178.8247 -48.926376 lineto
178.41328 -49.25709 178.16917 -49.564182 178.0924 -49.847652 curveto
180.02354 -49.847652 lineto
180.02354 -50.53861 lineto
closepath
fill
newpath
0.0 0.0 0.0 setrgbcolor
newpath
179.42497 -80.77538 moveto
179.42497 -79.609024 lineto
177.38458 -79.609024 lineto
177.38458 -78.9535 lineto
179.38954 -76.40523 lineto
180.18974 -76.40523 lineto
180.18974 -78.9535 lineto
180.70059 -78.9535 lineto
180.70059 -79.609024 lineto
180.18974 -79.609024 lineto
180.18974 -80.77538 lineto
closepath
178.0844 -78.9535 moveto
179.44269 -78.9535 lineto
179.44269 -77.24087 lineto
closepath
fill
newpath
0.0 0.0 0.0 setrgbcolor
newpath
177.96713 -136.9294 moveto
177.96713 -136.23843 lineto
178.01437 -136.17348 lineto
178.24863 -135.86047 178.48878 -135.5967 178.73486 -135.38213 curveto
179.09215 -135.06618 lineto
179.68074 -134.54648 179.97504 -134.09076 179.97504 -133.69902 curveto
179.97504 -133.24231 179.7152 -133.01396 179.1955 -133.01396 curveto
178.87462 -133.01396 178.50256 -133.12224 178.07933 -133.33878 curveto
178.07933 -132.69801 lineto
178.52423 -132.53265 178.95435 -132.44998 179.3697 -132.44998 curveto
179.83429 -132.44998 180.20634 -132.55972 180.48587 -132.77922 curveto
180.7654 -132.99872 180.90517 -133.29251 180.90517 -133.66063 curveto
180.90517 -133.91458 180.83725 -134.14587 180.70143 -134.35454 curveto
180.5656 -134.5632 180.32642 -134.80534 179.9839 -135.08093 curveto
179.68861 -135.31715 lineto
179.27719 -135.64787 179.03308 -135.95497 178.95631 -136.23843 curveto
180.88745 -136.23843 lineto
180.88745 -136.9294 lineto
closepath
fill
newpath
0.0 0.0 0.0 setrgbcolor
newpath
179.85692 -193.0834 moveto
179.85692 -191.91704 lineto
177.81653 -191.91704 lineto
177.81653 -191.26152 lineto
179.82149 -188.71324 lineto
180.6217 -188.71324 lineto
180.6217 -191.26152 lineto
181.13254 -191.26152 lineto
181.13254 -191.91704 lineto
180.6217 -191.91704 lineto
180.6217 -193.0834 lineto
closepath
178.51634 -191.26152 moveto
179.87465 -191.26152 lineto
179.87465 -189.54889 lineto
closepath
fill
newpath
0.0 0.0 0.0 setrgbcolor
newpath
81.38366 -67.12581 moveto
81.618195 -66.84234 81.91854 -66.70061 82.28469 -66.70061 curveto
82.61878 -66.70061 82.8955 -66.81071 83.11485 -67.0309 curveto
83.334206 -67.25109 83.44388 -67.529076 83.44388 -67.86485 curveto
83.44388 -68.258 83.31733 -68.57986 83.06423 -68.83042 curveto
82.811134 -69.08099 82.48548 -69.206276 82.08727 -69.206276 curveto
81.621574 -69.206276 81.25796 -69.0405 80.99642 -68.70894 curveto
80.734886 -68.37738 80.60412 -67.91632 80.60412 -67.32576 curveto
80.60412 -66.67614 80.75303 -66.1712 81.05084 -65.81097 curveto
81.348656 -65.45072 81.766685 -65.2706 82.30494 -65.2706 curveto
82.55804 -65.2706 82.87188 -65.316154 83.24647 -65.40727 curveto
83.24647 -65.953964 lineto
82.905624 -65.81054 82.60022 -65.73883 82.330246 -65.73883 curveto
82.02991 -65.73883 81.79706 -65.86032 81.6317 -66.103294 curveto
81.46634 -66.34627 81.38366 -66.6871 81.38366 -67.12581 curveto
closepath
82.69471 -67.98888 moveto
82.69471 -67.73409 82.6386 -67.532455 82.5264 -67.38397 curveto
82.41419 -67.23548 82.26192 -67.16124 82.06956 -67.16124 curveto
81.885635 -67.16124 81.73083 -67.22874 81.605125 -67.36372 curveto
81.479416 -67.49871 81.416565 -67.66575 81.416565 -67.86485 curveto
81.416565 -68.12639 81.47815 -68.3373 81.601326 -68.4976 curveto
81.7245 -68.6579 81.88564 -68.738045 82.08475 -68.738045 curveto
82.27035 -68.738045 82.41841 -68.67013 82.52893 -68.5343 curveto
82.63945 -68.398476 82.69471 -68.21667 82.69471 -67.98888 curveto
closepath
84.32466 -69.8618 moveto
85.673676 -65.366776 lineto
86.12925 -65.366776 lineto
84.780235 -69.8618 lineto
closepath
87.422585 -69.112625 moveto
87.422585 -68.67477 lineto
88.17175 -68.67477 lineto
88.17175 -65.91094 lineto
87.422585 -66.09823 lineto
87.422585 -65.64771 lineto
88.923454 -65.27313 lineto
88.923454 -68.67477 lineto
89.67262 -68.67477 lineto
89.67262 -69.112625 lineto
closepath
91.80624 -69.206276 moveto
91.381035 -69.206276 91.03556 -69.02405 90.769806 -68.659584 curveto
90.50405 -68.29512 90.37117 -67.82183 90.37117 -67.2397 curveto
90.37117 -66.650826 90.50447 -66.17585 90.771065 -65.81476 curveto
91.03766 -65.453674 91.388626 -65.27313 91.82395 -65.27313 curveto
92.255905 -65.27313 92.605606 -65.453255 92.87305 -65.81349 curveto
93.14049 -66.17374 93.27421 -66.64577 93.27421 -67.229576 curveto
93.27421 -67.828575 93.14049 -68.30778 92.87305 -68.667175 curveto
92.605606 -69.02657 92.25 -69.206276 91.80624 -69.206276 curveto
closepath
91.813835 -68.738045 moveto
92.2576 -68.738045 92.47948 -68.238594 92.47948 -67.2397 curveto
92.47948 -66.24081 92.26097 -65.74136 91.82395 -65.74136 curveto
91.38694 -65.74136 91.168434 -66.23997 91.168434 -67.237175 curveto
91.168434 -68.237755 91.38357 -68.738045 91.813835 -68.738045 curveto
closepath
fill
newpath
0.0 0.0 0.0 setrgbcolor
newpath
82.33531 -147.72824 moveto
82.33531 -146.7285 lineto
80.5864 -146.7285 lineto
80.5864 -146.16663 lineto
82.30494 -143.98239 lineto
82.99084 -143.98239 lineto
82.99084 -146.16663 lineto
83.428696 -146.16663 lineto
83.428696 -146.7285 lineto
82.99084 -146.7285 lineto
82.99084 -147.72824 lineto
closepath
81.18625 -146.16663 moveto
82.350494 -146.16663 lineto
82.350494 -144.69865 lineto
closepath
84.32466 -148.47742 moveto
85.673676 -143.98239 lineto
86.12925 -143.98239 lineto
84.780235 -148.47742 lineto
closepath
87.422585 -147.72824 moveto
87.422585 -147.29039 lineto
88.17175 -147.29039 lineto
88.17175 -144.52655 lineto
87.422585 -144.71385 lineto
87.422585 -144.26334 lineto
88.923454 -143.88875 lineto
88.923454 -147.29039 lineto
89.67262 -147.29039 lineto
89.67262 -147.72824 lineto
closepath
91.80624 -147.82188 moveto
91.381035 -147.82188 91.03556 -147.63965 90.769806 -147.27519 curveto
90.50405 -146.91074 90.37117 -146.43744 90.37117 -145.85532 curveto
90.37117 -145.26643 90.50447 -144.79146 90.771065 -144.43037 curveto
91.03766 -144.06929 91.388626 -143.88875 91.82395 -143.88875 curveto
92.255905 -143.88875 92.605606 -144.06886 92.87305 -144.42911 curveto
93.14049 -144.78935 93.27421 -145.26138 93.27421 -145.8452 curveto
93.27421 -146.4442 93.14049 -146.9234 92.87305 -147.28279 curveto
92.605606 -147.64218 92.25 -147.82188 91.80624 -147.82188 curveto
closepath
91.813835 -147.35365 moveto
92.2576 -147.35365 92.47948 -146.8542 92.47948 -145.85532 curveto
92.47948 -144.85643 92.26097 -144.35698 91.82395 -144.35698 curveto
91.38694 -144.35698 91.168434 -144.85558 91.168434 -145.85278 curveto
91.168434 -146.85336 91.38357 -147.35365 91.813835 -147.35365 curveto
closepath
fill
newpath
0.0 0.0 0.0 setrgbcolor
newpath
140.25005 -29.372868 moveto
140.25005 -28.935007 lineto
140.9992 -28.935007 lineto
140.9992 -26.171177 lineto
140.25005 -26.358469 lineto
140.25005 -25.907955 lineto
141.75092 -25.533371 lineto
141.75092 -28.935007 lineto
142.50008 -28.935007 lineto
142.50008 -29.372868 lineto
closepath
143.50235 -30.122038 moveto
144.85136 -25.627016 lineto
145.30695 -25.627016 lineto
143.95793 -30.122038 lineto
closepath
146.24341 -29.372868 moveto
146.24341 -28.780617 lineto
146.28389 -28.724936 lineto
146.48468 -28.456652 146.69054 -28.23055 146.90146 -28.046633 curveto
147.2077 -27.775818 lineto
147.7122 -27.330366 147.96446 -26.93975 147.96446 -26.603975 curveto
147.96446 -26.212517 147.74174 -26.016787 147.2963 -26.016787 curveto
147.02126 -26.016787 146.70236 -26.109589 146.33958 -26.295195 curveto
146.33958 -25.745972 lineto
146.72092 -25.604239 147.08958 -25.533371 147.44562 -25.533371 curveto
147.84383 -25.533371 148.16272 -25.62744 148.40233 -25.815575 curveto
148.64192 -26.00371 148.76172 -26.255543 148.76172 -26.571072 curveto
148.76172 -26.788736 148.7035 -26.986996 148.58708 -27.165852 curveto
148.47066 -27.344707 148.26566 -27.552248 147.97206 -27.788473 curveto
147.71896 -27.990952 lineto
147.36632 -28.274422 147.15709 -28.537643 147.09128 -28.780617 curveto
148.74654 -28.780617 lineto
148.74654 -29.372868 lineto
closepath
fill
newpath
0.0 0.0 0.0 setrgbcolor
newpath
149.32108 -47.082977 moveto
149.32108 -46.64512 lineto
150.07024 -46.64512 lineto
150.07024 -43.881287 lineto
149.32108 -44.06858 lineto
149.32108 -43.618065 lineto
150.82195 -43.24348 lineto
150.82195 -46.64512 lineto
151.57112 -46.64512 lineto
151.57112 -47.082977 lineto
closepath
152.57338 -47.83215 moveto
153.9224 -43.337128 lineto
154.37798 -43.337128 lineto
153.02896 -47.83215 lineto
closepath
155.45364 -47.055138 moveto
155.45364 -46.49326 lineto
155.82484 -46.63668 156.13109 -46.708393 156.37238 -46.708393 curveto
156.59679 -46.708393 156.77692 -46.651024 156.91275 -46.536285 curveto
157.04857 -46.421547 157.11649 -46.268845 157.11649 -46.07818 curveto
157.11649 -45.583794 156.75456 -45.3366 156.0307 -45.3366 curveto
155.80038 -45.3366 lineto
155.80038 -44.88862 lineto
155.99527 -44.886086 lineto
156.67357 -44.886086 157.01273 -44.664204 157.01273 -44.22044 curveto
157.01273 -43.881287 156.8035 -43.71171 156.38504 -43.71171 curveto
156.11 -43.71171 155.8164 -43.781734 155.50426 -43.921783 curveto
155.50426 -43.410526 lineto
155.83328 -43.297478 156.18004 -43.24095 156.5445 -43.24095 curveto
156.9309 -43.24095 157.23334 -43.320255 157.45184 -43.478863 curveto
157.67035 -43.63747 157.7796 -43.856823 157.7796 -44.136917 curveto
157.7796 -44.578995 157.50372 -44.891148 156.95198 -45.07338 curveto
157.58304 -45.218487 157.89856 -45.555954 157.89856 -46.085773 curveto
157.89856 -46.421547 157.77202 -46.6873 157.51892 -46.88303 curveto
157.26582 -47.07876 156.9216 -47.176624 156.48628 -47.176624 curveto
156.11676 -47.176624 155.77254 -47.136127 155.45364 -47.055138 curveto
closepath
fill
newpath
0.0 0.0 0.0 setrgbcolor
newpath
139.81808 -72.13631 moveto
139.81808 -71.69845 lineto
140.56726 -71.69845 lineto
140.56726 -68.934616 lineto
139.81808 -69.12191 lineto
139.81808 -68.671394 lineto
141.31895 -68.29681 lineto
141.31895 -71.69845 lineto
142.06813 -71.69845 lineto
142.06813 -72.13631 lineto
closepath
143.07039 -72.885475 moveto
144.4194 -68.39046 lineto
144.87498 -68.39046 lineto
143.52597 -72.885475 lineto
closepath
146.47963 -70.14948 moveto
146.71417 -69.86601 147.01451 -69.72428 147.38066 -69.72428 curveto
147.71475 -69.72428 147.99147 -69.83438 148.21082 -70.05457 curveto
148.43016 -70.274765 148.53984 -70.55276 148.53984 -70.888535 curveto
148.53984 -71.28168 148.4133 -71.60353 148.1602 -71.8541 curveto
147.9071 -72.10467 147.58145 -72.22995 147.18324 -72.22995 curveto
146.71753 -72.22995 146.35391 -72.06417 146.09239 -71.73261 curveto
145.83086 -71.401054 145.70009 -70.939995 145.70009 -70.349434 curveto
145.70009 -69.699814 145.849 -69.194885 146.1468 -68.83464 curveto
146.44461 -68.4744 146.86266 -68.29428 147.40091 -68.29428 curveto
147.654 -68.29428 147.96783 -68.339836 148.34242 -68.430954 curveto
148.34242 -68.977646 lineto
148.00159 -68.83422 147.69618 -68.76251 147.42621 -68.76251 curveto
147.12587 -68.76251 146.89302 -68.883995 146.72766 -69.12697 curveto
146.5623 -69.36994 146.47963 -69.710785 146.47963 -70.14948 curveto
closepath
147.79068 -71.01255 moveto
147.79068 -70.75777 147.73457 -70.55613 147.62236 -70.407646 curveto
147.51016 -70.25916 147.35788 -70.18492 147.16553 -70.18492 curveto
146.98161 -70.18492 146.8268 -70.25241 146.70108 -70.3874 curveto
146.57538 -70.522385 146.51253 -70.68943 146.51253 -70.888535 curveto
146.51253 -71.15007 146.57411 -71.360985 146.6973 -71.52128 curveto
146.82047 -71.68157 146.9816 -71.76172 147.18071 -71.76172 curveto
147.36632 -71.76172 147.51437 -71.6938 147.6249 -71.557976 curveto
147.73541 -71.42215 147.79068 -71.24034 147.79068 -71.01255 curveto
closepath
fill
newpath
0.0 0.0 0.0 setrgbcolor
newpath
139.38614 -143.84065 moveto
139.38614 -143.4028 lineto
140.1353 -143.4028 lineto
140.1353 -140.63896 lineto
139.38614 -140.82626 lineto
139.38614 -140.37575 lineto
140.88701 -140.00116 lineto
140.88701 -143.4028 lineto
141.63617 -143.4028 lineto
141.63617 -143.84065 lineto
closepath
142.63844 -144.58983 moveto
143.98746 -140.0948 lineto
144.44302 -140.0948 lineto
143.09402 -144.58983 lineto
closepath
145.37949 -143.84065 moveto
145.37949 -143.24841 lineto
145.41998 -143.19273 lineto
145.62077 -142.92444 145.82663 -142.69833 146.03755 -142.51442 curveto
146.3438 -142.2436 lineto
146.8483 -141.79816 147.10056 -141.40753 147.10056 -141.07176 curveto
147.10056 -140.6803 146.87782 -140.48457 146.43237 -140.48457 curveto
146.15735 -140.48457 145.83846 -140.57738 145.47568 -140.76299 curveto
145.47568 -140.21376 lineto
145.85701 -140.07202 146.22568 -140.00116 146.58171 -140.00116 curveto
146.97992 -140.00116 147.29881 -140.09523 147.53842 -140.28337 curveto
147.77802 -140.4715 147.89781 -140.72333 147.89781 -141.03886 curveto
147.89781 -141.25653 147.8396 -141.45479 147.72318 -141.63364 curveto
147.60675 -141.8125 147.40175 -142.02003 147.10815 -142.25626 curveto
146.85506 -142.45874 lineto
146.50241 -142.7422 146.29318 -143.00543 146.22737 -143.24841 curveto
147.88263 -143.24841 lineto
147.88263 -143.84065 lineto
closepath
fill
newpath
0.0 0.0 0.0 setrgbcolor
newpath
139.38614 -187.468 moveto
139.38614 -187.03015 lineto
140.1353 -187.03015 lineto
140.1353 -184.26631 lineto
139.38614 -184.45361 lineto
139.38614 -184.0031 lineto
140.88701 -183.62851 lineto
140.88701 -187.03015 lineto
141.63617 -187.03015 lineto
141.63617 -187.468 lineto
closepath
142.63844 -188.21718 moveto
143.98746 -183.72215 lineto
144.44302 -183.72215 lineto
143.09402 -188.21718 lineto
closepath
145.37949 -187.468 moveto
145.37949 -186.87575 lineto
145.41998 -186.82007 lineto
145.62077 -186.55179 145.82663 -186.32568 146.03755 -186.14177 curveto
146.3438 -185.87096 lineto
146.8483 -185.4255 147.10056 -185.03488 147.10056 -184.69911 curveto
147.10056 -184.30765 146.87782 -184.11192 146.43237 -184.11192 curveto
146.15735 -184.11192 145.83846 -184.20473 145.47568 -184.39034 curveto
145.47568 -183.84111 lineto
145.85701 -183.69937 146.22568 -183.62851 146.58171 -183.62851 curveto
146.97992 -183.62851 147.29881 -183.72258 147.53842 -183.9107 curveto
147.77802 -184.09885 147.89781 -184.35068 147.89781 -184.66621 curveto
147.89781 -184.88388 147.8396 -185.08214 147.72318 -185.26099 curveto
147.60675 -185.43983 147.40175 -185.64738 147.10815 -185.8836 curveto
146.85506 -186.08609 lineto
146.50241 -186.36955 146.29318 -186.63278 146.22737 -186.87575 curveto
147.88263 -186.87575 lineto
147.88263 -187.468 lineto
closepath
fill
newpath
grestore
grestore
showpage

%%EOF