%!PS-Adobe-3.0 EPSF-3.0
%%Creator: EpsGraphics 1.0.0 by Thomas Abeel, http://www.sourceforge.net/epsgraphics/
%%Title: GeoGebra, http://www.geogebra.org/
%%CreationDate: Tue May 21 18:32:23 CEST 2013
%%BoundingBox: 0 0 316 257
%%DocumentData: Clean7Bit
%%LanguageLevel: 2
%%DocumentProcessColors: Black
%%ColorUsage: Color
%%Origin: 0 0
%%Pages: 1
%%Page: 1 1
%%EndComments

gsave
0.0 257.0 translate
0.0 0.0 0.0 setrgbcolor
0.0 0.0 0.0 setrgbcolor
gsave
newpath
0.0 -0.0 moveto
316.6975048972202 -0.0 lineto
316.6975048972202 -257.1802151837771 lineto
0.0 -257.1802151837771 lineto
0.0 -0.0 lineto
closepath
clip
newpath
1.0 1.0 1.0 setrgbcolor
newpath
0.0 -0.0 moveto
316.6975048972202 -0.0 lineto
316.6975048972202 -257.1802151837771 lineto
0.0 -257.1802151837771 lineto
0.0 -0.0 lineto
closepath
fill
newpath
0.0 0.0 0.0 setrgbcolor
1.0 setlinewidth
10.0 setmiterlimit
0 setlinejoin
0 setlinecap
[ ] 0 setdash
newpath
157.78713812041488 -1.0920603617145523 moveto
157.78713812041488 -257.1802151837771 lineto
stroke
newpath
1.0 setlinewidth
10.0 setmiterlimit
0 setlinejoin
0 setlinecap
[ ] 0 setdash
newpath
158.0601532108435 -0.5460301808572762 moveto
156.14904757784305 -2.1841207234291047 lineto
stroke
newpath
1.0 setlinewidth
10.0 setmiterlimit
0 setlinejoin
0 setlinecap
[ ] 0 setdash
newpath
157.51412302998622 -0.5460301808572762 moveto
159.4252286629867 -2.1841207234291047 lineto
stroke
newpath
1.0 setlinewidth
10.0 setmiterlimit
0 setlinejoin
0 setlinecap
[ ] 0 setdash
newpath
0.0 -137.63379154319216 moveto
315.6054445355056 -137.63379154319216 lineto
stroke
newpath
1.0 setlinewidth
10.0 setmiterlimit
0 setlinejoin
0 setlinecap
[ ] 0 setdash
newpath
316.1514747163629 -137.9068066336208 moveto
314.51338417379105 -135.99570100062033 lineto
stroke
newpath
1.0 setlinewidth
10.0 setmiterlimit
0 setlinejoin
0 setlinecap
[ ] 0 setdash
newpath
316.1514747163629 -137.3607764527635 moveto
314.51338417379105 -139.271882085764 lineto
stroke
newpath
0.0 0.0 0.0 setrgbcolor
1.0 setlinewidth
10.0 setmiterlimit
0 setlinejoin
0 setlinecap
[ ] 0 setdash
newpath
13.38467145478368 -143.79630160312578 moveto
13.38467145478368 -143.43370343615027 lineto
15.554928130651955 -143.43370343615027 lineto
15.554928130651955 -143.79630160312578 lineto
closepath
16.498749829985336 -145.26002508599026 moveto
16.498749829985336 -144.79078039931605 lineto
16.760033811033985 -144.8956494801451 17.008875686066684 -144.94808401587161 17.24527546787614 -144.94808401587161 curveto
17.50478200687684 -144.94808401587161 17.70874347027826 -144.87165400780975 17.857159874647355 -144.71879399851943 curveto
18.005576285651184 -144.56593398239573 18.079784484518367 -144.35530710654703 18.079784484518367 -144.0869133693047 curveto
18.079784484518367 -143.49502516733736 17.671861534513837 -143.19908109281315 16.856015670975935 -143.19908109281315 curveto
16.763588684482535 -143.19908109281315 16.666718097001066 -143.20530213998097 16.565403904797012 -143.2177442337604 curveto
16.565403904797012 -141.29810687918405 lineto
18.562359986154924 -141.29810687918405 lineto
18.562359986154924 -141.75668691388842 lineto
17.026650102493832 -141.75668691388842 lineto
17.026650102493832 -142.7964904809506 lineto
17.533221086159585 -142.7964904809506 17.928701919182977 -142.91291293509133 18.213092634141724 -143.1457578329638 curveto
18.497483361813725 -143.37860274124526 18.63967871293647 -143.7012084625392 18.63967871293647 -144.11357499922937 curveto
18.63967871293647 -144.49750248158657 18.510369803948105 -144.79833453103922 18.251751997532498 -145.01607117217952 curveto
17.99313417955577 -145.2338078230534 17.63453525794297 -145.34267613875676 17.175955230071995 -145.34267613875676 curveto
16.976881720701595 -145.34267613875676 16.751146589511222 -145.31512578701353 16.498749829985336 -145.26002508599026 curveto
closepath
fill
newpath
1.0 setlinewidth
10.0 setmiterlimit
0 setlinejoin
0 setlinecap
[ ] 0 setdash
newpath
16.05485465584794 -137.63379154319216 moveto
16.05485465584794 -139.81791226662125 lineto
stroke
newpath
0.0 0.0 0.0 setrgbcolor
1.0 setlinewidth
10.0 setmiterlimit
0 setlinejoin
0 setlinecap
[ ] 0 setdash
newpath
41.77824085936204 -143.79630160312578 moveto
41.77824085936204 -143.43370343615027 lineto
43.94849753523032 -143.43370343615027 lineto
43.94849753523032 -143.79630160312578 lineto
closepath
46.284056316631556 -145.24402810803545 moveto
46.284056316631556 -144.12690581419173 lineto
44.508391763648426 -144.12690581419173 lineto
44.508391763648426 -143.7296475283141 lineto
46.284056316631556 -141.29810687918405 lineto
46.777296470237985 -141.29810687918405 lineto
46.777296470237985 -143.6976535724045 lineto
47.30519674274648 -143.6976535724045 lineto
47.30519674274648 -144.12690581419173 lineto
46.777296470237985 -144.12690581419173 lineto
46.777296470237985 -145.24402810803545 lineto
closepath
45.022961221194585 -143.6976535724045 moveto
46.31871643553363 -143.6976535724045 lineto
46.31871643553363 -141.9433183233611 lineto
closepath
fill
newpath
1.0 setlinewidth
10.0 setmiterlimit
0 setlinejoin
0 setlinecap
[ ] 0 setdash
newpath
44.401311348761325 -137.63379154319216 moveto
44.401311348761325 -139.81791226662125 lineto
stroke
newpath
0.0 0.0 0.0 setrgbcolor
1.0 setlinewidth
10.0 setmiterlimit
0 setlinejoin
0 setlinecap
[ ] 0 setdash
newpath
70.1718102639404 -143.79630160312578 moveto
70.1718102639404 -143.43370343615027 lineto
72.34206693980867 -143.43370343615027 lineto
72.34206693980867 -143.79630160312578 lineto
closepath
73.1765759564509 -145.21470031511834 moveto
73.1765759564509 -144.72412632450437 lineto
73.5533936706163 -144.87343145653216 73.8502264757789 -144.94808401587161 74.06707439593494 -144.94808401587161 curveto
74.31769372469589 -144.94808401587161 74.52165518849459 -144.87476453139368 74.67895880270615 -144.72812556899305 curveto
74.83626242394973 -144.58148660003718 74.9149142275395 -144.3917446679738 74.9149142275395 -144.15889977010133 curveto
74.9149142275395 -143.6043378511409 74.52654314006242 -143.32705691645157 73.74980099983134 -143.32705691645157 curveto
73.5418402864189 -143.32705691645157 lineto
73.5418402864189 -142.97245723845344 lineto
73.72580553289914 -142.96979107546096 lineto
74.45455677255865 -142.96979107546096 74.81893235981067 -142.71295069953217 74.81893235981067 -142.19926997063794 curveto
74.81893235981067 -141.7957906257533 74.57897768333743 -141.5940509713479 74.09906835184454 -141.5940509713479 curveto
73.83600692874795 -141.5940509713479 73.54628388669185 -141.66781481633782 73.22989921630024 -141.81534249972268 curveto
73.22989921630024 -141.35676246501833 lineto
73.54095157469149 -141.2518933841893 73.84311670893788 -141.19945884846277 74.13639463373909 -141.19945884846277 curveto
74.94335332350839 -141.19945884846277 75.34683263231918 -141.50429015968618 75.34683263231918 -142.113952754879 curveto
75.34683263231918 -142.57786512939396 75.0722178359109 -142.90846932957416 74.52298826764682 -143.1057653880768 curveto
75.15931252081293 -143.25329307805666 75.47747461895007 -143.60167171285985 75.47747461895007 -144.15090128112394 curveto
75.47747461895007 -144.52238666914548 75.35483111764152 -144.81388714840259 75.1095441259896 -145.02540274265314 curveto
74.8642571233725 -145.2369183463592 74.52743186625115 -145.34267613875676 74.09906835184454 -145.34267613875676 curveto
73.85555879127539 -145.34267613875676 73.54806132786577 -145.30001752960595 73.1765759564509 -145.21470031511834 curveto
closepath
fill
newpath
1.0 setlinewidth
10.0 setmiterlimit
0 setlinejoin
0 setlinecap
[ ] 0 setdash
newpath
72.7477680416747 -137.63379154319216 moveto
72.7477680416747 -139.81791226662125 lineto
stroke
newpath
0.0 0.0 0.0 setrgbcolor
1.0 setlinewidth
10.0 setmiterlimit
0 setlinejoin
0 setlinecap
[ ] 0 setdash
newpath
98.56537966851876 -143.79630160312578 moveto
98.56537966851876 -143.43370343615027 lineto
100.73563634438703 -143.43370343615027 lineto
100.73563634438703 -143.79630160312578 lineto
closepath
101.46883116731551 -145.24402810803545 moveto
101.46883116731551 -144.78278191033863 lineto
101.62169118343921 -144.42551605870068 101.93096609294913 -144.03625626617065 102.39665588869408 -143.615002519638 curveto
102.69793230684287 -143.34572005739884 lineto
103.08541467329597 -142.9955639739527 103.27915583920071 -142.64807406923165 103.27915583920071 -142.3032503273442 curveto
103.27915583920071 -142.08284751339838 103.21294612291457 -141.90954692357602 103.08052669626191 -141.78334854381308 curveto
102.94810726368964 -141.65715015840863 102.76636382020637 -141.5940509713479 102.53529636430238 -141.5940509713479 curveto
102.26157028891808 -141.5940509713479 101.93896456945166 -141.69980877320094 101.56747919803679 -141.9113243674515 curveto
101.56747919803679 -141.44741200676222 lineto
101.91763528148294 -141.28210989630287 102.26512518620397 -141.19945884846277 102.60994892809146 -141.19945884846277 curveto
102.97965687406506 -141.19945884846277 103.27648967954548 -141.29899560314797 103.50044736757549 -141.4980691036191 curveto
103.72440506561719 -141.6971426129895 103.83638390462636 -141.96109274821077 103.83638390462636 -142.28991951238183 curveto
103.83638390462636 -142.5263193047592 103.77995011960394 -142.7360574558494 103.66708255460469 -142.9191339786041 curveto
103.55421498455986 -143.10221050954294 103.34403246743535 -143.32439075735255 103.03653500688621 -143.5856747267209 curveto
102.8339066194587 -143.75897532123125 lineto
102.41265285409455 -144.1162411728692 102.16914331235691 -144.45751003010457 102.1033779595227 -144.78278191033863 curveto
103.81772076367909 -144.78278191033863 lineto
103.81772076367909 -145.24402810803545 lineto
closepath
fill
newpath
1.0 setlinewidth
10.0 setmiterlimit
0 setlinejoin
0 setlinecap
[ ] 0 setdash
newpath
101.09422473458808 -137.63379154319216 moveto
101.09422473458808 -139.81791226662125 lineto
stroke
newpath
0.0 0.0 0.0 setrgbcolor
1.0 setlinewidth
10.0 setmiterlimit
0 setlinejoin
0 setlinecap
[ ] 0 setdash
newpath
126.95894907309713 -143.79630160312578 moveto
126.95894907309713 -143.43370343615027 lineto
129.1292057489654 -143.43370343615027 lineto
129.1292057489654 -143.79630160312578 lineto
closepath
130.23033106485434 -145.24402810803545 moveto
130.23033106485434 -144.8494359851503 lineto
131.01951531062463 -144.8494359851503 lineto
131.01951531062463 -141.73535760994866 lineto
130.23033106485434 -141.93265367139125 lineto
130.23033106485434 -141.52739689653623 lineto
131.54741558313313 -141.19945884846277 lineto
131.54741558313313 -144.8494359851503 lineto
132.33659982890342 -144.8494359851503 lineto
132.33659982890342 -145.24402810803545 lineto
closepath
fill
newpath
1.0 setlinewidth
10.0 setmiterlimit
0 setlinejoin
0 setlinecap
[ ] 0 setdash
newpath
129.4406814275015 -137.63379154319216 moveto
129.4406814275015 -139.81791226662125 lineto
stroke
newpath
0.0 0.0 0.0 setrgbcolor
1.0 setlinewidth
10.0 setmiterlimit
0 setlinejoin
0 setlinecap
[ ] 0 setdash
newpath
162.24454981320312 -145.34267613875676 moveto
161.83751558422256 -145.34267613875676 161.50824446303565 -145.15115675809014 161.25673642449402 -144.76811801388007 curveto
161.0052283747091 -144.38507925254686 160.87947436105992 -143.88517369368407 160.87947436105992 -143.26840133061728 curveto
160.87947436105992 -142.64629661383478 161.00611710697638 -142.1459467051471 161.2594025874865 -141.76735156585826 curveto
161.51268807931936 -141.3887564096449 161.84640281249924 -141.19945884846277 162.2605467911579 -141.19945884846277 curveto
162.67469078833028 -141.19945884846277 163.0084055143192 -141.38875642656944 163.26169099482934 -141.76735156585826 curveto
163.51497648666222 -142.1459467220716 163.64161922125592 -142.6436304785731 163.64161922125592 -143.2604028416399 curveto
163.64161922125592 -143.89317221071008 163.51497647533947 -144.3984100845529 163.26169099482934 -144.77611650285746 curveto
163.00840550299648 -145.15382293804686 162.66935844367276 -145.34267613875676 162.24454981320312 -145.34267613875676 curveto
closepath
162.24988213918806 -144.94808401587161 moveto
162.80622150019641 -144.94808401587161 163.08439115583028 -144.3828574446235 163.08439115583028 -143.2524043526625 curveto
163.08439115583028 -142.1468353988376 162.809776359422 -141.5940509713479 162.2605467911579 -141.5940509713479 curveto
161.7130946403893 -141.5940509713479 161.43936858947802 -142.1521677744042 161.43936858947802 -143.26840133061728 curveto
161.43936858947802 -144.3881898208258 161.70953978076642 -144.94808401587161 162.24988213918806 -144.94808401587161 curveto
closepath
fill
newpath
1.0 setlinewidth
10.0 setmiterlimit
0 setlinejoin
0 setlinecap
[ ] 0 setdash
newpath
157.78713812041488 -137.63379154319216 moveto
157.78713812041488 -139.81791226662125 lineto
stroke
newpath
0.0 0.0 0.0 setrgbcolor
1.0 setlinewidth
10.0 setmiterlimit
0 setlinejoin
0 setlinecap
[ ] 0 setdash
newpath
185.37937933143922 -145.24402810803545 moveto
185.37937933143922 -144.8494359851503 lineto
186.1685635772095 -144.8494359851503 lineto
186.1685635772095 -141.73535760994866 lineto
185.37937933143922 -141.93265367139125 lineto
185.37937933143922 -141.52739689653623 lineto
186.69646384971801 -141.19945884846277 lineto
186.69646384971801 -144.8494359851503 lineto
187.4856480954883 -144.8494359851503 lineto
187.4856480954883 -145.24402810803545 lineto
closepath
fill
newpath
1.0 setlinewidth
10.0 setmiterlimit
0 setlinejoin
0 setlinecap
[ ] 0 setdash
newpath
186.13359481332827 -137.63379154319216 moveto
186.13359481332827 -139.81791226662125 lineto
stroke
newpath
0.0 0.0 0.0 setrgbcolor
1.0 setlinewidth
10.0 setmiterlimit
0 setlinejoin
0 setlinecap
[ ] 0 setdash
newpath
213.40501824305713 -145.24402810803545 moveto
213.40501824305713 -144.78278191033863 lineto
213.55787825918082 -144.42551605870068 213.86715316869078 -144.03625626617065 214.3328429644357 -143.615002519638 curveto
214.6341193825845 -143.34572005739884 lineto
215.0216017490376 -142.9955639739527 215.21534291494234 -142.64807406923165 215.21534291494234 -142.3032503273442 curveto
215.21534291494234 -142.08284751339838 215.1491331986562 -141.90954692357602 215.01671377200353 -141.78334854381308 curveto
214.88429433943125 -141.65715015840863 214.70255089594795 -141.5940509713479 214.47148344004398 -141.5940509713479 curveto
214.19775736465968 -141.5940509713479 213.87515164519328 -141.69980877320094 213.5036662737784 -141.9113243674515 curveto
213.5036662737784 -141.44741200676222 lineto
213.85382235722457 -141.28210989630287 214.20131226194562 -141.19945884846277 214.54613600383308 -141.19945884846277 curveto
214.91584394980669 -141.19945884846277 215.2126767552871 -141.29899560314797 215.4366344433171 -141.4980691036191 curveto
215.6605921413588 -141.6971426129895 215.77257098036796 -141.96109274821077 215.77257098036796 -142.28991951238183 curveto
215.77257098036796 -142.5263193047592 215.71613719534557 -142.7360574558494 215.60326963034632 -142.9191339786041 curveto
215.49040206030148 -143.10221050954294 215.28021954317697 -143.32439075735255 214.97272208262783 -143.5856747267209 curveto
214.7700936952003 -143.75897532123125 lineto
214.34883992983617 -144.1162411728692 214.10533038809854 -144.45751003010457 214.0395650352643 -144.78278191033863 curveto
215.7539078394207 -144.78278191033863 lineto
215.7539078394207 -145.24402810803545 lineto
closepath
fill
newpath
1.0 setlinewidth
10.0 setmiterlimit
0 setlinejoin
0 setlinecap
[ ] 0 setdash
newpath
214.48005150624167 -137.63379154319216 moveto
214.48005150624167 -139.81791226662125 lineto
stroke
newpath
0.0 0.0 0.0 setrgbcolor
1.0 setlinewidth
10.0 setmiterlimit
0 setlinejoin
0 setlinecap
[ ] 0 setdash
newpath
241.89990184134925 -145.21470031511834 moveto
241.89990184134925 -144.72412632450437 lineto
242.27671955551466 -144.87343145653216 242.57355236067724 -144.94808401587161 242.79040028083327 -144.94808401587161 curveto
243.04101960959423 -144.94808401587161 243.24498107339292 -144.87476453139368 243.4022846876045 -144.72812556899305 curveto
243.55958830884808 -144.58148660003718 243.63824011243784 -144.3917446679738 243.63824011243784 -144.15889977010133 curveto
243.63824011243784 -143.6043378511409 243.24986902496076 -143.32705691645157 242.47312688472968 -143.32705691645157 curveto
242.26516617131725 -143.32705691645157 lineto
242.26516617131725 -142.97245723845344 lineto
242.44913141779747 -142.96979107546096 lineto
243.177882657457 -142.96979107546096 243.54225824470902 -142.71295069953217 243.54225824470902 -142.19926997063794 curveto
243.54225824470902 -141.7957906257533 243.30230356823577 -141.5940509713479 242.82239423674287 -141.5940509713479 curveto
242.55933281364628 -141.5940509713479 242.26960977159018 -141.66781481633782 241.95322510119857 -141.81534249972268 curveto
241.95322510119857 -141.35676246501833 lineto
242.26427745958983 -141.2518933841893 242.5664425938362 -141.19945884846277 242.85972051863743 -141.19945884846277 curveto
243.66667920840672 -141.19945884846277 244.07015851721752 -141.50429015968618 244.07015851721752 -142.113952754879 curveto
244.07015851721752 -142.57786512939396 243.79554372080923 -142.90846932957416 243.24631415254515 -143.1057653880768 curveto
243.88263840571125 -143.25329307805666 244.2008005038484 -143.60167171285985 244.2008005038484 -144.15090128112394 curveto
244.2008005038484 -144.52238666914548 244.07815700253985 -144.81388714840259 243.83287001088794 -145.02540274265314 curveto
243.58758300827083 -145.2369183463592 243.25075775114948 -145.34267613875676 242.82239423674287 -145.34267613875676 curveto
242.57888467617371 -145.34267613875676 242.2713872127641 -145.30001752960595 241.89990184134925 -145.21470031511834 curveto
closepath
fill
newpath
1.0 setlinewidth
10.0 setmiterlimit
0 setlinejoin
0 setlinecap
[ ] 0 setdash
newpath
242.82650819915506 -137.63379154319216 moveto
242.82650819915506 -139.81791226662125 lineto
stroke
newpath
0.0 0.0 0.0 setrgbcolor
1.0 setlinewidth
10.0 setmiterlimit
0 setlinejoin
0 setlinecap
[ ] 0 setdash
newpath
271.7945210106866 -145.24402810803545 moveto
271.7945210106866 -144.12690581419173 lineto
270.01885645770346 -144.12690581419173 lineto
270.01885645770346 -143.7296475283141 lineto
271.7945210106866 -141.29810687918405 lineto
272.28776116429304 -141.29810687918405 lineto
272.28776116429304 -143.6976535724045 lineto
272.8156614368015 -143.6976535724045 lineto
272.8156614368015 -144.12690581419173 lineto
272.28776116429304 -144.12690581419173 lineto
272.28776116429304 -145.24402810803545 lineto
closepath
270.53342591524967 -143.6976535724045 moveto
271.8291811295887 -143.6976535724045 lineto
271.8291811295887 -141.9433183233611 lineto
closepath
fill
newpath
1.0 setlinewidth
10.0 setmiterlimit
0 setlinejoin
0 setlinecap
[ ] 0 setdash
newpath
271.1729648920684 -137.63379154319216 moveto
271.1729648920684 -139.81791226662125 lineto
stroke
newpath
0.0 0.0 0.0 setrgbcolor
1.0 setlinewidth
10.0 setmiterlimit
0 setlinejoin
0 setlinecap
[ ] 0 setdash
newpath
298.7963533331971 -145.26002508599026 moveto
298.7963533331971 -144.79078039931605 lineto
299.05763731424577 -144.8956494801451 299.3064791892785 -144.94808401587161 299.54287897108793 -144.94808401587161 curveto
299.80238551008864 -144.94808401587161 300.00634697349005 -144.87165400780975 300.1547633778591 -144.71879399851943 curveto
300.30317978886296 -144.56593398239573 300.3773879877301 -144.35530710654703 300.3773879877301 -144.0869133693047 curveto
300.3773879877301 -143.49502516733736 299.9694650377256 -143.19908109281315 299.1536191741877 -143.19908109281315 curveto
299.0611921876943 -143.19908109281315 298.9643216002128 -143.20530213998097 298.8630074080088 -143.2177442337604 curveto
298.8630074080088 -141.29810687918405 lineto
300.8599634893667 -141.29810687918405 lineto
300.8599634893667 -141.75668691388842 lineto
299.3242536057056 -141.75668691388842 lineto
299.3242536057056 -142.7964904809506 lineto
299.83082458937133 -142.7964904809506 300.2263054223947 -142.91291293509133 300.5106961373535 -143.1457578329638 curveto
300.7950868650255 -143.37860274124526 300.9372822161483 -143.7012084625392 300.9372822161483 -144.11357499922937 curveto
300.9372822161483 -144.49750248158657 300.8079733071599 -144.79833453103922 300.5493555007443 -145.01607117217952 curveto
300.29073768276754 -145.2338078230534 299.93213876115476 -145.34267613875676 299.47355873328377 -145.34267613875676 curveto
299.27448522391336 -145.34267613875676 299.048750092723 -145.31512578701353 298.7963533331971 -145.26002508599026 curveto
closepath
fill
newpath
1.0 setlinewidth
10.0 setmiterlimit
0 setlinejoin
0 setlinecap
[ ] 0 setdash
newpath
299.51942158498184 -137.63379154319216 moveto
299.51942158498184 -139.81791226662125 lineto
stroke
newpath
0.0 0.0 0.0 setrgbcolor
1.0 setlinewidth
10.0 setmiterlimit
0 setlinejoin
0 setlinecap
[ ] 0 setdash
newpath
148.2541261265309 -251.3642472320092 moveto
148.2541261265309 -251.00164906503366 lineto
150.42438280239918 -251.00164906503366 lineto
150.42438280239918 -251.3642472320092 lineto
closepath
152.7599415838004 -252.81197373691887 moveto
152.7599415838004 -251.69485144307512 lineto
150.98427703081728 -251.69485144307512 lineto
150.98427703081728 -251.29759315719753 lineto
152.7599415838004 -248.86605250806747 lineto
153.25318173740683 -248.86605250806747 lineto
153.25318173740683 -251.2655992012879 lineto
153.78108200991534 -251.2655992012879 lineto
153.78108200991534 -251.69485144307512 lineto
153.25318173740683 -251.69485144307512 lineto
153.25318173740683 -252.81197373691887 lineto
closepath
151.49884648836343 -251.2655992012879 moveto
152.7946017027025 -251.2655992012879 lineto
152.7946017027025 -249.51126395224452 lineto
closepath
fill
newpath
1.0 setlinewidth
10.0 setmiterlimit
0 setlinejoin
0 setlinecap
[ ] 0 setdash
newpath
155.60301739698576 -251.01961831484573 moveto
157.78713812041488 -251.01961831484573 lineto
stroke
newpath
0.0 0.0 0.0 setrgbcolor
1.0 setlinewidth
10.0 setmiterlimit
0 setlinejoin
0 setlinecap
[ ] 0 setdash
newpath
148.2541261265309 -222.97067782743085 moveto
148.2541261265309 -222.6080796604553 lineto
150.42438280239918 -222.6080796604553 lineto
150.42438280239918 -222.97067782743085 lineto
closepath
151.2588918190414 -224.38907653942337 moveto
151.2588918190414 -223.8985025488094 lineto
151.6357095332068 -224.0478076808372 151.9325423383694 -224.12246024017665 152.14939025852541 -224.12246024017665 curveto
152.40000958728638 -224.12246024017665 152.60397105108507 -224.04914075569872 152.76127466529664 -223.90250179329811 curveto
152.91857828654022 -223.75586282434224 152.99723009013 -223.56612089227886 152.99723009013 -223.33327599440636 curveto
152.99723009013 -222.77871407544595 152.6088590026529 -222.5014331407566 151.83211686242183 -222.5014331407566 curveto
151.6241561490094 -222.5014331407566 lineto
151.6241561490094 -222.14683346275848 lineto
151.80812139548962 -222.14416729976602 lineto
152.53687263514914 -222.14416729976602 152.90124822240116 -221.88732692383724 152.90124822240116 -221.373646194943 curveto
152.90124822240116 -220.97016685005835 152.66129354592792 -220.76842719565295 152.18138421443504 -220.76842719565295 curveto
151.91832279133843 -220.76842719565295 151.62859974928236 -220.8421910406429 151.31221507889074 -220.98971872402774 curveto
151.31221507889074 -220.53113868932337 lineto
151.623267437282 -220.42626960849432 151.92543257152838 -220.3738350727678 152.21871049632958 -220.3738350727678 curveto
153.02566918609887 -220.3738350727678 153.42914849490967 -220.67866638399124 153.42914849490967 -221.28832897918406 curveto
153.42914849490967 -221.752241353699 153.15453369850138 -222.0828455538792 152.6053041302373 -222.28014161238184 curveto
153.24162838340342 -222.4276693023617 153.55979048154057 -222.7760479371649 153.55979048154057 -223.32527750542897 curveto
153.55979048154057 -223.69676289345054 153.43714698023203 -223.98826337270765 153.1918599885801 -224.1997789669582 curveto
152.94657298596297 -224.41129457066427 152.60974772884163 -224.5170523630618 152.18138421443504 -224.5170523630618 curveto
151.9378746538659 -224.5170523630618 151.63037719045627 -224.474393753911 151.2588918190414 -224.38907653942337 curveto
closepath
fill
newpath
1.0 setlinewidth
10.0 setmiterlimit
0 setlinejoin
0 setlinecap
[ ] 0 setdash
newpath
155.60301739698576 -222.67316162193234 moveto
157.78713812041488 -222.67316162193234 lineto
stroke
newpath
0.0 0.0 0.0 setrgbcolor
1.0 setlinewidth
10.0 setmiterlimit
0 setlinejoin
0 setlinecap
[ ] 0 setdash
newpath
148.2541261265309 -194.57710842285246 moveto
148.2541261265309 -194.21451025587695 lineto
150.42438280239918 -194.21451025587695 lineto
150.42438280239918 -194.57710842285246 lineto
closepath
151.15757762532763 -196.02483492776216 moveto
151.15757762532763 -195.56358873006533 lineto
151.31043764145133 -195.2063228784274 151.61971255096128 -194.81706308589736 152.08540234670622 -194.39580933936472 curveto
152.38667876485502 -194.1265268771255 lineto
152.77416113130812 -193.77637079367938 152.96790229721285 -193.42888088895833 152.96790229721285 -193.08405714707087 curveto
152.96790229721285 -192.86365433312506 152.9016925809267 -192.6903537433027 152.76927315427403 -192.56415536353975 curveto
152.63685372170175 -192.4379569781353 152.45511027821848 -192.3748577910746 152.22404282231452 -192.3748577910746 curveto
151.9503167469302 -192.3748577910746 151.6277110274638 -192.48061559292762 151.25622565604894 -192.69213118717818 curveto
151.25622565604894 -192.2282188264889 lineto
151.60638173949508 -192.06291671602955 151.95387164421612 -191.98026566818945 152.2986953861036 -191.98026566818945 curveto
152.6684033320772 -191.98026566818945 152.9652361375576 -192.07980242287465 153.18919382558764 -192.27887592334577 curveto
153.41315152362932 -192.47794943271617 153.5251303626385 -192.74189956793748 153.5251303626385 -193.07072633210853 curveto
153.5251303626385 -193.30712612448588 153.46869657761607 -193.51686427557607 153.35582901261682 -193.69994079833077 curveto
153.24296144257198 -193.88301732926962 153.03277892544747 -194.10519757707922 152.72528146489833 -194.36648154644757 curveto
152.52265307747084 -194.53978214095793 lineto
152.10139931210668 -194.89704799259587 151.85788977036904 -195.23831684983125 151.79212441753484 -195.56358873006533 curveto
153.50646722169122 -195.56358873006533 lineto
153.50646722169122 -196.02483492776216 lineto
closepath
fill
newpath
1.0 setlinewidth
10.0 setmiterlimit
0 setlinejoin
0 setlinecap
[ ] 0 setdash
newpath
155.60301739698576 -194.32670492901894 moveto
157.78713812041488 -194.32670492901894 lineto
stroke
newpath
0.0 0.0 0.0 setrgbcolor
1.0 setlinewidth
10.0 setmiterlimit
0 setlinejoin
0 setlinecap
[ ] 0 setdash
newpath
148.2541261265309 -166.1835390182741 moveto
148.2541261265309 -165.8209408512986 lineto
150.42438280239918 -165.8209408512986 lineto
150.42438280239918 -166.1835390182741 lineto
closepath
151.52550811828812 -167.63126552318377 moveto
151.52550811828812 -167.23667340029866 lineto
152.3146923640584 -167.23667340029866 lineto
152.3146923640584 -164.12259502509698 lineto
151.52550811828812 -164.31989108653957 lineto
151.52550811828812 -163.91463431168455 lineto
152.8425926365669 -163.5866962636111 lineto
152.8425926365669 -167.23667340029866 lineto
153.63177688233716 -167.23667340029866 lineto
153.63177688233716 -167.63126552318377 lineto
closepath
fill
newpath
1.0 setlinewidth
10.0 setmiterlimit
0 setlinejoin
0 setlinecap
[ ] 0 setdash
newpath
155.60301739698576 -165.98024823610555 moveto
157.78713812041488 -165.98024823610555 lineto
stroke
newpath
0.0 0.0 0.0 setrgbcolor
1.0 setlinewidth
10.0 setmiterlimit
0 setlinejoin
0 setlinecap
[ ] 0 setdash
newpath
152.41600655777214 -136.60619324504032 moveto
152.0089723287916 -136.60619324504032 151.6797012076047 -136.4146738643737 151.42819316906306 -136.03163512016366 curveto
151.17668511927815 -135.64859635883042 151.05093110562896 -135.14869079996765 151.05093110562896 -134.53191843690087 curveto
151.05093110562896 -133.90981372011836 151.1775738515454 -133.4094638114307 151.43085933205552 -133.03086867214185 curveto
151.6841448238884 -132.6522735159285 152.01785955706828 -132.46297595474636 152.43200353572695 -132.46297595474636 curveto
152.8461475328993 -132.46297595474636 153.17986225888825 -132.65227353285303 153.43314773939838 -133.03086867214185 curveto
153.68643323123123 -133.4094638283552 153.81307596582494 -133.9071475848567 153.81307596582494 -134.52391994792347 curveto
153.81307596582494 -135.15668931699366 153.6864332199085 -135.66192719083648 153.43314773939838 -136.03963360914105 curveto
153.1798622475655 -136.41734004433042 152.84081518824178 -136.60619324504032 152.41600655777214 -136.60619324504032 curveto
closepath
152.42133888375707 -136.21160112215517 moveto
152.97767824476543 -136.21160112215517 153.25584790039932 -135.64637455090707 153.25584790039932 -134.51592145894608 curveto
153.25584790039932 -133.41035250512118 152.98123310399103 -132.8575680776315 152.43200353572695 -132.8575680776315 curveto
151.88455138495834 -132.8575680776315 151.61082533404706 -133.4156848806878 151.61082533404706 -134.53191843690087 curveto
151.61082533404706 -135.65170692710936 151.88099652533546 -136.21160112215517 152.42133888375707 -136.21160112215517 curveto
closepath
fill
newpath
1.0 setlinewidth
10.0 setmiterlimit
0 setlinejoin
0 setlinecap
[ ] 0 setdash
newpath
155.60301739698576 -137.63379154319216 moveto
157.78713812041488 -137.63379154319216 lineto
stroke
newpath
0.0 0.0 0.0 setrgbcolor
1.0 setlinewidth
10.0 setmiterlimit
0 setlinejoin
0 setlinecap
[ ] 0 setdash
newpath
151.52550811828812 -111.39015689488434 moveto
151.52550811828812 -110.9955647719992 lineto
152.3146923640584 -110.9955647719992 lineto
152.3146923640584 -107.88148639679754 lineto
151.52550811828812 -108.07878245824011 lineto
151.52550811828812 -107.67352568338511 lineto
152.8425926365669 -107.34558763531165 lineto
152.8425926365669 -110.9955647719992 lineto
153.63177688233716 -110.9955647719992 lineto
153.63177688233716 -111.39015689488434 lineto
closepath
fill
newpath
1.0 setlinewidth
10.0 setmiterlimit
0 setlinejoin
0 setlinecap
[ ] 0 setdash
newpath
155.60301739698576 -109.28733485027875 moveto
157.78713812041488 -109.28733485027875 lineto
stroke
newpath
0.0 0.0 0.0 setrgbcolor
1.0 setlinewidth
10.0 setmiterlimit
0 setlinejoin
0 setlinecap
[ ] 0 setdash
newpath
151.15757762532763 -82.99658749030598 moveto
151.15757762532763 -82.53534129260916 lineto
151.31043764145133 -82.1780754409712 151.61971255096128 -81.78881564844117 152.08540234670622 -81.36756190190854 curveto
152.38667876485502 -81.09827943966935 lineto
152.77416113130812 -80.7481233562232 152.96790229721285 -80.40063345150217 152.96790229721285 -80.05580970961469 curveto
152.96790229721285 -79.83540689566888 152.9016925809267 -79.66210630584654 152.76927315427403 -79.5359079260836 curveto
152.63685372170175 -79.40970954067915 152.45511027821848 -79.34661035361843 152.22404282231452 -79.34661035361843 curveto
151.9503167469302 -79.34661035361843 151.6277110274638 -79.45236815547146 151.25622565604894 -79.66388374972202 curveto
151.25622565604894 -79.19997138903273 lineto
151.60638173949508 -79.03466927857338 151.95387164421612 -78.95201823073329 152.2986953861036 -78.95201823073329 curveto
152.6684033320772 -78.95201823073329 152.9652361375576 -79.05155498541849 153.18919382558764 -79.2506284858896 curveto
153.41315152362932 -79.44970199526 153.5251303626385 -79.71365213048131 153.5251303626385 -80.04247889465236 curveto
153.5251303626385 -80.2788786870297 153.46869657761607 -80.48861683811991 153.35582901261682 -80.67169336087461 curveto
153.24296144257198 -80.85476989181346 153.03277892544747 -81.07695013962305 152.72528146489833 -81.3382341089914 curveto
152.52265307747084 -81.51153470350177 lineto
152.10139931210668 -81.86880055513971 151.85788977036904 -82.21006941237509 151.79212441753484 -82.53534129260916 curveto
153.50646722169122 -82.53534129260916 lineto
153.50646722169122 -82.99658749030598 lineto
closepath
fill
newpath
1.0 setlinewidth
10.0 setmiterlimit
0 setlinejoin
0 setlinecap
[ ] 0 setdash
newpath
155.60301739698576 -80.94087815736536 moveto
157.78713812041488 -80.94087815736536 lineto
stroke
newpath
0.0 0.0 0.0 setrgbcolor
1.0 setlinewidth
10.0 setmiterlimit
0 setlinejoin
0 setlinecap
[ ] 0 setdash
newpath
151.2588918190414 -54.573690292810475 moveto
151.2588918190414 -54.08311630219652 lineto
151.6357095332068 -54.23242143422432 151.9325423383694 -54.30707399356376 152.14939025852541 -54.30707399356376 curveto
152.40000958728638 -54.30707399356376 152.60397105108507 -54.23375450908582 152.76127466529664 -54.08711554668522 curveto
152.91857828654022 -53.94047657772934 152.99723009013 -53.75073464566595 152.99723009013 -53.51788974779348 curveto
152.99723009013 -52.96332782883307 152.6088590026529 -52.68604689414372 151.83211686242183 -52.68604689414372 curveto
151.6241561490094 -52.68604689414372 lineto
151.6241561490094 -52.33144721614559 lineto
151.80812139548962 -52.32878105315312 lineto
152.53687263514914 -52.32878105315312 152.90124822240116 -52.07194067722435 152.90124822240116 -51.55825994833011 curveto
152.90124822240116 -51.15478060344546 152.66129354592792 -50.953040949040066 152.18138421443504 -50.953040949040066 curveto
151.91832279133843 -50.953040949040066 151.62859974928236 -51.02680479402999 151.31221507889074 -51.174332477414836 curveto
151.31221507889074 -50.71575244271048 lineto
151.623267437282 -50.610883361881434 151.92543257152838 -50.55844882615492 152.21871049632958 -50.55844882615492 curveto
153.02566918609887 -50.55844882615492 153.42914849490967 -50.86328013737835 153.42914849490967 -51.47294273257116 curveto
153.42914849490967 -51.93685510708612 153.15453369850138 -52.267459307266314 152.6053041302373 -52.464755365768944 curveto
153.24162838340342 -52.6122830557488 153.55979048154057 -52.960661690552 153.55979048154057 -53.509891258816076 curveto
153.55979048154057 -53.88137664683763 153.43714698023203 -54.17287712609474 153.1918599885801 -54.38439272034531 curveto
152.94657298596297 -54.595908324051365 152.60974772884163 -54.701666116448905 152.18138421443504 -54.701666116448905 curveto
151.9378746538659 -54.701666116448905 151.63037719045627 -54.6590075072981 151.2588918190414 -54.573690292810475 curveto
closepath
fill
newpath
1.0 setlinewidth
10.0 setmiterlimit
0 setlinejoin
0 setlinecap
[ ] 0 setdash
newpath
155.60301739698576 -52.594421464451976 moveto
157.78713812041488 -52.594421464451976 lineto
stroke
newpath
0.0 0.0 0.0 setrgbcolor
1.0 setlinewidth
10.0 setmiterlimit
0 setlinejoin
0 setlinecap
[ ] 0 setdash
newpath
152.7599415838004 -26.209448681149254 moveto
152.7599415838004 -25.092326387305512 lineto
150.98427703081728 -25.092326387305512 lineto
150.98427703081728 -24.695068101427903 lineto
152.7599415838004 -22.263527452297847 lineto
153.25318173740683 -22.263527452297847 lineto
153.25318173740683 -24.663074145518298 lineto
153.78108200991534 -24.663074145518298 lineto
153.78108200991534 -25.092326387305512 lineto
153.25318173740683 -25.092326387305512 lineto
153.25318173740683 -26.209448681149254 lineto
closepath
151.49884648836343 -24.663074145518298 moveto
152.7946017027025 -24.663074145518298 lineto
152.7946017027025 -22.9087388964749 lineto
closepath
fill
newpath
1.0 setlinewidth
10.0 setmiterlimit
0 setlinejoin
0 setlinecap
[ ] 0 setdash
newpath
155.60301739698576 -24.247964771538584 moveto
157.78713812041488 -24.247964771538584 lineto
stroke
newpath
1.0 0.0 0.0 setrgbcolor
2.0 setlinewidth
10.0 setmiterlimit
1 setlinejoin
1 setlinecap
[ ] 0 setdash
newpath
44.40511127472772 -251.0196123381954 moveto
47.009785883181124 -251.0196123381954 lineto
49.483985140190654 -251.0196123381954 lineto
51.958184397200185 -251.0196123381954 lineto
54.432383654209715 -251.0196123381954 lineto
56.90658291121925 -251.0196123381954 lineto
59.380782168228784 -251.0196123381954 lineto
61.854981425238314 -251.0196123381954 lineto
64.32918068224785 -251.0196123381954 lineto
66.80337993925738 -251.0196123381954 lineto
69.27757919626691 -251.0196123381954 lineto
71.75177845327644 -251.0196123381954 lineto
72.37032826752883 -251.0196123381954 lineto
72.67960317465503 -251.0196123381954 lineto
72.75208948101272 -222.6731673645089 moveto
74.22597771028597 -222.6731673645089 lineto
76.70017696729552 -222.6731673645089 lineto
79.17437622430505 -222.6731673645089 lineto
81.64857548131458 -222.6731673645089 lineto
84.12277473832411 -222.6731673645089 lineto
86.59697399533364 -222.6731673645089 lineto
89.07117325234317 -222.6731673645089 lineto
91.5453725093527 -222.6731673645089 lineto
94.01957176636225 -222.6731673645089 lineto
96.49377102337178 -222.6731673645089 lineto
98.96797028038131 -222.6731673645089 lineto
100.20506990888607 -222.6731673645089 lineto
100.82361972313845 -222.6731673645089 lineto
101.09423526687387 -194.3267057273037 moveto
101.44216953739084 -194.3267057273037 lineto
103.91636879440037 -194.3267057273037 lineto
106.3905680514099 -194.3267057273037 lineto
108.86476730841943 -194.3267057273037 lineto
111.33896656542898 -194.3267057273037 lineto
113.8131658224385 -194.3267057273037 lineto
116.28736507944804 -194.3267057273037 lineto
118.76156433645757 -194.3267057273037 lineto
121.2357635934671 -194.3267057273037 lineto
123.70996285047663 -194.3267057273037 lineto
126.18416210748616 -194.3267057273037 lineto
128.6583613644957 -194.3267057273037 lineto
129.2769111787481 -194.3267057273037 lineto
129.44121347315888 -165.9802440900985 moveto
129.89546099300046 -165.9802440900985 lineto
131.13256062150523 -165.9802440900985 lineto
133.60675987851477 -165.9802440900985 lineto
136.0809591355243 -165.9802440900985 lineto
138.55515839253383 -165.9802440900985 lineto
141.02935764954336 -165.9802440900985 lineto
143.5035569065529 -165.9802440900985 lineto
145.97775616356242 -165.9802440900985 lineto
148.45195542057195 -165.9802440900985 lineto
150.92615467758148 -165.9802440900985 lineto
153.40035393459104 -165.9802440900985 lineto
155.87455319160057 -165.9802440900985 lineto
157.11165282010532 -165.9802440900985 lineto
157.7302026343577 -165.9802440900985 lineto
157.78819167944386 -137.63379078465263 moveto
158.3487524486101 -137.63379078465263 lineto
160.82295170561963 -137.63379078465263 lineto
163.29715096262916 -137.63379078465263 lineto
165.7713502196387 -137.63379078465263 lineto
168.24554947664822 -137.63379078465263 lineto
170.71974873365775 -137.63379078465263 lineto
173.19394799066728 -137.63379078465263 lineto
175.6681472476768 -137.63379078465263 lineto
178.14234650468634 -137.63379078465263 lineto
180.61654576169587 -137.63379078465263 lineto
183.0907450187054 -137.63379078465263 lineto
185.56494427571494 -137.63379078465263 lineto
185.87421918284113 -137.63379078465263 lineto
186.13516988572886 -109.28733747920678 moveto
186.80204390421972 -109.28733747920678 lineto
188.0391435327245 -109.28733747920678 lineto
190.51334278973403 -109.28733747920678 lineto
192.98754204674356 -109.28733747920678 lineto
195.4617413037531 -109.28733747920678 lineto
197.93594056076262 -109.28733747920678 lineto
200.41013981777215 -109.28733747920678 lineto
202.88433907478168 -109.28733747920678 lineto
205.3585383317912 -109.28733747920678 lineto
207.83273758880074 -109.28733747920678 lineto
210.30693684581027 -109.28733747920678 lineto
212.7811361028198 -109.28733747920678 lineto
214.01823573132458 -109.28733747920678 lineto
214.32751063845078 -109.28733747920678 lineto
214.48214809201386 -80.94087584200157 moveto
215.25533535982933 -80.94087584200157 lineto
217.72953461683886 -80.94087584200157 lineto
220.2037338738484 -80.94087584200157 lineto
222.67793313085795 -80.94087584200157 lineto
225.15213238786748 -80.94087584200157 lineto
227.626331644877 -80.94087584200157 lineto
230.10053090188654 -80.94087584200157 lineto
232.57473015889607 -80.94087584200157 lineto
235.0489294159056 -80.94087584200157 lineto
237.52312867291513 -80.94087584200157 lineto
239.99732792992467 -80.94087584200157 lineto
242.4715271869342 -80.94087584200157 lineto
242.7808020940604 -80.94087584200157 lineto
242.82912629829886 -52.59442253655572 moveto
243.70862681543898 -52.59442253655572 lineto
244.94572644394373 -52.59442253655572 lineto
247.41992570095326 -52.59442253655572 lineto
249.8941249579628 -52.59442253655572 lineto
252.36832421497232 -52.59442253655572 lineto
254.84252347198185 -52.59442253655572 lineto
257.3167227289914 -52.59442253655572 lineto
259.7909219860009 -52.59442253655572 lineto
262.26512124301047 -52.59442253655572 lineto
264.73932050001997 -52.59442253655572 lineto
267.21351975702953 -52.59442253655572 lineto
269.68771901403903 -52.59442253655572 lineto
270.9248186425438 -52.59442253655572 lineto
271.17610450458386 -24.247965065230186 moveto
271.5433684567962 -24.247965065230186 lineto
272.1619182710486 -24.247965065230186 lineto
274.63611752805815 -24.247965065230186 lineto
277.11031678506765 -24.247965065230186 lineto
279.5845160420772 -24.247965065230186 lineto
282.0587152990867 -24.247965065230186 lineto
284.5329145560963 -24.247965065230186 lineto
287.0071138131058 -24.247965065230186 lineto
289.48131307011533 -24.247965065230186 lineto
291.95551232712484 -24.247965065230186 lineto
294.4297115841344 -24.247965065230186 lineto
296.9039108411439 -24.247965065230186 lineto
299.37811009815346 -24.247965065230186 lineto
stroke
newpath
grestore
grestore
showpage

%%EOF