%!PS-Adobe-3.0 EPSF-3.0
%%Creator: EpsGraphics 1.0.0 by Thomas Abeel, http://www.sourceforge.net/epsgraphics/
%%Title: GeoGebra, http://www.geogebra.org/
%%CreationDate: Sat Aug 16 15:10:58 CEST 2014
%%BoundingBox: 0 0 222 197
%%DocumentData: Clean7Bit
%%LanguageLevel: 2
%%DocumentProcessColors: Black
%%ColorUsage: Color
%%Origin: 0 0
%%Pages: 1
%%Page: 1 1
%%EndComments

gsave
0.0 197.0 translate
0.0 0.0 0.0 setrgbcolor
0.0 0.0 0.0 setrgbcolor
gsave
newpath
0.0 -0.0 moveto
222.8748960135176 -0.0 lineto
222.8748960135176 -197.28692958268115 lineto
0.0 -197.28692958268115 lineto
0.0 -0.0 lineto
closepath
clip
newpath
1.0 1.0 1.0 setrgbcolor
newpath
0.0 -0.0 moveto
222.8748960135176 -0.0 lineto
222.8748960135176 -197.28692958268115 lineto
0.0 -197.28692958268115 lineto
0.0 -0.0 lineto
closepath
fill
newpath
0.0 0.0 0.0 setrgbcolor
1.0 setlinewidth
10.0 setmiterlimit
0 setlinejoin
0 setlinecap
[ ] 0 setdash
newpath
108.03767461362669 -0.7416801864010569 moveto
108.03767461362669 -197.28692958268115 lineto
stroke
newpath
1.0 setlinewidth
10.0 setmiterlimit
0 setlinejoin
0 setlinecap
[ ] 0 setdash
newpath
108.22309466022696 -0.37084009320052846 moveto
106.92515433402511 -1.4833603728021139 lineto
stroke
newpath
1.0 setlinewidth
10.0 setmiterlimit
0 setlinejoin
0 setlinecap
[ ] 0 setdash
newpath
107.85225456702642 -0.37084009320052846 moveto
109.15019489322827 -1.4833603728021139 lineto
stroke
newpath
1.0 setlinewidth
10.0 setmiterlimit
0 setlinejoin
0 setlinecap
[ ] 0 setdash
newpath
0.0 -102.68085245917655 moveto
222.13321582711654 -102.68085245917655 lineto
stroke
newpath
1.0 setlinewidth
10.0 setmiterlimit
0 setlinejoin
0 setlinecap
[ ] 0 setdash
newpath
222.5040559203171 -102.86627250577682 moveto
221.3915356407155 -101.56833217957497 lineto
stroke
newpath
1.0 setlinewidth
10.0 setmiterlimit
0 setlinejoin
0 setlinecap
[ ] 0 setdash
newpath
222.5040559203171 -102.49543241257629 moveto
221.3915356407155 -103.79337273877813 lineto
stroke
newpath
0.0 0.0 0.0 setrgbcolor
1.0 setlinewidth
10.0 setmiterlimit
0 setlinejoin
0 setlinecap
[ ] 0 setdash
newpath
21.698853383101625 -106.56039377323194 moveto
21.698853383101625 -106.31413277384095 lineto
23.17279789416232 -106.31413277384095 lineto
23.17279789416232 -106.56039377323194 lineto
closepath
23.73956034129008 -107.52370885908486 moveto
23.73956034129008 -107.19053221285002 lineto
23.99547864240178 -107.29193380385654 24.19707465117669 -107.34263459482679 24.344348383912035 -107.34263459482679 curveto
24.51455819738727 -107.34263459482679 24.653080006063995 -107.2928391706718 24.75991382038431 -107.19324832681389 curveto
24.866747639480465 -107.09365747850391 24.9201645442527 -106.96479296105184 24.9201645442527 -106.8066547726229 curveto
24.9201645442527 -106.43002029174154 24.65639969145597 -106.24170306813772 24.12887000944493 -106.24170306813772 curveto
23.987632083323636 -106.24170306813772 lineto
23.987632083323636 -106.0008742966745 lineto
24.112573325661707 -105.9990635540319 lineto
24.60750966271735 -105.9990635540319 24.854977809119795 -105.82462867426474 24.854977809119795 -105.4757589303261 curveto
24.854977809119795 -105.20173320224893 24.69201096643074 -105.06472035046026 24.366077295623004 -105.06472035046026 curveto
24.18741734956389 -105.06472035046026 23.99064998452605 -105.11481756506467 23.775775194141694 -105.21501198979446 curveto
23.775775194141694 -104.90356425527058 lineto
23.987028508738614 -104.83234170920647 24.192246004903296 -104.79673043935833 24.391427692619136 -104.79673043935833 curveto
24.939479148773433 -104.79673043935833 25.213504852350773 -105.00375868766331 25.213504852350773 -105.4178151657635 curveto
25.213504852350773 -105.73288439496234 25.026998354606633 -105.95741647524925 24.653985375793336 -106.09141142880353 curveto
25.086149299368753 -106.19160585801235 25.30223124183723 -106.42820956588186 25.30223124183723 -106.80122254469516 curveto
25.30223124183723 -107.05351936041377 25.21893707779616 -107.2514938839575 25.05234875716109 -107.39514613146164 curveto
24.885760429078946 -107.53879838538755 24.6570032758625 -107.61062450592874 24.366077295623004 -107.61062450592874 curveto
24.200696129338557 -107.61062450592874 23.991857145730144 -107.58165262278402 23.73956034129008 -107.52370885908486 curveto
closepath
fill
newpath
1.0 setlinewidth
10.0 setmiterlimit
0 setlinejoin
0 setlinecap
[ ] 0 setdash
newpath
22.998304534886536 -102.68085245917655 moveto
22.998304534886536 -104.16421283197867 lineto
stroke
newpath
0.0 0.0 0.0 setrgbcolor
1.0 setlinewidth
10.0 setmiterlimit
0 setlinejoin
0 setlinecap
[ ] 0 setdash
newpath
49.88270046634179 -106.56039377323194 moveto
49.88270046634179 -106.31413277384095 lineto
51.35664497740248 -106.31413277384095 lineto
51.35664497740248 -106.56039377323194 lineto
closepath
51.854599204112176 -107.54362702815325 moveto
51.854599204112176 -107.2303685509868 lineto
51.95841511871409 -106.98772902964976 52.168461266872384 -106.72336060680102 52.48473764373026 -106.43726327353644 curveto
52.68935156234188 -106.2543782666358 lineto
52.95251283423976 -106.01656739248955 53.084093458424476 -105.78056727167082 53.084093458424476 -105.54637789338673 curveto
53.084093458424476 -105.39668983047234 53.039126681460274 -105.27899156188849 52.949193131552214 -105.1932830780835 curveto
52.85925957762381 -105.10757459044703 52.735827287829665 -105.06472035046026 52.57889626114446 -105.06472035046026 curveto
52.39299334429917 -105.06472035046026 52.17389348632773 -105.13654647742322 51.921596681887664 -105.28019872492737 curveto
51.921596681887664 -104.96512950511833 lineto
52.15940755603391 -104.85286345793254 52.39540767685264 -104.79673043935833 52.62959705513672 -104.79673043935833 curveto
52.880686709057635 -104.79673043935833 53.0822827180484 -104.86433150002934 53.234385097758675 -104.99953361532737 curveto
53.38648748426846 -105.1347357366694 53.462538670723845 -105.31399925758335 53.462538670723845 -105.53732418017384 curveto
53.462538670723845 -105.6978766992675 53.424211283646976 -105.84032178421845 53.347556512919965 -105.96465944382288 curveto
53.27090173876623 -106.08899710898564 53.12815485961533 -106.2398923281394 52.91931587794963 -106.41734510446805 curveto
52.781699437113495 -106.5350433762358 lineto
52.49560209105938 -106.77768289757284 52.330220937564484 -107.00945795188377 52.285555953046384 -107.2303685509868 curveto
53.44986347222578 -107.2303685509868 lineto
53.44986347222578 -107.54362702815325 lineto
closepath
fill
newpath
1.0 setlinewidth
10.0 setmiterlimit
0 setlinejoin
0 setlinecap
[ ] 0 setdash
newpath
51.34476122779993 -102.68085245917655 moveto
51.34476122779993 -104.16421283197867 lineto
stroke
newpath
0.0 0.0 0.0 setrgbcolor
1.0 setlinewidth
10.0 setmiterlimit
0 setlinejoin
0 setlinecap
[ ] 0 setdash
newpath
78.06654754958195 -106.56039377323194 moveto
78.06654754958195 -106.31413277384095 lineto
79.54049206064265 -106.31413277384095 lineto
79.54049206064265 -106.56039377323194 lineto
closepath
80.28832877202848 -107.54362702815325 moveto
80.28832877202848 -107.2756371170513 lineto
80.82430859423236 -107.2756371170513 lineto
80.82430859423236 -105.16068971051705 lineto
80.28832877202848 -105.29468466606802 lineto
80.28832877202848 -105.01945178439576 lineto
81.18283563746334 -104.79673043935833 lineto
81.18283563746334 -107.2756371170513 lineto
81.71881545966724 -107.2756371170513 lineto
81.71881545966724 -107.54362702815325 lineto
closepath
fill
newpath
1.0 setlinewidth
10.0 setmiterlimit
0 setlinejoin
0 setlinecap
[ ] 0 setdash
newpath
79.69121792071331 -102.68085245917655 moveto
79.69121792071331 -104.16421283197867 lineto
stroke
newpath
0.0 0.0 0.0 setrgbcolor
1.0 setlinewidth
10.0 setmiterlimit
0 setlinejoin
0 setlinecap
[ ] 0 setdash
newpath
111.30200445709377 -107.61062450592874 moveto
111.02556440542124 -107.61062450592874 110.80193769475575 -107.48055282222693 110.63112430801762 -107.2204094664526 curveto
110.46031091364354 -106.96026609904897 110.37490422409245 -106.62075185507608 110.37490422409245 -106.20186673000096 curveto
110.37490422409245 -105.77936010080711 110.46091450217834 -105.439544073643 110.6329350506602 -105.18241862222801 curveto
110.80495560683197 -104.92529315931863 111.0316002266596 -104.79673043935833 111.31286891294926 -104.79673043935833 curveto
111.59413761181258 -104.79673043935833 111.82078222675645 -104.92529317081302 111.9928027752383 -105.18241862222801 curveto
112.16482333141008 -105.4395440851374 112.25083360180605 -105.77754937699808 112.25083360180605 -106.19643450207322 curveto
112.25083360180605 -106.62618410205324 112.16482332372016 -106.96931982383721 111.9928027752383 -107.22584169438034 curveto
111.82078221906653 -107.48236357639088 111.59051611384581 -107.61062450592874 111.30200445709377 -107.61062450592874 curveto
closepath
111.30562594237892 -107.34263459482679 moveto
111.68346758505798 -107.34263459482679 111.87238838950668 -106.95875714315925 111.87238838950668 -106.19100227414546 curveto
111.87238838950668 -105.44014763597812 111.68588189176255 -105.06472035046026 111.31286891294926 -105.06472035046026 curveto
110.94106307925867 -105.06472035046026 110.75516017903439 -105.44376915493703 110.75516017903439 -106.20186673000096 curveto
110.75516017903439 -106.96237866254987 110.93864877228428 -107.34263459482679 111.30562594237892 -107.34263459482679 curveto
closepath
fill
newpath
1.0 setlinewidth
10.0 setmiterlimit
0 setlinejoin
0 setlinecap
[ ] 0 setdash
newpath
108.0376746136267 -102.68085245917655 moveto
108.0376746136267 -104.16421283197867 lineto
stroke
newpath
0.0 0.0 0.0 setrgbcolor
1.0 setlinewidth
10.0 setmiterlimit
0 setlinejoin
0 setlinecap
[ ] 0 setdash
newpath
136.28518284530827 -107.54362702815325 moveto
136.28518284530827 -107.2756371170513 lineto
136.82116266751217 -107.2756371170513 lineto
136.82116266751217 -105.16068971051705 lineto
136.28518284530827 -105.29468466606802 lineto
136.28518284530827 -105.01945178439576 lineto
137.17968971074313 -104.79673043935833 lineto
137.17968971074313 -107.2756371170513 lineto
137.71566953294703 -107.2756371170513 lineto
137.71566953294703 -107.54362702815325 lineto
closepath
fill
newpath
1.0 setlinewidth
10.0 setmiterlimit
0 setlinejoin
0 setlinecap
[ ] 0 setdash
newpath
136.3841313065401 -102.68085245917655 moveto
136.3841313065401 -104.16421283197867 lineto
stroke
newpath
0.0 0.0 0.0 setrgbcolor
1.0 setlinewidth
10.0 setmiterlimit
0 setlinejoin
0 setlinecap
[ ] 0 setdash
newpath
164.2191474438723 -107.54362702815325 moveto
164.2191474438723 -107.2303685509868 lineto
164.3229633584742 -106.98772902964976 164.5330095066325 -106.72336060680102 164.84928588349038 -106.43726327353644 curveto
165.053899802102 -106.2543782666358 lineto
165.31706107399987 -106.01656739248955 165.4486416981846 -105.78056727167082 165.4486416981846 -105.54637789338673 curveto
165.4486416981846 -105.39668983047234 165.4036749212204 -105.27899156188849 165.31374137131235 -105.1932830780835 curveto
165.22380781738394 -105.10757459044703 165.1003755275898 -105.06472035046026 164.94344450090458 -105.06472035046026 curveto
164.75754158405928 -105.06472035046026 164.53844172608783 -105.13654647742322 164.28614492164778 -105.28019872492737 curveto
164.28614492164778 -104.96512950511833 lineto
164.52395579579402 -104.85286345793254 164.75995591661277 -104.79673043935833 164.99414529489684 -104.79673043935833 curveto
165.24523494881774 -104.79673043935833 165.44683095780852 -104.86433150002934 165.5989333375188 -104.99953361532737 curveto
165.75103572402858 -105.1347357366694 165.82708691048396 -105.31399925758335 165.82708691048396 -105.53732418017384 curveto
165.82708691048396 -105.6978766992675 165.7887595234071 -105.84032178421845 165.7121047526801 -105.96465944382288 curveto
165.63544997852637 -106.08899710898564 165.49270309937546 -106.2398923281394 165.28386411770975 -106.41734510446805 curveto
165.14624767687363 -106.5350433762358 lineto
164.86015033081952 -106.77768289757284 164.69476917732462 -107.00945795188377 164.6501041928065 -107.2303685509868 curveto
165.8144117119859 -107.2303685509868 lineto
165.8144117119859 -107.54362702815325 lineto
closepath
fill
newpath
1.0 setlinewidth
10.0 setmiterlimit
0 setlinejoin
0 setlinecap
[ ] 0 setdash
newpath
164.7305879994535 -102.68085245917655 moveto
164.7305879994535 -104.16421283197867 lineto
stroke
newpath
0.0 0.0 0.0 setrgbcolor
1.0 setlinewidth
10.0 setmiterlimit
0 setlinejoin
0 setlinecap
[ ] 0 setdash
newpath
192.84264284073106 -107.52370885908486 moveto
192.84264284073106 -107.19053221285002 lineto
193.09856114184277 -107.29193380385654 193.30015715061768 -107.34263459482679 193.447430883353 -107.34263459482679 curveto
193.61764069682823 -107.34263459482679 193.75616250550496 -107.2928391706718 193.8629963198253 -107.19324832681389 curveto
193.96983013892145 -107.09365747850391 194.0232470436937 -106.96479296105184 194.0232470436937 -106.8066547726229 curveto
194.0232470436937 -106.43002029174154 193.75948219089696 -106.24170306813772 193.2319525088859 -106.24170306813772 curveto
193.0907145827646 -106.24170306813772 lineto
193.0907145827646 -106.0008742966745 lineto
193.2156558251027 -105.9990635540319 lineto
193.71059216215832 -105.9990635540319 193.95806030856076 -105.82462867426474 193.95806030856076 -105.4757589303261 curveto
193.95806030856076 -105.20173320224893 193.7950934658717 -105.06472035046026 193.46915979506397 -105.06472035046026 curveto
193.29049984900487 -105.06472035046026 193.09373248396705 -105.11481756506467 192.87885769358266 -105.21501198979446 curveto
192.87885769358266 -104.90356425527058 lineto
193.0901110081796 -104.83234170920647 193.2953285043443 -104.79673043935833 193.49451019206012 -104.79673043935833 curveto
194.04256164821442 -104.79673043935833 194.31658735179175 -105.00375868766331 194.31658735179175 -105.4178151657635 curveto
194.31658735179175 -105.73288439496234 194.1300808540476 -105.95741647524925 193.75706787523433 -106.09141142880353 curveto
194.18923179880974 -106.19160585801235 194.4053137412782 -106.42820956588186 194.4053137412782 -106.80122254469516 curveto
194.4053137412782 -107.05351936041377 194.32201957723714 -107.2514938839575 194.15543125660207 -107.39514613146164 curveto
193.98884292851992 -107.53879838538755 193.76008577530348 -107.61062450592874 193.46915979506397 -107.61062450592874 curveto
193.30377862877953 -107.61062450592874 193.0949396451711 -107.58165262278402 192.84264284073106 -107.52370885908486 curveto
closepath
fill
newpath
1.0 setlinewidth
10.0 setmiterlimit
0 setlinejoin
0 setlinecap
[ ] 0 setdash
newpath
193.07704469236685 -102.68085245917655 moveto
193.07704469236685 -104.16421283197867 lineto
stroke
newpath
0.0 0.0 0.0 setrgbcolor
1.0 setlinewidth
10.0 setmiterlimit
0 setlinejoin
0 setlinecap
[ ] 0 setdash
newpath
102.1711536076163 -188.1452142773482 moveto
102.1711536076163 -187.89895327795722 lineto
103.645098118677 -187.89895327795722 lineto
103.645098118677 -188.1452142773482 lineto
closepath
104.21186056580476 -189.10852936320114 moveto
104.21186056580476 -188.77535271696627 lineto
104.46777886691646 -188.8767543079728 104.66937487569136 -188.92745509894306 104.81664860842672 -188.92745509894306 curveto
104.98685842190196 -188.92745509894306 105.12538023057867 -188.87765967478808 105.23221404489898 -188.77806883093015 curveto
105.33904786399515 -188.67847798262017 105.39246476876738 -188.5496134651681 105.39246476876738 -188.39147527673916 curveto
105.39246476876738 -188.0148407958578 105.12869991597066 -187.826523572254 104.6011702339596 -187.826523572254 curveto
104.45993230783832 -187.826523572254 lineto
104.45993230783832 -187.58569480079075 lineto
104.58487355017638 -187.5838840581482 lineto
105.07980988723203 -187.5838840581482 105.32727803363447 -187.409449178381 105.32727803363447 -187.06057943444236 curveto
105.32727803363447 -186.78655370636523 105.16431119094541 -186.64954085457654 104.83837752013768 -186.64954085457654 curveto
104.65971757407857 -186.64954085457654 104.46295020904073 -186.69963806918096 104.24807541865637 -186.79983249391074 curveto
104.24807541865637 -186.48838475938686 lineto
104.45932873325329 -186.41716221332274 104.66454622941797 -186.3815509434746 104.86372791713382 -186.3815509434746 curveto
105.41177937328811 -186.3815509434746 105.68580507686545 -186.5885791917796 105.68580507686545 -187.00263566987977 curveto
105.68580507686545 -187.3177048990786 105.49929857912132 -187.5422369793655 105.12628560030801 -187.6762319329198 curveto
105.55844952388343 -187.7764263621286 105.7745314663519 -188.01303006999814 105.7745314663519 -188.38604304881142 curveto
105.7745314663519 -188.63833986453002 105.69123730231082 -188.83631438807373 105.52464898167577 -188.9799666355779 curveto
105.35806065359363 -189.1236188895038 105.12930350037718 -189.195445010045 104.83837752013768 -189.195445010045 curveto
104.67299635385324 -189.195445010045 104.46415737024482 -189.16647312690029 104.21186056580476 -189.10852936320114 curveto
closepath
fill
newpath
1.0 setlinewidth
10.0 setmiterlimit
0 setlinejoin
0 setlinecap
[ ] 0 setdash
newpath
106.55431424082458 -187.72022253791678 moveto
108.03767461362669 -187.72022253791678 lineto
stroke
newpath
0.0 0.0 0.0 setrgbcolor
1.0 setlinewidth
10.0 setmiterlimit
0 setlinejoin
0 setlinecap
[ ] 0 setdash
newpath
102.1711536076163 -159.5905271009075 moveto
102.1711536076163 -159.34426610151652 lineto
103.645098118677 -159.34426610151652 lineto
103.645098118677 -159.5905271009075 lineto
closepath
104.14305234538669 -160.57376035582882 moveto
104.14305234538669 -160.26050187866235 lineto
104.2468682599886 -160.01786235732533 104.4569144081469 -159.75349393447658 104.77319078500477 -159.46739660121202 curveto
104.9778047036164 -159.28451159431137 lineto
105.24096597551429 -159.04670072016512 105.37254659969899 -158.81070059934638 105.37254659969899 -158.5765112210623 curveto
105.37254659969899 -158.4268231581479 105.32757982273479 -158.30912488956406 105.23764627282672 -158.22341640575908 curveto
105.14771271889832 -158.1377079181226 105.02428042910418 -158.09485367813585 104.86734940241897 -158.09485367813585 curveto
104.68144648557369 -158.09485367813585 104.46234662760224 -158.1666798050988 104.21004982316218 -158.31033205260294 curveto
104.21004982316218 -157.9952628327939 lineto
104.44786069730843 -157.88299678560813 104.68386081812714 -157.8268637670339 104.91805019641123 -157.8268637670339 curveto
105.16913985033214 -157.8268637670339 105.37073585932292 -157.89446482770492 105.52283823903319 -158.02966694300292 curveto
105.67494062554297 -158.16486906434497 105.75099181199836 -158.34413258525893 105.75099181199836 -158.5674575078494 curveto
105.75099181199836 -158.72801002694305 105.71266442492148 -158.87045511189402 105.63600965419448 -158.99479277149845 curveto
105.55935488004074 -159.1191304366612 105.41660800088984 -159.27002565581498 105.20776901922414 -159.44747843214364 curveto
105.070152578388 -159.56517670391136 lineto
104.7840552323339 -159.80781622524842 104.61867407883899 -160.03959127955935 104.5740090943209 -160.26050187866235 curveto
105.73831661350029 -160.26050187866235 lineto
105.73831661350029 -160.57376035582882 lineto
closepath
fill
newpath
1.0 setlinewidth
10.0 setmiterlimit
0 setlinejoin
0 setlinecap
[ ] 0 setdash
newpath
106.55431424082458 -159.37376584500336 moveto
108.03767461362669 -159.37376584500336 lineto
stroke
newpath
0.0 0.0 0.0 setrgbcolor
1.0 setlinewidth
10.0 setmiterlimit
0 setlinejoin
0 setlinecap
[ ] 0 setdash
newpath
102.1711536076163 -131.40668001766733 moveto
102.1711536076163 -131.16041901827637 lineto
103.645098118677 -131.16041901827637 lineto
103.645098118677 -131.40668001766733 lineto
closepath
104.39293483006283 -132.38991327258867 moveto
104.39293483006283 -132.12192336148672 lineto
104.92891465226671 -132.12192336148672 lineto
104.92891465226671 -130.00697595495245 lineto
104.39293483006283 -130.14097091050343 lineto
104.39293483006283 -129.86573802883115 lineto
105.28744169549769 -129.64301668379372 lineto
105.28744169549769 -132.12192336148672 lineto
105.82342151770159 -132.12192336148672 lineto
105.82342151770159 -132.38991327258867 lineto
closepath
fill
newpath
1.0 setlinewidth
10.0 setmiterlimit
0 setlinejoin
0 setlinecap
[ ] 0 setdash
newpath
106.55431424082458 -131.02730915208994 moveto
108.03767461362669 -131.02730915208994 lineto
stroke
newpath
0.0 0.0 0.0 setrgbcolor
1.0 setlinewidth
10.0 setmiterlimit
0 setlinejoin
0 setlinecap
[ ] 0 setdash
newpath
104.99772287268479 -101.67718301472028 moveto
104.72128282101225 -101.67718301472028 104.49765611034677 -101.54711133101847 104.32684272360864 -101.28696797524414 curveto
104.15602932923456 -101.02682460784051 104.07062263968346 -100.68731036386762 104.07062263968346 -100.2684252387925 curveto
104.07062263968346 -99.84591860959866 104.15663291776936 -99.50610258243455 104.32865346625121 -99.24897713101956 curveto
104.50067402242298 -98.99185166811017 104.72731864225062 -98.86328894814987 105.00858732854027 -98.86328894814987 curveto
105.2898560274036 -98.86328894814987 105.51650064234747 -98.99185167960457 105.68852119082932 -99.24897713101956 curveto
105.8605417470011 -99.50610259392894 105.94655201739707 -99.84410788578963 105.94655201739707 -100.26299301086476 curveto
105.94655201739707 -100.69274261084479 105.86054173931117 -101.03587833262876 105.68852119082932 -101.29240020317188 curveto
105.51650063465755 -101.54892208518243 105.28623452943683 -101.67718301472028 104.99772287268479 -101.67718301472028 curveto
closepath
105.00134435796994 -101.40919310361834 moveto
105.379186000649 -101.40919310361834 105.5681068050977 -101.02531565195079 105.5681068050977 -100.257560782937 curveto
105.5681068050977 -99.50670614476967 105.38160030735357 -99.13127885925181 105.00858732854027 -99.13127885925181 curveto
104.63678149484969 -99.13127885925181 104.45087859462541 -99.51032766372857 104.45087859462541 -100.2684252387925 curveto
104.45087859462541 -101.02893717134141 104.6343671878753 -101.40919310361834 105.00134435796994 -101.40919310361834 curveto
closepath
fill
newpath
1.0 setlinewidth
10.0 setmiterlimit
0 setlinejoin
0 setlinecap
[ ] 0 setdash
newpath
106.55431424082458 -102.68085245917653 moveto
108.03767461362669 -102.68085245917653 lineto
stroke
newpath
0.0 0.0 0.0 setrgbcolor
1.0 setlinewidth
10.0 setmiterlimit
0 setlinejoin
0 setlinecap
[ ] 0 setdash
newpath
104.39293483006283 -75.65137901290781 moveto
104.39293483006283 -75.38338910180586 lineto
104.92891465226671 -75.38338910180586 lineto
104.92891465226671 -73.2684416952716 lineto
104.39293483006283 -73.40243665082257 lineto
104.39293483006283 -73.1272037691503 lineto
105.28744169549769 -72.90448242411287 lineto
105.28744169549769 -75.38338910180586 lineto
105.82342151770159 -75.38338910180586 lineto
105.82342151770159 -75.65137901290781 lineto
closepath
fill
newpath
1.0 setlinewidth
10.0 setmiterlimit
0 setlinejoin
0 setlinecap
[ ] 0 setdash
newpath
106.55431424082458 -74.33439576626311 moveto
108.03767461362669 -74.33439576626311 lineto
stroke
newpath
0.0 0.0 0.0 setrgbcolor
1.0 setlinewidth
10.0 setmiterlimit
0 setlinejoin
0 setlinecap
[ ] 0 setdash
newpath
104.14305234538669 -47.46753192966764 moveto
104.14305234538669 -47.15427345250118 lineto
104.2468682599886 -46.91163393116415 104.4569144081469 -46.6472655083154 104.77319078500477 -46.361168175050835 curveto
104.9778047036164 -46.17828316815018 lineto
105.24096597551429 -45.94047229400393 105.37254659969899 -45.7044721731852 105.37254659969899 -45.470282794901124 curveto
105.37254659969899 -45.32059473198674 105.32757982273479 -45.20289646340289 105.23764627282672 -45.11718797959789 curveto
105.14771271889832 -45.03147949196143 105.02428042910418 -44.98862525197466 104.86734940241897 -44.98862525197466 curveto
104.68144648557369 -44.98862525197466 104.46234662760224 -45.060451378937614 104.21004982316218 -45.204103626441764 curveto
104.21004982316218 -44.88903440663272 lineto
104.44786069730843 -44.776768359446926 104.68386081812714 -44.72063534087271 104.91805019641123 -44.72063534087271 curveto
105.16913985033214 -44.72063534087271 105.37073585932292 -44.78823640154373 105.52283823903319 -44.92343851684175 curveto
105.67494062554297 -45.05864063818378 105.75099181199836 -45.23790415909774 105.75099181199836 -45.461229081688224 curveto
105.75099181199836 -45.62178160078189 105.71266442492148 -45.76422668573284 105.63600965419448 -45.888564345337265 curveto
105.55935488004074 -46.01290201050003 105.41660800088984 -46.16379722965379 105.20776901922414 -46.341250005982445 curveto
105.070152578388 -46.45894827775019 lineto
104.7840552323339 -46.70158779908723 104.61867407883899 -46.93336285339816 104.5740090943209 -47.15427345250118 curveto
105.73831661350029 -47.15427345250118 lineto
105.73831661350029 -47.46753192966764 lineto
closepath
fill
newpath
1.0 setlinewidth
10.0 setmiterlimit
0 setlinejoin
0 setlinecap
[ ] 0 setdash
newpath
106.55431424082458 -45.98793907334971 moveto
108.03767461362669 -45.98793907334971 lineto
stroke
newpath
0.0 0.0 0.0 setrgbcolor
1.0 setlinewidth
10.0 setmiterlimit
0 setlinejoin
0 setlinecap
[ ] 0 setdash
newpath
104.21186056580476 -18.892926584158563 moveto
104.21186056580476 -18.559749937923716 lineto
104.46777886691646 -18.661151528930237 104.66937487569136 -18.711852319900494 104.81664860842672 -18.711852319900494 curveto
104.98685842190196 -18.711852319900494 105.12538023057867 -18.662056895745504 105.23221404489898 -18.562466051887586 curveto
105.33904786399515 -18.46287520357761 105.39246476876738 -18.334010686125545 105.39246476876738 -18.175872497696606 curveto
105.39246476876738 -17.799238016815234 105.12869991597066 -17.610920793211424 104.6011702339596 -17.610920793211424 curveto
104.45993230783832 -17.610920793211424 lineto
104.45993230783832 -17.370092021748192 lineto
104.58487355017638 -17.36828127910561 lineto
105.07980988723203 -17.36828127910561 105.32727803363447 -17.193846399338437 105.32727803363447 -16.844976655399787 curveto
105.32727803363447 -16.570950927322638 105.16431119094541 -16.433938075533966 104.83837752013768 -16.433938075533966 curveto
104.65971757407857 -16.433938075533966 104.46295020904073 -16.48403529013838 104.24807541865637 -16.584229714868165 curveto
104.24807541865637 -16.272781980344284 lineto
104.45932873325329 -16.201559434280178 104.66454622941797 -16.16594816443202 104.86372791713382 -16.16594816443202 curveto
105.41177937328811 -16.16594816443202 105.68580507686545 -16.372976412737003 105.68580507686545 -16.787032890837203 curveto
105.68580507686545 -17.10210212003604 105.49929857912132 -17.326634200322932 105.12628560030801 -17.460629153877225 curveto
105.55844952388343 -17.56082358308605 105.7745314663519 -17.797427290955564 105.7745314663519 -18.17044026976886 curveto
105.7745314663519 -18.42273708548747 105.69123730231082 -18.620711609031183 105.52464898167577 -18.764363856535333 curveto
105.35806065359363 -18.90801611046124 105.12930350037718 -18.979842231002436 104.83837752013768 -18.979842231002436 curveto
104.67299635385324 -18.979842231002436 104.46415737024482 -18.950870347857716 104.21186056580476 -18.892926584158563 curveto
closepath
fill
newpath
1.0 setlinewidth
10.0 setmiterlimit
0 setlinejoin
0 setlinecap
[ ] 0 setdash
newpath
106.55431424082458 -17.641482380436305 moveto
108.03767461362669 -17.641482380436305 lineto
stroke
newpath
1.0 0.0 0.0 setrgbcolor
2.0 setlinewidth
10.0 setmiterlimit
1 setlinejoin
1 setlinecap
[ ] 0 setdash
newpath
58.765841722314214 -202.27606878578376 moveto
59.20114425359061 -198.80052935761435 lineto
59.63644678486702 -195.39409239554243 lineto
60.07174931614342 -192.05614677392614 lineto
60.50705184741982 -188.78607004998204 lineto
60.94235437869622 -185.58323978092682 lineto
61.37765690997262 -182.44704484111855 lineto
61.81295944124902 -179.37687410491537 lineto
62.24826197252543 -176.37211644667545 lineto
62.683564503801826 -173.43213810647384 lineto
63.11886703507823 -170.55632795866867 lineto
63.55416956635463 -167.7440861947596 lineto
63.98947209763103 -164.99477905482175 lineto
64.42477462890743 -162.3077954132132 lineto
64.86007716018383 -159.68252414429213 lineto
65.29537969146024 -157.1183428052751 lineto
65.73068222273663 -154.61464027052028 lineto
66.16598475401304 -152.17080541438577 lineto
66.60128728528944 -149.7862157940882 lineto
67.03658981656584 -147.4602489668442 lineto
67.47189234784224 -145.19230512415336 lineto
67.90719487911865 -142.98175050609086 lineto
68.34249741039504 -140.82797398701476 lineto
68.77779994167145 -138.7303757584247 lineto
69.21310247294785 -136.68832206039585 lineto
69.64840500422426 -134.70120176728625 lineto
70.08370753550065 -132.7684037534541 lineto
70.51901006677706 -130.88930557611596 lineto
71.38961512932985 -127.2897415940713 lineto
72.26022019188267 -123.89760949887577 lineto
73.13082525443546 -120.70796369968681 lineto
74.00143031698826 -117.71588123994495 lineto
74.87203537954107 -114.91643916309063 lineto
75.74264044209387 -112.30470319542283 lineto
76.61324550464668 -109.87573906324053 lineto
77.48385056719948 -107.62464644426723 lineto
78.35445562975228 -105.54646843051887 lineto
80.09566575485789 -101.88918702674194 lineto
81.8368758799635 -98.86448856515058 lineto
83.5780860050691 -96.4329441247026 lineto
85.3192961301747 -94.55513044292655 lineto
87.06050625528032 -93.19164689163404 lineto
87.93111131783311 -92.69045596245073 lineto
88.80171638038593 -92.30306454978286 lineto
90.54292650549152 -91.84996015490158 lineto
91.41353156804433 -91.77439560099839 lineto
92.28413663059713 -91.79291610308954 lineto
94.02534675570274 -92.09252044901679 lineto
95.76655688080835 -92.7093499302119 lineto
97.50776700591395 -93.60398128420346 lineto
99.24897713101956 -94.73699690709074 lineto
100.99018725612517 -96.06898485354387 lineto
102.73139738123078 -97.56051620252063 lineto
104.47260750633637 -99.1721790086911 lineto
106.21381763144198 -100.8645443510131 lineto
107.9550277565476 -102.59820594272745 lineto
109.6962378816532 -104.33373486279196 lineto
111.4374480067588 -106.03172482444747 lineto
113.17865813186441 -107.65273558951026 lineto
114.91986825697002 -109.1573721883627 lineto
116.66107838207562 -110.50619438282106 lineto
118.40228850718123 -111.65978456898468 lineto
120.14349863228684 -112.5787477772359 lineto
121.88470875739245 -113.2236324522495 lineto
123.62591888249804 -113.55504362440784 lineto
124.49652394505085 -113.59087369444791 lineto
125.36712900760365 -113.53355237266871 lineto
127.10833913270926 -113.11974109313144 lineto
127.97894419526206 -112.75340522225433 lineto
128.84954925781486 -112.27419218189534 lineto
130.59075938292048 -110.95748803505975 lineto
132.33196950802608 -109.13019973158247 lineto
134.07317963313167 -106.7529096675628 lineto
135.8143897582373 -103.78621155624161 lineto
137.5555998833429 -100.19067647657668 lineto
138.4262049458957 -98.14477495043234 lineto
139.29681000844852 -95.92688682466735 lineto
140.1674150710013 -93.53207782558073 lineto
141.0380201335541 -90.95541933804218 lineto
141.90862519610693 -88.19199406406294 lineto
142.7792302586597 -85.23686207137122 lineto
143.64983532121252 -82.08510606197828 lineto
144.52044038376533 -78.73179176218306 lineto
145.39104544631812 -75.17199621542608 lineto
145.82634797759454 -73.3131330871188 lineto
146.26165050887093 -71.40079646514779 lineto
146.69695304014732 -69.43437522387121 lineto
147.13225557142374 -67.41325257907641 lineto
147.56755810270013 -65.33681174655078 lineto
148.00286063397652 -63.204441600652444 lineto
148.43816316525294 -61.015525357168755 lineto
148.87346569652934 -58.769440573316345 lineto
149.30876822780573 -56.46558178202409 lineto
149.74407075908215 -54.10332088193785 lineto
150.17937329035854 -51.68205240598651 lineto
150.61467582163493 -49.20115391138668 lineto
151.04997835291135 -46.660014272496504 lineto
151.48528088418774 -44.058013875817956 lineto
151.92058341546414 -41.3945387664238 lineto
152.35588594674056 -38.66897216010139 lineto
152.79118847801695 -35.880697272638116 lineto
153.22649100929337 -33.02910014910671 lineto
153.66179354056976 -30.113561176009178 lineto
154.09709607184615 -27.133469227703646 lineto
154.53239860312257 -24.08820751997748 lineto
154.96770113439896 -20.977156439332674 lineto
155.40300366567536 -17.799703445484667 lineto
155.83830619695178 -14.555230339578145 lineto
156.27360872822817 -11.243124581328543 lineto
156.70891125950456 -7.862767264559199 lineto
157.14421379078098 -4.413543373360845 lineto
157.57951632205737 -0.8948370076725343 lineto
158.01481885333376 2.693967732566682 lineto
stroke
newpath
1.0 0.0 0.0 setrgbcolor
2.0 setlinewidth
10.0 setmiterlimit
1 setlinejoin
1 setlinecap
[ ] 0 setdash
newpath
63.98150483000368 -193.39455719818966 moveto
63.98150483000368 -195.4327291166785 lineto
63.5512723781265 -195.4327291166785 lineto
63.5512723781265 -193.39455719818966 lineto
63.216647137777585 -193.39455719818966 lineto
63.216647137777585 -193.0729693048673 lineto
63.5512723781265 -193.0729693048673 lineto
63.5512723781265 -192.79049345262473 lineto
63.5512723781265 -192.22843891961713 63.80767354395728 -191.94741167823915 64.32047585269478 -191.94741167823915 curveto
64.46388667426115 -191.94741167823915 64.62685351053923 -191.97131348183356 64.80937636619157 -192.01911708688536 curveto
64.80937636619157 -192.35808810957647 lineto
64.61671334327917 -192.2986957491298 64.46243807414625 -192.2689995715615 64.34655054674795 -192.2689995715615 curveto
64.20603691349605 -192.2689995715615 64.11006755686061 -192.30267938571723 64.05864246657761 -192.3700390110175 curveto
64.00721737399573 -192.43739863932896 63.98150483000368 -192.56233988237938 63.98150483000368 -192.7448627380317 curveto
63.98150483000368 -193.0729693048673 lineto
64.57035833737092 -193.0729693048673 lineto
64.57035833737092 -193.39455719818966 lineto
closepath
fill
newpath
grestore
grestore
showpage

%%EOF