%!PS-Adobe-3.0 EPSF-3.0
%%Creator: EpsGraphics 1.0.0 by Thomas Abeel, http://www.sourceforge.net/epsgraphics/
%%Title: GeoGebra, http://www.geogebra.org/
%%CreationDate: Sat Aug 16 15:03:33 CEST 2014
%%BoundingBox: 0 0 257 94
%%DocumentData: Clean7Bit
%%LanguageLevel: 2
%%DocumentProcessColors: Black
%%ColorUsage: Color
%%Origin: 0 0
%%Pages: 1
%%Page: 1 1
%%EndComments

gsave
0.0 94.0 translate
0.0 0.0 0.0 setrgbcolor
0.0 0.0 0.0 setrgbcolor
gsave
newpath
0.0 -0.0 moveto
257.7236761655955 -0.0 lineto
257.7236761655955 -94.73226767416149 lineto
0.0 -94.73226767416149 lineto
0.0 -0.0 lineto
closepath
clip
newpath
1.0 1.0 1.0 setrgbcolor
newpath
0.0 -0.0 moveto
257.7236761655955 -0.0 lineto
257.7236761655955 -94.73226767416149 lineto
0.0 -94.73226767416149 lineto
0.0 -0.0 lineto
closepath
fill
newpath
0.0 0.0 0.0 setrgbcolor
1.0 setlinewidth
10.0 setmiterlimit
0 setlinejoin
0 setlinecap
[ ] 0 setdash
newpath
120.18530193445056 -0.5190809187625287 moveto
120.18530193445056 -94.73226767416149 lineto
stroke
newpath
1.0 setlinewidth
10.0 setmiterlimit
0 setlinejoin
0 setlinecap
[ ] 0 setdash
newpath
120.3150721641412 -0.25954045938126435 moveto
119.40668055630677 -1.0381618375250574 lineto
stroke
newpath
1.0 setlinewidth
10.0 setmiterlimit
0 setlinejoin
0 setlinecap
[ ] 0 setdash
newpath
120.05553170475993 -0.25954045938126435 moveto
120.96392331259436 -1.0381618375250574 lineto
stroke
newpath
1.0 setlinewidth
10.0 setmiterlimit
0 setlinejoin
0 setlinecap
[ ] 0 setdash
newpath
0.0 -68.85950390503078 moveto
257.204595246833 -68.85950390503078 lineto
stroke
newpath
1.0 setlinewidth
10.0 setmiterlimit
0 setlinejoin
0 setlinecap
[ ] 0 setdash
newpath
257.4641357062142 -68.98927413472141 moveto
256.68551432807044 -68.080882526887 lineto
stroke
newpath
1.0 setlinewidth
10.0 setmiterlimit
0 setlinejoin
0 setlinecap
[ ] 0 setdash
newpath
257.4641357062142 -68.72973367534016 moveto
256.68551432807044 -69.63812528317457 lineto
stroke
newpath
0.0 0.0 0.0 setrgbcolor
1.0 setlinewidth
10.0 setmiterlimit
0 setlinejoin
0 setlinecap
[ ] 0 setdash
newpath
5.8429552833166865 -71.7236511095406 moveto
5.8429552833166865 -71.55130002323273 lineto
6.874527226365267 -71.55130002323273 lineto
6.874527226365267 -71.7236511095406 lineto
closepath
7.984670988171847 -72.41178816737275 moveto
7.984670988171847 -71.8807947470566 lineto
7.140657580223008 -71.8807947470566 lineto
7.140657580223008 -71.69196892455753 lineto
7.984670988171847 -70.53620281637534 lineto
8.219119157046524 -70.53620281637534 lineto
8.219119157046524 -71.67676147576566 lineto
8.470042062112395 -71.67676147576566 lineto
8.470042062112395 -71.8807947470566 lineto
8.219119157046524 -71.8807947470566 lineto
8.219119157046524 -72.41178816737275 lineto
closepath
7.385244048292266 -71.67676147576566 moveto
8.00114572436304 -71.67676147576566 lineto
8.00114572436304 -70.8428863670114 lineto
closepath
fill
newpath
1.0 setlinewidth
10.0 setmiterlimit
0 setlinejoin
0 setlinecap
[ ] 0 setdash
newpath
6.799475162797023 -68.85950390503078 moveto
6.799475162797023 -69.89766574255584 lineto
stroke
newpath
0.0 0.0 0.0 setrgbcolor
1.0 setlinewidth
10.0 setmiterlimit
0 setlinejoin
0 setlinecap
[ ] 0 setdash
newpath
18.56043779299864 -71.7236511095406 moveto
18.56043779299864 -71.55130002323273 lineto
19.59200973604722 -71.55130002323273 lineto
19.59200973604722 -71.7236511095406 lineto
closepath
19.98867069203519 -72.39784800598021 moveto
19.98867069203519 -72.16466712450485 lineto
20.167780649810673 -72.23563522098193 20.308871976466595 -72.27111926604795 20.41194468340893 -72.27111926604795 curveto
20.531069702495454 -72.27111926604795 20.628017186107588 -72.23626886152795 20.70278714155346 -72.16656805560383 curveto
20.777557100341813 -72.09686724656385 20.81494207639351 -72.00667862707343 20.81494207639351 -71.89600219584847 curveto
20.81494207639351 -71.6324064089336 20.630340539723967 -71.50060852725981 20.26113748288954 -71.50060852725981 curveto
20.16228906574238 -71.50060852725981 lineto
20.16228906574238 -71.33205930314992 lineto
20.24973189629564 -71.33079201575059 lineto
20.596123795767095 -71.33079201575059 20.769319730017898 -71.20870999264419 20.769319730017898 -70.96454595734637 curveto
20.769319730017898 -70.77276312519997 20.655263860679735 -70.67687171770014 20.4271521322008 -70.67687171770014 curveto
20.30211310507452 -70.67687171770014 20.16440120916701 -70.71193333679298 20.01401644002164 -70.78205657184392 curveto
20.01401644002164 -70.56408313916043 lineto
20.161866641015553 -70.51423649996819 20.30549254394308 -70.4893131826004 20.444894155791317 -70.4893131826004 curveto
20.8284598200841 -70.4893131826004 21.02024263508377 -70.63420637957444 21.02024263508377 -70.92399276056804 curveto
21.02024263508377 -71.14450077462182 20.88971202906343 -71.30164440696359 20.62865082869309 -71.39542367311604 curveto
20.931110097012066 -71.46554691130173 21.082339717650573 -71.63113913328016 21.082339717650573 -71.89220033365049 curveto
21.082339717650573 -72.0687757165518 21.024044495544402 -72.20733246844685 20.907454056544058 -72.3078706006283 curveto
20.790863612331716 -72.40840873730416 20.63076297132459 -72.45867780114769 20.4271521322008 -72.45867780114769 curveto
20.31140654627985 -72.45867780114769 20.165246067042958 -72.43840120215424 19.98867069203519 -72.39784800598021 curveto
closepath
21.619669574963346 -72.41178816737275 moveto
21.619669574963346 -72.09876817974008 lineto
21.932689562596025 -72.09876817974008 lineto
21.932689562596025 -72.41178816737275 lineto
closepath
22.502968892291186 -72.4193918917687 moveto
22.502968892291186 -72.19634930948791 lineto
22.627163061126076 -72.24619594868015 22.745443216369292 -72.27111926604795 22.85780936410151 -72.27111926604795 curveto
22.981158674645002 -72.27111926604795 23.078106158068294 -72.23479035951802 23.14865182224604 -72.1621325497062 curveto
23.21919748957742 -72.08947473664634 23.254470320089474 -71.98935903236423 23.254470320089474 -71.86178543606675 curveto
23.254470320089474 -71.58044762503262 23.060575342214598 -71.43977873209234 22.67278540380041 -71.43977873209234 curveto
22.628852772647935 -71.43977873209234 22.582807997730917 -71.44273573611221 22.53465107727425 -71.4486497438876 curveto
22.53465107727425 -70.53620281637534 lineto
23.483849339366863 -70.53620281637534 lineto
23.483849339366863 -70.75417624905882 lineto
22.753891797357056 -70.75417624905882 lineto
22.753891797357056 -71.24841833479462 lineto
22.99467641040429 -71.24841833479462 23.182657369475496 -71.30375655288091 23.317834690055605 -71.41443298410589 curveto
23.453012016678613 -71.52510942027847 23.520600673947218 -71.67845119521881 23.520600673947218 -71.87445831005998 curveto
23.520600673947218 -72.05694770100104 23.45913723324832 -72.19993995866153 23.33621035734578 -72.30343509473067 curveto
23.213283475947986 -72.40693023542642 23.042833321154546 -72.45867780114769 22.82485989171912 -72.45867780114769 curveto
22.730235763083016 -72.45867780114769 22.62293876430603 -72.44558249763108 22.502968892291186 -72.4193918917687 curveto
closepath
fill
newpath
1.0 setlinewidth
10.0 setmiterlimit
0 setlinejoin
0 setlinecap
[ ] 0 setdash
newpath
20.972703509253716 -68.85950390503078 moveto
20.972703509253716 -69.89766574255584 lineto
stroke
newpath
0.0 0.0 0.0 setrgbcolor
1.0 setlinewidth
10.0 setmiterlimit
0 setlinejoin
0 setlinecap
[ ] 0 setdash
newpath
34.1328653558745 -71.7236511095406 moveto
34.1328653558745 -71.55130002323273 lineto
35.16443729892308 -71.55130002323273 lineto
35.16443729892308 -71.7236511095406 lineto
closepath
35.56109825491105 -72.39784800598021 moveto
35.56109825491105 -72.16466712450485 lineto
35.74020821268653 -72.23563522098193 35.88129953934246 -72.27111926604795 35.98437224628479 -72.27111926604795 curveto
36.10349726537132 -72.27111926604795 36.20044474898345 -72.23626886152795 36.275214704429324 -72.16656805560383 curveto
36.349984663217676 -72.09686724656385 36.38736963926937 -72.00667862707343 36.38736963926937 -71.89600219584847 curveto
36.38736963926937 -71.6324064089336 36.202768102599826 -71.50060852725981 35.833565045765404 -71.50060852725981 curveto
35.734716628618244 -71.50060852725981 lineto
35.734716628618244 -71.33205930314992 lineto
35.8221594591715 -71.33079201575059 lineto
36.16855135864296 -71.33079201575059 36.34174729289376 -71.20870999264419 36.34174729289376 -70.96454595734637 curveto
36.34174729289376 -70.77276312519997 36.2276914235556 -70.67687171770014 35.99957969507666 -70.67687171770014 curveto
35.874540667950384 -70.67687171770014 35.73682877204288 -70.71193333679298 35.5864440028975 -70.78205657184392 curveto
35.5864440028975 -70.56408313916043 lineto
35.734294203891416 -70.51423649996819 35.87792010681894 -70.4893131826004 36.017321718667176 -70.4893131826004 curveto
36.40088738295996 -70.4893131826004 36.59267019795963 -70.63420637957444 36.59267019795963 -70.92399276056804 curveto
36.59267019795963 -71.14450077462182 36.462139591939284 -71.30164440696359 36.20107839156895 -71.39542367311604 curveto
36.503537659887925 -71.46554691130173 36.654767280526436 -71.63113913328016 36.654767280526436 -71.89220033365049 curveto
36.654767280526436 -72.0687757165518 36.59647205842026 -72.20733246844685 36.47988161941992 -72.3078706006283 curveto
36.36329117520758 -72.40840873730416 36.20319053420045 -72.45867780114769 35.99957969507666 -72.45867780114769 curveto
35.883834109155714 -72.45867780114769 35.73767362991882 -72.43840120215424 35.56109825491105 -72.39784800598021 curveto
closepath
fill
newpath
1.0 setlinewidth
10.0 setmiterlimit
0 setlinejoin
0 setlinecap
[ ] 0 setdash
newpath
35.14593185571041 -68.85950390503078 moveto
35.14593185571041 -69.89766574255584 lineto
stroke
newpath
0.0 0.0 0.0 setrgbcolor
1.0 setlinewidth
10.0 setmiterlimit
0 setlinejoin
0 setlinecap
[ ] 0 setdash
newpath
47.10988832493772 -71.7236511095406 moveto
47.10988832493772 -71.55130002323273 lineto
48.1414602679863 -71.55130002323273 lineto
48.1414602679863 -71.7236511095406 lineto
closepath
48.48996430280001 -72.41178816737275 moveto
48.48996430280001 -72.19254744728995 lineto
48.562622115859874 -72.0227309307198 48.70962745531434 -71.83770697249595 48.930980317764266 -71.63747556638666 curveto
49.07418379388772 -71.50947953905508 lineto
49.258362901411566 -71.3430424556505 49.35045244694004 -71.17787266712332 49.35045244694004 -71.01397016591994 curveto
49.35045244694004 -70.90920773778711 49.31898147558562 -70.82683405905946 49.256039535690505 -70.76684912305204 curveto
49.19309759298167 -70.70686418436308 49.10671083550038 -70.67687171770014 48.99687926252904 -70.67687171770014 curveto
48.86677108565439 -70.67687171770014 48.71342931158271 -70.72714078603808 48.53685393657494 -70.82767891821953 curveto
48.53685393657494 -70.6071709107374 lineto
48.70329101997952 -70.52859908963778 48.86846080850669 -70.4893131826004 49.03236330971007 -70.4893131826004 curveto
49.20809383431998 -70.4893131826004 49.349185161126975 -70.53662524691845 49.45563730108381 -70.63124937132453 curveto
49.56208944579943 -70.72587349996064 49.61531551339846 -70.85133495200259 49.61531551339846 -71.00763372892334 curveto
49.61531551339846 -71.11999988167871 49.588491262646706 -71.21969315504002 49.53484276354148 -71.30671355516347 curveto
49.48119426203797 -71.39373395917703 49.381289771478926 -71.49934124171114 49.23512929360169 -71.62353540499412 curveto
49.13881545125317 -71.70590908595008 lineto
48.93858403619284 -71.87572560252023 48.822838459222936 -72.03793838687645 48.79157870383878 -72.19254744728995 curveto
49.6064445016032 -72.19254744728995 lineto
49.6064445016032 -72.41178816737275 lineto
closepath
50.169120106902426 -72.41178816737275 moveto
50.169120106902426 -72.09876817974008 lineto
50.482140094535104 -72.09876817974008 lineto
50.482140094535104 -72.41178816737275 lineto
closepath
51.052419424230266 -72.4193918917687 moveto
51.052419424230266 -72.19634930948791 lineto
51.17661359306515 -72.24619594868015 51.29489374830837 -72.27111926604795 51.407259896040586 -72.27111926604795 curveto
51.53060920658408 -72.27111926604795 51.627556690007374 -72.23479035951802 51.69810235418512 -72.1621325497062 curveto
51.7686480215165 -72.08947473664634 51.803920852028554 -71.98935903236423 51.803920852028554 -71.86178543606675 curveto
51.803920852028554 -71.58044762503262 51.61002587415368 -71.43977873209234 51.22223593573949 -71.43977873209234 curveto
51.17830330458701 -71.43977873209234 51.13225852966999 -71.44273573611221 51.08410160921333 -71.4486497438876 curveto
51.08410160921333 -70.53620281637534 lineto
52.03329987130594 -70.53620281637534 lineto
52.03329987130594 -70.75417624905882 lineto
51.303342329296136 -70.75417624905882 lineto
51.303342329296136 -71.24841833479462 lineto
51.54412694234337 -71.24841833479462 51.73210790141457 -71.30375655288091 51.867285221994685 -71.41443298410589 curveto
52.002462548617686 -71.52510942027847 52.070051205886294 -71.67845119521881 52.070051205886294 -71.87445831005998 curveto
52.070051205886294 -72.05694770100104 52.0085877651874 -72.19993995866153 51.885660889284864 -72.30343509473067 curveto
51.76273400788707 -72.40693023542642 51.592283853093626 -72.45867780114769 51.3743104236582 -72.45867780114769 curveto
51.279686295022096 -72.45867780114769 51.172389296245115 -72.44558249763108 51.052419424230266 -72.4193918917687 curveto
closepath
fill
newpath
1.0 setlinewidth
10.0 setmiterlimit
0 setlinejoin
0 setlinecap
[ ] 0 setdash
newpath
49.319160202167105 -68.85950390503078 moveto
49.319160202167105 -69.89766574255584 lineto
stroke
newpath
0.0 0.0 0.0 setrgbcolor
1.0 setlinewidth
10.0 setmiterlimit
0 setlinejoin
0 setlinecap
[ ] 0 setdash
newpath
62.42277542843232 -71.7236511095406 moveto
62.42277542843232 -71.55130002323273 lineto
63.45434737148089 -71.55130002323273 lineto
63.45434737148089 -71.7236511095406 lineto
closepath
63.80285140629461 -72.41178816737275 moveto
63.80285140629461 -72.19254744728995 lineto
63.87550921935447 -72.0227309307198 64.02251455880894 -71.83770697249595 64.24386742125887 -71.63747556638666 curveto
64.38707089738232 -71.50947953905508 lineto
64.57125000490616 -71.3430424556505 64.66333955043464 -71.17787266712332 64.66333955043464 -71.01397016591994 curveto
64.66333955043464 -70.90920773778711 64.63186857908022 -70.82683405905946 64.56892663918511 -70.76684912305204 curveto
64.50598469647628 -70.70686418436308 64.41959793899498 -70.67687171770014 64.30976636602364 -70.67687171770014 curveto
64.179658189149 -70.67687171770014 64.0263164150773 -70.72714078603808 63.84974104006954 -70.82767891821953 curveto
63.84974104006954 -70.6071709107374 lineto
64.01617812347412 -70.52859908963778 64.18134791200129 -70.4893131826004 64.34525041320467 -70.4893131826004 curveto
64.52098093781458 -70.4893131826004 64.66207226462157 -70.53662524691845 64.76852440457841 -70.63124937132453 curveto
64.87497654929403 -70.72587349996064 64.92820261689306 -70.85133495200259 64.92820261689306 -71.00763372892334 curveto
64.92820261689306 -71.11999988167871 64.9013783661413 -71.21969315504002 64.84772986703608 -71.30671355516347 curveto
64.79408136553256 -71.39373395917703 64.69417687497352 -71.49934124171114 64.54801639709628 -71.62353540499412 curveto
64.45170255474777 -71.70590908595008 lineto
64.25147113968744 -71.87572560252023 64.13572556271754 -72.03793838687645 64.10446580733338 -72.19254744728995 curveto
64.9193316050978 -72.19254744728995 lineto
64.9193316050978 -72.41178816737275 lineto
closepath
fill
newpath
1.0 setlinewidth
10.0 setmiterlimit
0 setlinejoin
0 setlinecap
[ ] 0 setdash
newpath
63.4923885486238 -68.85950390503078 moveto
63.4923885486238 -69.89766574255584 lineto
stroke
newpath
0.0 0.0 0.0 setrgbcolor
1.0 setlinewidth
10.0 setmiterlimit
0 setlinejoin
0 setlinecap
[ ] 0 setdash
newpath
75.39979839749553 -71.7236511095406 moveto
75.39979839749553 -71.55130002323273 lineto
76.43137034054412 -71.55130002323273 lineto
76.43137034054412 -71.7236511095406 lineto
closepath
76.95476003646434 -72.41178816737275 moveto
76.95476003646434 -72.22422963227301 lineto
77.32987710666383 -72.22422963227301 lineto
77.32987710666383 -70.74403794986424 lineto
76.95476003646434 -70.83781721741411 lineto
76.95476003646434 -70.64518953271708 lineto
77.58080001172969 -70.4893131826004 lineto
77.58080001172969 -72.22422963227301 lineto
77.95591708192917 -72.22422963227301 lineto
77.95591708192917 -72.41178816737275 lineto
closepath
78.45903017946024 -72.41178816737275 moveto
78.45903017946024 -72.09876817974008 lineto
78.77205016709291 -72.09876817974008 lineto
78.77205016709291 -72.41178816737275 lineto
closepath
79.34232949678808 -72.4193918917687 moveto
79.34232949678808 -72.19634930948791 lineto
79.46652366562296 -72.24619594868015 79.58480382086618 -72.27111926604795 79.6971699685984 -72.27111926604795 curveto
79.82051927914189 -72.27111926604795 79.91746676256518 -72.23479035951802 79.98801242674294 -72.1621325497062 curveto
80.05855809407431 -72.08947473664634 80.09383092458637 -71.98935903236423 80.09383092458637 -71.86178543606675 curveto
80.09383092458637 -71.58044762503262 79.8999359467115 -71.43977873209234 79.51214600829731 -71.43977873209234 curveto
79.46821337714482 -71.43977873209234 79.4221686022278 -71.44273573611221 79.37401168177115 -71.4486497438876 curveto
79.37401168177115 -70.53620281637534 lineto
80.32320994386376 -70.53620281637534 lineto
80.32320994386376 -70.75417624905882 lineto
79.59325240185395 -70.75417624905882 lineto
79.59325240185395 -71.24841833479462 lineto
79.83403701490118 -71.24841833479462 80.02201797397238 -71.30375655288091 80.1571952945525 -71.41443298410589 curveto
80.2923726211755 -71.52510942027847 80.35996127844412 -71.67845119521881 80.35996127844412 -71.87445831005998 curveto
80.35996127844412 -72.05694770100104 80.29849783774522 -72.19993995866153 80.17557096184268 -72.30343509473067 curveto
80.05264408044488 -72.40693023542642 79.88219392565145 -72.45867780114769 79.66422049621602 -72.45867780114769 curveto
79.5695963675799 -72.45867780114769 79.46229936880293 -72.44558249763108 79.34232949678808 -72.4193918917687 curveto
closepath
fill
newpath
1.0 setlinewidth
10.0 setmiterlimit
0 setlinejoin
0 setlinecap
[ ] 0 setdash
newpath
77.66561689508049 -68.85950390503078 moveto
77.66561689508049 -69.89766574255584 lineto
stroke
newpath
0.0 0.0 0.0 setrgbcolor
1.0 setlinewidth
10.0 setmiterlimit
0 setlinejoin
0 setlinecap
[ ] 0 setdash
newpath
90.71268550099013 -71.7236511095406 moveto
90.71268550099013 -71.55130002323273 lineto
91.74425744403871 -71.55130002323273 lineto
91.74425744403871 -71.7236511095406 lineto
closepath
92.26764713995894 -72.41178816737275 moveto
92.26764713995894 -72.22422963227301 lineto
92.64276421015842 -72.22422963227301 lineto
92.64276421015842 -70.74403794986424 lineto
92.26764713995894 -70.83781721741411 lineto
92.26764713995894 -70.64518953271708 lineto
92.8936871152243 -70.4893131826004 lineto
92.8936871152243 -72.22422963227301 lineto
93.26880418542378 -72.22422963227301 lineto
93.26880418542378 -72.41178816737275 lineto
closepath
fill
newpath
1.0 setlinewidth
10.0 setmiterlimit
0 setlinejoin
0 setlinecap
[ ] 0 setdash
newpath
91.83884524153717 -68.85950390503078 moveto
91.83884524153717 -69.89766574255584 lineto
stroke
newpath
0.0 0.0 0.0 setrgbcolor
1.0 setlinewidth
10.0 setmiterlimit
0 setlinejoin
0 setlinecap
[ ] 0 setdash
newpath
103.68970847005335 -71.7236511095406 moveto
103.68970847005335 -71.55130002323273 lineto
104.72128041310192 -71.55130002323273 lineto
104.72128041310192 -71.7236511095406 lineto
closepath
105.6679441003959 -72.45867780114769 moveto
105.47447155166671 -72.45867780114769 105.3179615618349 -72.36764432025001 105.19841411894689 -72.18557736659368 curveto
105.07886667071466 -72.0035104047983 105.01909295194274 -71.76589401848283 105.01909295194274 -71.47272820447472 curveto
105.01909295194274 -71.1770278024869 105.07928910520454 -70.93920020667838 105.1996814063462 -70.7592453986561 curveto
105.32007371286981 -70.57929058258922 105.47869585169704 -70.4893131826004 105.67554782479183 -70.4893131826004 curveto
105.87239980668659 -70.4893131826004 106.03102194209579 -70.57929059063383 106.15141424323745 -70.7592453986561 curveto
106.27180654976108 -70.93920021472299 106.33200269764093 -71.17576052826865 106.33200269764093 -71.46892634227676 curveto
106.33200269764093 -71.76969589401294 106.27180654437912 -72.00984684989618 106.15141424323745 -72.18937922879164 curveto
106.03102193671384 -72.36891161571282 105.86986522301244 -72.45867780114769 105.6679441003959 -72.45867780114769 curveto
closepath
105.67047867519454 -72.27111926604795 moveto
105.93491932040081 -72.27111926604795 106.06713963118251 -72.00245432938472 106.06713963118251 -71.46512448007879 curveto
106.06713963118251 -70.93962262283185 105.93660902516217 -70.67687171770014 105.67554782479183 -70.67687171770014 curveto
105.41533147104253 -70.67687171770014 105.28522330580047 -70.94215722119779 105.28522330580047 -71.47272820447472 curveto
105.28522330580047 -72.00498892805281 105.41364176609233 -72.27111926604795 105.67047867519454 -72.27111926604795 curveto
closepath
106.74894025201806 -72.41178816737275 moveto
106.74894025201806 -72.09876817974008 lineto
107.06196023965073 -72.09876817974008 lineto
107.06196023965073 -72.41178816737275 lineto
closepath
107.6322395693459 -72.4193918917687 moveto
107.6322395693459 -72.19634930948791 lineto
107.75643373818077 -72.24619594868015 107.874713893424 -72.27111926604795 107.98708004115622 -72.27111926604795 curveto
108.11042935169971 -72.27111926604795 108.207376835123 -72.23479035951802 108.27792249930074 -72.1621325497062 curveto
108.34846816663213 -72.08947473664634 108.38374099714419 -71.98935903236423 108.38374099714419 -71.86178543606675 curveto
108.38374099714419 -71.58044762503262 108.18984601926931 -71.43977873209234 107.80205608085512 -71.43977873209234 curveto
107.75812344970264 -71.43977873209234 107.71207867478562 -71.44273573611221 107.66392175432895 -71.4486497438876 curveto
107.66392175432895 -70.53620281637534 lineto
108.61312001642158 -70.53620281637534 lineto
108.61312001642158 -70.75417624905882 lineto
107.88316247441176 -70.75417624905882 lineto
107.88316247441176 -71.24841833479462 lineto
108.123947087459 -71.24841833479462 108.3119280465302 -71.30375655288091 108.44710536711031 -71.41443298410589 curveto
108.58228269373332 -71.52510942027847 108.64987135100192 -71.67845119521881 108.64987135100192 -71.87445831005998 curveto
108.64987135100192 -72.05694770100104 108.58840791030302 -72.19993995866153 108.4654810344005 -72.30343509473067 curveto
108.3425541530027 -72.40693023542642 108.17210399820927 -72.45867780114769 107.95413056877383 -72.45867780114769 curveto
107.85950644013772 -72.45867780114769 107.75220944136075 -72.44558249763108 107.6322395693459 -72.4193918917687 curveto
closepath
fill
newpath
1.0 setlinewidth
10.0 setmiterlimit
0 setlinejoin
0 setlinecap
[ ] 0 setdash
newpath
106.01207358799387 -68.85950390503078 moveto
106.01207358799387 -69.89766574255584 lineto
stroke
newpath
0.0 0.0 0.0 setrgbcolor
1.0 setlinewidth
10.0 setmiterlimit
0 setlinejoin
0 setlinecap
[ ] 0 setdash
newpath
122.53807396017808 -72.45867780114769 moveto
122.3446014114489 -72.45867780114769 122.1880914216171 -72.36764432025001 122.06854397872907 -72.18557736659368 curveto
121.94899653049684 -72.0035104047983 121.88922281172492 -71.76589401848283 121.88922281172492 -71.47272820447472 curveto
121.88922281172492 -71.1770278024869 121.94941896498672 -70.93920020667838 122.06981126612838 -70.7592453986561 curveto
122.19020357265201 -70.57929058258922 122.34882571147924 -70.4893131826004 122.54567768457402 -70.4893131826004 curveto
122.74252966646877 -70.4893131826004 122.90115180187797 -70.57929059063383 123.02154410301964 -70.7592453986561 curveto
123.14193640954326 -70.93920021472299 123.20213255742311 -71.17576052826865 123.20213255742311 -71.46892634227676 curveto
123.20213255742311 -71.76969589401294 123.1419364041613 -72.00984684989618 123.02154410301964 -72.18937922879164 curveto
122.90115179649602 -72.36891161571282 122.73999508279462 -72.45867780114769 122.53807396017808 -72.45867780114769 curveto
closepath
122.54060853497673 -72.27111926604795 moveto
122.80504918018299 -72.27111926604795 122.9372694909647 -72.00245432938472 122.9372694909647 -71.46512448007879 curveto
122.9372694909647 -70.93962262283185 122.80673888494435 -70.67687171770014 122.54567768457402 -70.67687171770014 curveto
122.28546133082472 -70.67687171770014 122.15535316558265 -70.94215722119779 122.15535316558265 -71.47272820447472 curveto
122.15535316558265 -72.00498892805281 122.28377162587451 -72.27111926604795 122.54060853497673 -72.27111926604795 curveto
closepath
fill
newpath
1.0 setlinewidth
10.0 setmiterlimit
0 setlinejoin
0 setlinecap
[ ] 0 setdash
newpath
120.18530193445055 -68.85950390503078 moveto
120.18530193445055 -69.89766574255584 lineto
stroke
newpath
0.0 0.0 0.0 setrgbcolor
1.0 setlinewidth
10.0 setmiterlimit
0 setlinejoin
0 setlinecap
[ ] 0 setdash
newpath
133.43877325419118 -72.45867780114769 moveto
133.245300705462 -72.45867780114769 133.0887907156302 -72.36764432025001 132.96924327274218 -72.18557736659368 curveto
132.84969582450995 -72.0035104047983 132.78992210573801 -71.76589401848283 132.78992210573801 -71.47272820447472 curveto
132.78992210573801 -71.1770278024869 132.85011825899983 -70.93920020667838 132.9705105601415 -70.7592453986561 curveto
133.09090286666512 -70.57929058258922 133.24952500549233 -70.4893131826004 133.44637697858712 -70.4893131826004 curveto
133.64322896048188 -70.4893131826004 133.8018510958911 -70.57929059063383 133.92224339703276 -70.7592453986561 curveto
134.04263570355636 -70.93920021472299 134.1028318514362 -71.17576052826865 134.1028318514362 -71.46892634227676 curveto
134.1028318514362 -71.76969589401294 134.0426356981744 -72.00984684989618 133.92224339703276 -72.18937922879164 curveto
133.80185109050913 -72.36891161571282 133.64069437680772 -72.45867780114769 133.43877325419118 -72.45867780114769 curveto
closepath
133.44130782898984 -72.27111926604795 moveto
133.70574847419607 -72.27111926604795 133.8379687849778 -72.00245432938472 133.8379687849778 -71.46512448007879 curveto
133.8379687849778 -70.93962262283185 133.70743817895746 -70.67687171770014 133.44637697858712 -70.67687171770014 curveto
133.18616062483784 -70.67687171770014 133.05605245959578 -70.94215722119779 133.05605245959578 -71.47272820447472 curveto
133.05605245959578 -72.00498892805281 133.18447091988764 -72.27111926604795 133.44130782898984 -72.27111926604795 curveto
closepath
134.51976940581335 -72.41178816737275 moveto
134.51976940581335 -72.09876817974008 lineto
134.832789393446 -72.09876817974008 lineto
134.832789393446 -72.41178816737275 lineto
closepath
135.4030687231412 -72.4193918917687 moveto
135.4030687231412 -72.19634930948791 lineto
135.52726289197608 -72.24619594868015 135.6455430472193 -72.27111926604795 135.7579091949515 -72.27111926604795 curveto
135.881258505495 -72.27111926604795 135.9782059889183 -72.23479035951802 136.04875165309605 -72.1621325497062 curveto
136.11929732042742 -72.08947473664634 136.15457015093946 -71.98935903236423 136.15457015093946 -71.86178543606675 curveto
136.15457015093946 -71.58044762503262 135.9606751730646 -71.43977873209234 135.5728852346504 -71.43977873209234 curveto
135.52895260349794 -71.43977873209234 135.48290782858092 -71.44273573611221 135.43475090812424 -71.4486497438876 curveto
135.43475090812424 -70.53620281637534 lineto
136.38394917021685 -70.53620281637534 lineto
136.38394917021685 -70.75417624905882 lineto
135.65399162820705 -70.75417624905882 lineto
135.65399162820705 -71.24841833479462 lineto
135.89477624125428 -71.24841833479462 136.0827572003255 -71.30375655288091 136.2179345209056 -71.41443298410589 curveto
136.35311184752862 -71.52510942027847 136.42070050479722 -71.67845119521881 136.42070050479722 -71.87445831005998 curveto
136.42070050479722 -72.05694770100104 136.35923706409832 -72.19993995866153 136.23631018819577 -72.30343509473067 curveto
136.11338330679797 -72.40693023542642 135.94293315200454 -72.45867780114769 135.7249597225691 -72.45867780114769 curveto
135.630335593933 -72.45867780114769 135.52303859515604 -72.44558249763108 135.4030687231412 -72.4193918917687 curveto
closepath
fill
newpath
1.0 setlinewidth
10.0 setmiterlimit
0 setlinejoin
0 setlinecap
[ ] 0 setdash
newpath
134.35853028090725 -68.85950390503078 moveto
134.35853028090725 -69.89766574255584 lineto
stroke
newpath
0.0 0.0 0.0 setrgbcolor
1.0 setlinewidth
10.0 setmiterlimit
0 setlinejoin
0 setlinecap
[ ] 0 setdash
newpath
148.32838636631203 -72.41178816737275 moveto
148.32838636631203 -72.22422963227301 lineto
148.7035034365115 -72.22422963227301 lineto
148.7035034365115 -70.74403794986424 lineto
148.32838636631203 -70.83781721741411 lineto
148.32838636631203 -70.64518953271708 lineto
148.9544263415774 -70.4893131826004 lineto
148.9544263415774 -72.22422963227301 lineto
149.32954341177688 -72.22422963227301 lineto
149.32954341177688 -72.41178816737275 lineto
closepath
fill
newpath
1.0 setlinewidth
10.0 setmiterlimit
0 setlinejoin
0 setlinecap
[ ] 0 setdash
newpath
148.53175862736393 -68.85950390503078 moveto
148.53175862736393 -69.89766574255584 lineto
stroke
newpath
0.0 0.0 0.0 setrgbcolor
1.0 setlinewidth
10.0 setmiterlimit
0 setlinejoin
0 setlinecap
[ ] 0 setdash
newpath
161.30540933537526 -72.41178816737275 moveto
161.30540933537526 -72.22422963227301 lineto
161.68052640557474 -72.22422963227301 lineto
161.68052640557474 -70.74403794986424 lineto
161.30540933537526 -70.83781721741411 lineto
161.30540933537526 -70.64518953271708 lineto
161.9314493106406 -70.4893131826004 lineto
161.9314493106406 -72.22422963227301 lineto
162.30656638084008 -72.22422963227301 lineto
162.30656638084008 -72.41178816737275 lineto
closepath
162.80967947837115 -72.41178816737275 moveto
162.80967947837115 -72.09876817974008 lineto
163.12269946600384 -72.09876817974008 lineto
163.12269946600384 -72.41178816737275 lineto
closepath
163.692978795699 -72.4193918917687 moveto
163.692978795699 -72.19634930948791 lineto
163.81717296453388 -72.24619594868015 163.9354531197771 -72.27111926604795 164.0478192675093 -72.27111926604795 curveto
164.1711685780528 -72.27111926604795 164.2681160614761 -72.23479035951802 164.33866172565385 -72.1621325497062 curveto
164.40920739298522 -72.08947473664634 164.4444802234973 -71.98935903236423 164.4444802234973 -71.86178543606675 curveto
164.4444802234973 -71.58044762503262 164.2505852456224 -71.43977873209234 163.86279530720822 -71.43977873209234 curveto
163.81886267605574 -71.43977873209234 163.77281790113872 -71.44273573611221 163.72466098068205 -71.4486497438876 curveto
163.72466098068205 -70.53620281637534 lineto
164.67385924277468 -70.53620281637534 lineto
164.67385924277468 -70.75417624905882 lineto
163.94390170076485 -70.75417624905882 lineto
163.94390170076485 -71.24841833479462 lineto
164.1846863138121 -71.24841833479462 164.37266727288332 -71.30375655288091 164.5078445934634 -71.41443298410589 curveto
164.64302192008643 -71.52510942027847 164.71061057735503 -71.67845119521881 164.71061057735503 -71.87445831005998 curveto
164.71061057735503 -72.05694770100104 164.64914713665613 -72.19993995866153 164.5262202607536 -72.30343509473067 curveto
164.4032933793558 -72.40693023542642 164.23284322456234 -72.45867780114769 164.01486979512694 -72.45867780114769 curveto
163.9202456664908 -72.45867780114769 163.81294866771384 -72.44558249763108 163.692978795699 -72.4193918917687 curveto
closepath
fill
newpath
1.0 setlinewidth
10.0 setmiterlimit
0 setlinejoin
0 setlinecap
[ ] 0 setdash
newpath
162.70498697382064 -68.85950390503078 moveto
162.70498697382064 -69.89766574255584 lineto
stroke
newpath
0.0 0.0 0.0 setrgbcolor
1.0 setlinewidth
10.0 setmiterlimit
0 setlinejoin
0 setlinecap
[ ] 0 setdash
newpath
176.7029512371446 -72.41178816737275 moveto
176.7029512371446 -72.19254744728995 lineto
176.77560905020445 -72.0227309307198 176.92261438965892 -71.83770697249595 177.14396725210887 -71.63747556638666 curveto
177.2871707282323 -71.50947953905508 lineto
177.47134983575614 -71.3430424556505 177.56343938128464 -71.17787266712332 177.56343938128464 -71.01397016591994 curveto
177.56343938128464 -70.90920773778711 177.53196840993022 -70.82683405905946 177.4690264700351 -70.76684912305204 curveto
177.40608452732627 -70.70686418436308 177.31969776984496 -70.67687171770014 177.20986619687363 -70.67687171770014 curveto
177.079758019999 -70.67687171770014 176.9264162459273 -70.72714078603808 176.74984087091954 -70.82767891821953 curveto
176.74984087091954 -70.6071709107374 lineto
176.91627795432413 -70.52859908963778 177.08144774285128 -70.4893131826004 177.24535024405466 -70.4893131826004 curveto
177.42108076866458 -70.4893131826004 177.56217209547157 -70.53662524691845 177.6686242354284 -70.63124937132453 curveto
177.77507638014401 -70.72587349996064 177.82830244774306 -70.85133495200259 177.82830244774306 -71.00763372892334 curveto
177.82830244774306 -71.11999988167871 177.8014781969913 -71.21969315504002 177.74782969788606 -71.30671355516347 curveto
177.69418119638257 -71.39373395917703 177.59427670582352 -71.49934124171114 177.4481162279463 -71.62353540499412 curveto
177.35180238559775 -71.70590908595008 lineto
177.15157097053742 -71.87572560252023 177.03582539356754 -72.03793838687645 177.00456563818338 -72.19254744728995 curveto
177.8194314359478 -72.19254744728995 lineto
177.8194314359478 -72.41178816737275 lineto
closepath
fill
newpath
1.0 setlinewidth
10.0 setmiterlimit
0 setlinejoin
0 setlinecap
[ ] 0 setdash
newpath
176.87821532027732 -68.85950390503078 moveto
176.87821532027732 -69.89766574255584 lineto
stroke
newpath
0.0 0.0 0.0 setrgbcolor
1.0 setlinewidth
10.0 setmiterlimit
0 setlinejoin
0 setlinecap
[ ] 0 setdash
newpath
189.42043374682655 -72.41178816737275 moveto
189.42043374682655 -72.19254744728995 lineto
189.4930915598864 -72.0227309307198 189.64009689934088 -71.83770697249595 189.86144976179082 -71.63747556638666 curveto
190.00465323791425 -71.50947953905508 lineto
190.1888323454381 -71.3430424556505 190.2809218909666 -71.17787266712332 190.2809218909666 -71.01397016591994 curveto
190.2809218909666 -70.90920773778711 190.24945091961217 -70.82683405905946 190.18650897971705 -70.76684912305204 curveto
190.12356703700823 -70.70686418436308 190.03718027952692 -70.67687171770014 189.9273487065556 -70.67687171770014 curveto
189.79724052968095 -70.67687171770014 189.64389875560926 -70.72714078603808 189.4673233806015 -70.82767891821953 curveto
189.4673233806015 -70.6071709107374 lineto
189.6337604640061 -70.52859908963778 189.79893025253324 -70.4893131826004 189.96283275373662 -70.4893131826004 curveto
190.13856327834654 -70.4893131826004 190.27965460515352 -70.53662524691845 190.38610674511037 -70.63124937132453 curveto
190.49255888982597 -70.72587349996064 190.545784957425 -70.85133495200259 190.545784957425 -71.00763372892334 curveto
190.545784957425 -71.11999988167871 190.51896070667325 -71.21969315504002 190.46531220756802 -71.30671355516347 curveto
190.4116637060645 -71.39373395917703 190.31175921550548 -71.49934124171114 190.16559873762824 -71.62353540499412 curveto
190.0692848952797 -71.70590908595008 lineto
189.86905348021938 -71.87572560252023 189.7533079032495 -72.03793838687645 189.72204814786534 -72.19254744728995 curveto
190.53691394562975 -72.19254744728995 lineto
190.53691394562975 -72.41178816737275 lineto
closepath
191.09958955092898 -72.41178816737275 moveto
191.09958955092898 -72.09876817974008 lineto
191.41260953856164 -72.09876817974008 lineto
191.41260953856164 -72.41178816737275 lineto
closepath
191.98288886825682 -72.4193918917687 moveto
191.98288886825682 -72.19634930948791 lineto
192.1070830370917 -72.24619594868015 192.22536319233492 -72.27111926604795 192.33772934006714 -72.27111926604795 curveto
192.46107865061063 -72.27111926604795 192.55802613403392 -72.23479035951802 192.62857179821165 -72.1621325497062 curveto
192.69911746554303 -72.08947473664634 192.7343902960551 -71.98935903236423 192.7343902960551 -71.86178543606675 curveto
192.7343902960551 -71.58044762503262 192.54049531818023 -71.43977873209234 192.15270537976605 -71.43977873209234 curveto
192.10877274861355 -71.43977873209234 192.06272797369652 -71.44273573611221 192.01457105323988 -71.4486497438876 curveto
192.01457105323988 -70.53620281637534 lineto
192.96376931533248 -70.53620281637534 lineto
192.96376931533248 -70.75417624905882 lineto
192.23381177332269 -70.75417624905882 lineto
192.23381177332269 -71.24841833479462 lineto
192.4745963863699 -71.24841833479462 192.66257734544112 -71.30375655288091 192.79775466602123 -71.41443298410589 curveto
192.93293199264423 -71.52510942027847 193.00052064991283 -71.67845119521881 193.00052064991283 -71.87445831005998 curveto
193.00052064991283 -72.05694770100104 192.93905720921393 -72.19993995866153 192.8161303333114 -72.30343509473067 curveto
192.6932034519136 -72.40693023542642 192.52275329712018 -72.45867780114769 192.30477986768474 -72.45867780114769 curveto
192.21015573904864 -72.45867780114769 192.10285874027167 -72.44558249763108 191.98288886825682 -72.4193918917687 curveto
closepath
fill
newpath
1.0 setlinewidth
10.0 setmiterlimit
0 setlinejoin
0 setlinecap
[ ] 0 setdash
newpath
191.051443666734 -68.85950390503078 moveto
191.051443666734 -69.89766574255584 lineto
stroke
newpath
0.0 0.0 0.0 setrgbcolor
1.0 setlinewidth
10.0 setmiterlimit
0 setlinejoin
0 setlinecap
[ ] 0 setdash
newpath
205.04101823087666 -72.39784800598021 moveto
205.04101823087666 -72.16466712450485 lineto
205.22012818865215 -72.23563522098193 205.36121951530808 -72.27111926604795 205.4642922222504 -72.27111926604795 curveto
205.58341724133695 -72.27111926604795 205.68036472494907 -72.23626886152795 205.75513468039495 -72.16656805560383 curveto
205.8299046391833 -72.09686724656385 205.867289615235 -72.00667862707343 205.867289615235 -71.89600219584847 curveto
205.867289615235 -71.6324064089336 205.68268807856546 -71.50060852725981 205.31348502173103 -71.50060852725981 curveto
205.21463660458386 -71.50060852725981 lineto
205.21463660458386 -71.33205930314992 lineto
205.30207943513713 -71.33079201575059 lineto
205.6484713346086 -71.33079201575059 205.8216672688594 -71.20870999264419 205.8216672688594 -70.96454595734637 curveto
205.8216672688594 -70.77276312519997 205.70761139952123 -70.67687171770014 205.47949967104228 -70.67687171770014 curveto
205.354460643916 -70.67687171770014 205.2167487480085 -70.71193333679298 205.06636397886314 -70.78205657184392 curveto
205.06636397886314 -70.56408313916043 lineto
205.21421417985704 -70.51423649996819 205.35784008278458 -70.4893131826004 205.4972416946328 -70.4893131826004 curveto
205.88080735892558 -70.4893131826004 206.07259017392525 -70.63420637957444 206.07259017392525 -70.92399276056804 curveto
206.07259017392525 -71.14450077462182 205.94205956790492 -71.30164440696359 205.68099836753458 -71.39542367311604 curveto
205.98345763585357 -71.46554691130173 206.13468725649207 -71.63113913328016 206.13468725649207 -71.89220033365049 curveto
206.13468725649207 -72.0687757165518 206.0763920343859 -72.20733246844685 205.95980159538556 -72.3078706006283 curveto
205.8432111511732 -72.40840873730416 205.68311051016607 -72.45867780114769 205.47949967104228 -72.45867780114769 curveto
205.36375408512134 -72.45867780114769 205.21759360588445 -72.43840120215424 205.04101823087666 -72.39784800598021 curveto
closepath
fill
newpath
1.0 setlinewidth
10.0 setmiterlimit
0 setlinejoin
0 setlinecap
[ ] 0 setdash
newpath
205.22467201319068 -68.85950390503078 moveto
205.22467201319068 -69.89766574255584 lineto
stroke
newpath
0.0 0.0 0.0 setrgbcolor
1.0 setlinewidth
10.0 setmiterlimit
0 setlinejoin
0 setlinecap
[ ] 0 setdash
newpath
217.75850074055862 -72.39784800598021 moveto
217.75850074055862 -72.16466712450485 lineto
217.9376106983341 -72.23563522098193 218.07870202499004 -72.27111926604795 218.18177473193236 -72.27111926604795 curveto
218.3008997510189 -72.27111926604795 218.39784723463103 -72.23626886152795 218.4726171900769 -72.16656805560383 curveto
218.54738714886525 -72.09686724656385 218.58477212491695 -72.00667862707343 218.58477212491695 -71.89600219584847 curveto
218.58477212491695 -71.6324064089336 218.40017058824742 -71.50060852725981 218.03096753141298 -71.50060852725981 curveto
217.93211911426582 -71.50060852725981 lineto
217.93211911426582 -71.33205930314992 lineto
218.0195619448191 -71.33079201575059 lineto
218.36595384429054 -71.33079201575059 218.53914977854134 -71.20870999264419 218.53914977854134 -70.96454595734637 curveto
218.53914977854134 -70.77276312519997 218.42509390920318 -70.67687171770014 218.19698218072423 -70.67687171770014 curveto
218.07194315359797 -70.67687171770014 217.93423125769044 -70.71193333679298 217.78384648854507 -70.78205657184392 curveto
217.78384648854507 -70.56408313916043 lineto
217.931696689539 -70.51423649996819 218.07532259246653 -70.4893131826004 218.21472420431476 -70.4893131826004 curveto
218.59828986860754 -70.4893131826004 218.7900726836072 -70.63420637957444 218.7900726836072 -70.92399276056804 curveto
218.7900726836072 -71.14450077462182 218.65954207758688 -71.30164440696359 218.39848087721654 -71.39542367311604 curveto
218.7009401455355 -71.46554691130173 218.852169766174 -71.63113913328016 218.852169766174 -71.89220033365049 curveto
218.852169766174 -72.0687757165518 218.79387454406782 -72.20733246844685 218.67728410506749 -72.3078706006283 curveto
218.56069366085515 -72.40840873730416 218.40059301984803 -72.45867780114769 218.19698218072423 -72.45867780114769 curveto
218.08123659480327 -72.45867780114769 217.93507611556637 -72.43840120215424 217.75850074055862 -72.39784800598021 curveto
closepath
219.38949962348678 -72.41178816737275 moveto
219.38949962348678 -72.09876817974008 lineto
219.70251961111947 -72.09876817974008 lineto
219.70251961111947 -72.41178816737275 lineto
closepath
220.27279894081462 -72.4193918917687 moveto
220.27279894081462 -72.19634930948791 lineto
220.39699310964951 -72.24619594868015 220.51527326489273 -72.27111926604795 220.62763941262494 -72.27111926604795 curveto
220.75098872316843 -72.27111926604795 220.84793620659173 -72.23479035951802 220.91848187076948 -72.1621325497062 curveto
220.98902753810086 -72.08947473664634 221.02430036861293 -71.98935903236423 221.02430036861293 -71.86178543606675 curveto
221.02430036861293 -71.58044762503262 220.83040539073804 -71.43977873209234 220.44261545232385 -71.43977873209234 curveto
220.39868282117138 -71.43977873209234 220.35263804625436 -71.44273573611221 220.30448112579768 -71.4486497438876 curveto
220.30448112579768 -70.53620281637534 lineto
221.2536793878903 -70.53620281637534 lineto
221.2536793878903 -70.75417624905882 lineto
220.5237218458805 -70.75417624905882 lineto
220.5237218458805 -71.24841833479462 lineto
220.76450645892774 -71.24841833479462 220.95248741799895 -71.30375655288091 221.08766473857904 -71.41443298410589 curveto
221.22284206520206 -71.52510942027847 221.29043072247066 -71.67845119521881 221.29043072247066 -71.87445831005998 curveto
221.29043072247066 -72.05694770100104 221.22896728177176 -72.19993995866153 221.1060404058692 -72.30343509473067 curveto
220.9831135244714 -72.40693023542642 220.81266336967798 -72.45867780114769 220.59468994024255 -72.45867780114769 curveto
220.50006581160645 -72.45867780114769 220.39276881282947 -72.44558249763108 220.27279894081462 -72.4193918917687 curveto
closepath
fill
newpath
1.0 setlinewidth
10.0 setmiterlimit
0 setlinejoin
0 setlinecap
[ ] 0 setdash
newpath
219.39790035964737 -68.85950390503078 moveto
219.39790035964737 -69.89766574255584 lineto
stroke
newpath
0.0 0.0 0.0 setrgbcolor
1.0 setlinewidth
10.0 setmiterlimit
0 setlinejoin
0 setlinecap
[ ] 0 setdash
newpath
234.0444111092531 -72.41178816737275 moveto
234.0444111092531 -71.8807947470566 lineto
233.20039770130427 -71.8807947470566 lineto
233.20039770130427 -71.69196892455753 lineto
234.0444111092531 -70.53620281637534 lineto
234.27885927812778 -70.53620281637534 lineto
234.27885927812778 -71.67676147576566 lineto
234.52978218319365 -71.67676147576566 lineto
234.52978218319365 -71.8807947470566 lineto
234.27885927812778 -71.8807947470566 lineto
234.27885927812778 -72.41178816737275 lineto
closepath
233.44498416937353 -71.67676147576566 moveto
234.0608858454443 -71.67676147576566 lineto
234.0608858454443 -70.8428863670114 lineto
closepath
fill
newpath
1.0 setlinewidth
10.0 setmiterlimit
0 setlinejoin
0 setlinecap
[ ] 0 setdash
newpath
233.57112870610405 -68.85950390503078 moveto
233.57112870610405 -69.89766574255584 lineto
stroke
newpath
0.0 0.0 0.0 setrgbcolor
1.0 setlinewidth
10.0 setmiterlimit
0 setlinejoin
0 setlinecap
[ ] 0 setdash
newpath
247.0214340783163 -72.41178816737275 moveto
247.0214340783163 -71.8807947470566 lineto
246.17742067036747 -71.8807947470566 lineto
246.17742067036747 -71.69196892455753 lineto
247.0214340783163 -70.53620281637534 lineto
247.25588224719098 -70.53620281637534 lineto
247.25588224719098 -71.67676147576566 lineto
247.50680515225687 -71.67676147576566 lineto
247.50680515225687 -71.8807947470566 lineto
247.25588224719098 -71.8807947470566 lineto
247.25588224719098 -72.41178816737275 lineto
closepath
246.42200713843673 -71.67676147576566 moveto
247.03790881450752 -71.67676147576566 lineto
247.03790881450752 -70.8428863670114 lineto
closepath
247.93895015542586 -72.41178816737275 moveto
247.93895015542586 -72.09876817974008 lineto
248.25197014305854 -72.09876817974008 lineto
248.25197014305854 -72.41178816737275 lineto
closepath
248.8222494727537 -72.4193918917687 moveto
248.8222494727537 -72.19634930948791 lineto
248.9464436415886 -72.24619594868015 249.06472379683183 -72.27111926604795 249.17708994456402 -72.27111926604795 curveto
249.3004392551075 -72.27111926604795 249.3973867385308 -72.23479035951802 249.46793240270856 -72.1621325497062 curveto
249.53847807003993 -72.08947473664634 249.573750900552 -71.98935903236423 249.573750900552 -71.86178543606675 curveto
249.573750900552 -71.58044762503262 249.3798559226771 -71.43977873209234 248.99206598426292 -71.43977873209234 curveto
248.94813335311045 -71.43977873209234 248.90208857819343 -71.44273573611221 248.85393165773678 -71.4486497438876 curveto
248.85393165773678 -70.53620281637534 lineto
249.8031299198294 -70.53620281637534 lineto
249.8031299198294 -70.75417624905882 lineto
249.07317237781956 -70.75417624905882 lineto
249.07317237781956 -71.24841833479462 lineto
249.3139569908668 -71.24841833479462 249.50193794993802 -71.30375655288091 249.6371152705181 -71.41443298410589 curveto
249.77229259714113 -71.52510942027847 249.83988125440973 -71.67845119521881 249.83988125440973 -71.87445831005998 curveto
249.83988125440973 -72.05694770100104 249.77841781371083 -72.19993995866153 249.6554909378083 -72.30343509473067 curveto
249.5325640564105 -72.40693023542642 249.36211390161705 -72.45867780114769 249.14414047218165 -72.45867780114769 curveto
249.04951634354552 -72.45867780114769 248.94221934476855 -72.44558249763108 248.8222494727537 -72.4193918917687 curveto
closepath
fill
newpath
1.0 setlinewidth
10.0 setmiterlimit
0 setlinejoin
0 setlinecap
[ ] 0 setdash
newpath
247.74435705256076 -68.85950390503078 moveto
247.74435705256076 -69.89766574255584 lineto
stroke
newpath
0.0 0.0 0.0 setrgbcolor
1.0 setlinewidth
10.0 setmiterlimit
0 setlinejoin
0 setlinecap
[ ] 0 setdash
newpath
113.55224592654139 -83.14343132231623 moveto
113.55224592654139 -82.97108023600835 lineto
114.58381786958998 -82.97108023600835 lineto
114.58381786958998 -83.14343132231623 lineto
closepath
115.53048155688394 -83.87845801392332 moveto
115.33700900815477 -83.87845801392332 115.18049901832296 -83.78742453302564 115.06095157543493 -83.60535757936931 curveto
114.9414041272027 -83.42329061757394 114.88163040843078 -83.18567423125846 114.88163040843078 -82.89250841725035 curveto
114.88163040843078 -82.59680801526252 114.94182656169258 -82.35898041945401 115.06221886283424 -82.17902561143174 curveto
115.18261116935787 -81.99907079536486 115.3412333081851 -81.90909339537603 115.53808528127988 -81.90909339537603 curveto
115.73493726317463 -81.90909339537603 115.89355939858385 -81.99907080340947 116.01395169972551 -82.17902561143174 curveto
116.13434400624912 -82.35898042749862 116.19454015412897 -82.59554074104427 116.19454015412897 -82.88870655505238 curveto
116.19454015412897 -83.18947610678858 116.13434400086717 -83.42962706267181 116.01395169972551 -83.60915944156727 curveto
115.89355939320188 -83.78869182848845 115.73240267950048 -83.87845801392332 115.53048155688394 -83.87845801392332 curveto
closepath
115.53301613168259 -83.69089947882358 moveto
115.79745677688885 -83.69089947882358 115.92967708767056 -83.42223454216035 115.92967708767056 -82.88490469285442 curveto
115.92967708767056 -82.35940283560748 115.79914648165021 -82.09665193047577 115.53808528127988 -82.09665193047577 curveto
115.27786892753059 -82.09665193047577 115.14776076228853 -82.36193743397342 115.14776076228853 -82.89250841725035 curveto
115.14776076228853 -83.42476914082845 115.27617922258038 -83.69089947882358 115.53301613168259 -83.69089947882358 curveto
closepath
116.6114777085061 -83.83156838014838 moveto
116.6114777085061 -83.51854839251571 lineto
116.92449769613877 -83.51854839251571 lineto
116.92449769613877 -83.83156838014838 lineto
closepath
117.49477702583394 -83.83917210454432 moveto
117.49477702583394 -83.61612952226355 lineto
117.61897119466883 -83.66597616145579 117.73725134991204 -83.69089947882358 117.84961749764426 -83.69089947882358 curveto
117.97296680818775 -83.69089947882358 118.06991429161104 -83.65457057229365 118.1404599557888 -83.58191276248183 curveto
118.21100562312017 -83.50925494942197 118.24627845363223 -83.40913924513987 118.24627845363223 -83.28156564884239 curveto
118.24627845363223 -83.00022783780825 118.05238347575735 -82.85955894486797 117.66459353734317 -82.85955894486797 curveto
117.6206609061907 -82.85955894486797 117.57461613127367 -82.86251594888785 117.52645921081701 -82.86842995666322 curveto
117.52645921081701 -81.95598302915097 lineto
118.47565747290962 -81.95598302915097 lineto
118.47565747290962 -82.17395646183445 lineto
117.7456999308998 -82.17395646183445 lineto
117.7456999308998 -82.66819854757026 lineto
117.98648454394704 -82.66819854757026 118.17446550301824 -82.72353676565655 118.30964282359835 -82.83421319688152 curveto
118.44482015022136 -82.9448896330541 118.51240880748998 -83.09823140799445 118.51240880748998 -83.29423852283561 curveto
118.51240880748998 -83.47672791377667 118.45094536679107 -83.61972017143717 118.32801849088854 -83.72321530750631 curveto
118.20509160949074 -83.82671044820205 118.03464145469731 -83.87845801392332 117.81666802526188 -83.87845801392332 curveto
117.72204389662576 -83.87845801392332 117.61474689784879 -83.86536271040671 117.49477702583394 -83.83917210454432 curveto
closepath
fill
newpath
1.0 setlinewidth
10.0 setmiterlimit
0 setlinejoin
0 setlinecap
[ ] 0 setdash
newpath
119.14714009692551 -83.03273225148749 moveto
120.18530193445056 -83.03273225148749 lineto
stroke
newpath
0.0 0.0 0.0 setrgbcolor
1.0 setlinewidth
10.0 setmiterlimit
0 setlinejoin
0 setlinecap
[ ] 0 setdash
newpath
118.12588615069659 -68.30603045104746 moveto
117.93241360196741 -68.30603045104746 117.77590361213561 -68.21499697014978 117.65635616924757 -68.03293001649344 curveto
117.53680872101535 -67.85086305469808 117.47703500224343 -67.6132466683826 117.47703500224343 -67.3200808543745 curveto
117.47703500224343 -67.02438045238667 117.53723115550522 -66.78655285657815 117.65762345664689 -66.60659804855588 curveto
117.77801576317052 -66.426643232489 117.93663790199774 -66.33666583250017 118.13348987509252 -66.33666583250017 curveto
118.33034185698727 -66.33666583250017 118.48896399239649 -66.42664324053361 118.60935629353816 -66.60659804855588 curveto
118.72974860006177 -66.78655286462276 118.78994474794162 -67.02311317816842 118.78994474794162 -67.31627899217652 curveto
118.78994474794162 -67.61704854391272 118.72974859467982 -67.85719949979595 118.60935629353816 -68.03673187869141 curveto
118.48896398701453 -68.2162642656126 118.32780727331313 -68.30603045104746 118.12588615069659 -68.30603045104746 curveto
closepath
118.12842072549523 -68.11847191594772 moveto
118.3928613707015 -68.11847191594772 118.5250816814832 -67.8498069792845 118.5250816814832 -67.31247712997856 curveto
118.5250816814832 -66.78697527273162 118.39455107546286 -66.52422436759991 118.13348987509252 -66.52422436759991 curveto
117.87327352134322 -66.52422436759991 117.74316535610116 -66.78950987109756 117.74316535610116 -67.3200808543745 curveto
117.74316535610116 -67.85234157795259 117.87158381639301 -68.11847191594772 118.12842072549523 -68.11847191594772 curveto
closepath
fill
newpath
1.0 setlinewidth
10.0 setmiterlimit
0 setlinejoin
0 setlinecap
[ ] 0 setdash
newpath
119.14714009692551 -68.85950390503078 moveto
120.18530193445056 -68.85950390503078 lineto
stroke
newpath
0.0 0.0 0.0 setrgbcolor
1.0 setlinewidth
10.0 setmiterlimit
0 setlinejoin
0 setlinecap
[ ] 0 setdash
newpath
115.53048155688394 -55.588547941365505 moveto
115.33700900815477 -55.588547941365505 115.18049901832296 -55.497514460467826 115.06095157543493 -55.315447506811495 curveto
114.9414041272027 -55.13338054501613 114.88163040843078 -54.89576415870065 114.88163040843078 -54.60259834469254 curveto
114.88163040843078 -54.306897942704715 114.94182656169258 -54.0690703468962 115.06221886283424 -53.88911553887393 curveto
115.18261116935787 -53.70916072280705 115.3412333081851 -53.619183322818216 115.53808528127988 -53.619183322818216 curveto
115.73493726317463 -53.619183322818216 115.89355939858385 -53.70916073085166 116.01395169972551 -53.88911553887393 curveto
116.13434400624912 -54.069070354940806 116.19454015412897 -54.30563066848646 116.19454015412897 -54.59879648249457 curveto
116.19454015412897 -54.899566034230766 116.13434400086717 -55.139716990114 116.01395169972551 -55.31924936900946 curveto
115.89355939320188 -55.49878175593064 115.73240267950048 -55.588547941365505 115.53048155688394 -55.588547941365505 curveto
closepath
115.53301613168259 -55.400989406265765 moveto
115.79745677688885 -55.400989406265765 115.92967708767056 -55.13232446960254 115.92967708767056 -54.5949946202966 curveto
115.92967708767056 -54.06949276304967 115.79914648165021 -53.80674185791796 115.53808528127988 -53.80674185791796 curveto
115.27786892753059 -53.80674185791796 115.14776076228853 -54.072027361415614 115.14776076228853 -54.60259834469254 curveto
115.14776076228853 -55.13485906827063 115.27617922258038 -55.400989406265765 115.53301613168259 -55.400989406265765 curveto
closepath
116.6114777085061 -55.54165830759057 moveto
116.6114777085061 -55.228638319957895 lineto
116.92449769613877 -55.228638319957895 lineto
116.92449769613877 -55.54165830759057 lineto
closepath
117.49477702583394 -55.54926203198651 moveto
117.49477702583394 -55.32621944970573 lineto
117.61897119466883 -55.376066088897964 117.73725134991204 -55.400989406265765 117.84961749764426 -55.400989406265765 curveto
117.97296680818775 -55.400989406265765 118.06991429161104 -55.364660499735834 118.1404599557888 -55.292002689924026 curveto
118.21100562312017 -55.219344876864156 118.24627845363223 -55.119229172582045 118.24627845363223 -54.99165557628457 curveto
118.24627845363223 -54.71031776525044 118.05238347575735 -54.569648872310154 117.66459353734317 -54.569648872310154 curveto
117.6206609061907 -54.569648872310154 117.57461613127367 -54.57260587633003 117.52645921081701 -54.57851988410541 curveto
117.52645921081701 -53.666072956593155 lineto
118.47565747290962 -53.666072956593155 lineto
118.47565747290962 -53.88404638927664 lineto
117.7456999308998 -53.88404638927664 lineto
117.7456999308998 -54.37828847501245 lineto
117.98648454394704 -54.37828847501245 118.17446550301824 -54.43362669309874 118.30964282359835 -54.544303124323704 curveto
118.44482015022136 -54.654979560496294 118.51240880748998 -54.80832133543664 118.51240880748998 -55.0043284502778 curveto
118.51240880748998 -55.18681784121886 118.45094536679107 -55.32981009887935 118.32801849088854 -55.43330523494849 curveto
118.20509160949074 -55.536800375644226 118.03464145469731 -55.588547941365505 117.81666802526188 -55.588547941365505 curveto
117.72204389662576 -55.588547941365505 117.61474689784879 -55.575452637848905 117.49477702583394 -55.54926203198651 curveto
closepath
fill
newpath
1.0 setlinewidth
10.0 setmiterlimit
0 setlinejoin
0 setlinecap
[ ] 0 setdash
newpath
119.14714009692551 -54.68627555857408 moveto
120.18530193445056 -54.68627555857408 lineto
stroke
newpath
0.0 0.0 0.0 setrgbcolor
1.0 setlinewidth
10.0 setmiterlimit
0 setlinejoin
0 setlinecap
[ ] 0 setdash
newpath
117.70261215932284 -41.5264735010023 moveto
117.70261215932284 -41.33891496590255 lineto
118.07772922952233 -41.33891496590255 lineto
118.07772922952233 -39.85872328349378 lineto
117.70261215932284 -39.95250255104365 lineto
117.70261215932284 -39.75987486634662 lineto
118.3286521345882 -39.60399851622994 lineto
118.3286521345882 -41.33891496590255 lineto
118.70376920478768 -41.33891496590255 lineto
118.70376920478768 -41.5264735010023 lineto
closepath
fill
newpath
1.0 setlinewidth
10.0 setmiterlimit
0 setlinejoin
0 setlinecap
[ ] 0 setdash
newpath
119.14714009692551 -40.51304721211738 moveto
120.18530193445056 -40.51304721211738 lineto
stroke
newpath
0.0 0.0 0.0 setrgbcolor
1.0 setlinewidth
10.0 setmiterlimit
0 setlinejoin
0 setlinecap
[ ] 0 setdash
newpath
115.1072075655102 -27.251748235032757 moveto
115.1072075655102 -27.064189699933017 lineto
115.48232463570969 -27.064189699933017 lineto
115.48232463570969 -25.58399801752424 lineto
115.1072075655102 -25.677777285074114 lineto
115.1072075655102 -25.48514960037708 lineto
115.73324754077555 -25.329273250260403 lineto
115.73324754077555 -27.064189699933017 lineto
116.10836461097503 -27.064189699933017 lineto
116.10836461097503 -27.251748235032757 lineto
closepath
116.6114777085061 -27.251748235032757 moveto
116.6114777085061 -26.93872824740008 lineto
116.92449769613877 -26.93872824740008 lineto
116.92449769613877 -27.251748235032757 lineto
closepath
117.49477702583394 -27.25935195942869 moveto
117.49477702583394 -27.03630937714792 lineto
117.61897119466883 -27.086156016340155 117.73725134991204 -27.111079333707952 117.84961749764426 -27.111079333707952 curveto
117.97296680818775 -27.111079333707952 118.06991429161104 -27.074750427178017 118.1404599557888 -27.00209261736621 curveto
118.21100562312017 -26.929434804306343 118.24627845363223 -26.829319100024236 118.24627845363223 -26.70174550372676 curveto
118.24627845363223 -26.420407692692624 118.05238347575735 -26.279738799752337 117.66459353734317 -26.279738799752337 curveto
117.6206609061907 -26.279738799752337 117.57461613127367 -26.282695803772217 117.52645921081701 -26.288609811547598 curveto
117.52645921081701 -25.376162884035338 lineto
118.47565747290962 -25.376162884035338 lineto
118.47565747290962 -25.594136316718824 lineto
117.7456999308998 -25.594136316718824 lineto
117.7456999308998 -26.08837840245463 lineto
117.98648454394704 -26.08837840245463 118.17446550301824 -26.143716620540925 118.30964282359835 -26.254393051765888 curveto
118.44482015022136 -26.365069487938474 118.51240880748998 -26.518411262878825 118.51240880748998 -26.714418377719984 curveto
118.51240880748998 -26.896907768661045 118.45094536679107 -27.03990002632153 118.32801849088854 -27.143395162390675 curveto
118.20509160949074 -27.246890303086413 118.03464145469731 -27.298637868807692 117.81666802526188 -27.298637868807692 curveto
117.72204389662576 -27.298637868807692 117.61474689784879 -27.285542565291088 117.49477702583394 -27.25935195942869 curveto
closepath
fill
newpath
1.0 setlinewidth
10.0 setmiterlimit
0 setlinejoin
0 setlinecap
[ ] 0 setdash
newpath
119.14714009692551 -26.33981886566068 moveto
120.18530193445056 -26.33981886566068 lineto
stroke
newpath
0.0 0.0 0.0 setrgbcolor
1.0 setlinewidth
10.0 setmiterlimit
0 setlinejoin
0 setlinecap
[ ] 0 setdash
newpath
117.52772649821632 -12.977022969063217 moveto
117.52772649821632 -12.757782248980412 lineto
117.60038431127619 -12.58796573241026 117.74738965073065 -12.40294177418641 117.96874251318059 -12.202710368077122 curveto
118.11194598930403 -12.07471434074554 lineto
118.29612509682788 -11.908277257340965 118.38821464235636 -11.743107468813795 118.38821464235636 -11.579204967610412 curveto
118.38821464235636 -11.474442539477582 118.35674367100194 -11.392068860749932 118.29380173110683 -11.33208392474251 curveto
118.23085978839799 -11.27209898605355 118.1444730309167 -11.242106519390607 118.03464145794536 -11.242106519390607 curveto
117.90453328107071 -11.242106519390607 117.75119150699904 -11.292375587728538 117.57461613199126 -11.392913719909993 curveto
117.57461613199126 -11.172405712427864 lineto
117.74105321539584 -11.093833891328241 117.906223003923 -11.054547984290863 118.07012550512638 -11.054547984290863 curveto
118.2458560297363 -11.054547984290863 118.38694735654329 -11.101860048608916 118.49339949650013 -11.196484173014992 curveto
118.59985164121575 -11.291108301651096 118.65307770881478 -11.416569753693048 118.65307770881478 -11.5728685306138 curveto
118.65307770881478 -11.685234683369174 118.62625345806302 -11.784927956730483 118.5726049589578 -11.871948356853927 curveto
118.5189564574543 -11.958968760867489 118.41905196689525 -12.064576043401598 118.27289148901801 -12.188770206684573 curveto
118.17657764666949 -12.271143887640541 lineto
117.97634623160916 -12.440960404210692 117.86060065463926 -12.603173188566911 117.8293408992551 -12.757782248980412 curveto
118.64420669701951 -12.757782248980412 lineto
118.64420669701951 -12.977022969063217 lineto
closepath
fill
newpath
1.0 setlinewidth
10.0 setmiterlimit
0 setlinejoin
0 setlinecap
[ ] 0 setdash
newpath
119.14714009692551 -12.166590519203977 moveto
120.18530193445056 -12.166590519203977 lineto
stroke
newpath
1.0 0.0 0.0 setrgbcolor
2.0 setlinewidth
10.0 setmiterlimit
1 setlinejoin
1 setlinecap
[ ] 0 setdash
newpath
0.0 -47.312523619816275 moveto
2.013466220043715 -45.299057399772565 lineto
4.02693244008743 -43.28559117972885 lineto
6.040398660131145 -41.27212495968513 lineto
6.5437652151420735 -40.7687584046742 lineto
6.795448492647537 -40.51707512716874 lineto
6.803313595069583 -68.85566883722616 moveto
7.047131770153002 -68.61185066214274 lineto
8.05386488017486 -67.60511755212087 lineto
10.067331100218574 -65.59164737180404 lineto
12.08079732026229 -63.578181151760326 lineto
14.094263540306004 -61.56471493171661 lineto
16.10772976034972 -59.5512487116729 lineto
18.121195980393434 -57.53778249162918 lineto
20.13466220043715 -55.52431627158547 lineto
22.148128420480862 -53.51085005154175 lineto
24.16159464052458 -51.497383831498034 lineto
26.175060860568294 -49.48391761145432 lineto
28.18852708061201 -47.470451391410606 lineto
30.201993300655722 -45.456985171366895 lineto
32.21545952069944 -43.44351895132318 lineto
34.22892574074315 -41.43005273127946 lineto
34.73229229575408 -40.92668617626853 lineto
34.98397557325955 -40.67500289876307 lineto
35.14127762170046 -40.51770085032216 lineto
35.149142724122505 -68.85629456037957 moveto
36.24239196078687 -67.7630453237152 lineto
38.255858180830586 -65.7495791036715 lineto
40.2693244008743 -63.73611288362778 lineto
42.282790620918014 -61.722646663584065 lineto
44.296256840961725 -59.70918044354035 lineto
46.30972306100544 -57.69571422349664 lineto
48.32318928104916 -55.68224800345292 lineto
50.33665550109287 -53.66878178340921 lineto
52.35012172113659 -51.65531556336549 lineto
54.3635879411803 -49.64184934332177 lineto
56.37705416122402 -47.62838312327806 lineto
58.390520381267734 -45.614916903234345 lineto
60.403986601311445 -43.601450683190635 lineto
62.41745282135516 -41.58798446314692 lineto
63.42418593137702 -40.58125135312506 lineto
63.49497185317543 -68.85692028353299 moveto
63.67586920888248 -68.67602292782594 lineto
63.927552486387945 -68.42433965032048 lineto
64.43091904139888 -67.92097309530953 lineto
66.44438526144259 -65.90750687526582 lineto
68.4578514814863 -63.89404065522211 lineto
70.47131770153003 -61.880574435178396 lineto
72.48478392157374 -59.86710821513468 lineto
74.49825014161745 -57.85364199509097 lineto
76.51171636166117 -55.84017577504725 lineto
78.52518258170488 -53.82670955500354 lineto
80.5386488017486 -51.81324333495982 lineto
82.5521150217923 -49.799777114916104 lineto
84.56558124183603 -47.78631089487239 lineto
86.57904746187974 -45.772844674828676 lineto
88.59251368192345 -43.759378454784965 lineto
90.60597990196717 -41.74591223474125 lineto
91.61271301198903 -40.73917912471939 lineto
91.80147547011812 -40.550416666590294 lineto
91.84080098222836 -68.8575460066864 moveto
92.11607956699996 -68.5822674219148 lineto
92.61944612201088 -68.07890086690387 lineto
94.6329123420546 -66.06543860713327 lineto
96.64637856209832 -64.05197238708956 lineto
98.65984478214203 -62.03850616704585 lineto
100.67331100218574 -60.025039947002135 lineto
102.68677722222945 -58.01157372695842 lineto
104.70024344227318 -55.99810750691471 lineto
106.71370966231689 -53.98464128687099 lineto
108.7271758823606 -51.97117506682728 lineto
110.74064210240432 -49.95770884678356 lineto
112.75410832244803 -47.94424262673984 lineto
114.76757454249174 -45.93077640669613 lineto
116.78104076253547 -43.917310186652415 lineto
118.79450698257918 -41.903843966608704 lineto
119.80124009260103 -40.89711085658684 lineto
120.0529233701065 -40.64542757908138 lineto
120.18269359979713 -40.515653389117624 lineto
120.18663011128127 -68.85817965038606 moveto
120.80797320262289 -68.23683655904445 lineto
122.82143942266661 -66.2233663787276 lineto
124.83490564271032 -64.2099001586839 lineto
126.84837186275404 -62.19643393864018 lineto
128.86183808279776 -60.182967718596466 lineto
130.87530430284147 -58.16950149855275 lineto
132.88877052288518 -56.15603527850904 lineto
134.9022367429289 -54.14256905846532 lineto
136.9157029629726 -52.12910283842161 lineto
138.9291691830163 -50.11563661837789 lineto
140.94263540306005 -48.102170398334174 lineto
142.95610162310376 -46.08870417829046 lineto
144.96956784314747 -44.075237958246746 lineto
146.98303406319118 -42.061771738203035 lineto
147.98976717321304 -41.05503862818117 lineto
148.49313372822397 -40.551672073170245 lineto
148.53245131978795 -68.85880537353948 moveto
148.74481700572943 -68.64644760814424 lineto
148.9965002832349 -68.39476433063878 lineto
151.0099665032786 -66.38129415032193 lineto
153.02343272332234 -64.36782793027822 lineto
155.03689894336605 -62.354361710234514 lineto
157.05036516340977 -60.340895490190796 lineto
159.06383138345348 -58.32742927014708 lineto
161.0772976034972 -56.31396305010337 lineto
163.0907638235409 -54.30049683005965 lineto
165.1042300435846 -52.28703061001594 lineto
167.11769626362835 -50.27356438997222 lineto
169.13116248367206 -48.260098169928504 lineto
171.14462870371577 -46.246631949884794 lineto
173.15809492375948 -44.233165729841076 lineto
175.1715611438032 -42.219699509797366 lineto
176.17829425382504 -41.2129663997755 lineto
176.68166080883597 -40.709599844764575 lineto
176.87042326696508 -40.52083738663548 lineto
176.87828044884088 -68.85943109669289 moveto
177.1850273638469 -68.55269210223311 lineto
179.19849358389064 -66.5392258821894 lineto
181.21195980393435 -64.52575966214567 lineto
183.22542602397806 -62.512293442101964 lineto
185.23889224402177 -60.49882722205825 lineto
187.25235846406548 -58.485361002014535 lineto
189.2658246841092 -56.47189478197082 lineto
191.2792909041529 -54.45842856192711 lineto
193.29275712419664 -52.44496234188339 lineto
195.30622334424035 -50.43149612183968 lineto
197.31968956428406 -48.41802990179596 lineto
199.33315578432777 -46.404563681752244 lineto
201.34662200437148 -44.39109746170853 lineto
203.3600882244152 -42.377631241664815 lineto
204.36682133443705 -41.37089813164296 lineto
204.87018788944798 -40.86753157663203 lineto
205.12187116695344 -40.61584829912657 lineto
205.2280540099242 -68.8561282289084 moveto
205.3735544444589 -68.71061987382744 lineto
207.38702066450264 -66.69715365378373 lineto
209.40048688454635 -64.68368743374 lineto
211.41395310459006 -62.670221213696294 lineto
213.42741932463377 -60.656754993652584 lineto
215.44088554467749 -58.643288773608866 lineto
217.4543517647212 -56.62982255356515 lineto
219.46781798476493 -54.61635633352144 lineto
221.48128420480865 -52.60289011347772 lineto
223.49475042485236 -50.58942389343401 lineto
225.50821664489607 -48.57595767339029 lineto
227.52168286493978 -46.562491453346574 lineto
229.5351490849835 -44.549025233302864 lineto
231.5486153050272 -42.535559013259146 lineto
233.56208152507094 -40.522092793215435 lineto
233.57388313897712 -68.85675395206182 moveto
233.8137648025764 -68.6168643679163 lineto
234.06544808008186 -68.36518109041084 lineto
234.5688146350928 -67.86181453539992 lineto
235.57554774511465 -66.85508142537806 lineto
237.58901396515836 -64.84161916560747 lineto
239.60248018520207 -62.82815294556375 lineto
241.61594640524578 -60.81468672552003 lineto
243.6294126252895 -58.80122050547632 lineto
245.64287884533323 -56.787754285432605 lineto
247.65634506537694 -54.77428806538889 lineto
249.66981128542065 -52.76082184534518 lineto
251.68327750546436 -50.74735562530146 lineto
253.69674372550807 -48.73388940525774 lineto
255.71020994555178 -46.72042318521403 lineto
257.7236761655955 -44.70695696517031 lineto
stroke
newpath
1.0 0.0 0.0 setrgbcolor
2.0 setlinewidth
10.0 setmiterlimit
1 setlinejoin
1 setlinecap
[ ] 0 setdash
newpath
1.954664084715147 -47.62668812638147 moveto
1.954664084715147 -49.05314682305896 lineto
1.6535565986361023 -49.05314682305896 lineto
1.6535565986361023 -47.62668812638147 lineto
1.4193618872412894 -47.62668812638147 lineto
1.4193618872412894 -47.401617884261775 lineto
1.6535565986361023 -47.401617884261775 lineto
1.6535565986361023 -47.203921049967455 lineto
1.6535565986361023 -46.81055502949451 1.8330044997281436 -46.613872036842864 2.1919002858683343 -46.613872036842864 curveto
2.2922694508859167 -46.613872036842864 2.4063253157372273 -46.63060023101246 2.534067883685431 -46.66405661785603 curveto
2.534067883685431 -46.90129281900922 lineto
2.3992285003789817 -46.85972579107265 2.291255616766645 -46.83894227896255 2.210149224418579 -46.83894227896255 curveto
2.1118077193003417 -46.83894227896255 2.044641489530743 -46.86251382529244 2.008650527926289 -46.90965691584475 curveto
1.9726595647129135 -46.95680000850452 1.954664084715147 -47.04424283955632 1.954664084715147 -47.17198540750452 curveto
1.954664084715147 -47.401617884261775 lineto
2.3667859469748502 -47.401617884261775 lineto
2.3667859469748502 -47.62668812638147 lineto
closepath
fill
newpath
grestore
grestore
showpage

%%EOF