%!PS-Adobe-3.0 EPSF-3.0
%%Creator: EpsGraphics 1.0.0 by Thomas Abeel, http://www.sourceforge.net/epsgraphics/
%%Title: GeoGebra, http://www.geogebra.org/
%%CreationDate: Mon Aug 18 13:36:00 CEST 2014
%%BoundingBox: 0 0 556 452
%%DocumentData: Clean7Bit
%%LanguageLevel: 2
%%DocumentProcessColors: Black
%%ColorUsage: Color
%%Origin: 0 0
%%Pages: 1
%%Page: 1 1
%%EndComments

gsave
0.0 452.0 translate
0.0 0.0 0.0 setrgbcolor
0.0 0.0 0.0 setrgbcolor
gsave
newpath
0.0 -0.0 moveto
556.8801104755795 -0.0 lineto
556.8801104755795 -452.2250552310309 lineto
0.0 -452.2250552310309 lineto
0.0 -0.0 lineto
closepath
clip
newpath
1.0 1.0 1.0 setrgbcolor
newpath
0.0 -0.0 moveto
556.8801104755795 -0.0 lineto
556.8801104755795 -452.2250552310309 lineto
0.0 -452.2250552310309 lineto
0.0 -0.0 lineto
closepath
fill
newpath
0.0 0.0 0.0 setrgbcolor
1.0 setlinewidth
10.0 setmiterlimit
0 setlinejoin
0 setlinecap
[ ] 0 setdash
newpath
146.01732557987162 -1.9202762430192395 moveto
146.01732557987162 -452.2250552310309 lineto
stroke
newpath
1.0 setlinewidth
10.0 setmiterlimit
0 setlinejoin
0 setlinecap
[ ] 0 setdash
newpath
146.49739464062642 -0.9601381215096197 moveto
143.13691121534276 -3.840552486038479 lineto
stroke
newpath
1.0 setlinewidth
10.0 setmiterlimit
0 setlinejoin
0 setlinecap
[ ] 0 setdash
newpath
145.53725651911682 -0.9601381215096197 moveto
148.89773994440048 -3.840552486038479 lineto
stroke
newpath
1.0 setlinewidth
10.0 setmiterlimit
0 setlinejoin
0 setlinecap
[ ] 0 setdash
newpath
0.0 -42.990656839694296 moveto
554.9598342325602 -42.990656839694296 lineto
stroke
newpath
1.0 setlinewidth
10.0 setmiterlimit
0 setlinejoin
0 setlinecap
[ ] 0 setdash
newpath
555.9199723540698 -43.47072590044911 moveto
553.039557989541 -40.110242475165435 lineto
stroke
newpath
1.0 setlinewidth
10.0 setmiterlimit
0 setlinejoin
0 setlinecap
[ ] 0 setdash
newpath
555.9199723540698 -42.51058777893949 moveto
553.039557989541 -45.871071204223156 lineto
stroke
newpath
1.0 setlinewidth
10.0 setmiterlimit
0 setlinejoin
0 setlinecap
[ ] 0 setdash
newpath
32.63149880821806 -42.990656839694296 moveto
32.63149880821806 -46.83120932573278 lineto
stroke
newpath
1.0 setlinewidth
10.0 setmiterlimit
0 setlinejoin
0 setlinecap
[ ] 0 setdash
newpath
89.32441219404484 -42.990656839694296 moveto
89.32441219404484 -46.83120932573278 lineto
stroke
newpath
1.0 setlinewidth
10.0 setmiterlimit
0 setlinejoin
0 setlinecap
[ ] 0 setdash
newpath
146.01732557987162 -42.990656839694296 moveto
146.01732557987162 -46.83120932573278 lineto
stroke
newpath
1.0 setlinewidth
10.0 setmiterlimit
0 setlinejoin
0 setlinecap
[ ] 0 setdash
newpath
202.7102389656984 -42.990656839694296 moveto
202.7102389656984 -46.83120932573278 lineto
stroke
newpath
1.0 setlinewidth
10.0 setmiterlimit
0 setlinejoin
0 setlinecap
[ ] 0 setdash
newpath
259.4031523515252 -42.990656839694296 moveto
259.4031523515252 -46.83120932573278 lineto
stroke
newpath
1.0 setlinewidth
10.0 setmiterlimit
0 setlinejoin
0 setlinecap
[ ] 0 setdash
newpath
316.096065737352 -42.990656839694296 moveto
316.096065737352 -46.83120932573278 lineto
stroke
newpath
1.0 setlinewidth
10.0 setmiterlimit
0 setlinejoin
0 setlinecap
[ ] 0 setdash
newpath
372.78897912317876 -42.990656839694296 moveto
372.78897912317876 -46.83120932573278 lineto
stroke
newpath
1.0 setlinewidth
10.0 setmiterlimit
0 setlinejoin
0 setlinecap
[ ] 0 setdash
newpath
429.48189250900555 -42.990656839694296 moveto
429.48189250900555 -46.83120932573278 lineto
stroke
newpath
1.0 setlinewidth
10.0 setmiterlimit
0 setlinejoin
0 setlinecap
[ ] 0 setdash
newpath
486.17480589483233 -42.990656839694296 moveto
486.17480589483233 -46.83120932573278 lineto
stroke
newpath
1.0 setlinewidth
10.0 setmiterlimit
0 setlinejoin
0 setlinecap
[ ] 0 setdash
newpath
542.8677192806591 -42.990656839694296 moveto
542.8677192806591 -46.83120932573278 lineto
stroke
newpath
1.0 setlinewidth
10.0 setmiterlimit
0 setlinejoin
0 setlinecap
[ ] 0 setdash
newpath
142.17677309383313 -439.84105054048285 moveto
146.01732557987162 -439.84105054048285 lineto
stroke
newpath
1.0 setlinewidth
10.0 setmiterlimit
0 setlinejoin
0 setlinecap
[ ] 0 setdash
newpath
142.17677309383313 -383.1481371546559 moveto
146.01732557987162 -383.1481371546559 lineto
stroke
newpath
1.0 setlinewidth
10.0 setmiterlimit
0 setlinejoin
0 setlinecap
[ ] 0 setdash
newpath
142.17677309383313 -326.455223768829 moveto
146.01732557987162 -326.455223768829 lineto
stroke
newpath
1.0 setlinewidth
10.0 setmiterlimit
0 setlinejoin
0 setlinecap
[ ] 0 setdash
newpath
142.17677309383313 -269.76231038300205 moveto
146.01732557987162 -269.76231038300205 lineto
stroke
newpath
1.0 setlinewidth
10.0 setmiterlimit
0 setlinejoin
0 setlinecap
[ ] 0 setdash
newpath
142.17677309383313 -213.06939699717506 moveto
146.01732557987162 -213.06939699717506 lineto
stroke
newpath
1.0 setlinewidth
10.0 setmiterlimit
0 setlinejoin
0 setlinecap
[ ] 0 setdash
newpath
142.17677309383313 -156.37648361134814 moveto
146.01732557987162 -156.37648361134814 lineto
stroke
newpath
1.0 setlinewidth
10.0 setmiterlimit
0 setlinejoin
0 setlinecap
[ ] 0 setdash
newpath
142.17677309383313 -99.68357022552118 moveto
146.01732557987162 -99.68357022552118 lineto
stroke
newpath
1.0 setlinewidth
10.0 setmiterlimit
0 setlinejoin
0 setlinecap
[ ] 0 setdash
newpath
142.17677309383313 -42.99065683969423 moveto
146.01732557987162 -42.99065683969423 lineto
stroke
newpath
1.0 0.0 0.0 setrgbcolor
2.0 setlinewidth
10.0 setmiterlimit
1 setlinejoin
1 setlinecap
[ ] 0 setdash
newpath
0.0 -143.96693607550208 moveto
4.350625863090465 -149.37185911324764 lineto
8.70125172618093 -154.84345678159303 lineto
13.051877589271394 -160.3755905021552 lineto
17.40250345236186 -165.96212169655104 lineto
21.753129315452323 -171.59686783476232 lineto
26.103755178542787 -177.27370498895107 lineto
30.45438104163325 -182.9864799301891 lineto
34.80500690472372 -188.72903942954827 lineto
39.15563276781418 -194.4952302581005 lineto
43.50625863090465 -200.2789138374627 lineto
47.85688449399511 -206.07393693870677 lineto
52.207510357085575 -211.8741609834496 lineto
56.55813622017604 -217.67340344167295 lineto
60.9087620832665 -223.46555503608386 lineto
65.25938794635697 -229.24444788720916 lineto
69.61001380944744 -235.0039287661207 lineto
73.9606396725379 -240.73785909443546 lineto
78.31126553562837 -246.4401002937703 lineto
82.66189139871882 -252.10446983410705 lineto
87.0125172618093 -257.72482913706256 lineto
91.36314312489975 -263.2950542747989 lineto
95.71376898799022 -268.8089627172977 lineto
100.06439485108068 -274.26043053672106 lineto
104.41502071417115 -279.6433045041408 lineto
108.7656465772616 -284.95143139062884 lineto
113.11627244035208 -290.178657967257 lineto
117.46689830344253 -295.3188310050972 lineto
121.817524166533 -300.36582657631135 lineto
126.16815002962348 -305.31346215088126 lineto
130.51877589271393 -310.1556138009689 lineto
134.8694017558044 -314.88612829764617 lineto
139.22002761889487 -319.4988524119849 lineto
143.57065348198532 -323.9876036139669 lineto
147.9212793450758 -328.3463165779343 lineto
152.27190520816626 -332.5687501716887 lineto
156.62253107125673 -336.6488097684822 lineto
160.97315693434717 -340.5803421393866 lineto
165.32378279743764 -344.3571940554738 lineto
169.67440866052812 -347.97318298672565 lineto
174.0250345236186 -351.42221430639415 lineto
178.37566038670906 -354.69810548446105 lineto
182.7262862497995 -357.7947032919983 lineto
187.07691211288997 -360.70588380116783 lineto
191.42753797598044 -363.4254937830415 lineto
195.7781638390709 -365.94735070760106 lineto
200.12878970216136 -368.26533064700857 lineto
204.47941556525183 -370.373309673426 lineto
208.8300414283423 -372.265105256835 lineto
213.18066729143277 -373.93456416830753 lineto
217.5312931545232 -375.3755331789154 lineto
221.88191901761368 -376.58191766191084 lineto
226.23254488070415 -377.5475057861854 lineto
230.58317074379462 -378.26617362390107 lineto
234.93379660688507 -378.73176794612965 lineto
239.28442246997554 -378.9381648250333 lineto
243.635048333066 -378.87918173059364 lineto
247.98567419615648 -378.54866543388255 lineto
252.33630005924695 -377.94049200706206 lineto
256.6869259223374 -377.04850822120403 lineto
261.03755178542787 -375.86656084738036 lineto
265.3881776485183 -374.3884966566628 lineto
269.7388035116088 -372.60819172121353 lineto
274.08942937469925 -370.519434209924 lineto
278.44005523778975 -368.1161294960464 lineto
282.7906811008802 -365.39212435065264 lineto
287.14130696397064 -362.3412655448146 lineto
291.49193282706113 -358.95737054851384 lineto
295.8425586901516 -355.2343447350027 lineto
300.1931845532421 -351.1660055742628 lineto
304.5438104163325 -346.746199837366 lineto
308.89443627942296 -341.96880359647446 lineto
313.24506214251346 -336.8276636226599 lineto
317.5956880056039 -331.316597385904 lineto
321.94631386869435 -325.4294809583689 lineto
326.29693973178485 -319.1601904122166 lineto
330.6475655948753 -312.5025139163386 lineto
334.9981914579658 -305.4503568439871 lineto
339.34881732105623 -297.997565966234 lineto
343.6994431841467 -290.13795875306096 lineto
348.0500690472372 -281.86541127662997 lineto
352.4006949103276 -273.173770308013 lineto
356.7513207734181 -264.05688261828186 lineto
361.10194663650856 -254.50859497850837 lineto
363.2772595680538 -249.57077526913335 lineto
365.452572499599 -244.5227834608546 lineto
367.62788543114425 -239.36387237587377 lineto
369.8031983626895 -234.0932655353023 lineto
371.9785112942347 -228.71020111079665 lineto
374.15382422577994 -223.2139172740134 lineto
376.3291371573252 -217.6036228955189 lineto
378.5044500888704 -211.87857079751475 lineto
380.67976302041563 -206.0379845011124 lineto
382.8550759519609 -200.08108752742328 lineto
385.03038888350613 -194.00711804810393 lineto
387.2057018150513 -187.81531423481084 lineto
389.3810147465966 -181.5048996086555 lineto
391.5563276781418 -175.07511234129439 lineto
393.731640609687 -168.52517595383898 lineto
395.90695354123227 -161.8543139674007 lineto
398.0822664727775 -155.06177920418116 lineto
400.2575794043227 -148.1467951852918 lineto
402.43289233586796 -141.1085854318441 lineto
404.6082052674132 -133.94637346494943 lineto
406.7835181989584 -126.65942675735452 lineto
408.95883113050365 -119.24693952908065 lineto
411.1341440620489 -111.70815727705687 lineto
413.30945699359415 -104.04231084766717 lineto
415.48476992513935 -96.24863841256807 lineto
417.6600828566846 -88.32635616759848 lineto
419.83539578822985 -80.27470960968746 lineto
422.01070871977504 -72.09292225994645 lineto
424.1860216513203 -63.780224964759434 lineto
426.36133458286554 -55.33585589578294 lineto
428.53664751441073 -46.75903857412841 lineto
430.711960445956 -38.04901117145236 lineto
432.88727337750123 -29.205000871502506 lineto
435.0625863090464 -20.22624035198097 lineto
437.2378992405917 -11.111960459271733 lineto
439.4132121721369 -1.861393069875229 lineto
441.5885251036821 7.526230855367176 lineto
stroke
newpath
0.0 0.0 0.0 setrgbcolor
1.0 setlinewidth
10.0 setmiterlimit
1 setlinejoin
1 setlinecap
[ ] 0 setdash
newpath
102.92148978301461 -457.025745838579 moveto
559.2910326789056 4.800690607548098 lineto
stroke
newpath
0.0 0.0 0.0 setrgbcolor
1.0 setlinewidth
10.0 setmiterlimit
1 setlinejoin
1 setlinecap
[ ] 0 setdash
newpath
18.738921630278767 -457.025745838579 moveto
561.6808010831276 -171.5780519624263 lineto
stroke
newpath
0.0 0.0 0.0 setrgbcolor
1.0 setlinewidth
10.0 setmiterlimit
1 setlinejoin
1 setlinecap
[ ] 0 setdash
newpath
-4.800690607548098 -330.19245389714956 moveto
561.6808010831276 -429.1484562596506 lineto
stroke
newpath
0.0 0.0 1.0 setrgbcolor
2.0 setlinewidth
10.0 setmiterlimit
1 setlinejoin
1 setlinecap
[ ] 0 setdash
newpath
-4.800690607548098 -250.42169302057525 moveto
353.85546450965234 -457.025745838579 lineto
stroke
newpath
0.0 0.0 1.0 setrgbcolor
2.0 setlinewidth
10.0 setmiterlimit
1 setlinejoin
1 setlinecap
[ ] 0 setdash
newpath
5.935228817535052 -293.80226518194365 moveto
5.935228817535052 -286.3593194704755 lineto
2.981678932031827 -286.3593194704755 lineto
2.981678932031827 -285.4760674094774 lineto
10.070198657239567 -285.4760674094774 lineto
10.070198657239567 -286.3593194704755 lineto
7.116648771736342 -286.3593194704755 lineto
7.116648771736342 -293.80226518194365 lineto
closepath
14.424575059867179 -293.0259034977542 moveto
13.76072954200803 -293.63724146052846 13.12126256154308 -293.94291041458666 12.506174086616513 -293.94291041458666 curveto
11.999851234012077 -293.94291041458666 11.579790815967236 -293.7844501144197 11.245992802135136 -293.4675295282533 curveto
10.9121947733811 -293.1506089279194 10.745295773926017 -292.75023883456447 10.745295773926017 -292.26641924148197 curveto
10.745295773926017 -291.5988231839739 11.025648612682918 -291.08593691682773 11.586354265131222 -290.72776039636744 curveto
12.147059942645022 -290.36958385989544 12.950613037361009 -290.19049560767115 13.997013552632426 -290.19049560767115 curveto
14.261426590001285 -290.19049560767115 lineto
14.261426590001285 -289.4535145886218 lineto
14.261426590001285 -288.7446625949756 13.897624244055876 -288.3902366298406 13.170019584691522 -288.3902366298406 curveto
12.58493539945973 -288.3902366298406 11.952969494771718 -288.57026253298886 11.274121848663738 -288.93031432318975 curveto
11.274121848663738 -288.01330740635734 lineto
12.020479238799165 -287.7095136947947 12.719954849958295 -287.557616852594 13.372548719697457 -287.557616852594 curveto
14.055146935801215 -287.557616852594 14.55865685315444 -287.71138897819975 14.883078518283392 -288.018933215663 curveto
15.207500197915122 -288.3264774668746 15.36971102322821 -288.80467125836384 15.36971102322821 -289.4535145886218 curveto
15.36971102322821 -292.2214127670362 lineto
15.36971102322821 -292.85525396770396 15.564739084972139 -293.17217453970295 15.954795191023134 -293.17217453970295 curveto
16.003552206459116 -293.17217453970295 16.07481245760902 -293.16467346040514 16.168575944640512 -293.1496713024801 curveto
16.247337274920596 -293.7628845168036 lineto
15.996051118442841 -293.8829017855691 15.718511195655998 -293.94291041458666 15.414717497673973 -293.94291041458666 curveto
14.897143026122773 -293.94291041458666 14.567095560155042 -293.6372414331995 14.424575059867179 -293.0259034977542 curveto
closepath
14.261426590001285 -292.42394190204215 moveto
14.261426590001285 -290.8430894871347 lineto
13.890123175823737 -290.8318378685233 lineto
13.282535752698415 -290.8318378685233 12.79121508585094 -290.94716696272764 12.416161137724986 -291.17782514082506 curveto
12.041107172832811 -291.4084833292337 11.853580207152943 -291.7113393955729 11.853580207152943 -292.0863933436989 curveto
11.853580207152943 -292.3526816587723 11.947343698375986 -292.57771402580363 12.134870672438964 -292.76149046038535 curveto
12.322397654885052 -292.9452669031825 12.551180565086169 -293.0371551163657 12.821219407736855 -293.0371551163657 curveto
13.28253578455423 -293.0371551163657 13.762604838993765 -292.83275070549945 14.261426590001285 -292.42394190204215 curveto
closepath
17.636912173433544 -293.80226518194365 moveto
17.636912173433544 -287.69263627593125 lineto
18.745196606660468 -287.69263627593125 lineto
18.745196606660468 -288.84030137429824 lineto
19.33028079189226 -287.9851783343441 20.04663383868101 -287.557616852594 20.89425576144567 -287.557616852594 curveto
21.423081851943635 -287.557616852594 21.845017538806964 -287.72545350188324 22.160062855232766 -288.06112678545594 curveto
22.475108185742194 -288.3968000840344 22.632630836913282 -288.8478024618115 22.632630836913282 -289.4141339234817 curveto
22.632630836913282 -293.80226518194365 lineto
21.52434640368636 -293.80226518194365 lineto
21.52434640368636 -289.7741857190478 lineto
21.52434640368636 -289.3203704215283 21.457774324918 -288.9968863970959 21.324630173333283 -288.80373361381106 curveto
21.19148601579656 -288.6105808218916 20.971141817374416 -288.51400443456646 20.663597579911134 -288.51400443456646 curveto
19.984749903456297 -288.51400443456646 19.345282923661998 -288.95844338296365 18.745196606660468 -289.84732124002215 curveto
18.745196606660468 -293.80226518194365 lineto
closepath
24.80981903822709 -295.8331823413087 moveto
24.939212652258657 -294.87116895003055 lineto
25.580554932224274 -295.17496266159316 26.212520834397356 -295.32685950379386 26.83511038828644 -295.32685950379386 curveto
28.084040091377382 -295.32685950379386 28.708504887091344 -294.6648892557592 28.708504887091344 -293.34094881887455 curveto
28.708504887091344 -292.3789354275964 lineto
28.299696065358873 -293.23405846755054 27.62834948647706 -293.66161994930064 26.69446515564343 -293.66161994930064 curveto
25.96310992410369 -293.66161994930064 25.381776311214946 -293.3953316342272 24.9504642708701 -292.86275502788834 curveto
24.519152211244098 -292.33017839774146 24.30349620071225 -291.611950078781 24.30349620071225 -290.7080700637974 curveto
24.30349620071225 -289.77793623086484 24.549156547716624 -289.02032726336284 25.040477219761627 -288.43524310428637 curveto
25.531797913770372 -287.8501589190546 26.16751436229886 -287.557616852594 26.94762657440085 -287.557616852594 curveto
27.63022479050461 -287.557616852594 28.217184215046345 -287.8351567866142 28.708504887091344 -288.3902366298406 curveto
28.708504887091344 -287.69263627593125 lineto
29.82241512962399 -287.69263627593125 lineto
29.82241512962399 -292.1370256274504 lineto
29.82241512962399 -293.09341323792546 29.772720479275776 -293.8013275539056 29.6733311830224 -294.26076864035986 curveto
29.573941882325972 -294.7202097473527 29.387352539235163 -295.09620132661854 29.113563157103215 -295.3887434061568 curveto
28.629743542392312 -295.90256733805904 27.877760364411923 -296.1594792810405 26.857613625509323 -296.1594792810405 curveto
26.145011092214194 -296.1594792810405 25.462412907966254 -296.05071363122175 24.80981903822709 -295.8331823413087 curveto
closepath
28.708504887091344 -291.68696088299276 moveto
28.708504887091344 -289.14972088611285 lineto
28.220934732731518 -288.64339803350845 27.690233394205176 -288.3902366298406 27.116400853572465 -288.3902366298406 curveto
26.606327461319108 -288.3902366298406 26.206895011510998 -288.59464104070685 25.918103471454014 -289.0034498441641 curveto
25.629311918487037 -289.41225866589656 25.484916154913538 -289.9729643251352 25.484916154913538 -290.68556682657453 curveto
25.484916154913538 -292.0245094812396 25.955608880853216 -292.69398074871674 26.896994290649367 -292.69398074871674 curveto
27.538336570614987 -292.69398074871674 28.142173425421152 -292.3583074501382 28.708504887091344 -291.68696088299276 curveto
closepath
36.449618491762656 -293.6053618562434 moveto
35.707011641276154 -293.83039423517874 35.07129520398102 -293.94291041458666 34.542469137123426 -293.94291041458666 curveto
33.64233962138221 -293.94291041458666 32.908171525344706 -293.6438048775852 32.33996479393388 -293.04559383032426 curveto
31.771758037122236 -292.4473827563212 31.487654684117235 -291.67195871064877 31.487654684117235 -290.71932168240886 curveto
31.487654684117235 -289.7929383891252 31.738003205682762 -289.0334541516311 32.238700226430915 -288.44086891359206 curveto
32.73939726956197 -287.8482836490624 33.37980189223245 -287.55199104328824 34.15991410433444 -287.55199104328824 curveto
34.898770415172024 -287.55199104328824 35.46979004369091 -287.81452881871274 35.87297303792631 -288.3396043460891 curveto
36.27615605018539 -288.8646798969381 36.477747538291254 -289.61103726360085 36.477747538291254 -290.57867644976585 curveto
36.472121728985535 -290.9218508174148 lineto
32.618442354567044 -290.9218508174148 lineto
32.779715559470674 -292.3733096615475 33.490442815731875 -293.0990390187286 34.750624081435085 -293.0990390187286 curveto
35.21194045825246 -293.0990390187286 35.778271924617194 -292.9752712103142 36.449618491762656 -292.727735604551 curveto
closepath
32.66907463831853 -290.08923104016816 moveto
35.363837295758614 -290.08923104016816 lineto
35.363837295758614 -288.9528175265449 34.94002631543046 -288.3846108205349 34.09240439266579 -288.3846108205349 curveto
33.24103189236056 -288.3846108205349 32.766588664831275 -288.95281757734654 32.66907463831853 -290.08923104016816 curveto
closepath
38.390522702236204 -293.80226518194365 moveto
38.390522702236204 -287.69263627593125 lineto
39.498807135463124 -287.69263627593125 lineto
39.498807135463124 -288.84030137429824 lineto
40.08389132069492 -287.9851783343441 40.80024436748367 -287.557616852594 41.64786629024833 -287.557616852594 curveto
42.176692380746296 -287.557616852594 42.598628067609624 -287.72545350188324 42.91367338403543 -288.06112678545594 curveto
43.228718714544854 -288.3968000840344 43.38624136571594 -288.8478024618115 43.38624136571594 -289.4141339234817 curveto
43.38624136571594 -293.80226518194365 lineto
42.27795693248902 -293.80226518194365 lineto
42.27795693248902 -289.7741857190478 lineto
42.27795693248902 -289.3203704215283 42.21138485372066 -288.9968863970959 42.07824070213594 -288.80373361381106 curveto
41.945096544599224 -288.6105808218916 41.72475234617708 -288.51400443456646 41.417208108713794 -288.51400443456646 curveto
40.73836043225896 -288.51400443456646 40.09889345246465 -288.95844338296365 39.498807135463124 -289.84732124002215 curveto
39.498807135463124 -293.80226518194365 lineto
closepath
47.37494016347173 -293.94291041458666 moveto
46.812359216133466 -293.94291041458666 46.37354610235895 -293.781637209683 46.05850078593315 -293.4590908142947 curveto
45.74345545542372 -293.13654440448744 45.58593280425263 -292.68835493086027 45.58593280425263 -292.11452239022753 curveto
45.58593280425263 -288.5252560531779 lineto
44.82082273867465 -288.5252560531779 lineto
44.82082273867465 -287.69263627593125 lineto
45.58593280425263 -287.69263627593125 lineto
45.58593280425263 -286.58435184270434 lineto
46.694217237479556 -286.47746146589566 lineto
46.694217237479556 -287.69263627593125 lineto
48.291947080304155 -287.69263627593125 lineto
48.291947080304155 -288.5252560531779 lineto
46.694217237479556 -288.5252560531779 lineto
46.694217237479556 -291.9119932552216 lineto
46.694217237479556 -292.7108582004419 47.03926688518035 -293.11029063734003 47.729366149732115 -293.11029063734003 curveto
47.87563719604007 -293.11029063734003 48.05378782282502 -293.08591212962205 48.26381803377555 -293.0371551163657 curveto
48.26381803377555 -293.80226518194365 lineto
47.92251892572367 -293.8960286731667 47.62622630871611 -293.94291041458666 47.37494016347173 -293.94291041458666 curveto
closepath
54.328440465342176 -293.6053618562434 moveto
53.58583361485567 -293.83039423517874 52.95011717756055 -293.94291041458666 52.42129111070295 -293.94291041458666 curveto
51.52116159496173 -293.94291041458666 50.786993498924225 -293.6438048775852 50.2187867675134 -293.04559383032426 curveto
49.65058001070176 -292.4473827563212 49.36647665769676 -291.67195871064877 49.36647665769676 -290.71932168240886 curveto
49.36647665769676 -289.7929383891252 49.616825179262285 -289.0334541516311 50.117522200010434 -288.44086891359206 curveto
50.61821924314149 -287.8482836490624 51.25862386581197 -287.55199104328824 52.03873607791396 -287.55199104328824 curveto
52.77759238875154 -287.55199104328824 53.34861201727043 -287.81452881871274 53.751795011505834 -288.3396043460891 curveto
54.15497802376492 -288.8646798969381 54.35656951187078 -289.61103726360085 54.35656951187078 -290.57867644976585 curveto
54.350943702565054 -290.9218508174148 lineto
50.497264328146564 -290.9218508174148 lineto
50.65853753305019 -292.3733096615475 51.369264789311394 -293.0990390187286 52.629446055014604 -293.0990390187286 curveto
53.09076243183198 -293.0990390187286 53.65709389819671 -292.9752712103142 54.328440465342176 -292.727735604551 curveto
closepath
50.54789661189805 -290.08923104016816 moveto
53.242659269338134 -290.08923104016816 lineto
53.242659269338134 -288.9528175265449 52.81884828900998 -288.3846108205349 51.97122636624532 -288.3846108205349 curveto
51.11985386594008 -288.3846108205349 50.645410638410794 -288.95281757734654 50.54789661189805 -290.08923104016816 curveto
closepath
fill
newpath
0.0 0.0 0.0 setrgbcolor
2.0 setlinewidth
10.0 setmiterlimit
1 setlinejoin
1 setlinecap
[ ] 0 setdash
newpath
196.82831490947206 -364.91091574297616 moveto
196.82831490947206 -366.501724669699 195.538709471666 -367.791330107505 193.9479005449432 -367.791330107505 curveto
192.35709161822035 -367.791330107505 191.06748618041433 -366.501724669699 191.06748618041433 -364.91091574297616 curveto
191.06748618041433 -363.3201068162533 192.35709161822035 -362.0305013784473 193.9479005449432 -362.0305013784473 curveto
195.538709471666 -362.0305013784473 196.82831490947206 -363.3201068162533 196.82831490947206 -364.91091574297616 curveto
closepath
fill
newpath
0.0 0.0 0.0 setrgbcolor
1.0 setlinewidth
10.0 setmiterlimit
1 setlinejoin
1 setlinecap
[ ] 0 setdash
newpath
196.82831490947206 -364.91091574297616 moveto
196.82831490947206 -366.501724669699 195.538709471666 -367.791330107505 193.9479005449432 -367.791330107505 curveto
192.35709161822035 -367.791330107505 191.06748618041433 -366.501724669699 191.06748618041433 -364.91091574297616 curveto
191.06748618041433 -363.3201068162533 192.35709161822035 -362.0305013784473 193.9479005449432 -362.0305013784473 curveto
195.538709471666 -362.0305013784473 196.82831490947206 -363.3201068162533 196.82831490947206 -364.91091574297616 curveto
closepath
stroke
newpath
0.0 0.0 0.0 setrgbcolor
1.0 setlinewidth
10.0 setmiterlimit
1 setlinejoin
1 setlinecap
[ ] 0 setdash
newpath
188.30146327176845 -346.60986186497274 moveto
188.30146327176845 -338.2836640925065 lineto
189.9385737797331 -338.2836640925065 lineto
192.24515559507847 -344.7252157475564 lineto
194.6192471220925 -338.2836640925065 lineto
196.0819575415798 -338.2836640925065 lineto
196.0819575415798 -346.60986186497274 lineto
194.9792989176586 -346.60986186497274 lineto
194.9792989176586 -339.8363874608853 lineto
192.68396872092467 -346.0529067437064 lineto
191.54192943186342 -346.0529067437064 lineto
189.31410894679814 -339.8195100329682 lineto
189.31410894679814 -346.60986186497274 lineto
closepath
fill
newpath
1.0 setlinewidth
10.0 setmiterlimit
1 setlinejoin
1 setlinecap
[ ] 0 setdash
newpath
200.16066928822713 -351.58401492611387 moveto
199.44494130522455 -351.58401492611387 198.86595177891778 -351.24724772013775 198.42370066508593 -350.5737133382949 curveto
197.98144953148392 -349.90017892634273 197.76032398445307 -349.021146226236 197.76032398445307 -347.9366152262385 curveto
197.76032398445307 -346.84270782863626 197.9830122761078 -345.96289378489485 198.42838883950736 -345.2971730269713 curveto
198.87376542281683 -344.6314522392877 199.4605685854778 -344.29859187520594 200.18879833475572 -344.29859187520594 curveto
200.91702811658803 -344.29859187520594 201.5038312666045 -344.6314522690477 201.94920783000407 -345.2971730269713 curveto
202.39458441331354 -345.9628938146549 202.61727268505837 -346.8380197029766 202.61727268505837 -347.92255070297415 curveto
202.61727268505837 -349.0352107988209 202.39458439340365 -349.9236198284195 201.94920783000407 -350.58777786155923 curveto
201.5038312466946 -351.2519359243891 200.90765173491133 -351.58401492611387 200.16066928822713 -351.58401492611387 curveto
closepath
200.17004563707 -350.8901651117417 moveto
201.14831139549707 -350.8901651117417 201.63744423097873 -349.89627210477744 201.63744423097873 -347.9084861797099 curveto
201.63744423097873 -345.9644564616855 201.15456225118007 -344.99244168957813 200.18879833475572 -344.99244168957813 curveto
199.2261598248658 -344.99244168957813 198.74484061295414 -345.97383289771267 198.74484061295414 -347.9366152262385 curveto
198.74484061295414 -349.9056485419224 199.21990896848422 -350.8901651117417 200.17004563707 -350.8901651117417 curveto
closepath
fill
newpath
0.0 0.0 0.0 setrgbcolor
1.0 setlinewidth
10.0 setmiterlimit
1 setlinejoin
1 setlinecap
[ ] 0 setdash
newpath
399.41745854800183 -159.89937690196652 moveto
399.41745854800183 -161.49018582868936 398.1278531101958 -162.77979126649538 396.537044183473 -162.77979126649538 curveto
394.94623525675013 -162.77979126649538 393.6566298189441 -161.49018582868936 393.6566298189441 -159.89937690196652 curveto
393.6566298189441 -158.30856797524368 394.94623525675013 -157.01896253743766 396.537044183473 -157.01896253743766 curveto
398.1278531101958 -157.01896253743766 399.41745854800183 -158.30856797524368 399.41745854800183 -159.89937690196652 curveto
closepath
fill
newpath
0.0 0.0 0.0 setrgbcolor
1.0 setlinewidth
10.0 setmiterlimit
1 setlinejoin
1 setlinecap
[ ] 0 setdash
newpath
399.41745854800183 -159.89937690196652 moveto
399.41745854800183 -161.49018582868936 398.1278531101958 -162.77979126649538 396.537044183473 -162.77979126649538 curveto
394.94623525675013 -162.77979126649538 393.6566298189441 -161.49018582868936 393.6566298189441 -159.89937690196652 curveto
393.6566298189441 -158.30856797524368 394.94623525675013 -157.01896253743766 396.537044183473 -157.01896253743766 curveto
398.1278531101958 -157.01896253743766 399.41745854800183 -158.30856797524368 399.41745854800183 -159.89937690196652 curveto
closepath
stroke
newpath
0.0 0.0 0.0 setrgbcolor
1.0 setlinewidth
10.0 setmiterlimit
1 setlinejoin
1 setlinecap
[ ] 0 setdash
newpath
401.452126246904 -164.183618778145 moveto
401.452126246904 -155.85742100567873 lineto
403.0892367548687 -155.85742100567873 lineto
405.39581857021403 -162.29897266072862 lineto
407.7699100972281 -155.85742100567873 lineto
409.2326205167154 -155.85742100567873 lineto
409.2326205167154 -164.183618778145 lineto
408.1299618927942 -164.183618778145 lineto
408.1299618927942 -157.41014437405758 lineto
405.8346316960602 -163.62666365687866 lineto
404.692592406999 -163.62666365687866 lineto
402.46477192193373 -157.39326694614041 lineto
402.46477192193373 -164.183618778145 lineto
closepath
fill
newpath
1.0 setlinewidth
10.0 setmiterlimit
1 setlinejoin
1 setlinecap
[ ] 0 setdash
newpath
411.7454820066038 -168.98430938569308 moveto
411.7454820066038 -168.2904595713209 lineto
413.1331816353482 -168.2904595713209 lineto
413.1331816353482 -162.81467184708634 lineto
411.7454820066038 -163.16159675427244 lineto
411.7454820066038 -162.44899424221452 lineto
414.0614401707921 -161.87234878837816 lineto
414.0614401707921 -168.2904595713209 lineto
415.44913979953645 -168.2904595713209 lineto
415.44913979953645 -168.98430938569308 lineto
closepath
fill
newpath
0.0 0.0 0.0 setrgbcolor
1.0 setlinewidth
10.0 setmiterlimit
1 setlinejoin
1 setlinecap
[ ] 0 setdash
newpath
349.4902762295016 -284.65001406906646 moveto
349.4902762295016 -286.2408229957893 348.2006707916956 -287.5304284335953 346.60986186497274 -287.5304284335953 curveto
345.0190529382499 -287.5304284335953 343.7294475004439 -286.2408229957893 343.7294475004439 -284.65001406906646 curveto
343.7294475004439 -283.05920514234367 345.0190529382499 -281.7695997045376 346.60986186497274 -281.7695997045376 curveto
348.2006707916956 -281.7695997045376 349.4902762295016 -283.05920514234367 349.4902762295016 -284.65001406906646 curveto
closepath
fill
newpath
0.0 0.0 0.0 setrgbcolor
1.0 setlinewidth
10.0 setmiterlimit
1 setlinejoin
1 setlinecap
[ ] 0 setdash
newpath
349.4902762295016 -284.65001406906646 moveto
349.4902762295016 -286.2408229957893 348.2006707916956 -287.5304284335953 346.60986186497274 -287.5304284335953 curveto
345.0190529382499 -287.5304284335953 343.7294475004439 -286.2408229957893 343.7294475004439 -284.65001406906646 curveto
343.7294475004439 -283.05920514234367 345.0190529382499 -281.7695997045376 346.60986186497274 -281.7695997045376 curveto
348.2006707916956 -281.7695997045376 349.4902762295016 -283.05920514234367 349.4902762295016 -284.65001406906646 curveto
closepath
stroke
newpath
0.0 0.0 0.0 setrgbcolor
1.0 setlinewidth
10.0 setmiterlimit
1 setlinejoin
1 setlinecap
[ ] 0 setdash
newpath
353.44522017142305 -293.80226518194365 moveto
353.44522017142305 -285.4760674094774 lineto
355.08233067938767 -285.4760674094774 lineto
357.38891249473306 -291.9176190645273 lineto
359.76300402174707 -285.4760674094774 lineto
361.2257144412344 -285.4760674094774 lineto
361.2257144412344 -293.80226518194365 lineto
360.1230558173132 -293.80226518194365 lineto
360.1230558173132 -287.0287907778563 lineto
357.82772562057926 -293.2453100606773 lineto
356.685686331518 -293.2453100606773 lineto
354.4578658464527 -287.0119133499391 lineto
354.4578658464527 -293.80226518194365 lineto
closepath
fill
newpath
1.0 setlinewidth
10.0 setmiterlimit
1 setlinejoin
1 setlinecap
[ ] 0 setdash
newpath
363.091607860965 -298.6029557894917 moveto
363.091607860965 -297.7919016145837 lineto
363.3603965358044 -297.16368622338933 363.90422477288223 -296.4792127655445 364.7230925596239 -295.73848121799574 curveto
365.25285626924597 -295.26497560143093 lineto
365.9342043054667 -294.64926200906626 366.2748782931185 -294.0382366187873 366.2748782931185 -293.4318994026504 curveto
366.2748782931185 -293.04434363892847 366.15845529151653 -292.73961230977864 365.92560929872167 -292.51770539047084 curveto
365.69276329551775 -292.29579846124295 365.37318607334157 -292.18484500654904 364.9668776295385 -292.18484500654904 curveto
364.48555837459355 -292.18484500654904 363.9182892742108 -292.37080926414137 363.26507031455805 -292.7427377626996 curveto
363.26507031455805 -291.92699541337015 lineto
363.8807839069227 -291.6363285905787 364.49180929720166 -291.49099519217685 365.09814651333863 -291.49099519217685 curveto
365.7482400524851 -291.49099519217685 366.2701901245652 -291.6660203757932 366.66399677009747 -292.0160707273774 curveto
367.05780343323426 -292.3661210946101 367.2547067471981 -292.83025036051566 367.2547067471981 -293.4084585305432 curveto
367.2547067471981 -293.82414334163207 367.1554737189871 -294.19294638852676 366.9570076714371 -294.51486769400157 curveto
366.758541615015 -294.83678901386736 366.3889571959829 -295.2274702129057 365.848254420768 -295.68691129935996 curveto
365.4919531647391 -295.99164263675317 lineto
364.75122158407703 -296.61985802794754 364.3230350072717 -297.2199443436916 364.2073933732662 -297.7919016145837 curveto
367.2218895262481 -297.7919016145837 lineto
367.2218895262481 -298.6029557894917 lineto
closepath
fill
newpath
0.0 0.0 0.0 setrgbcolor
1.0 setlinewidth
10.0 setmiterlimit
1 setlinejoin
1 setlinecap
[ ] 0 setdash
newpath
262.28356671605405 -376.34498754835664 moveto
262.28356671605405 -377.9357964750795 260.99396127824804 -379.2254019128855 259.4031523515252 -379.2254019128855 curveto
257.81234342480235 -379.2254019128855 256.52273798699633 -377.9357964750795 256.52273798699633 -376.34498754835664 curveto
256.52273798699633 -374.7541786216338 257.81234342480235 -373.4645731838278 259.4031523515252 -373.4645731838278 curveto
260.99396127824804 -373.4645731838278 262.28356671605405 -374.7541786216338 262.28356671605405 -376.34498754835664 curveto
closepath
fill
newpath
0.0 0.0 0.0 setrgbcolor
1.0 setlinewidth
10.0 setmiterlimit
1 setlinejoin
1 setlinecap
[ ] 0 setdash
newpath
262.28356671605405 -376.34498754835664 moveto
262.28356671605405 -377.9357964750795 260.99396127824804 -379.2254019128855 259.4031523515252 -379.2254019128855 curveto
257.81234342480235 -379.2254019128855 256.52273798699633 -377.9357964750795 256.52273798699633 -376.34498754835664 curveto
256.52273798699633 -374.7541786216338 257.81234342480235 -373.4645731838278 259.4031523515252 -373.4645731838278 curveto
260.99396127824804 -373.4645731838278 262.28356671605405 -374.7541786216338 262.28356671605405 -376.34498754835664 curveto
closepath
stroke
newpath
0.0 0.0 0.0 setrgbcolor
1.0 setlinewidth
10.0 setmiterlimit
1 setlinejoin
1 setlinecap
[ ] 0 setdash
newpath
264.1523748710284 -391.73635357592485 moveto
264.1523748710284 -383.4101558034586 lineto
265.78948537899305 -383.4101558034586 lineto
268.09606719433845 -389.8517074585085 lineto
270.47015872135245 -383.4101558034586 lineto
271.9328691408398 -383.4101558034586 lineto
271.9328691408398 -391.73635357592485 lineto
270.83021051691856 -391.73635357592485 lineto
270.83021051691856 -384.96287917183747 lineto
268.53488032018464 -391.17939845465855 lineto
267.3928410311234 -391.17939845465855 lineto
265.1650205460581 -384.9460017439203 lineto
265.1650205460581 -391.73635357592485 lineto
closepath
fill
newpath
1.0 setlinewidth
10.0 setmiterlimit
1 setlinejoin
1 setlinecap
[ ] 0 setdash
newpath
273.97691318858483 -396.4854742648372 moveto
273.97691318858483 -395.6228501712934 lineto
274.63950852656103 -395.8853879467179 275.16145859808233 -396.0166568226938 275.5427634453437 -396.0166568226938 curveto
275.98345185409204 -396.0166568226938 276.3420971883198 -395.8877320222621 276.6186994750627 -395.6298824329255 curveto
276.8953017741707 -395.37203283206213 277.0336029113596 -395.03839108732024 277.0336029113596 -394.6289571939494 curveto
277.0336029113596 -393.6538168852298 276.3506921502851 -393.16624677446214 274.9848706891931 -393.16624677446214 curveto
274.6191930843213 -393.16624677446214 lineto
274.6191930843213 -392.54271957641146 lineto
274.9426771194002 -392.53803140199 lineto
276.22411149944844 -392.53803140199 276.864828632188 -392.08640391926565 276.864828632188 -391.1831489941957 curveto
276.864828632188 -390.473671910608 276.4428929216843 -390.11893340053024 275.5990215384009 -390.11893340053024 curveto
275.1364549817006 -390.11893340053024 274.627006700067 -390.2486395633888 274.0706766770135 -390.5080518775092 curveto
274.0706766770135 -389.7016858770226 lineto
274.6176303758146 -389.51728434428395 275.1489568016278 -389.42508358615805 275.664655980301 -389.42508358615805 curveto
277.0836101474764 -389.42508358615805 277.7930871676319 -389.9610982109831 277.7930871676319 -391.0331274127098 curveto
277.7930871676319 -391.8488697863503 277.3102051878332 -392.4302033954666 276.34444127140887 -392.77712829748316 curveto
277.46335226667054 -393.0365406232002 278.0228077142821 -393.6491287542608 278.0228077142821 -394.61489267068515 curveto
278.0228077142821 -395.268111659539 277.8071516844691 -395.78068538235715 277.37583964412426 -396.1526138809154 curveto
276.9445275844983 -396.5245423961001 276.35225488422054 -396.710506637066 275.5990215384009 -396.710506637066 curveto
275.17083492848235 -396.710506637066 274.6301321482376 -396.63549584408753 273.97691318858483 -396.4854742648372 curveto
closepath
fill
newpath
grestore
grestore
showpage

%%EOF