input ltx-arbre;

setupLaTeXMP(
  inputencoding="latin1",
  fontencoding="T1",
  packages="nicefrac" );

outputtemplate := "arbre.mps";

beginfig(1);
proboffset:=6pt;
draw tree[1][1](4cm,3.5cm)("R","$\nicefrac{6}{10}$", "V", "$\nicefrac{4}{10}$");
draw tree[2][1](3cm,1.5cm)("$1$","$\nicefrac{1}{2}$","$2$","$\nicefrac{1}{3}$", "$4$", "$\nicefrac{1}{6}$");
draw tree[2][2](3cm,1.5cm)("$2$","$\nicefrac{1}{2}$","$4$","$\nicefrac{1}{2}$");
endfig;

verbatimtex
\end{document}
etex;
end;
