%!PS
%%BoundingBox: -213 -26 213 111 
%%HiResBoundingBox: -212.84842 -25.76207 212.84842 110.80142 
%%Creator: MetaPost 2.00
%%CreationDate: 2020.06.05:1425
%%Pages: 1
%*Font: cmr10 9.96265 9.96265 30:c
%%BeginProlog
%%EndProlog
%%Page: 1 1
 1 0 0 setrgbcolor 0 1.5 dtransform truncate idtransform setlinewidth pop
 [] 0 setdash 1 setlinecap 1 setlinejoin 10 setmiterlimit
newpath -204.09462 0 moveto
-204.09462 0 lineto
-199.84238 0 lineto
-195.59015 0 lineto
-191.33792 0 lineto
-187.0857 0 lineto
-182.83347 0 lineto
-178.58124 0 lineto
-174.32901 0 lineto
-170.07678 0 lineto
-165.82455 0 lineto
-161.57233 0 lineto
-157.3201 0 lineto
-153.06787 0 lineto
-148.81564 0 lineto
-144.56342 0 lineto
-140.31119 0 lineto
-136.05896 0 lineto
-131.80673 0 lineto
-127.5545 0 lineto
-123.30228 0 lineto
-119.05005 0 lineto
-114.79782 0 lineto
-110.5456 0 lineto
-106.29337 0 lineto
-102.04114 0 lineto
-97.78891 0 lineto
-93.53668 0 lineto
-89.28445 0 lineto
-85.03223 0 lineto
-80.78 0 lineto
-76.52777 0 lineto
-72.27554 0 lineto
-68.02332 0 lineto
-63.77109 0 lineto
-59.51886 0 lineto
-55.26663 0 lineto
-53.84923 -0.0008 -52.43181 -0.00293 -51.0144 0 curveto
-49.59698 0.00293 -48.17957 0.01094 -46.76218 0 curveto
-45.34468 -0.01094 -43.92693 -0.04086 -42.50995 0.0013 curveto
-41.08386 0.04373 -39.65912 0.15927 -38.25772 0.4282 curveto
-36.80081 0.70781 -35.3814 1.15083 -34.0055 1.70505 curveto
-32.53297 2.29819 -31.11465 3.0167 -29.75327 3.8331 curveto
-28.26726 4.72423 -26.8534 5.72928 -25.50104 6.8124 curveto
-24.0111 8.00569 -22.59833 9.2916 -21.24881 10.6416 curveto
-19.75803 12.13292 -18.34619 13.70062 -16.99658 15.32074 curveto
-15.5077 17.10803 -14.09569 18.9577 -12.74435 20.85109 curveto
-11.25926 22.9319 -9.84824 25.06435 -8.49213 27.23138 curveto
-7.00844 29.60228 -5.59085 32.01393 -4.2399 34.46289 curveto
-2.76949 37.12839 -1.37878 39.83665 0.01233 42.54433 curveto
1.40276 45.25063 2.79391 47.95695 4.26456 50.62057 curveto
5.61569 53.06773 7.03326 55.47765 8.51678 57.8469 curveto
9.8729 60.01266 11.28378 62.1439 12.76901 64.2233 curveto
14.12024 66.11508 15.53232 67.96297 17.02124 69.74846 curveto
18.37086 71.3669 19.78268 72.9329 21.27347 74.42241 curveto
22.62299 75.77077 24.03577 77.05495 25.5257 78.24643 curveto
26.87808 79.32793 28.29193 80.3313 29.77792 81.22052 curveto
31.13942 82.03525 32.55783 82.75186 34.03015 83.3434 curveto
35.40619 83.89624 36.82559 84.33815 38.28238 84.61633 curveto
39.68388 84.88396 41.10863 84.99788 42.5346 85.03935 curveto
43.95161 85.08057 45.36934 85.0504 46.78683 85.03935 curveto
48.20422 85.0283 49.62164 85.03639 51.03906 85.03935 curveto
52.45647 85.04231 53.87389 85.04015 55.29129 85.03935 curveto
59.54352 85.03935 lineto
63.79575 85.03935 lineto
68.04797 85.03935 lineto
72.3002 85.03935 lineto
76.55243 85.03935 lineto
80.80466 85.03935 lineto
85.05688 85.03935 lineto
89.30911 85.03935 lineto
93.56134 85.03935 lineto
97.81357 85.03935 lineto
102.0658 85.03935 lineto
106.31802 85.03935 lineto
110.57025 85.03935 lineto
114.82248 85.03935 lineto
119.0747 85.03935 lineto
123.32693 85.03935 lineto
127.57916 85.03935 lineto
131.83139 85.03935 lineto
136.08362 85.03935 lineto
140.33585 85.03935 lineto
144.58807 85.03935 lineto
148.8403 85.03935 lineto
153.09253 85.03935 lineto
157.34476 85.03935 lineto
161.59698 85.03935 lineto
165.84921 85.03935 lineto
170.10144 85.03935 lineto
174.35367 85.03935 lineto
178.6059 85.03935 lineto
182.85812 85.03935 lineto
187.11035 85.03935 lineto
191.36258 85.03935 lineto stroke
 0 0 0 setrgbcolor 0.5 0 dtransform exch truncate exch idtransform pop setlinewidth
newpath -170.07874 -2.12611 moveto
-170.07874 2.12611 lineto stroke
newpath -127.55905 -2.12611 moveto
-127.55905 2.12611 lineto stroke
newpath -85.03937 -2.12611 moveto
-85.03937 2.12611 lineto stroke
newpath -42.51968 -2.12611 moveto
-42.51968 2.12611 lineto stroke
newpath 0 -2.12611 moveto
0 2.12611 lineto stroke
newpath 42.51968 -2.12611 moveto
42.51968 2.12611 lineto stroke
newpath 85.03937 -2.12611 moveto
85.03937 2.12611 lineto stroke
newpath 127.55905 -2.12611 moveto
127.55905 2.12611 lineto stroke
newpath 170.07874 -2.12611 moveto
170.07874 2.12611 lineto stroke
 0 0.5 dtransform truncate idtransform setlinewidth pop
newpath -2.12611 0 moveto
2.12611 0 lineto stroke
newpath -2.12611 85.03935 moveto
2.12611 85.03935 lineto stroke
newpath -212.59842 0 moveto
212.59842 0 lineto stroke
newpath 208.90005 -1.53195 moveto
212.59842 0 lineto
208.90005 1.53195 lineto
 closepath
gsave fill grestore stroke
 0.5 0 dtransform exch truncate exch idtransform pop setlinewidth
newpath 0 -25.51207 moveto
0 110.55142 lineto stroke
 0 0.5 dtransform truncate idtransform setlinewidth pop
newpath 1.53105 106.85522 moveto
0 110.55142 lineto
-1.53105 106.85522 lineto
 closepath
gsave fill grestore stroke
2.09999 -8.52039 moveto
(0) cmr10 9.96265 fshow
40.02904 -9.4204 moveto
(1) cmr10 9.96265 fshow
-7.9813 81.82915 moveto
(1) cmr10 9.96265 fshow
showpage
%%EOF
