%!PS-Adobe-3.0 EPSF-3.0
%%Creator: EpsGraphics 1.0.0 by Thomas Abeel, http://www.sourceforge.net/epsgraphics/
%%Title: GeoGebra, http://www.geogebra.org/
%%CreationDate: Mon Dec 15 18:16:50 CET 2014
%%BoundingBox: 0 0 360 221
%%DocumentData: Clean7Bit
%%LanguageLevel: 2
%%DocumentProcessColors: Black
%%ColorUsage: Color
%%Origin: 0 0
%%Pages: 1
%%Page: 1 1
%%EndComments

gsave
0.0 221.0 translate
0.0 0.0 0.0 setrgbcolor
0.0 0.0 0.0 setrgbcolor
gsave
newpath
0.0 -0.0 moveto
360.2362714826944 -0.0 lineto
360.2362714826944 -221.54530696185705 lineto
0.0 -221.54530696185705 lineto
0.0 -0.0 lineto
closepath
clip
newpath
1.0 1.0 1.0 setrgbcolor
newpath
0.0 -0.0 moveto
360.2362714826944 -0.0 lineto
360.2362714826944 -221.54530696185705 lineto
0.0 -221.54530696185705 lineto
0.0 -0.0 lineto
closepath
fill
newpath
0.0 0.0 0.0 setrgbcolor
1.0 setlinewidth
10.0 setmiterlimit
0 setlinejoin
0 setlinecap
[ ] 0 setdash
newpath
73.60562859458453 -1.801181357413472 moveto
73.60562859458453 -221.54530696185705 lineto
stroke
newpath
1.0 setlinewidth
10.0 setmiterlimit
0 setlinejoin
0 setlinecap
[ ] 0 setdash
newpath
74.0559239339379 -0.900590678706736 moveto
70.90385655846433 -3.602362714826944 lineto
stroke
newpath
1.0 setlinewidth
10.0 setmiterlimit
0 setlinejoin
0 setlinecap
[ ] 0 setdash
newpath
73.15533325523117 -0.900590678706736 moveto
76.30740063070475 -3.602362714826944 lineto
stroke
newpath
1.0 setlinewidth
10.0 setmiterlimit
0 setlinejoin
0 setlinecap
[ ] 0 setdash
newpath
0.0 -205.29192344302922 moveto
358.43509012528096 -205.29192344302922 lineto
stroke
newpath
1.0 setlinewidth
10.0 setmiterlimit
0 setlinejoin
0 setlinecap
[ ] 0 setdash
newpath
359.33568080398766 -205.7422187823826 moveto
356.63390876786747 -202.590151406909 lineto
stroke
newpath
1.0 setlinewidth
10.0 setmiterlimit
0 setlinejoin
0 setlinecap
[ ] 0 setdash
newpath
359.33568080398766 -204.84162810367584 moveto
356.63390876786747 -207.99369547914944 lineto
stroke
newpath
1.0 setlinewidth
10.0 setmiterlimit
0 setlinejoin
0 setlinecap
[ ] 0 setdash
newpath
16.91271520875776 -205.29192344302922 moveto
16.91271520875776 -208.89428615785616 lineto
stroke
newpath
1.0 setlinewidth
10.0 setmiterlimit
0 setlinejoin
0 setlinecap
[ ] 0 setdash
newpath
130.2985419804113 -205.29192344302922 moveto
130.2985419804113 -208.89428615785616 lineto
stroke
newpath
1.0 setlinewidth
10.0 setmiterlimit
0 setlinejoin
0 setlinecap
[ ] 0 setdash
newpath
186.99145536623809 -205.29192344302922 moveto
186.99145536623809 -208.89428615785616 lineto
stroke
newpath
1.0 setlinewidth
10.0 setmiterlimit
0 setlinejoin
0 setlinecap
[ ] 0 setdash
newpath
243.68436875206484 -205.29192344302922 moveto
243.68436875206484 -208.89428615785616 lineto
stroke
newpath
1.0 setlinewidth
10.0 setmiterlimit
0 setlinejoin
0 setlinecap
[ ] 0 setdash
newpath
300.3772821378916 -205.29192344302922 moveto
300.3772821378916 -208.89428615785616 lineto
stroke
newpath
1.0 setlinewidth
10.0 setmiterlimit
0 setlinejoin
0 setlinecap
[ ] 0 setdash
newpath
70.00326587975759 -157.2154776565926 moveto
73.60562859458453 -157.2154776565926 lineto
stroke
newpath
1.0 setlinewidth
10.0 setmiterlimit
0 setlinejoin
0 setlinecap
[ ] 0 setdash
newpath
70.00326587975759 -109.13903187015605 moveto
73.60562859458453 -109.13903187015605 lineto
stroke
newpath
1.0 setlinewidth
10.0 setmiterlimit
0 setlinejoin
0 setlinecap
[ ] 0 setdash
newpath
70.00326587975759 -61.06258608371946 moveto
73.60562859458453 -61.06258608371946 lineto
stroke
newpath
1.0 setlinewidth
10.0 setmiterlimit
0 setlinejoin
0 setlinecap
[ ] 0 setdash
newpath
70.00326587975759 -12.986140297282883 moveto
73.60562859458453 -12.986140297282883 lineto
stroke
newpath
1.0 0.0 0.0 setrgbcolor
2.0 setlinewidth
10.0 setmiterlimit
1 setlinejoin
1 setlinecap
[ ] 0 setdash
newpath
0.0 -57.75184078689004 moveto
0.7035864677396375 -62.60994731451546 lineto
1.407172935479275 -67.01558727892223 lineto
2.81434587095855 -74.70075782742597 lineto
4.2215188064378255 -81.17917451933226 lineto
5.6286917419171 -86.7143730867715 lineto
8.443037612875651 -95.67436810843421 lineto
11.2573834838342 -102.61370951728756 lineto
14.071729354792751 -108.14668189316872 lineto
16.886075225751302 -112.66148082449911 lineto
19.70042109670985 -116.41547191989322 lineto
22.5147669676684 -119.58602218206816 lineto
25.32911283862695 -122.29933743367472 lineto
28.143458709585502 -124.64768094706454 lineto
30.95780458054405 -126.70003717669178 lineto
33.772150451502604 -128.50906517225133 lineto
36.58649632246115 -130.11560592948777 lineto
39.4008421934197 -131.5518705163773 lineto
42.21518806437825 -132.84354258737704 lineto
45.0295339353368 -134.01142741420887 lineto
47.843879806295355 -135.0724962720223 lineto
50.6582256772539 -136.04077966440258 lineto
53.47257154821245 -136.92791700029844 lineto
56.286917419171004 -137.74372001287327 lineto
59.10126329012955 -138.4964338560459 lineto
61.9156091610881 -139.19313562026332 lineto
64.72995503204665 -139.83983052596307 lineto
67.54430090300521 -140.441713020114 lineto
70.35864677396376 -141.0033041954483 lineto
73.1729926449223 -141.52850675815418 lineto
75.98733851588085 -142.02075618903118 lineto
78.8016843868394 -142.48303448541324 lineto
81.61603025779796 -142.9180350642472 lineto
84.4303761287565 -143.3280665686303 lineto
87.24472199971505 -143.71524525473507 lineto
90.0590678706736 -144.08141254027004 lineto
92.87341374163215 -144.42825868178855 lineto
95.68775961259071 -144.75724032314963 lineto
98.50210548354926 -145.06971791474984 lineto
101.3164513545078 -145.36691448775386 lineto
104.13079722546635 -145.6499156540943 lineto
106.9451430964249 -145.9196970903182 lineto
109.75948896738346 -146.1771932472031 lineto
112.57383483834201 -146.4232148982176 lineto
115.38818070930056 -146.65849036529124 lineto
118.2025265802591 -146.8837479703535 lineto
121.01687245121765 -147.09957861610192 lineto
123.8312183221762 -147.30658694715717 lineto
126.64556419313476 -147.50528141467763 lineto
129.4599100640933 -147.69617046982162 lineto
132.27425593505185 -147.87969385413143 lineto
135.08860180601042 -148.05629130914943 lineto
137.90294767696895 -148.22632012487878 lineto
140.7172935479275 -148.39015133324583 lineto
143.53163941888604 -148.54811474040727 lineto
146.3459852898446 -148.70052641059675 lineto
149.16033116080317 -148.84766118227816 lineto
151.9746770317617 -148.98980763583867 lineto
154.78902290272026 -149.12719938397268 lineto
157.6033687736788 -149.26008378129774 lineto
160.41771464463736 -149.38866695666178 lineto
163.23206051559592 -149.51316878083603 lineto
166.04640638655445 -149.63376789882201 lineto
168.860752257513 -149.75064295562134 lineto
171.67509812847155 -149.86397259623558 lineto
174.4894439994301 -149.9739079818199 lineto
177.30378987038867 -150.08061401545268 lineto
180.1181357413472 -150.18421437444272 lineto
182.93248161230576 -150.28484647802196 lineto
185.7468274832643 -150.3826477454224 lineto
188.56117335422286 -150.47771437010644 lineto
191.37551922518142 -150.57018377130606 lineto
194.18986509613995 -150.6601384005604 lineto
197.00421096709852 -150.74770193517833 lineto
199.81855683805705 -150.83295682669896 lineto
202.6329027090156 -150.91598552666153 lineto
205.44724857997417 -150.9968842285284 lineto
208.2615944509327 -151.07573538383875 lineto
211.07594032189127 -151.15260770220857 lineto
213.8902861928498 -151.22756989325387 lineto
216.70463206380836 -151.30071815043704 lineto
219.51897793476692 -151.37209369952765 lineto
222.33332380572546 -151.4417652501417 lineto
225.14766967668402 -151.5098015118952 lineto
227.96201554764255 -151.57624371055775 lineto
230.7763614186011 -151.64116055574527 lineto
233.59070728955965 -151.70459327322743 lineto
236.4050531605182 -151.76661057262018 lineto
239.21939903147677 -151.82723993776995 lineto
242.0337449024353 -151.8865363363695 lineto
244.84809077339386 -151.9445409941884 lineto
247.6624366443524 -152.0013088789195 lineto
250.47678251531096 -152.056853732486 lineto
253.29112838626952 -152.11123052258063 lineto
256.1054742572281 -152.16446673304984 lineto
258.9198201281866 -152.2166173315864 lineto
261.73416599914515 -152.2676960601135 lineto
264.5485118701037 -152.31773040247757 lineto
267.36285774106227 -152.36677532637137 lineto
270.17720361202083 -152.4148445737181 lineto
272.99154948297934 -152.4619656283642 lineto
275.8058953539379 -152.5081797160792 lineto
278.62024122489646 -152.55350057878633 lineto
281.434587095855 -152.597955700332 lineto
284.2489329668136 -152.64157256456258 lineto
287.0632788377721 -152.68436491340128 lineto
289.87762470873065 -152.7263739726177 lineto
292.6919705796892 -152.767613484135 lineto
295.5063164506478 -152.80809718987643 lineto
298.32066232160633 -152.84785257368836 lineto
301.13500819256484 -152.88689337749398 lineto
303.9493540635234 -152.92524708513972 lineto
306.76369993448196 -152.96291369662555 lineto
309.5780458054405 -152.99993443772107 lineto
312.3923916763991 -153.03632305034947 lineto
315.2067375473576 -153.07207953451078 lineto
318.02108341831615 -153.10723137405137 lineto
320.8354292892747 -153.14179231089443 lineto
323.6497751602333 -153.17577608696317 lineto
326.46412103119184 -153.2091964441808 lineto
329.27846690215034 -153.2420808663937 lineto
332.0928127731089 -153.2744156116787 lineto
334.90715864406747 -153.30622816388217 lineto
337.721504515026 -153.3375322649273 lineto
340.5358503859846 -153.3683416567373 lineto
343.3501962569431 -153.3986700812354 lineto
346.16454212790165 -153.42851753842152 lineto
348.9788879988602 -153.45791151214212 lineto
351.7932338698188 -153.486838260474 lineto
354.60757974077734 -153.51533900918673 lineto
357.42192561173584 -153.54338627443394 lineto
360.2362714826944 -153.5710350239084 lineto
stroke
newpath
0.0 0.0 1.0 setrgbcolor
2.0 setlinewidth
10.0 setmiterlimit
1 setlinejoin
1 setlinecap
[ ] 0 setdash
newpath
-4.50295339353368 -157.2154776565926 moveto
364.7392248762281 -157.2154776565926 lineto
stroke
newpath
grestore
grestore
showpage

%%EOF