%!PS-Adobe-3.0 EPSF-3.0
%%Creator: EpsGraphics 1.0.0 by Thomas Abeel, http://www.sourceforge.net/epsgraphics/
%%Title: GeoGebra, http://www.geogebra.org/
%%CreationDate: Fri Aug 22 15:51:07 CEST 2014
%%BoundingBox: 0 0 232 218
%%DocumentData: Clean7Bit
%%LanguageLevel: 2
%%DocumentProcessColors: Black
%%ColorUsage: Color
%%Origin: 0 0
%%Pages: 1
%%Page: 1 1
%%EndComments

gsave
0.0 218.0 translate
0.0 0.0 0.0 setrgbcolor
0.0 0.0 0.0 setrgbcolor
gsave
newpath
0.0 -0.0 moveto
232.14417167904628 -0.0 lineto
232.14417167904628 -218.30359775780232 lineto
0.0 -218.30359775780232 lineto
0.0 -0.0 lineto
closepath
clip
newpath
1.0 1.0 1.0 setrgbcolor
newpath
0.0 -0.0 moveto
232.14417167904628 -0.0 lineto
232.14417167904628 -218.30359775780232 lineto
0.0 -218.30359775780232 lineto
0.0 -0.0 lineto
closepath
fill
newpath
0.0 0.0 0.0 setrgbcolor
1.0 setlinewidth
10.0 setmiterlimit
0 setlinejoin
0 setlinecap
[ ] 0 setdash
newpath
12.669038075116742 -1.2582339928403592 moveto
12.669038075116742 -218.30359775780232 lineto
stroke
newpath
1.0 setlinewidth
10.0 setmiterlimit
0 setlinejoin
0 setlinecap
[ ] 0 setdash
newpath
12.983596573326832 -0.6291169964201796 moveto
10.781687085856204 -2.5164679856807184 lineto
stroke
newpath
1.0 setlinewidth
10.0 setmiterlimit
0 setlinejoin
0 setlinecap
[ ] 0 setdash
newpath
12.354479576906652 -0.6291169964201796 moveto
14.556389064377282 -2.5164679856807184 lineto
stroke
newpath
1.0 setlinewidth
10.0 setmiterlimit
0 setlinejoin
0 setlinecap
[ ] 0 setdash
newpath
0.0 -208.31456960531946 moveto
230.88593768620592 -208.31456960531946 lineto
stroke
newpath
1.0 setlinewidth
10.0 setmiterlimit
0 setlinejoin
0 setlinecap
[ ] 0 setdash
newpath
231.5150546826261 -208.62912810352955 moveto
229.62770369336556 -206.42721861605892 lineto
stroke
newpath
1.0 setlinewidth
10.0 setmiterlimit
0 setlinejoin
0 setlinecap
[ ] 0 setdash
newpath
231.5150546826261 -208.00001110710937 moveto
229.62770369336556 -210.20192059458 lineto
stroke
newpath
1.0 setlinewidth
10.0 setmiterlimit
0 setlinejoin
0 setlinecap
[ ] 0 setdash
newpath
12.669038075116742 -208.31456960531946 moveto
12.669038075116742 -210.83103759100018 lineto
stroke
newpath
1.0 setlinewidth
10.0 setmiterlimit
0 setlinejoin
0 setlinecap
[ ] 0 setdash
newpath
55.18872311448683 -208.31456960531946 moveto
55.18872311448683 -210.83103759100018 lineto
stroke
newpath
1.0 setlinewidth
10.0 setmiterlimit
0 setlinejoin
0 setlinecap
[ ] 0 setdash
newpath
97.70840815385691 -208.31456960531946 moveto
97.70840815385691 -210.83103759100018 lineto
stroke
newpath
1.0 setlinewidth
10.0 setmiterlimit
0 setlinejoin
0 setlinecap
[ ] 0 setdash
newpath
140.22809319322698 -208.31456960531946 moveto
140.22809319322698 -210.83103759100018 lineto
stroke
newpath
1.0 setlinewidth
10.0 setmiterlimit
0 setlinejoin
0 setlinecap
[ ] 0 setdash
newpath
182.74777823259706 -208.31456960531946 moveto
182.74777823259706 -210.83103759100018 lineto
stroke
newpath
1.0 setlinewidth
10.0 setmiterlimit
0 setlinejoin
0 setlinecap
[ ] 0 setdash
newpath
225.26746327196716 -208.31456960531946 moveto
225.26746327196716 -210.83103759100018 lineto
stroke
newpath
1.0 setlinewidth
10.0 setmiterlimit
0 setlinejoin
0 setlinecap
[ ] 0 setdash
newpath
10.152570089436024 -208.31456960531946 moveto
12.669038075116742 -208.31456960531946 lineto
stroke
newpath
1.0 setlinewidth
10.0 setmiterlimit
0 setlinejoin
0 setlinecap
[ ] 0 setdash
newpath
10.152570089436024 -165.79488456594936 moveto
12.669038075116742 -165.79488456594936 lineto
stroke
newpath
1.0 setlinewidth
10.0 setmiterlimit
0 setlinejoin
0 setlinecap
[ ] 0 setdash
newpath
10.152570089436024 -123.27519952657926 moveto
12.669038075116742 -123.27519952657926 lineto
stroke
newpath
1.0 setlinewidth
10.0 setmiterlimit
0 setlinejoin
0 setlinecap
[ ] 0 setdash
newpath
10.152570089436024 -80.75551448720915 moveto
12.669038075116742 -80.75551448720915 lineto
stroke
newpath
1.0 setlinewidth
10.0 setmiterlimit
0 setlinejoin
0 setlinecap
[ ] 0 setdash
newpath
10.152570089436024 -38.235829447839066 moveto
12.669038075116742 -38.235829447839066 lineto
stroke
newpath
1.0 0.0 0.0 setrgbcolor
2.0 setlinewidth
10.0 setmiterlimit
1 setlinejoin
1 setlinecap
[ ] 0 setdash
newpath
12.66903838655131 -208.3145607216857 moveto
13.99777877373153 -208.29380646530356 lineto
15.326517960966306 -208.2315436961571 lineto
16.65525834814653 -208.12779161337346 lineto
17.983998735326747 -207.98260781433387 lineto
19.312739122506965 -207.7960498964196 lineto
20.641478309741743 -207.56825225352026 lineto
21.970218696921965 -207.29927248301712 lineto
23.298959084102183 -206.98928337705397 lineto
24.627699471282405 -206.63841932952045 lineto
25.956439858462623 -206.24685313256032 lineto
27.285180245642845 -205.81477677744448 lineto
28.613920632823064 -205.34238225544377 lineto
29.942661020003282 -204.8299383543375 lineto
31.271401407183504 -204.27767546365064 lineto
32.60013939447284 -203.68586237116247 lineto
33.92887978165306 -203.05480626290642 lineto
35.25762016883328 -202.38479512578874 lineto
36.586360556013496 -201.67615534497 lineto
37.915100943193714 -200.92925170386482 lineto
39.24384133037394 -200.14444898588792 lineto
40.57257931766327 -199.322131173581 lineto
41.901322104734376 -198.46270144861296 lineto
43.23006009202371 -197.5665821917797 lineto
44.55880287909482 -196.63423418213137 lineto
45.88754086638415 -195.66607980046388 lineto
47.21628365345526 -194.6626182240815 lineto
48.545021640744594 -193.6243678294157 lineto
49.87376442781569 -192.55180859464355 lineto
51.20250241510503 -191.44549729445066 lineto
52.53124040239437 -190.30597150439553 lineto
53.85998318946547 -189.13378799916367 lineto
55.188721176754804 -187.9295419516948 lineto
56.51746396382591 -186.6938477340558 lineto
57.84620195111525 -185.4273005191863 lineto
59.17494473818635 -184.13053387828032 lineto
60.503682725475684 -182.80421978078584 lineto
61.83242551254679 -181.4490109970239 lineto
63.16116349983612 -180.06557949644258 lineto
64.48990628690723 -178.6546356467441 lineto
65.81864427419656 -177.21687061650368 lineto
67.1473822614859 -175.75305237080482 lineto
68.47612504855701 -174.2638720782227 lineto
69.80486303584634 -172.7501169029679 lineto
71.13360582291745 -171.2125356109969 lineto
72.46234381020678 -169.65193456564734 lineto
73.79108659727788 -168.06910093112984 lineto
75.11982458456721 -166.46484107078214 lineto
76.44856737163832 -164.839980547069 lineto
77.77730535892766 -163.19534492245518 lineto
79.10604814599877 -161.53177895853258 lineto
80.4347861332881 -159.85017541471078 lineto
81.76352412057743 -158.15136945301813 lineto
83.09226690764854 -156.43626343242775 lineto
84.42100969471964 -154.70574051278567 lineto
85.74974288222721 -152.96071265262862 lineto
87.07848566929832 -151.2020822109297 lineto
88.40722845636941 -149.43078034535267 lineto
89.73597124344052 -147.64773821356135 lineto
91.06470443094808 -145.85390617234654 lineto
92.39344721801919 -144.0502249789356 lineto
93.7221900050903 -142.23766418924643 lineto
95.05092319259786 -140.417193359197 lineto
96.37966597966897 -138.5897724451417 lineto
97.70840876674006 -136.75640940125268 lineto
99.03715155381117 -134.91807378344785 lineto
100.36588474131874 -133.07577354589935 lineto
101.69462752838984 -131.23050704321574 lineto
103.02337031546095 -129.3832918291327 lineto
104.35211310253206 -127.53513585782235 lineto
105.68084629003963 -125.6870662825839 lineto
107.00958907711072 -123.84010065715302 lineto
108.33833186418182 -121.99526613482888 lineto
109.66706505168939 -120.15360906803784 lineto
110.9958078387605 -118.31615661007905 lineto
112.3245506258316 -116.48395511337884 lineto
113.65329341290271 -114.65805093036352 lineto
114.98202660041026 -112.83947121433225 lineto
116.31076938748137 -111.02928151683845 lineto
117.63951217455248 -109.22852819030842 lineto
118.96825496162359 -107.43824798760491 lineto
120.29698814913115 -105.65951605984483 lineto
121.62573093620226 -103.89335956032741 lineto
122.95447372327337 -102.14084404060601 lineto
124.28320691078092 -100.4030254526705 lineto
125.61194969785203 -98.68094054938364 lineto
126.94069248492313 -96.97563568317167 lineto
128.26943527199424 -95.28817640558805 lineto
129.5981684595018 -93.61958986993193 lineto
130.9269112465729 -91.97093202819318 lineto
132.25565403364402 -90.34323963323453 lineto
133.5843968207151 -88.73753983835523 lineto
134.91313000822268 -87.15487899598153 lineto
136.2418727952938 -85.59627465984913 lineto
137.5706155823649 -84.06276358282076 lineto
138.89934876987246 -82.55534411950502 lineto
140.22809155694355 -81.07505302276465 lineto
141.55683434401467 -79.62288384742644 lineto
142.88557713108577 -78.19984454766254 lineto
144.21431031859333 -76.80692867829973 lineto
145.54305310566446 -75.44512499438305 lineto
146.87179589273555 -74.11541745117577 lineto
148.20053867980667 -72.81877560459583 lineto
149.5292718673142 -71.55616421077941 lineto
150.85801465438533 -70.32854802586266 lineto
152.18675744145642 -69.13686300729115 lineto
153.515490628964 -67.98205471207395 lineto
154.8442334160351 -66.86504949809304 lineto
156.1729762031062 -65.78676892344868 lineto
157.50171899017732 -64.74811534711398 lineto
158.83045217768486 -63.74999592784387 lineto
160.15919496475598 -62.793284225920836 lineto
161.48792815226355 -61.878863401190934 lineto
162.8166805388982 -61.00759741437312 lineto
164.14541372640576 -60.18033102705928 lineto
165.4741469139133 -59.39789940127773 lineto
166.80289930054798 -58.66113769905681 lineto
168.13163248805552 -57.97084748395243 lineto
169.46038487469016 -57.32782551973875 lineto
170.78911806219773 -56.73285897062639 lineto
172.1178512497053 -56.18672060148062 lineto
173.44660363633994 -55.690154378476116 lineto
174.7753368238475 -55.24390426778754 lineto
176.10407001135508 -54.84869503646246 lineto
177.43282239798972 -54.50522745263959 lineto
178.7615555854973 -54.214202284457635 lineto
180.09028877300486 -53.976286701582914 lineto
181.4190411596395 -53.79214307389996 lineto
182.74777434714707 -53.66240977238445 lineto
stroke
newpath
1.0 0.0 0.0 setrgbcolor
2.0 setlinewidth
10.0 setmiterlimit
1 setlinejoin
1 setlinecap
[ ] 0 setdash
newpath
20.872676598026544 -216.48874267242613 moveto
20.957459943247233 -215.85839693187233 lineto
21.377690449473622 -216.05745348745324 21.79177721606298 -216.15698175634517 22.19972026235036 -216.15698175634517 curveto
23.018063879738587 -216.15698175634517 23.42723565184989 -215.723235064246 23.42723565184989 -214.85574171882766 curveto
23.42723565184989 -214.22539597827384 lineto
23.159369422734827 -214.78570331990903 22.719479021758954 -215.06585696567893 22.107564452327875 -215.06585696567893 curveto
21.628354225929364 -215.06585696567893 21.247443554573426 -214.89137529350307 20.96483240804903 -214.5424119647512 curveto
20.682221248890936 -214.19344862039947 20.54091568194559 -213.72283961879262 20.54091568194559 -213.1305849552067 curveto
20.54091568194559 -212.5211278467614 20.70188116824868 -212.02471522922423 21.023812126463422 -211.6413470652433 curveto
21.3457430990696 -211.2579788841245 21.762287358393795 -211.066294810703 22.27344491036835 -211.066294810703 curveto
22.720707788340295 -211.066294810703 23.105304693635148 -211.24814894790038 23.42723565184989 -211.61185720603612 curveto
23.42723565184989 -211.15476438832457 lineto
24.15710966722799 -211.15476438832457 lineto
24.15710966722799 -214.06688798503518 lineto
24.15710966722799 -214.693547511864 24.124547946716294 -215.15739840812049 24.059424508604152 -215.45844071637472 curveto
23.994301067580764 -215.75948303808661 23.872041025551876 -216.00584623076463 23.692644384714654 -216.19753031275508 curveto
23.375628388789487 -216.53420621540428 22.882901990689916 -216.7025441516783 22.21446519195396 -216.7025441516783 curveto
21.747542407257974 -216.7025441516783 21.300279550159107 -216.63127698980364 20.872676598026544 -216.48874267242613 curveto
closepath
23.42723565184989 -213.7719893929632 moveto
23.42723565184989 -212.10949858015755 lineto
23.10776216758422 -211.77773765418934 22.760027581684312 -211.61185720603612 22.384031882395334 -211.61185720603612 curveto
22.04981346808663 -211.61185720603612 21.788090974763552 -211.74579032059364 21.598864381003743 -212.01365653773416 curveto
21.409637778784845 -212.28152276684924 21.315024486134483 -212.64891726178018 21.315024486134483 -213.1158400256031 curveto
21.315024486134483 -213.99316336316343 21.623439272867884 -214.43182499272422 22.240268818760256 -214.43182499272422 curveto
22.66049932498664 -214.43182499272422 23.05615492902221 -214.211879786249 23.42723565184989 -213.7719893929632 curveto
closepath
fill
newpath
0.0 0.0 1.0 setrgbcolor
2.0 setlinewidth
10.0 setmiterlimit
1 setlinejoin
0 setlinecap
[ 2.0 3.0 ] 0 setdash
newpath
-3.145584982100898 -45.15847181449481 moveto
235.28975666114718 -45.15847181449481 lineto
stroke
newpath
0.0 0.0 1.0 setrgbcolor
0.0 0.0 1.0 setrgbcolor
0.0 0.0 1.0 setrgbcolor
2.0 setlinewidth
10.0 setmiterlimit
1 setlinejoin
0 setlinecap
[ 2.0 3.0 ] 0 setdash
newpath
20.121914007373274 -34.03785642689553 moveto
18.647421047013477 -39.49348038022678 lineto
18.647421047013477 -39.69007944746719 18.647421047013477 -39.83752873910884 18.647421047013477 -39.93582826833472 curveto
18.647421047013477 -40.23072686919534 18.745720580633684 -40.378176156442656 18.942319639085436 -40.378176156442656 curveto
19.13891870632585 -40.378176156442656 19.335517764777602 -40.13242732239214 19.532116823229355 -39.64092967626276 curveto
19.532116823229355 -39.54263014264255 19.58126659003946 -39.39518084660657 19.679566119265335 -39.19858178815482 curveto
19.679566119265335 -39.10028225453461 19.728715886075438 -39.05113249211884 19.827015415301315 -39.05113249211884 curveto
19.827015415301315 -39.05113249211884 19.827015415301315 -39.10028225892894 19.827015415301315 -39.19858178815482 curveto
19.827015415301315 -39.296881321775025 19.77786564849121 -39.49348038462111 19.679566119265335 -39.78837897229874 curveto
19.679566119265335 -39.886678505918944 19.63041635245523 -39.98497803514482 19.532116823229355 -40.0832775643707 curveto
19.43381728960915 -40.47647569885152 19.237218226763066 -40.673074748514615 18.942319639085436 -40.673074748514615 curveto
18.549121504604607 -40.673074748514615 18.303372688131414 -40.525625448084305 18.205073158905538 -40.230726860406676 curveto
18.10677362528533 -40.13242732678647 18.05762386286956 -39.98497803075049 18.05762386286956 -39.78837897229874 curveto
18.05762386286956 -39.69007943867853 18.05762386286956 -39.591779909452654 18.05762386286956 -39.49348038022678 curveto
19.237218231157396 -34.775102907075436 lineto
19.237218231157396 -34.480204315003476 lineto
19.237218231157396 -34.480204315003476 19.188068464347293 -34.43105454819337 19.089768935121416 -34.33275501896749 curveto
19.089768935121416 -34.33275501896749 18.99146940150121 -34.33275501896749 18.794870343049457 -34.33275501896749 curveto
18.69657080942925 -34.33275501896749 18.647421047013477 -34.33275501896749 18.647421047013477 -34.33275501896749 curveto
18.647421047013477 -34.136155951727076 18.69657081382358 -34.03785642689553 18.794870343049457 -34.03785642689553 curveto
19.974464711337294 -34.03785642689553 lineto
20.0727642449575 -34.03785642689553 20.121914007373274 -34.03785642689553 20.121914007373274 -34.03785642689553 curveto
closepath
fill
newpath
2.0 setlinewidth
10.0 setmiterlimit
1 setlinejoin
0 setlinecap
[ 2.0 3.0 ] 0 setdash
newpath
26.361758930131348 -38.31388601193894 moveto
26.361758930131348 -40.967973340586575 lineto
26.361758930131348 -41.16457240782699 26.312609163321245 -41.262871932658534 26.21430963409537 -41.262871932658534 curveto
26.11601010047516 -41.262871932658534 26.066860338059392 -41.16457239903833 26.066860338059392 -40.967973340586575 curveto
26.066860338059392 -38.31388601193894 lineto
23.412773009411758 -38.31388601193894 lineto
23.216173942171345 -38.31388601193894 23.1178744173398 -38.26473624512884 23.1178744173398 -38.16643671590296 curveto
23.1178744173398 -38.068137182282754 23.216173950960005 -38.01898741986698 23.412773009411758 -38.01898741986698 curveto
26.066860338059392 -38.01898741986698 lineto
26.066860338059392 -35.36490009121935 lineto
26.066860338059392 -35.168301023978934 26.116010104869495 -35.07000149914739 26.21430963409537 -35.07000149914739 curveto
26.312609167715575 -35.07000149914739 26.361758930131348 -35.168301032767594 26.361758930131348 -35.36490009121935 curveto
26.361758930131348 -38.01898741986698 lineto
29.015846258778982 -38.01898741986698 lineto
29.212445326019395 -38.01898741986698 29.31074485085094 -38.068137186677085 29.31074485085094 -38.16643671590296 curveto
29.31074485085094 -38.26473624952317 29.212445317230735 -38.31388601193894 29.015846258778982 -38.31388601193894 curveto
26.361758930131348 -38.31388601193894 lineto
closepath
fill
newpath
2.0 setlinewidth
10.0 setmiterlimit
1 setlinejoin
0 setlinecap
[ 2.0 3.0 ] 0 setdash
newpath
33.29191184218568 -38.31388601193894 moveto
33.29191184218568 -38.31388601193894 lineto
32.89871370770485 -38.60878461279956 32.652964891231655 -38.90368320047719 32.55466536200578 -39.19858178815482 curveto
32.45636582838557 -39.296881321775025 32.4072160659698 -39.3951808510009 32.4072160659698 -39.49348038022678 curveto
32.4072160659698 -39.98497804832782 32.800414200450625 -40.230726860406676 33.586810434257636 -40.230726860406676 curveto
33.68510996787784 -40.230726860406676 33.78340949710372 -40.230726860406676 33.881709026329595 -40.230726860406676 curveto
34.56980576167105 -40.230726860406676 35.01215363220166 -40.083277559976366 35.20875269065341 -39.78837897229874 curveto
35.30705222427362 -39.78837897229874 35.35620198668939 -39.78837897229874 35.35620198668939 -39.78837897229874 curveto
35.35620198668939 -39.69007943867853 35.35620198668939 -39.64092967626276 35.35620198668939 -39.64092967626276 curveto
35.4545015203096 -39.64092967626276 35.50365128272537 -39.69007944307286 35.50365128272537 -39.78837897229874 curveto
35.50365128272537 -39.886678505918944 35.405351749105165 -40.034127801954924 35.20875269065341 -40.230726860406676 curveto
34.815554556172586 -40.525625461267296 34.324056905648874 -40.673074748514615 33.734259730293616 -40.673074748514615 curveto
33.14446252857237 -40.673074748514615 32.70211465364743 -40.4764756812742 32.4072160659698 -40.0832775643707 curveto
32.30891653234959 -39.88667849713028 32.25976676993382 -39.69007943867853 32.25976676993382 -39.49348038022678 curveto
32.25976676993382 -39.19858177936616 32.40721607036413 -38.854533424878426 32.70211465804176 -38.46133530797492 curveto
32.800414191661964 -38.363035774354714 32.89871372088784 -38.31388601193894 32.99701325011372 -38.31388601193894 curveto
32.800414182873304 -38.11728694469853 32.70211465804176 -37.87153811943667 32.70211465804176 -37.57663953175904 curveto
32.70211465804176 -37.183441397278216 32.947863492092274 -36.88854281399492 33.439361138221656 -36.691943755543164 curveto
33.83255927270248 -36.397045154682544 34.27490715641609 -36.249595867435225 34.76640480254547 -36.249595867435225 curveto
35.1596029370263 -36.249595867435225 35.5036512871197 -36.34789540105543 35.79854987479733 -36.544494459507185 curveto
35.89684940841754 -36.64279399312739 35.94599917083331 -36.74109352235327 35.94599917083331 -36.839393051579144 curveto
35.94599917083331 -36.93769258519935 35.89684940402321 -36.986842347615124 35.79854987479733 -36.986842347615124 curveto
35.79854987479733 -36.986842347615124 35.79854987479733 -36.986842347615124 35.79854987479733 -36.986842347615124 curveto
35.700250341177124 -36.986842347615124 35.60195081195125 -36.986842347615124 35.50365128272537 -36.986842347615124 curveto
35.30705221548496 -36.79024328037471 35.0613033902231 -36.691943755543164 34.76640480254547 -36.691943755543164 curveto
34.07830806720402 -36.691943755543164 33.586810429863306 -36.839393055973474 33.29191184218568 -37.1342916436511 curveto
33.09531277494526 -37.23259117727131 32.99701325011372 -37.38004047330729 32.99701325011372 -37.57663953175904 curveto
32.99701325011372 -37.87153813261966 33.095312783733924 -38.068137186677085 33.29191184218568 -38.16643671590296 curveto
33.586810443046296 -38.068137182282754 33.881709030723925 -38.01898741986698 34.176607618401555 -38.01898741986698 curveto
34.668105286502595 -38.01898741986698 34.91385409858145 -38.068137186677085 34.91385409858145 -38.16643671590296 curveto
34.91385409858145 -38.363035783143374 34.668105264530936 -38.46133530797492 34.176607618401555 -38.46133530797492 curveto
33.78340948392073 -38.46133530797492 33.48851090063743 -38.41218554116482 33.29191184218568 -38.31388601193894 curveto
closepath
33.586810434257636 -38.31388601193894 moveto
33.68510996787784 -38.31388601193894 33.881709030723925 -38.31388601193894 34.176607618401555 -38.31388601193894 curveto
34.37320668564197 -38.31388601193894 34.52065597728362 -38.26473624512884 34.618955506509494 -38.16643671590296 curveto
34.52065597288929 -38.16643671590296 34.37320667685331 -38.16643671590296 34.176607618401555 -38.16643671590296 curveto
33.98000855116114 -38.16643671590296 33.78340949270939 -38.215586482713064 33.586810434257636 -38.31388601193894 curveto
closepath
fill
newpath
0.0 0.0 1.0 setrgbcolor
0.0 0.0 1.0 setrgbcolor
0.0 0.0 1.0 setrgbcolor
2.0 setlinewidth
10.0 setmiterlimit
1 setlinejoin
0 setlinecap
[ 2.0 3.0 ] 0 setdash
newpath
-3.145584982100898 -62.166345830242854 moveto
235.28975666114718 -62.166345830242854 lineto
stroke
newpath
0.0 0.0 1.0 setrgbcolor
0.0 0.0 1.0 setrgbcolor
0.0 0.0 1.0 setrgbcolor
2.0 setlinewidth
10.0 setmiterlimit
1 setlinejoin
0 setlinecap
[ 2.0 3.0 ] 0 setdash
newpath
21.38014792521704 -66.75194054073123 moveto
19.905654964857245 -72.20756449406248 lineto
19.905654964857245 -72.4041635613029 19.905654964857245 -72.55161285294454 19.905654964857245 -72.64991238217041 curveto
19.905654964857245 -72.94481098303105 20.00395449847745 -73.09226027027836 20.200553556929204 -73.09226027027836 curveto
20.397152624169617 -73.09226027027836 20.59375168262137 -72.84651143622784 20.790350741073123 -72.35501379009845 curveto
20.790350741073123 -72.25671425647825 20.839500507883226 -72.10926496044227 20.937800037109103 -71.91266590199052 curveto
20.937800037109103 -71.81436636837032 20.986949803919206 -71.76521660595454 21.085249333145082 -71.76521660595454 curveto
21.085249333145082 -71.76521660595454 21.085249333145082 -71.81436637276464 21.085249333145082 -71.91266590199052 curveto
21.085249333145082 -72.01096543561073 21.03609956633498 -72.2075644984568 20.937800037109103 -72.50246308613444 curveto
20.937800037109103 -72.60076261975465 20.888650270299 -72.69906214898052 20.790350741073123 -72.7973616782064 curveto
20.692051207452916 -73.19055981268723 20.495452144606833 -73.3871588623503 20.200553556929204 -73.3871588623503 curveto
19.807355422448374 -73.3871588623503 19.561606605975182 -73.23970956192 19.463307076749306 -72.94481097424237 curveto
19.3650075431291 -72.84651144062217 19.315857780713326 -72.6990621445862 19.315857780713326 -72.50246308613444 curveto
19.315857780713326 -72.40416355251423 19.315857780713326 -72.30586402328835 19.315857780713326 -72.20756449406248 curveto
20.495452149001164 -67.48918702091113 lineto
20.495452149001164 -67.19428842883917 lineto
20.495452149001164 -67.19428842883917 20.44630238219106 -67.14513866202907 20.348002852965184 -67.04683913280319 curveto
20.348002852965184 -67.04683913280319 20.249703319344977 -67.04683913280319 20.053104260893225 -67.04683913280319 curveto
19.954804727273018 -67.04683913280319 19.905654964857245 -67.04683913280319 19.905654964857245 -67.04683913280319 curveto
19.905654964857245 -66.85024006556277 19.95480473166735 -66.75194054073123 20.053104260893225 -66.75194054073123 curveto
21.232698629181062 -66.75194054073123 lineto
21.33099816280127 -66.75194054073123 21.38014792521704 -66.75194054073123 21.38014792521704 -66.75194054073123 curveto
closepath
fill
newpath
2.0 setlinewidth
10.0 setmiterlimit
1 setlinejoin
0 setlinecap
[ 2.0 3.0 ] 0 setdash
newpath
29.97918045960194 -71.02797012577464 moveto
24.818455098342653 -71.02797012577464 lineto
24.62185603110224 -71.02797012577464 24.523556506270694 -70.97882035896454 24.523556506270694 -70.88052082973866 curveto
24.523556506270694 -70.78222129611845 24.6218560398909 -70.73307153370268 24.818455098342653 -70.73307153370268 curveto
29.97918045960194 -70.73307153370268 lineto
30.17577952684235 -70.73307153370268 30.274079051673898 -70.78222130051279 30.274079051673898 -70.88052082973866 curveto
30.274079051673898 -70.97882036335886 30.17577951805369 -71.02797012577464 29.97918045960194 -71.02797012577464 curveto
closepath
fill
newpath
2.0 setlinewidth
10.0 setmiterlimit
1 setlinejoin
0 setlinecap
[ 2.0 3.0 ] 0 setdash
newpath
34.5501446350806 -71.02797012577464 moveto
34.5501446350806 -71.02797012577464 lineto
34.15694650059977 -71.32286872663526 33.91119768412658 -71.61776731431289 33.8128981549007 -71.91266590199052 curveto
33.714598621280494 -72.01096543561073 33.66544885886472 -72.1092649648366 33.66544885886472 -72.20756449406248 curveto
33.66544885886472 -72.69906216216351 34.05864699334555 -72.94481097424237 34.84504322715256 -72.94481097424237 curveto
34.943342760772765 -72.94481097424237 35.04164228999864 -72.94481097424237 35.13994181922452 -72.94481097424237 curveto
35.82803855456597 -72.94481097424237 36.27038642509658 -72.79736167381206 36.466985483548335 -72.50246308613444 curveto
36.56528501716854 -72.50246308613444 36.614434779584315 -72.50246308613444 36.614434779584315 -72.50246308613444 curveto
36.614434779584315 -72.40416355251423 36.614434779584315 -72.35501379009845 36.614434779584315 -72.35501379009845 curveto
36.71273431320452 -72.35501379009845 36.761884075620294 -72.40416355690856 36.761884075620294 -72.50246308613444 curveto
36.761884075620294 -72.60076261975465 36.66358454200009 -72.74821191579062 36.466985483548335 -72.94481097424237 curveto
36.07378734906751 -73.23970957510299 35.582289698543796 -73.3871588623503 34.99249252318854 -73.3871588623503 curveto
34.40269532146729 -73.3871588623503 33.96034744654235 -73.19055979510989 33.66544885886472 -72.7973616782064 curveto
33.567149325244515 -72.60076261096599 33.51799956282874 -72.40416355251423 33.51799956282874 -72.20756449406248 curveto
33.51799956282874 -71.91266589320185 33.66544886325905 -71.56861753871412 33.96034745093668 -71.17541942181062 curveto
34.05864698455689 -71.07711988819041 34.15694651378276 -71.02797012577464 34.25524604300864 -71.02797012577464 curveto
34.05864697576823 -70.83137105853423 33.96034745093668 -70.58562223327237 33.96034745093668 -70.29072364559474 curveto
33.96034745093668 -69.89752551111391 34.2060962849872 -69.60262692783061 34.69759393111658 -69.40602786937886 curveto
35.090792065597405 -69.11112926851824 35.533139949311014 -68.96367998127093 36.024637595440396 -68.96367998127093 curveto
36.41783572992122 -68.96367998127093 36.761884080014624 -69.06197951489114 37.056782667692254 -69.25857857334289 curveto
37.15508220131246 -69.3568781069631 37.20423196372823 -69.45517763618896 37.20423196372823 -69.55347716541485 curveto
37.20423196372823 -69.65177669903505 37.15508219691813 -69.70092646145082 37.056782667692254 -69.70092646145082 curveto
37.056782667692254 -69.70092646145082 37.056782667692254 -69.70092646145082 37.056782667692254 -69.70092646145082 curveto
36.95848313407205 -69.70092646145082 36.86018360484617 -69.70092646145082 36.761884075620294 -69.70092646145082 curveto
36.56528500837988 -69.5043273942104 36.319536183118025 -69.40602786937886 36.024637595440396 -69.40602786937886 curveto
35.33654086009894 -69.40602786937886 34.84504322275823 -69.55347716980917 34.5501446350806 -69.8483757574868 curveto
34.353545567840186 -69.94667529110701 34.25524604300864 -70.09412458714299 34.25524604300864 -70.29072364559474 curveto
34.25524604300864 -70.58562224645537 34.35354557662885 -70.78222130051279 34.5501446350806 -70.88052082973866 curveto
34.84504323594122 -70.78222129611845 35.13994182361885 -70.73307153370268 35.43484041129648 -70.73307153370268 curveto
35.92633807939752 -70.73307153370268 36.172086891476376 -70.78222130051279 36.172086891476376 -70.88052082973866 curveto
36.172086891476376 -71.07711989697907 35.92633805742586 -71.17541942181062 35.43484041129648 -71.17541942181062 curveto
35.04164227681565 -71.17541942181062 34.74674369353235 -71.12626965500051 34.5501446350806 -71.02797012577464 curveto
closepath
34.84504322715256 -71.02797012577464 moveto
34.943342760772765 -71.02797012577464 35.13994182361885 -71.02797012577464 35.43484041129648 -71.02797012577464 curveto
35.63143947853689 -71.02797012577464 35.77888877017854 -70.97882035896454 35.877188299404416 -70.88052082973866 curveto
35.77888876578421 -70.88052082973866 35.63143946974823 -70.88052082973866 35.43484041129648 -70.88052082973866 curveto
35.238241344056064 -70.88052082973866 35.04164228560431 -70.92967059654876 34.84504322715256 -71.02797012577464 curveto
closepath
fill
newpath
0.0 0.0 1.0 setrgbcolor
0.0 0.0 1.0 setrgbcolor
0.0 0.0 0.0 setrgbcolor
1.0 setlinewidth
10.0 setmiterlimit
1 setlinejoin
0 setlinecap
[ 1.0 3.0 ] 0 setdash
newpath
182.74777823259706 -53.662408822368825 moveto
182.74777823259706 -208.31456960531946 lineto
stroke
newpath
0.26666668 0.26666668 0.26666668 setrgbcolor
1.0 setlinewidth
10.0 setmiterlimit
1 setlinejoin
0 setlinecap
[ 1.0 3.0 ] 0 setdash
newpath
184.6351292218576 -53.662408822368825 moveto
184.6351292218576 -54.70476399131548 183.7901334015437 -55.549759811629364 182.74777823259706 -55.549759811629364 curveto
181.70542306365041 -55.549759811629364 180.86042724333652 -54.70476399131548 180.86042724333652 -53.662408822368825 curveto
180.86042724333652 -52.62005365342216 181.70542306365041 -51.775057833108285 182.74777823259706 -51.775057833108285 curveto
183.7901334015437 -51.775057833108285 184.6351292218576 -52.62005365342216 184.6351292218576 -53.662408822368825 curveto
closepath
fill
newpath
0.0 0.0 0.0 setrgbcolor
1.0 setlinewidth
10.0 setmiterlimit
1 setlinejoin
1 setlinecap
[ ] 0 setdash
newpath
184.6351292218576 -53.662408822368825 moveto
184.6351292218576 -54.70476399131548 183.7901334015437 -55.549759811629364 182.74777823259706 -55.549759811629364 curveto
181.70542306365041 -55.549759811629364 180.86042724333652 -54.70476399131548 180.86042724333652 -53.662408822368825 curveto
180.86042724333652 -52.62005365342216 181.70542306365041 -51.775057833108285 182.74777823259706 -51.775057833108285 curveto
183.7901334015437 -51.775057833108285 184.6351292218576 -52.62005365342216 184.6351292218576 -53.662408822368825 curveto
closepath
stroke
newpath
0.0 0.0 0.0 setrgbcolor
1.0 setlinewidth
10.0 setmiterlimit
1 setlinejoin
1 setlinecap
[ ] 0 setdash
newpath
184.6351292218576 -208.31456960531946 moveto
184.6351292218576 -209.3569247742661 183.7901334015437 -210.20192059458 182.74777823259706 -210.20192059458 curveto
181.70542306365041 -210.20192059458 180.86042724333652 -209.3569247742661 180.86042724333652 -208.31456960531946 curveto
180.86042724333652 -207.2722144363728 181.70542306365041 -206.42721861605892 182.74777823259706 -206.42721861605892 curveto
183.7901334015437 -206.42721861605892 184.6351292218576 -207.2722144363728 184.6351292218576 -208.31456960531946 curveto
closepath
fill
newpath
0.0 0.0 0.0 setrgbcolor
1.0 setlinewidth
10.0 setmiterlimit
1 setlinejoin
1 setlinecap
[ ] 0 setdash
newpath
184.6351292218576 -208.31456960531946 moveto
184.6351292218576 -209.3569247742661 183.7901334015437 -210.20192059458 182.74777823259706 -210.20192059458 curveto
181.70542306365041 -210.20192059458 180.86042724333652 -209.3569247742661 180.86042724333652 -208.31456960531946 curveto
180.86042724333652 -207.2722144363728 181.70542306365041 -206.42721861605892 182.74777823259706 -206.42721861605892 curveto
183.7901334015437 -206.42721861605892 184.6351292218576 -207.2722144363728 184.6351292218576 -208.31456960531946 curveto
closepath
stroke
newpath
0.0 0.0 0.0 setrgbcolor
0.0 0.0 0.0 setrgbcolor
0.0 0.0 0.0 setrgbcolor
1.0 setlinewidth
10.0 setmiterlimit
1 setlinejoin
1 setlinecap
[ ] 0 setdash
newpath
191.20240874677117 -203.2080608949956 moveto
190.90751015469922 -204.38765526328345 lineto
190.809210621079 -204.8791529313845 190.76006085866322 -205.17405151027347 190.76006085866322 -205.27235103949934 curveto
190.76006085866322 -205.56724964035996 190.85836039228343 -205.7638486944174 191.0549594507352 -205.86214822364326 curveto
191.1532589843554 -205.86214822364326 191.25155851358127 -205.86214822364326 191.34985804280714 -205.86214822364326 curveto
191.64475664366776 -205.86214822364326 191.8905054645353 -205.71469892321295 192.08710452298706 -205.4198003355353 curveto
192.28370359022747 -205.2232012682949 192.4311528818691 -204.97745244303306 192.52945241109498 -204.68255385535542 curveto
192.52945241109498 -204.58425432173522 192.57860217790508 -204.53510455931945 192.67690170713098 -204.53510455931945 curveto
192.7752012407512 -204.53510455931945 192.82435100316695 -204.58425432612955 192.82435100316695 -204.68255385535542 curveto
192.82435100316695 -204.78085338897563 192.72605146954675 -204.9774524518217 192.52945241109498 -205.27235103949934 curveto
192.13625427661415 -205.86214824122058 191.74305615971065 -206.1570468157152 191.34985804280714 -206.1570468157152 curveto
190.8583603747061 -206.1570468157152 190.51431202900704 -205.9604477484748 190.3177129705553 -205.5672496315713 curveto
190.3177129705553 -205.46895009795108 190.3177129705553 -205.4198003355353 190.3177129705553 -205.4198003355353 curveto
190.1211139033149 -205.71469893639593 189.87536507805302 -205.91129799045336 189.5804664903754 -206.00959751967923 curveto
189.48216695675518 -206.10789705329944 189.3838674275293 -206.1570468157152 189.28556789830344 -206.1570468157152 curveto
188.89236976382261 -206.1570468157152 188.59747118053932 -206.0095975152849 188.40087212208755 -205.7146989276073 curveto
188.40087212208755 -205.7146989276073 188.40087212208755 -205.61639939398708 188.40087212208755 -205.4198003355353 curveto
188.40087212208755 -205.2232012682949 188.49917165570776 -205.07575197665327 188.69577071415952 -204.97745244742737 curveto
188.79407024777973 -204.97745244742737 188.8432200101955 -204.97745244742737 188.8432200101955 -204.97745244742737 curveto
189.0398190774359 -204.97745244742737 189.18726836907757 -205.02660221423747 189.28556789830344 -205.12490174346337 curveto
189.28556789830344 -205.22320127708358 189.28556789830344 -205.27235103949934 189.28556789830344 -205.27235103949934 curveto
189.28556789830344 -205.46895010673975 189.18726836468323 -205.6163993983814 188.99066930623147 -205.7146989276073 curveto
188.89236977261126 -205.7146989276073 188.8432200101955 -205.7146989276073 188.8432200101955 -205.7146989276073 curveto
188.9415195438157 -205.8129984612275 189.08896883985167 -205.86214822364326 189.28556789830344 -205.86214822364326 curveto
189.58046649916406 -205.86214822364326 189.8262153200316 -205.66554915640285 190.02281437848333 -205.27235103949934 curveto
190.12111391210354 -205.17405150587913 190.1702636745193 -205.07575197665327 190.1702636745193 -204.97745244742737 curveto
190.46516227537992 -203.69955851036468 190.61261156262725 -202.91316229852933 190.61261156262725 -202.6182637108517 curveto
190.61261156262725 -202.22506557637087 190.46516226219694 -202.02846652670777 190.1702636745193 -202.02846652670777 curveto
189.87536507365868 -202.02846652670777 189.58046648598108 -202.2250655939482 189.28556789830344 -202.6182637108517 curveto
189.28556789830344 -202.6182637108517 lineto
189.28556789830344 -202.6182637108517 189.28556789830344 -202.6182637108517 189.28556789830344 -202.6182637108517 curveto
189.18726836468323 -202.71656324447193 189.08896883545737 -202.8640125405079 188.99066930623147 -203.06061159895964 curveto
188.99066930623147 -203.06061159895964 188.99066930623147 -203.10976136576974 188.99066930623147 -203.2080608949956 curveto
188.8432200101955 -203.3555101910316 lineto
188.8432200101955 -203.3555101910316 188.8432200101955 -203.3555101910316 188.8432200101955 -203.3555101910316 curveto
188.7449204765753 -203.3555101910316 188.69577071415952 -203.3555101910316 188.69577071415952 -203.3555101910316 curveto
188.69577071415952 -203.1589111237912 188.79407024777973 -202.91316229852933 188.99066930623147 -202.6182637108517 curveto
189.2855679070921 -202.12676604275066 189.67876602838993 -201.8810172306718 190.1702636745193 -201.8810172306718 curveto
190.66176134262037 -201.8810172306718 191.00580968831943 -202.12676606472232 191.20240874677117 -202.6182637108517 curveto
191.39900781401158 -202.22506557637087 191.64475663927345 -201.97931675989767 191.93965522695106 -201.8810172306718 curveto
192.0379547605713 -201.8810172306718 192.13625428979717 -201.8810172306718 192.23455381902303 -201.8810172306718 curveto
192.62775195350386 -201.8810172306718 192.87350076997706 -201.979316764292 192.97180029920293 -202.17591582274378 curveto
193.07009983282313 -202.27421535636398 193.1192495952389 -202.37251488558985 193.1192495952389 -202.47081441481572 curveto
193.1192495952389 -202.76571301567634 192.9718002948086 -202.91316230292367 192.67690170713098 -202.91316230292367 curveto
192.67690170713098 -203.01146183654387 192.62775194032088 -203.06061159895964 192.52945241109498 -203.06061159895964 curveto
192.33285334385457 -203.06061159895964 192.23455381902303 -202.96231206533943 192.23455381902303 -202.7657130068877 curveto
192.23455381902303 -202.7657130068877 192.23455381902303 -202.7165632400776 192.23455381902303 -202.6182637108517 curveto
192.23455381902303 -202.42166464361128 192.33285335264324 -202.27421535196964 192.52945241109498 -202.17591582274378 curveto
192.52945241109498 -202.17591582274378 192.57860217790508 -202.17591582274378 192.67690170713098 -202.17591582274378 curveto
192.57860217351075 -202.07761628912354 192.43115287747477 -202.02846652670777 192.23455381902303 -202.02846652670777 curveto
191.743056150922 -202.02846652670777 191.44815757203304 -202.3725148943785 191.34985804280714 -203.06061159895964 curveto
191.25155850918694 -203.06061159895964 191.20240874677117 -203.10976136576974 191.20240874677117 -203.2080608949956 curveto
closepath
fill
newpath
1.0 setlinewidth
10.0 setmiterlimit
1 setlinejoin
1 setlinecap
[ ] 0 setdash
newpath
196.49255897259286 -205.36081705243924 moveto
196.49255897259286 -205.98010410370017 196.42374930023053 -206.46177178255212 196.28612996165796 -206.80582012898358 curveto
196.01089127220865 -207.28748783551987 195.63243808652 -207.52832166725577 195.15077040151596 -207.52832166725577 curveto
194.73791236734203 -207.52832166725577 194.42826886016778 -207.39070232253113 194.2218398523089 -207.11546364538594 curveto
194.15303017994657 -207.0466539730236 194.0842205106603 -206.97784430373733 194.01541084137398 -206.90903463445105 curveto
193.808981824287 -206.5649862726394 193.70576732497162 -206.04891374530214 193.70576732497162 -205.36081705243924 curveto
193.70576732497162 -204.672720328816 193.8089818335151 -204.1566478168589 194.01541084137398 -203.81259947042744 curveto
194.22183985846095 -203.33093176389116 194.56588821104447 -203.0556930959741 195.04755589604852 -202.98688342668783 curveto
195.15077040151596 -202.98688342668783 lineto
195.5636284356899 -202.98688342668783 195.87327194286416 -203.15890760759362 196.07970095072304 -203.50295595402508 curveto
196.07970095072304 -203.50295595402508 lineto
196.14851062308537 -203.57176562638742 196.21732029237165 -203.67498013185488 196.28612996165796 -203.81259947042744 curveto
196.4237493063826 -204.15664783223906 196.49255897259286 -204.67272035957632 196.49255897259286 -205.36081705243924 curveto
closepath
195.15077040151596 -207.4251071617883 moveto
195.15077040151596 -207.4251071617883 lineto
195.42600909096527 -207.4251071617883 195.6324380957481 -207.28748781706366 195.77005743432068 -207.01224913991848 curveto
195.838867106683 -206.87462979519384 195.87327193978814 -206.73701045662125 195.87327193978814 -206.5993911180487 curveto
195.94208161215047 -206.32415242859938 195.9764864452556 -205.8768895705484 195.9764864452556 -205.25760254697178 curveto
195.9764864452556 -204.63831549571086 195.94208160907445 -204.19105265304006 195.87327193978814 -203.9158139758949 curveto
195.8044622674258 -203.50295594172096 195.63243808959604 -203.26212210690903 195.35719941245088 -203.19331243762272 curveto
195.28838974008855 -203.19331243762272 195.21958007080227 -203.19331243762272 195.15077040151596 -203.19331243762272 curveto
194.80672203970434 -203.19331243762272 194.56588820181636 -203.33093178234736 194.4282688632438 -203.60617045949255 curveto
194.4282688632438 -203.7437898042172 194.39386402706265 -203.88140914278978 194.32505435777634 -204.01902848136234 curveto
194.32505435777634 -204.22545749844932 194.32505435777634 -204.63831552339516 194.32505435777634 -205.25760254697178 curveto
194.32505435777634 -205.8768895982327 194.3594591939575 -206.3241524409035 194.4282688632438 -206.5993911180487 curveto
194.49707853560614 -207.01224915222264 194.6691027134359 -207.28748782321574 194.94434139058106 -207.4251071617883 curveto
195.0131510629434 -207.4251071617883 195.08196073222967 -207.4251071617883 195.15077040151596 -207.4251071617883 curveto
closepath
fill
newpath
0.0 0.0 0.0 setrgbcolor
0.0 0.0 0.0 setrgbcolor
grestore
grestore
showpage

%%EOF