%!PS-Adobe-3.0 EPSF-3.0
%%Creator: EpsGraphics 1.0.0 by Thomas Abeel, http://www.sourceforge.net/epsgraphics/
%%Title: GeoGebra, http://www.geogebra.org/
%%CreationDate: Mon Dec 15 13:28:29 CET 2014
%%BoundingBox: 0 0 324 316
%%DocumentData: Clean7Bit
%%LanguageLevel: 2
%%DocumentProcessColors: Black
%%ColorUsage: Color
%%Origin: 0 0
%%Pages: 1
%%Page: 1 1
%%EndComments

gsave
0.0 316.0 translate
0.0 0.0 0.0 setrgbcolor
0.0 0.0 0.0 setrgbcolor
gsave
newpath
0.0 -0.0 moveto
324.4971435637477 -0.0 lineto
324.4971435637477 -316.19798388181044 lineto
0.0 -316.19798388181044 lineto
0.0 -0.0 lineto
closepath
clip
newpath
1.0 1.0 1.0 setrgbcolor
newpath
0.0 -0.0 moveto
324.4971435637477 -0.0 lineto
324.4971435637477 -316.19798388181044 lineto
0.0 -316.19798388181044 lineto
0.0 -0.0 lineto
closepath
fill
newpath
0.0 0.0 0.0 setrgbcolor
1.0 setlinewidth
10.0 setmiterlimit
0 setlinejoin
0 setlinecap
[ ] 0 setdash
newpath
49.370420589138305 -1.6598319363874565 moveto
49.370420589138305 -316.19798388181044 lineto
stroke
newpath
1.0 setlinewidth
10.0 setmiterlimit
0 setlinejoin
0 setlinecap
[ ] 0 setdash
newpath
49.78537857323517 -0.8299159681937283 moveto
46.88067268455712 -3.319663872774913 lineto
stroke
newpath
1.0 setlinewidth
10.0 setmiterlimit
0 setlinejoin
0 setlinecap
[ ] 0 setdash
newpath
48.95546260504144 -0.8299159681937283 moveto
51.86016849371949 -3.319663872774913 lineto
stroke
newpath
1.0 setlinewidth
10.0 setmiterlimit
0 setlinejoin
0 setlinecap
[ ] 0 setdash
newpath
0.0 -263.5230653700259 moveto
322.8373116273603 -263.5230653700259 lineto
stroke
newpath
1.0 setlinewidth
10.0 setmiterlimit
0 setlinejoin
0 setlinecap
[ ] 0 setdash
newpath
323.66722759555404 -263.9380233541227 moveto
321.17747969097286 -261.0333174654447 lineto
stroke
newpath
1.0 setlinewidth
10.0 setmiterlimit
0 setlinejoin
0 setlinecap
[ ] 0 setdash
newpath
323.66722759555404 -263.10810738592903 moveto
321.17747969097286 -266.0128132746071 lineto
stroke
newpath
1.0 0.0 0.0 setrgbcolor
2.0 setlinewidth
10.0 setmiterlimit
1 setlinejoin
1 setlinecap
[ ] 0 setdash
newpath
0.0 -285.6045074783682 moveto
2.535133934091779 -285.5739884127654 lineto
5.070267868183558 -285.54060739329276 lineto
7.605401802275338 -285.5041111496963 lineto
10.140535736367116 -285.4641957576714 lineto
12.675669670458896 -285.4205319658878 lineto
15.210803604550676 -285.3727905230153 lineto
17.745937538642455 -285.32059152367304 lineto
20.281071472734233 -285.26350440842924 lineto
22.816205406826015 -285.2010732908268 lineto
25.351339340917793 -285.1327916303577 lineto
27.88647327500957 -285.0581528865141 lineto
30.421607209101353 -284.9764985566357 lineto
32.95674114319313 -284.8872207921129 lineto
35.49187507728491 -284.7895851092092 lineto
38.02700901137669 -284.68283169716284 lineto
40.562142945468466 -284.5660741100848 lineto
43.09727687956025 -284.4384005750608 lineto
45.63241081365203 -284.29877268404977 lineto
48.167544747743804 -284.1461013749594 lineto
50.702678681835586 -283.97912029652 lineto
53.23781261592737 -283.79653777043643 lineto
55.77294655001914 -283.5968595022101 lineto
58.308080484110924 -283.3785152162666 lineto
60.843214418202706 -283.13973202082803 lineto
63.37834835229448 -282.8786103889897 lineto
65.91348228638626 -282.5930735046692 lineto
68.44861622047804 -282.28081660855526 lineto
70.98375015456982 -281.93933232513376 lineto
73.5188840886616 -281.5659106626872 lineto
76.05401802275338 -281.15756303221883 lineto
78.58915195684516 -280.7109969204271 lineto
81.12428589093693 -280.2226665437565 lineto
83.65941982502872 -279.6886462132705 lineto
86.1945537591205 -279.1046556616771 lineto
88.72968769321227 -278.46603471630345 lineto
91.26482162730406 -277.76766731801933 lineto
93.79995556139583 -277.00395619421215 lineto
96.33508949548761 -276.1688228587867 lineto
98.8702234295794 -275.2555303229876 lineto
101.40535736367117 -274.25680973052596 lineto
103.94049129776295 -273.16465774137646 lineto
106.47562523185474 -271.97031120475197 lineto
109.01075916594651 -270.66424715910335 lineto
111.54589310003828 -269.2359802159164 lineto
114.08102703413007 -267.67408788673737 lineto
116.61616096822185 -265.9660839480457 lineto
119.15129490231362 -264.0982918061273 lineto
121.68642883640541 -262.05574318897277 lineto
124.22156277049719 -259.8221021652014 lineto
126.75669670458896 -257.3795131819085 lineto
129.29183063868075 -254.70839844846273 lineto
131.8269645727725 -251.7873819554293 lineto
134.3620985068643 -248.59308685836726 lineto
136.8972324409561 -245.09995818865147 lineto
139.43236637504785 -241.28003491024415 lineto
141.96750030913964 -237.1027219764663 lineto
144.50263424323143 -232.5346130408199 lineto
147.0377681773232 -227.5391358786323 lineto
149.57290211141498 -222.07629911680243 lineto
152.10803604550676 -216.1023883094958 lineto
154.64316997959853 -209.56959869627653 lineto
157.1783039136903 -202.425617306188 lineto
159.7134378477821 -194.61329370642295 lineto
160.981004814828 -190.43717114283874 lineto
162.24857178187386 -186.07008280776463 lineto
163.51613874891976 -181.50326555041343 lineto
164.78370571596565 -176.7276016416424 lineto
166.05127268301155 -171.73354279287702 lineto
167.31883965005744 -166.51109749259837 lineto
168.58640661710334 -161.04981834283038 lineto
169.8539735841492 -155.33877673211444 lineto
171.1215405511951 -149.36657549902208 lineto
172.389107518241 -143.1212349605408 lineto
173.65667448528689 -136.59029422017545 lineto
174.92424145233278 -129.76068453282144 lineto
176.19180841937867 -122.61874196827733 lineto
177.45937538642454 -115.15018208421948 lineto
178.72694235347043 -107.34007459917663 lineto
179.99450932051633 -99.17279907023547 lineto
180.62829280403926 -94.95014442924148 lineto
181.26207628756222 -90.63201956601523 lineto
181.89585977108516 -86.21625268812898 lineto
182.52964325460812 -81.70064667612958 lineto
183.16342673813105 -77.08294742475675 lineto
183.797210221654 -72.36083117943033 lineto
184.43099370517695 -67.53195519030118 lineto
185.06477718869988 -62.59388806293119 lineto
185.69856067222284 -57.54417307585692 lineto
186.33234415574577 -52.380287024173235 lineto
186.96612763926873 -47.09964021953334 lineto
187.59991112279167 -41.699598651296 lineto
188.2336946063146 -36.177458659500125 lineto
188.86747808983756 -30.530459598377494 lineto
189.5012615733605 -24.75578225341366 lineto
190.13504505688346 -18.850537760774326 lineto
190.7688285404064 -12.811773939061712 lineto
191.40261202392935 -6.636472123436366 lineto
192.03639550745228 -0.3215443954737706 lineto
192.67017899097522 6.136165625366119 lineto
stroke
newpath
grestore
grestore
showpage

%%EOF