%!PS-Adobe-3.0 EPSF-3.0
%%Creator: EpsGraphics 1.0.0 by Thomas Abeel, http://www.sourceforge.net/epsgraphics/
%%Title: GeoGebra, http://www.geogebra.org/
%%CreationDate: Mon May 20 15:31:14 CEST 2013
%%BoundingBox: 0 0 316 257
%%DocumentData: Clean7Bit
%%LanguageLevel: 2
%%DocumentProcessColors: Black
%%ColorUsage: Color
%%Origin: 0 0
%%Pages: 1
%%Page: 1 1
%%EndComments

gsave
0.0 257.0 translate
0.0 0.0 0.0 setrgbcolor
0.0 0.0 0.0 setrgbcolor
gsave
newpath
0.0 -0.0 moveto
316.6975048972202 -0.0 lineto
316.6975048972202 -257.1802151837771 lineto
0.0 -257.1802151837771 lineto
0.0 -0.0 lineto
closepath
clip
newpath
1.0 1.0 1.0 setrgbcolor
newpath
0.0 -0.0 moveto
316.6975048972202 -0.0 lineto
316.6975048972202 -257.1802151837771 lineto
0.0 -257.1802151837771 lineto
0.0 -0.0 lineto
closepath
fill
newpath
0.0 0.0 0.0 setrgbcolor
1.0 setlinewidth
10.0 setmiterlimit
0 setlinejoin
0 setlinecap
[ ] 0 setdash
newpath
152.8728664926994 -1.0920603617145523 moveto
152.8728664926994 -257.1802151837771 lineto
stroke
newpath
1.0 setlinewidth
10.0 setmiterlimit
0 setlinejoin
0 setlinecap
[ ] 0 setdash
newpath
153.14588158312802 -0.5460301808572762 moveto
151.23477595012756 -2.1841207234291047 lineto
stroke
newpath
1.0 setlinewidth
10.0 setmiterlimit
0 setlinejoin
0 setlinecap
[ ] 0 setdash
newpath
152.59985140227076 -0.5460301808572762 moveto
154.51095703527122 -2.1841207234291047 lineto
stroke
newpath
1.0 setlinewidth
10.0 setmiterlimit
0 setlinejoin
0 setlinecap
[ ] 0 setdash
newpath
0.0 -218.446258310069 moveto
315.6054445355056 -218.446258310069 lineto
stroke
newpath
1.0 setlinewidth
10.0 setmiterlimit
0 setlinejoin
0 setlinecap
[ ] 0 setdash
newpath
316.1514747163629 -218.71927340049763 moveto
314.51338417379105 -216.80816776749717 lineto
stroke
newpath
1.0 setlinewidth
10.0 setmiterlimit
0 setlinejoin
0 setlinecap
[ ] 0 setdash
newpath
316.1514747163629 -218.17324321964034 moveto
314.51338417379105 -220.08434885264083 lineto
stroke
newpath
0.0 0.0 0.0 setrgbcolor
1.0 setlinewidth
10.0 setmiterlimit
0 setlinejoin
0 setlinecap
[ ] 0 setdash
newpath
8.470399827068196 -224.60876837000265 moveto
8.470399827068196 -224.24617020302713 lineto
10.640656502936471 -224.24617020302713 lineto
10.640656502936471 -224.60876837000265 lineto
closepath
11.584478202269848 -226.07249185286713 moveto
11.584478202269848 -225.60324716619292 lineto
11.8457621833185 -225.70811624702196 12.094604058351198 -225.76055078274848 12.331003840160657 -225.76055078274848 curveto
12.590510379161357 -225.76055078274848 12.794471842562775 -225.68412077468662 12.94288824693187 -225.5312607653963 curveto
13.091304657935696 -225.3784007492726 13.165512856802879 -225.1677738734239 13.165512856802879 -224.89938013618158 curveto
13.165512856802879 -224.30749193421423 12.757589906798351 -224.01154785969 11.94174404326045 -224.01154785969 curveto
11.849317056767049 -224.01154785969 11.752446469285582 -224.01776890685784 11.651132277081528 -224.03021100063728 curveto
11.651132277081528 -222.1105736460609 lineto
13.648088358439438 -222.1105736460609 lineto
13.648088358439438 -222.56915368076528 lineto
12.112378474778348 -222.56915368076528 lineto
12.112378474778348 -223.60895724782748 lineto
12.618949458444101 -223.60895724782748 13.014430291467491 -223.7253797019682 13.298821006426238 -223.95822459984066 curveto
13.58321173409824 -224.19106950812213 13.725407085220985 -224.51367522941607 13.725407085220985 -224.92604176610627 curveto
13.725407085220985 -225.30996924846346 13.596098176232621 -225.61080129791608 13.337480369817012 -225.8285379390564 curveto
13.078862551840285 -226.04627458993028 12.720263630227487 -226.15514290563362 12.26168360235651 -226.15514290563362 curveto
12.062610092986109 -226.15514290563362 11.836874961795736 -226.1275925538904 11.584478202269848 -226.07249185286713 curveto
closepath
fill
newpath
1.0 setlinewidth
10.0 setmiterlimit
0 setlinejoin
0 setlinecap
[ ] 0 setdash
newpath
11.140583028132456 -218.446258310069 moveto
11.140583028132456 -220.6303790334981 lineto
stroke
newpath
0.0 0.0 0.0 setrgbcolor
1.0 setlinewidth
10.0 setmiterlimit
0 setlinejoin
0 setlinecap
[ ] 0 setdash
newpath
36.86396923164656 -224.60876837000265 moveto
36.86396923164656 -224.24617020302713 lineto
39.03422590751483 -224.24617020302713 lineto
39.03422590751483 -224.60876837000265 lineto
closepath
41.36978468891607 -226.05649487491235 moveto
41.36978468891607 -224.9393725810686 lineto
39.59412013593294 -224.9393725810686 lineto
39.59412013593294 -224.54211429519097 lineto
41.36978468891607 -222.1105736460609 lineto
41.8630248425225 -222.1105736460609 lineto
41.8630248425225 -224.51012033928137 lineto
42.390925115030996 -224.51012033928137 lineto
42.390925115030996 -224.9393725810686 lineto
41.8630248425225 -224.9393725810686 lineto
41.8630248425225 -226.05649487491235 lineto
closepath
40.1086895934791 -224.51012033928137 moveto
41.404444807818145 -224.51012033928137 lineto
41.404444807818145 -222.755785090238 lineto
closepath
fill
newpath
1.0 setlinewidth
10.0 setmiterlimit
0 setlinejoin
0 setlinecap
[ ] 0 setdash
newpath
39.487039721045846 -218.446258310069 moveto
39.487039721045846 -220.6303790334981 lineto
stroke
newpath
0.0 0.0 0.0 setrgbcolor
1.0 setlinewidth
10.0 setmiterlimit
0 setlinejoin
0 setlinecap
[ ] 0 setdash
newpath
65.25753863622492 -224.60876837000265 moveto
65.25753863622492 -224.24617020302713 lineto
67.4277953120932 -224.24617020302713 lineto
67.4277953120932 -224.60876837000265 lineto
closepath
68.26230432873541 -226.0271670819952 moveto
68.26230432873541 -225.53659309138123 lineto
68.63912204290081 -225.68589822340903 68.9359548480634 -225.76055078274848 69.15280276821944 -225.76055078274848 curveto
69.40342209698039 -225.76055078274848 69.60738356077911 -225.68723129827055 69.76468717499067 -225.54059233586995 curveto
69.92199079623424 -225.39395336691408 70.000642599824 -225.2042114348507 70.000642599824 -224.9713665369782 curveto
70.000642599824 -224.41680461801778 69.61227151234692 -224.13952368332843 68.83552937211586 -224.13952368332843 curveto
68.62756865870342 -224.13952368332843 lineto
68.62756865870342 -223.7849240053303 lineto
68.81153390518365 -223.78225784233783 lineto
69.54028514484315 -223.78225784233783 69.9046607320952 -223.52541746640907 69.9046607320952 -223.01173673751484 curveto
69.9046607320952 -222.60825739263018 69.66470605562195 -222.40651773822478 69.18479672412906 -222.40651773822478 curveto
68.92173530103246 -222.40651773822478 68.63201225897636 -222.4802815832147 68.31562758858476 -222.62780926659954 curveto
68.31562758858476 -222.1692292318952 lineto
68.62667994697601 -222.06436015106615 68.92884508122239 -222.01192561533963 69.2221230060236 -222.01192561533963 curveto
70.02908169579291 -222.01192561533963 70.4325610046037 -222.31675692656307 70.4325610046037 -222.9264195217559 curveto
70.4325610046037 -223.39033189627082 70.15794620819541 -223.72093609645103 69.60871663993133 -223.91823215495367 curveto
70.24504089309744 -224.06575984493352 70.56320299123459 -224.41413847973672 70.56320299123459 -224.9633680480008 curveto
70.56320299123459 -225.33485343602234 70.44055948992603 -225.62635391527945 70.19527249827411 -225.83786950953004 curveto
69.949985495657 -226.0493851132361 69.61316023853567 -226.15514290563362 69.18479672412906 -226.15514290563362 curveto
68.9412871635599 -226.15514290563362 68.63378970015027 -226.11248429648282 68.26230432873541 -226.0271670819952 curveto
closepath
fill
newpath
1.0 setlinewidth
10.0 setmiterlimit
0 setlinejoin
0 setlinecap
[ ] 0 setdash
newpath
67.83349641395924 -218.446258310069 moveto
67.83349641395924 -220.6303790334981 lineto
stroke
newpath
0.0 0.0 0.0 setrgbcolor
1.0 setlinewidth
10.0 setmiterlimit
0 setlinejoin
0 setlinecap
[ ] 0 setdash
newpath
93.65110804080328 -224.60876837000265 moveto
93.65110804080328 -224.24617020302713 lineto
95.82136471667155 -224.24617020302713 lineto
95.82136471667155 -224.60876837000265 lineto
closepath
96.55455953960002 -226.05649487491235 moveto
96.55455953960002 -225.59524867721552 lineto
96.70741955572373 -225.23798282557757 97.01669446523366 -224.84872303304755 97.4823842609786 -224.4274692865149 curveto
97.7836606791274 -224.1581868242757 lineto
98.1711430455805 -223.80803074082957 98.36488421148523 -223.46054083610852 98.36488421148523 -223.11571709422105 curveto
98.36488421148523 -222.89531428027524 98.2986744951991 -222.72201369045288 98.16625506854643 -222.59581531068994 curveto
98.03383563597416 -222.4696169252855 97.85209219249087 -222.40651773822478 97.62102473658689 -222.40651773822478 curveto
97.34729866120259 -222.40651773822478 97.02469294173618 -222.5122755400778 96.65320757032131 -222.72379113432837 curveto
96.65320757032131 -222.2598787736391 lineto
97.00336365376747 -222.09457666317974 97.3508535584885 -222.01192561533963 97.69567730037598 -222.01192561533963 curveto
98.06538524634958 -222.01192561533963 98.36221805183 -222.11146237002484 98.58617573986001 -222.31053587049595 curveto
98.81013343790171 -222.50960937986636 98.92211227691087 -222.77355951508767 98.92211227691087 -223.10238627925872 curveto
98.92211227691087 -223.33878607163606 98.86567849188846 -223.54852422272626 98.75281092688921 -223.73160074548096 curveto
98.63994335684438 -223.9146772764198 98.42976083971986 -224.1368575242294 98.12226337917072 -224.39814149359776 curveto
97.91963499174321 -224.5714420881081 lineto
97.49838122637907 -224.92870793974606 97.25487168464143 -225.26997679698144 97.18910633180721 -225.59524867721552 curveto
98.9034491359636 -225.59524867721552 lineto
98.9034491359636 -226.05649487491235 lineto
closepath
fill
newpath
1.0 setlinewidth
10.0 setmiterlimit
0 setlinejoin
0 setlinecap
[ ] 0 setdash
newpath
96.17995310687263 -218.446258310069 moveto
96.17995310687263 -220.6303790334981 lineto
stroke
newpath
0.0 0.0 0.0 setrgbcolor
1.0 setlinewidth
10.0 setmiterlimit
0 setlinejoin
0 setlinecap
[ ] 0 setdash
newpath
122.04467744538164 -224.60876837000265 moveto
122.04467744538164 -224.24617020302713 lineto
124.21493412124991 -224.24617020302713 lineto
124.21493412124991 -224.60876837000265 lineto
closepath
125.31605943713886 -226.05649487491235 moveto
125.31605943713886 -225.6619027520272 lineto
126.10524368290913 -225.6619027520272 lineto
126.10524368290913 -222.54782437682553 lineto
125.31605943713886 -222.74512043826812 lineto
125.31605943713886 -222.3398636634131 lineto
126.63314395541764 -222.01192561533963 lineto
126.63314395541764 -225.6619027520272 lineto
127.42232820118792 -225.6619027520272 lineto
127.42232820118792 -226.05649487491235 lineto
closepath
fill
newpath
1.0 setlinewidth
10.0 setmiterlimit
0 setlinejoin
0 setlinecap
[ ] 0 setdash
newpath
124.52640979978602 -218.446258310069 moveto
124.52640979978602 -220.6303790334981 lineto
stroke
newpath
0.0 0.0 0.0 setrgbcolor
1.0 setlinewidth
10.0 setmiterlimit
0 setlinejoin
0 setlinecap
[ ] 0 setdash
newpath
157.33027818548763 -226.15514290563362 moveto
156.9232439565071 -226.15514290563362 156.5939728353202 -225.963623524967 156.34246479677856 -225.58058478075694 curveto
156.0909567469936 -225.19754601942373 155.96520273334443 -224.69764046056096 155.96520273334443 -224.08086809749418 curveto
155.96520273334443 -223.45876338071167 156.09184547926088 -222.95841347202398 156.345130959771 -222.57981833273516 curveto
156.5984164516039 -222.2012231765218 156.93213118478377 -222.01192561533963 157.34627516344244 -222.01192561533963 curveto
157.7604191606148 -222.01192561533963 158.09413388660371 -222.2012231934463 158.34741936711384 -222.57981833273516 curveto
158.60070485894673 -222.9584134889485 158.72734759354043 -223.45609724544997 158.72734759354043 -224.07286960851675 curveto
158.72734759354043 -224.70563897758694 158.60070484762397 -225.21087685142976 158.34741936711384 -225.58858326973436 curveto
158.094133875281 -225.96628970492372 157.75508681595727 -226.15514290563362 157.33027818548763 -226.15514290563362 curveto
closepath
157.33561051147257 -225.76055078274848 moveto
157.89194987248092 -225.76055078274848 158.17011952811478 -225.19532421150038 158.17011952811478 -224.06487111953936 curveto
158.17011952811478 -222.95930216571446 157.89550473170652 -222.40651773822478 157.34627516344244 -222.40651773822478 curveto
156.79882301267384 -222.40651773822478 156.52509696176256 -222.9646345412811 156.52509696176256 -224.08086809749418 curveto
156.52509696176256 -225.20065658770267 156.79526815305096 -225.76055078274848 157.33561051147257 -225.76055078274848 curveto
closepath
fill
newpath
1.0 setlinewidth
10.0 setmiterlimit
0 setlinejoin
0 setlinecap
[ ] 0 setdash
newpath
152.87286649269942 -218.446258310069 moveto
152.87286649269942 -220.6303790334981 lineto
stroke
newpath
0.0 0.0 0.0 setrgbcolor
1.0 setlinewidth
10.0 setmiterlimit
0 setlinejoin
0 setlinecap
[ ] 0 setdash
newpath
180.46510770372376 -226.05649487491235 moveto
180.46510770372376 -225.6619027520272 lineto
181.25429194949402 -225.6619027520272 lineto
181.25429194949402 -222.54782437682553 lineto
180.46510770372376 -222.74512043826812 lineto
180.46510770372376 -222.3398636634131 lineto
181.78219222200252 -222.01192561533963 lineto
181.78219222200252 -225.6619027520272 lineto
182.5713764677728 -225.6619027520272 lineto
182.5713764677728 -226.05649487491235 lineto
closepath
fill
newpath
1.0 setlinewidth
10.0 setmiterlimit
0 setlinejoin
0 setlinecap
[ ] 0 setdash
newpath
181.2193231856128 -218.446258310069 moveto
181.2193231856128 -220.6303790334981 lineto
stroke
newpath
0.0 0.0 0.0 setrgbcolor
1.0 setlinewidth
10.0 setmiterlimit
0 setlinejoin
0 setlinecap
[ ] 0 setdash
newpath
208.49074661534164 -226.05649487491235 moveto
208.49074661534164 -225.59524867721552 lineto
208.64360663146533 -225.23798282557757 208.95288154097528 -224.84872303304755 209.41857133672022 -224.4274692865149 curveto
209.719847754869 -224.1581868242757 lineto
210.1073301213221 -223.80803074082957 210.30107128722685 -223.46054083610852 210.30107128722685 -223.11571709422105 curveto
210.30107128722685 -222.89531428027524 210.2348615709407 -222.72201369045288 210.10244214428803 -222.59581531068994 curveto
209.97002271171576 -222.4696169252855 209.7882792682325 -222.40651773822478 209.55721181232852 -222.40651773822478 curveto
209.28348573694421 -222.40651773822478 208.9608800174778 -222.5122755400778 208.5893946460629 -222.72379113432837 curveto
208.5893946460629 -222.2598787736391 lineto
208.93955072950908 -222.09457666317974 209.28704063423012 -222.01192561533963 209.6318643761176 -222.01192561533963 curveto
210.0015723220912 -222.01192561533963 210.2984051275716 -222.11146237002484 210.5223628156016 -222.31053587049595 curveto
210.74632051364333 -222.50960937986636 210.8582993526525 -222.77355951508767 210.8582993526525 -223.10238627925872 curveto
210.8582993526525 -223.33878607163606 210.80186556763007 -223.54852422272626 210.68899800263083 -223.73160074548096 curveto
210.57613043258598 -223.9146772764198 210.36594791546148 -224.1368575242294 210.05845045491233 -224.39814149359776 curveto
209.85582206748484 -224.5714420881081 lineto
209.43456830212068 -224.92870793974606 209.19105876038304 -225.26997679698144 209.12529340754884 -225.59524867721552 curveto
210.83963621170523 -225.59524867721552 lineto
210.83963621170523 -226.05649487491235 lineto
closepath
fill
newpath
1.0 setlinewidth
10.0 setmiterlimit
0 setlinejoin
0 setlinecap
[ ] 0 setdash
newpath
209.5657798785262 -218.446258310069 moveto
209.5657798785262 -220.6303790334981 lineto
stroke
newpath
0.0 0.0 0.0 setrgbcolor
1.0 setlinewidth
10.0 setmiterlimit
0 setlinejoin
0 setlinecap
[ ] 0 setdash
newpath
236.98563021363375 -226.0271670819952 moveto
236.98563021363375 -225.53659309138123 lineto
237.36244792779917 -225.68589822340903 237.65928073296175 -225.76055078274848 237.87612865311777 -225.76055078274848 curveto
238.12674798187874 -225.76055078274848 238.33070944567743 -225.68723129827055 238.488013059889 -225.54059233586995 curveto
238.64531668113258 -225.39395336691408 238.72396848472235 -225.2042114348507 238.72396848472235 -224.9713665369782 curveto
238.72396848472235 -224.41680461801778 238.33559739724527 -224.13952368332843 237.5588552570142 -224.13952368332843 curveto
237.35089454360175 -224.13952368332843 lineto
237.35089454360175 -223.7849240053303 lineto
237.53485979008198 -223.78225784233783 lineto
238.2636110297415 -223.78225784233783 238.62798661699352 -223.52541746640907 238.62798661699352 -223.01173673751484 curveto
238.62798661699352 -222.60825739263018 238.38803194052028 -222.40651773822478 237.9081226090274 -222.40651773822478 curveto
237.64506118593079 -222.40651773822478 237.35533814387472 -222.4802815832147 237.0389534734831 -222.62780926659954 curveto
237.0389534734831 -222.1692292318952 lineto
237.35000583187434 -222.06436015106615 237.6521709661207 -222.01192561533963 237.94544889092194 -222.01192561533963 curveto
238.75240758069123 -222.01192561533963 239.15588688950203 -222.31675692656307 239.15588688950203 -222.9264195217559 curveto
239.15588688950203 -223.39033189627082 238.88127209309374 -223.72093609645103 238.33204252482966 -223.91823215495367 curveto
238.96836677799575 -224.06575984493352 239.2865288761329 -224.41413847973672 239.2865288761329 -224.9633680480008 curveto
239.2865288761329 -225.33485343602234 239.16388537482436 -225.62635391527945 238.91859838317245 -225.83786950953004 curveto
238.67331138055533 -226.0493851132361 238.33648612343399 -226.15514290563362 237.9081226090274 -226.15514290563362 curveto
237.66461304845825 -226.15514290563362 237.35711558504863 -226.11248429648282 236.98563021363375 -226.0271670819952 curveto
closepath
fill
newpath
1.0 setlinewidth
10.0 setmiterlimit
0 setlinejoin
0 setlinecap
[ ] 0 setdash
newpath
237.9122365714396 -218.446258310069 moveto
237.9122365714396 -220.6303790334981 lineto
stroke
newpath
0.0 0.0 0.0 setrgbcolor
1.0 setlinewidth
10.0 setmiterlimit
0 setlinejoin
0 setlinecap
[ ] 0 setdash
newpath
266.88024938297116 -226.05649487491235 moveto
266.88024938297116 -224.9393725810686 lineto
265.10458482998797 -224.9393725810686 lineto
265.10458482998797 -224.54211429519097 lineto
266.88024938297116 -222.1105736460609 lineto
267.37348953657755 -222.1105736460609 lineto
267.37348953657755 -224.51012033928137 lineto
267.9013898090861 -224.51012033928137 lineto
267.9013898090861 -224.9393725810686 lineto
267.37348953657755 -224.9393725810686 lineto
267.37348953657755 -226.05649487491235 lineto
closepath
265.6191542875342 -224.51012033928137 moveto
266.9149095018732 -224.51012033928137 lineto
266.9149095018732 -222.755785090238 lineto
closepath
fill
newpath
1.0 setlinewidth
10.0 setmiterlimit
0 setlinejoin
0 setlinecap
[ ] 0 setdash
newpath
266.258693264353 -218.446258310069 moveto
266.258693264353 -220.6303790334981 lineto
stroke
newpath
0.0 0.0 0.0 setrgbcolor
1.0 setlinewidth
10.0 setmiterlimit
0 setlinejoin
0 setlinecap
[ ] 0 setdash
newpath
293.88208170548165 -226.07249185286713 moveto
293.88208170548165 -225.60324716619292 lineto
294.1433656865303 -225.70811624702196 294.392207561563 -225.76055078274848 294.62860734337244 -225.76055078274848 curveto
294.88811388237315 -225.76055078274848 295.09207534577456 -225.68412077468662 295.24049175014363 -225.5312607653963 curveto
295.38890816114747 -225.3784007492726 295.4631163600147 -225.1677738734239 295.4631163600147 -224.89938013618158 curveto
295.4631163600147 -224.30749193421423 295.05519341001013 -224.01154785969 294.23934754647223 -224.01154785969 curveto
294.14692055997887 -224.01154785969 294.0500499724974 -224.01776890685784 293.9487357802933 -224.03021100063728 curveto
293.9487357802933 -222.1105736460609 lineto
295.9456918616512 -222.1105736460609 lineto
295.9456918616512 -222.56915368076528 lineto
294.4099819779901 -222.56915368076528 lineto
294.4099819779901 -223.60895724782748 lineto
294.9165529616559 -223.60895724782748 295.3120337946793 -223.7253797019682 295.59642450963804 -223.95822459984066 curveto
295.88081523731006 -224.19106950812213 296.0230105884328 -224.51367522941607 296.0230105884328 -224.92604176610627 curveto
296.0230105884328 -225.30996924846346 295.8937016794444 -225.61080129791608 295.6350838730288 -225.8285379390564 curveto
295.37646605505205 -226.04627458993028 295.01786713343927 -226.15514290563362 294.5592871055683 -226.15514290563362 curveto
294.36021359619787 -226.15514290563362 294.13447846500753 -226.1275925538904 293.88208170548165 -226.07249185286713 curveto
closepath
fill
newpath
1.0 setlinewidth
10.0 setmiterlimit
0 setlinejoin
0 setlinecap
[ ] 0 setdash
newpath
294.60514995726635 -218.446258310069 moveto
294.60514995726635 -220.6303790334981 lineto
stroke
newpath
0.0 0.0 0.0 setrgbcolor
1.0 setlinewidth
10.0 setmiterlimit
0 setlinejoin
0 setlinecap
[ ] 0 setdash
newpath
143.3398544988154 -246.996005785151 moveto
143.3398544988154 -246.63340761817545 lineto
145.5101111746837 -246.63340761817545 lineto
145.5101111746837 -246.996005785151 lineto
closepath
146.61123649057262 -248.44373229006067 moveto
146.61123649057262 -248.04914016717552 lineto
147.4004207363429 -248.04914016717552 lineto
147.4004207363429 -244.93506179197385 lineto
146.61123649057262 -245.13235785341644 lineto
146.61123649057262 -244.72710107856142 lineto
147.9283210088514 -244.39916303048795 lineto
147.9283210088514 -248.04914016717552 lineto
148.7175052546217 -248.04914016717552 lineto
148.7175052546217 -248.44373229006067 lineto
closepath
fill
newpath
1.0 setlinewidth
10.0 setmiterlimit
0 setlinejoin
0 setlinecap
[ ] 0 setdash
newpath
150.68874576927027 -246.7927150029824 moveto
152.8728664926994 -246.7927150029824 lineto
stroke
newpath
0.0 0.0 0.0 setrgbcolor
1.0 setlinewidth
10.0 setmiterlimit
0 setlinejoin
0 setlinecap
[ ] 0 setdash
newpath
147.50173493005667 -217.4186600119172 moveto
147.0947007010761 -217.4186600119172 146.7654295798892 -217.2271406312506 146.51392154134757 -216.84410188704052 curveto
146.26241349156265 -216.4610631257073 146.13665947791347 -215.96115756684452 146.13665947791347 -215.34438520377773 curveto
146.13665947791347 -214.72228048699523 146.26330222382992 -214.22193057830756 146.51658770434005 -213.84333543901872 curveto
146.7698731961729 -213.46474028280537 147.10358792935278 -213.27544272162322 147.51773190801146 -213.27544272162322 curveto
147.9318759051838 -213.27544272162322 148.26559063117276 -213.4647402997299 148.51887611168289 -213.84333543901872 curveto
148.77216160351574 -214.22193059523207 148.89880433810944 -214.71961435173355 148.89880433810944 -215.33638671480034 curveto
148.89880433810944 -215.96915608387053 148.77216159219302 -216.47439395771335 148.51887611168289 -216.85210037601792 curveto
148.26559061985 -217.2298068112073 147.92654356052628 -217.4186600119172 147.50173493005667 -217.4186600119172 curveto
closepath
147.50706725604158 -217.02406788903207 moveto
148.06340661704994 -217.02406788903207 148.34157627268382 -216.45884131778396 148.34157627268382 -215.32838822582295 curveto
148.34157627268382 -214.22281927199805 148.06696147627554 -213.67003484450836 147.51773190801146 -213.67003484450836 curveto
146.97027975724285 -213.67003484450836 146.69655370633157 -214.22815164756466 146.69655370633157 -215.34438520377773 curveto
146.69655370633157 -216.46417369398625 146.96672489761997 -217.02406788903207 147.50706725604158 -217.02406788903207 curveto
closepath
fill
newpath
1.0 setlinewidth
10.0 setmiterlimit
0 setlinejoin
0 setlinecap
[ ] 0 setdash
newpath
150.68874576927027 -218.446258310069 moveto
152.8728664926994 -218.446258310069 lineto
stroke
newpath
0.0 0.0 0.0 setrgbcolor
1.0 setlinewidth
10.0 setmiterlimit
0 setlinejoin
0 setlinecap
[ ] 0 setdash
newpath
146.61123649057262 -192.2026236617612 moveto
146.61123649057262 -191.80803153887607 lineto
147.4004207363429 -191.80803153887607 lineto
147.4004207363429 -188.69395316367442 lineto
146.61123649057262 -188.89124922511698 lineto
146.61123649057262 -188.485992450262 lineto
147.9283210088514 -188.15805440218853 lineto
147.9283210088514 -191.80803153887607 lineto
148.7175052546217 -191.80803153887607 lineto
148.7175052546217 -192.2026236617612 lineto
closepath
fill
newpath
1.0 setlinewidth
10.0 setmiterlimit
0 setlinejoin
0 setlinecap
[ ] 0 setdash
newpath
150.68874576927027 -190.0998016171556 moveto
152.8728664926994 -190.0998016171556 lineto
stroke
newpath
0.0 0.0 0.0 setrgbcolor
1.0 setlinewidth
10.0 setmiterlimit
0 setlinejoin
0 setlinecap
[ ] 0 setdash
newpath
146.24330599761217 -163.80905425718285 moveto
146.24330599761217 -163.34780805948603 lineto
146.39616601373586 -162.99054220784808 146.7054409232458 -162.60128241531805 147.17113071899072 -162.1800286687854 curveto
147.47240713713953 -161.91074620654624 lineto
147.85988950359263 -161.56059012310007 148.05363066949735 -161.21310021837903 148.05363066949735 -160.86827647649156 curveto
148.05363066949735 -160.64787366254578 147.98742095321123 -160.47457307272342 147.85500152655857 -160.34837469296048 curveto
147.7225820939863 -160.222176307556 147.540838650503 -160.15907712049528 147.30977119459902 -160.15907712049528 curveto
147.03604511921472 -160.15907712049528 146.7134393997483 -160.2648349223483 146.34195402833345 -160.4763505165989 curveto
146.34195402833345 -160.0124381559096 lineto
146.69211011177958 -159.84713604545027 147.03960001650063 -159.76448499761017 147.3844237583881 -159.76448499761017 curveto
147.75413170436173 -159.76448499761017 148.05096450984215 -159.86402175229537 148.27492219787214 -160.0630952527665 curveto
148.49887989591383 -160.2621687621369 148.610858734923 -160.52611889735817 148.610858734923 -160.85494566152923 curveto
148.610858734923 -161.09134545390657 148.55442494990058 -161.3010836049968 148.44155738490133 -161.4841601277515 curveto
148.3286898148565 -161.66723665869034 148.11850729773198 -161.88941690649992 147.81100983718287 -162.15070087586827 curveto
147.60838144975534 -162.32400147037865 lineto
147.18712768439119 -162.6812673220166 146.94361814265355 -163.02253617925197 146.87785278981934 -163.34780805948603 curveto
148.59219559397573 -163.34780805948603 lineto
148.59219559397573 -163.80905425718285 lineto
closepath
fill
newpath
1.0 setlinewidth
10.0 setmiterlimit
0 setlinejoin
0 setlinecap
[ ] 0 setdash
newpath
150.68874576927027 -161.7533449242422 moveto
152.8728664926994 -161.7533449242422 lineto
stroke
newpath
0.0 0.0 0.0 setrgbcolor
1.0 setlinewidth
10.0 setmiterlimit
0 setlinejoin
0 setlinecap
[ ] 0 setdash
newpath
146.3446201913259 -135.38615705968735 moveto
146.3446201913259 -134.89558306907338 lineto
146.7214379054913 -135.04488820110117 147.0182707106539 -135.11954076044063 147.23511863080995 -135.11954076044063 curveto
147.4857379595709 -135.11954076044063 147.6896994233696 -135.0462212759627 147.84700303758115 -134.8995823135621 curveto
148.00430665882473 -134.75294334460622 148.0829584624145 -134.56320141254284 148.0829584624145 -134.33035651467034 curveto
148.0829584624145 -133.77579459570995 147.6945873749374 -133.4985136610206 146.91784523470636 -133.4985136610206 curveto
146.7098845212939 -133.4985136610206 lineto
146.7098845212939 -133.14391398302246 lineto
146.89384976777416 -133.14124782003 lineto
147.62260100743364 -133.14124782003 147.98697659468567 -132.8844074441012 147.98697659468567 -132.37072671520698 curveto
147.98697659468567 -131.96724737032233 147.74702191821243 -131.76550771591693 147.26711258671955 -131.76550771591693 curveto
147.00405116362293 -131.76550771591693 146.71432812156687 -131.83927156090687 146.39794345117525 -131.98679924429172 curveto
146.39794345117525 -131.52821920958735 lineto
146.70899580956652 -131.4233501287583 147.01116094381288 -131.37091559303178 147.30443886861408 -131.37091559303178 curveto
148.11139755838337 -131.37091559303178 148.51487686719418 -131.67574690425522 148.51487686719418 -132.28540949944804 curveto
148.51487686719418 -132.74932187396297 148.24026207078592 -133.07992607414317 147.69103250252184 -133.27722213264582 curveto
148.32735675568793 -133.42474982262567 148.64551885382508 -133.77312845742887 148.64551885382508 -134.32235802569295 curveto
148.64551885382508 -134.69384341371452 148.52287535251654 -134.98534389297163 148.2775883608646 -135.19685948722218 curveto
148.0323013582475 -135.40837509092825 147.69547610112616 -135.51413288332577 147.26711258671955 -135.51413288332577 curveto
147.0236030261504 -135.51413288332577 146.71610556274078 -135.47147427417497 146.3446201913259 -135.38615705968735 curveto
closepath
fill
newpath
1.0 setlinewidth
10.0 setmiterlimit
0 setlinejoin
0 setlinecap
[ ] 0 setdash
newpath
150.68874576927027 -133.40688823132882 moveto
152.8728664926994 -133.40688823132882 lineto
stroke
newpath
0.0 0.0 0.0 setrgbcolor
1.0 setlinewidth
10.0 setmiterlimit
0 setlinejoin
0 setlinecap
[ ] 0 setdash
newpath
147.84566995608492 -107.02191544802614 moveto
147.84566995608492 -105.90479315418239 lineto
146.0700054031018 -105.90479315418239 lineto
146.0700054031018 -105.50753486830477 lineto
147.84566995608492 -103.07599421917472 lineto
148.33891010969134 -103.07599421917472 lineto
148.33891010969134 -105.47554091239518 lineto
148.86681038219984 -105.47554091239518 lineto
148.86681038219984 -105.90479315418239 lineto
148.33891010969134 -105.90479315418239 lineto
148.33891010969134 -107.02191544802614 lineto
closepath
146.58457486064796 -105.47554091239518 moveto
147.880330074987 -105.47554091239518 lineto
147.880330074987 -103.72120566335177 lineto
closepath
fill
newpath
1.0 setlinewidth
10.0 setmiterlimit
0 setlinejoin
0 setlinecap
[ ] 0 setdash
newpath
150.68874576927027 -105.06043153841543 moveto
152.8728664926994 -105.06043153841543 lineto
stroke
newpath
0.0 0.0 0.0 setrgbcolor
1.0 setlinewidth
10.0 setmiterlimit
0 setlinejoin
0 setlinecap
[ ] 0 setdash
newpath
146.45393287401706 -78.64434302140258 moveto
146.45393287401706 -78.17509833472835 lineto
146.7152168550657 -78.2799674155574 146.96405873009843 -78.33240195128391 147.20045851190787 -78.33240195128391 curveto
147.45996505090858 -78.33240195128391 147.66392651431 -78.25597194322206 147.8123429186791 -78.10311193393174 curveto
147.9607593296829 -77.95025191780803 148.03496752855008 -77.73962504195933 148.03496752855008 -77.47123130471702 curveto
148.03496752855008 -76.87934310274966 147.62704457854556 -76.58339902822544 146.81119871500766 -76.58339902822544 curveto
146.71877172851427 -76.58339902822544 146.6219011410328 -76.58962007539327 146.52058694882874 -76.60206216917273 curveto
146.52058694882874 -74.68242481459636 lineto
148.51754303018666 -74.68242481459636 lineto
148.51754303018666 -75.14100484930071 lineto
146.98183314652556 -75.14100484930071 lineto
146.98183314652556 -76.18080841636291 lineto
147.4884041301913 -76.18080841636291 147.8838849632147 -76.29723087050364 148.16827567817344 -76.53007576837611 curveto
148.45266640584543 -76.76292067665756 148.59486175696819 -77.08552639795151 148.59486175696819 -77.49789293464168 curveto
148.59486175696819 -77.88182041699889 148.46555284797984 -78.18265246645153 148.20693504156424 -78.40038910759182 curveto
147.9483172235875 -78.61812575846571 147.5897183019747 -78.72699407416906 147.13113827410373 -78.72699407416906 curveto
146.93206476473333 -78.72699407416906 146.70632963354296 -78.69944372242583 146.45393287401706 -78.64434302140258 curveto
closepath
fill
newpath
1.0 setlinewidth
10.0 setmiterlimit
0 setlinejoin
0 setlinecap
[ ] 0 setdash
newpath
150.68874576927027 -76.71397484550204 moveto
152.8728664926994 -76.71397484550204 lineto
stroke
newpath
0.0 0.0 0.0 setrgbcolor
1.0 setlinewidth
10.0 setmiterlimit
0 setlinejoin
0 setlinecap
[ ] 0 setdash
newpath
146.72854766224117 -48.18982962364709 moveto
146.97916699100213 -47.864557728872235 147.2946629433097 -47.701921796025594 147.67503552456702 -47.701921796025594 curveto
148.01985928186932 -47.701921796025594 148.30202819156656 -47.81612244760638 148.52154227467534 -48.04452374055763 curveto
148.7410563675972 -48.272925043719205 148.85081340424506 -48.56575861090863 148.85081340424506 -48.92302444657556 curveto
148.85081340424506 -49.333613559652015 148.7277255424245 -49.67132753040775 148.48154982978835 -49.936166383713086 curveto
148.23537410614728 -50.20100524885763 147.92298867722496 -50.33342466959069 147.54439353793614 -50.33342466959069 curveto
147.10892023618837 -50.33342466959069 146.76854010347313 -50.158346627867616 146.52325311182122 -49.808190560074664 curveto
146.2779661092041 -49.45803447662851 146.15532261886074 -48.97190409216738 146.15532261886074 -48.34979940319512 curveto
146.15532261886074 -47.66548421473436 146.29618490116079 -47.13402907298858 146.5779094531668 -46.755433933699756 curveto
146.85963401776687 -46.376838777486405 147.25644794237763 -46.18754121630425 147.76835122930336 -46.18754121630425 curveto
148.00297357963277 -46.18754121630425 148.2962515070561 -46.23730959364685 148.64818501681754 -46.33684634388241 curveto
148.64818501681754 -46.79542637858676 lineto
148.276699628796 -46.65323101475076 147.97275705520323 -46.58213333918938 147.73635727339376 -46.58213333918938 curveto
147.06448417926865 -46.58213333918938 146.72854766224117 -47.11803211664631 146.72854766224117 -48.18982962364709 curveto
closepath
148.32291313173656 -49.040335618244114 moveto
148.32291313173656 -48.74172535418851 148.25581469442645 -48.50710301720803 148.1216178258053 -48.33646858823278 curveto
147.98742095118504 -48.16583415162958 147.80123390266135 -48.08051694095594 147.5630566788834 -48.08051694095594 curveto
147.34087642288966 -48.08051694095594 147.14980141266724 -48.15516950696984 146.98983163550295 -48.30447463232318 curveto
146.82986185118747 -48.453779764350976 146.74987696618092 -48.633301404519464 146.74987696618092 -48.84303955680154 curveto
146.74987696618092 -49.17364377772025 146.82586261373078 -49.43892698859763 146.97783390203685 -49.638889210052994 curveto
147.1298051971366 -49.83885144044737 147.33110050227327 -49.938832546705555 147.58171981983068 -49.938832546705555 curveto
147.8074549599203 -49.938832546705555 147.9874209571841 -49.85751457301184 148.1216178258053 -49.694878632894806 curveto
148.2558147004255 -49.53224268550738 148.32291313173656 -49.314061681391905 148.32291313173656 -49.040335618244114 curveto
closepath
fill
newpath
1.0 setlinewidth
10.0 setmiterlimit
0 setlinejoin
0 setlinecap
[ ] 0 setdash
newpath
150.68874576927027 -48.36751815258863 moveto
152.8728664926994 -48.36751815258863 lineto
stroke
newpath
0.0 0.0 0.0 setrgbcolor
1.0 setlinewidth
10.0 setmiterlimit
0 setlinejoin
0 setlinecap
[ ] 0 setdash
newpath
146.61123649057262 -21.841207234291048 moveto
146.66278230996318 -21.533709759995695 146.73610179213685 -21.267982187573377 146.83119493745116 -21.04402449954336 curveto
146.9262880870165 -20.82006680150166 147.09470071680877 -20.512569337217997 147.33643282452368 -20.121532104149722 curveto
148.41356267348044 -18.388526159046062 lineto
146.38194647322044 -18.388526159046062 lineto
146.38194647322044 -17.895286005439637 lineto
148.91480131606426 -17.895286005439637 lineto
148.91480131606426 -18.388526159046062 lineto
147.90343679078072 -19.879800037276123 147.33732154372015 -21.030693696658624 147.21645548986268 -21.841207234291048 curveto
closepath
fill
newpath
1.0 setlinewidth
10.0 setmiterlimit
0 setlinejoin
0 setlinecap
[ ] 0 setdash
newpath
150.68874576927027 -20.021061459675234 moveto
152.8728664926994 -20.021061459675234 lineto
stroke
newpath
1.0 0.0 0.0 setrgbcolor
2.0 setlinewidth
10.0 setmiterlimit
1 setlinejoin
1 setlinecap
[ ] 0 setdash
newpath
0.0 -65.57339146735909 moveto
2.474199257009533 -68.04759072436862 lineto
4.948398514019066 -70.52179414725782 lineto
7.422597771028598 -72.99599340426737 lineto
9.896797028038131 -75.4701926612769 lineto
12.370996285047664 -77.94439191828643 lineto
14.845195542057196 -80.41859117529596 lineto
17.31939479906673 -82.89279043230549 lineto
19.793594056076262 -85.36698968931502 lineto
22.267793313085793 -87.84118894632455 lineto
24.741992570095327 -90.3153882033341 lineto
27.216191827104858 -92.78958746034363 lineto
29.690391084114392 -95.26378671735316 lineto
32.164590341123926 -97.73798597436269 lineto
34.63878959813346 -100.21218523137222 lineto
37.11298885514299 -102.68638448838175 lineto
39.587188112152525 -105.16058374539128 lineto
42.061387369162055 -107.63478300240082 lineto
44.535586626171586 -110.10898225941035 lineto
47.009785883181124 -112.58318151641988 lineto
49.483985140190654 -115.05738077342941 lineto
51.958184397200185 -117.53158003043895 lineto
54.432383654209715 -120.00577928744848 lineto
56.90658291121925 -122.479978544458 lineto
59.380782168228784 -124.95417780146755 lineto
61.854981425238314 -127.42837705847708 lineto
64.32918068224785 -129.9025763154866 lineto
66.80337993925738 -132.37677557249614 lineto
69.27757919626691 -134.85097482950567 lineto
71.75177845327644 -137.3251740865152 lineto
74.22597771028597 -139.79937334352473 lineto
76.70017696729552 -142.27357260053427 lineto
79.17437622430505 -144.7477718575438 lineto
81.64857548131458 -147.22197111455333 lineto
84.12277473832411 -149.69617037156289 lineto
86.59697399533364 -152.17036962857242 lineto
89.07117325234317 -154.64456888558195 lineto
91.5453725093527 -157.11876814259148 lineto
94.01957176636225 -159.592967399601 lineto
96.49377102337178 -162.06716665661054 lineto
98.96797028038131 -164.54136591362007 lineto
101.44216953739084 -167.0155651706296 lineto
103.91636879440037 -169.48976442763913 lineto
106.3905680514099 -171.96396368464866 lineto
108.86476730841943 -174.4381629416582 lineto
111.33896656542898 -176.91236219866772 lineto
113.8131658224385 -179.38656145567725 lineto
116.28736507944804 -181.86076071268678 lineto
118.76156433645757 -184.33495996969634 lineto
121.2357635934671 -186.80915922670587 lineto
123.70996285047663 -189.2833584837154 lineto
126.18416210748616 -191.75755774072493 lineto
128.6583613644957 -194.23175699773446 lineto
131.13256062150523 -196.705956254744 lineto
133.60675987851477 -199.18015551175353 lineto
136.0809591355243 -201.65435476876306 lineto
138.55515839253383 -204.1285540257726 lineto
141.02935764954336 -206.60275328278212 lineto
143.5035569065529 -209.07695253979165 lineto
145.97775616356242 -211.55115179680118 lineto
148.45195542057195 -214.0253510538107 lineto
150.92615467758148 -216.49955031082024 lineto
152.16325430608626 -217.73664993932502 lineto
152.78180412033865 -218.3551997535774 lineto
153.09107902746484 -218.22804044235542 lineto
153.40035393459104 -217.91876553522923 lineto
155.87455319160057 -215.4445662782197 lineto
158.3487524486101 -212.97036702121017 lineto
160.82295170561963 -210.49616776420064 lineto
163.29715096262916 -208.0219685071911 lineto
165.7713502196387 -205.54776925018157 lineto
168.24554947664822 -203.07356999317204 lineto
170.71974873365775 -200.5993707361625 lineto
173.19394799066728 -198.12517147915298 lineto
175.6681472476768 -195.65097222214342 lineto
178.14234650468634 -193.1767729651339 lineto
180.61654576169587 -190.70257370812436 lineto
183.0907450187054 -188.22837445111483 lineto
185.56494427571494 -185.7541751941053 lineto
188.0391435327245 -183.27997593709577 lineto
190.51334278973403 -180.80577668008624 lineto
192.98754204674356 -178.3315774230767 lineto
195.4617413037531 -175.85737816606718 lineto
197.93594056076262 -173.38317890905765 lineto
200.41013981777215 -170.90897965204812 lineto
202.88433907478168 -168.4347803950386 lineto
205.3585383317912 -165.96058113802906 lineto
207.83273758880074 -163.48638188101953 lineto
210.30693684581027 -161.01218262400997 lineto
212.7811361028198 -158.53798336700044 lineto
215.25533535982933 -156.0637841099909 lineto
217.72953461683886 -153.58958485298137 lineto
220.2037338738484 -151.11538559597184 lineto
222.67793313085795 -148.6411863389623 lineto
225.15213238786748 -146.16698708195278 lineto
227.626331644877 -143.69278782494325 lineto
230.10053090188654 -141.21858856793372 lineto
232.57473015889607 -138.74439764268354 lineto
235.0489294159056 -136.270198385674 lineto
237.52312867291513 -133.79599912866448 lineto
239.99732792992467 -131.32179987165495 lineto
242.4715271869342 -128.84760061464542 lineto
244.94572644394373 -126.37340135763587 lineto
247.41992570095326 -123.89920210062634 lineto
249.8941249579628 -121.42500284361681 lineto
252.36832421497232 -118.95080358660728 lineto
254.84252347198185 -116.47660432959775 lineto
257.3167227289914 -114.00240507258822 lineto
259.7909219860009 -111.52820581557867 lineto
262.26512124301047 -109.05400655856914 lineto
264.73932050001997 -106.57980730155961 lineto
267.21351975702953 -104.10560804455008 lineto
269.68771901403903 -101.63140878754055 lineto
272.1619182710486 -99.15720953053102 lineto
274.63611752805815 -96.68301027352148 lineto
277.11031678506765 -94.20881101651194 lineto
279.5845160420772 -91.73461175950241 lineto
282.0587152990867 -89.26041250249288 lineto
284.5329145560963 -86.78621324548335 lineto
287.0071138131058 -84.31201398847382 lineto
289.48131307011533 -81.83781473146429 lineto
291.95551232712484 -79.36361547445475 lineto
294.4297115841344 -76.88941621744522 lineto
296.9039108411439 -74.41521696043569 lineto
299.37811009815346 -71.94101770342616 lineto
301.85230935516296 -69.46681428053695 lineto
304.3265086121725 -66.99261502352742 lineto
306.8007078691821 -64.51841576651788 lineto
309.2749071261916 -62.04421650950835 lineto
311.74910638320114 -59.570017252498815 lineto
314.22330564021064 -57.095817995489284 lineto
316.6975048972202 -54.621618738479754 lineto
stroke
newpath
grestore
grestore
showpage

%%EOF