%!PS-Adobe-3.0 EPSF-3.0
%%Creator: EpsGraphics 1.0.0 by Thomas Abeel, http://www.sourceforge.net/epsgraphics/
%%Title: GeoGebra, http://www.geogebra.org/
%%CreationDate: Tue May 21 18:52:11 CEST 2013
%%BoundingBox: 0 0 374 282
%%DocumentData: Clean7Bit
%%LanguageLevel: 2
%%DocumentProcessColors: Black
%%ColorUsage: Color
%%Origin: 0 0
%%Pages: 1
%%Page: 1 1
%%EndComments

gsave
0.0 282.0 translate
0.0 0.0 0.0 setrgbcolor
0.0 0.0 0.0 setrgbcolor
gsave
newpath
0.0 -0.0 moveto
374.7951161404344 -0.0 lineto
374.7951161404344 -282.8982367021548 lineto
0.0 -282.8982367021548 lineto
0.0 -0.0 lineto
closepath
clip
newpath
1.0 1.0 1.0 setrgbcolor
newpath
0.0 -0.0 moveto
374.7951161404344 -0.0 lineto
374.7951161404344 -282.8982367021548 lineto
0.0 -282.8982367021548 lineto
0.0 -0.0 lineto
closepath
fill
newpath
0.0 0.0 0.0 setrgbcolor
1.0 setlinewidth
10.0 setmiterlimit
0 setlinejoin
0 setlinecap
[ ] 0 setdash
newpath
26.41227660615421 -1.2012663978860076 moveto
26.41227660615421 -282.8982367021548 lineto
stroke
newpath
1.0 setlinewidth
10.0 setmiterlimit
0 setlinejoin
0 setlinecap
[ ] 0 setdash
newpath
26.712593205625716 -0.6006331989430038 moveto
24.6103770093252 -2.4025327957720153 lineto
stroke
newpath
1.0 setlinewidth
10.0 setmiterlimit
0 setlinejoin
0 setlinecap
[ ] 0 setdash
newpath
26.11196000668271 -0.6006331989430038 moveto
28.214176202983225 -2.4025327957720153 lineto
stroke
newpath
1.0 setlinewidth
10.0 setmiterlimit
0 setlinejoin
0 setlinecap
[ ] 0 setdash
newpath
0.0 -249.29696352850513 moveto
373.5938497425484 -249.29696352850513 lineto
stroke
newpath
1.0 setlinewidth
10.0 setmiterlimit
0 setlinejoin
0 setlinecap
[ ] 0 setdash
newpath
374.1944829414914 -249.59728012797663 moveto
372.39258334466234 -247.49506393167613 lineto
stroke
newpath
1.0 setlinewidth
10.0 setmiterlimit
0 setlinejoin
0 setlinecap
[ ] 0 setdash
newpath
374.1944829414914 -248.99664692903363 moveto
372.39258334466234 -251.09886312533413 lineto
stroke
newpath
0.0 0.0 0.0 setrgbcolor
1.0 setlinewidth
10.0 setmiterlimit
0 setlinejoin
0 setlinecap
[ ] 0 setdash
newpath
31.313871053487503 -257.78015518034204 moveto
30.86613340160889 -257.78015518034204 30.50393516830331 -257.5694838616088 30.227276325907507 -257.1481412429777 curveto
29.95061747114409 -256.7267986055112 29.812288056129994 -256.17690249076213 29.812288056129994 -255.49845289138864 curveto
29.812288056129994 -254.8141377029279 29.951595076638075 -254.26375280337146 30.230209105199222 -253.84729815015373 curveto
30.508823146215388 -253.43084347831905 30.875909352713244 -253.22261616101866 31.331467729237787 -253.22261616101866 curveto
31.787026126127376 -253.22261616101866 32.15411232471521 -253.430843496936 32.43272635327635 -253.84729815015373 curveto
32.71134039429251 -254.26375282198842 32.85064740234558 -254.81120495414007 32.85064740234558 -255.4896545535135 curveto
32.85064740234558 -256.18570085949074 32.711340381837495 -256.7414625207178 32.43272635327635 -257.15693958085285 curveto
32.15411231226019 -257.57241665956116 31.78116054700409 -257.78015518034204 31.313871053487503 -257.78015518034204 curveto
closepath
31.31973661207093 -257.3461038451684 moveto
31.93170990918012 -257.3461038451684 32.23769653037738 -256.7243546167955 32.23769653037738 -255.48085621563837 curveto
32.23769653037738 -254.26473036643097 31.935620254328274 -253.65666749619234 31.331467729237787 -253.65666749619234 curveto
30.72927036339232 -253.65666749619234 30.428171707389907 -254.27059597955426 30.428171707389907 -255.49845289138864 curveto
30.428171707389907 -256.730220230618 30.725360017807148 -257.3461038451684 31.31973661207093 -257.3461038451684 curveto
closepath
fill
newpath
1.0 setlinewidth
10.0 setmiterlimit
0 setlinejoin
0 setlinecap
[ ] 0 setdash
newpath
26.41227660615421 -249.29696352850513 moveto
26.41227660615421 -251.69949632427713 lineto
stroke
newpath
0.0 0.0 0.0 setrgbcolor
1.0 setlinewidth
10.0 setmiterlimit
0 setlinejoin
0 setlinecap
[ ] 0 setdash
newpath
82.18468753583988 -257.67164234654865 moveto
82.18468753583988 -257.16427152908216 lineto
82.35283355357595 -256.7712790922804 82.69303595403687 -256.34309332049736 83.20529472935631 -255.87971419931145 curveto
83.53669878931998 -255.58350349084836 lineto
83.9629293924184 -255.1983317990576 84.17604467491361 -254.81609290386447 84.17604467491361 -254.43678678778824 curveto
84.17604467491361 -254.19434369244783 84.10321398699885 -254.00371304364324 83.95755261768092 -253.864894825904 curveto
83.81189124185141 -253.72607660195914 83.61197345401982 -253.65666749619234 83.35779925252544 -253.65666749619234 curveto
83.0567005696027 -253.65666749619234 82.70183427818964 -253.77300107823066 82.2932003696333 -254.00566823190627 curveto
82.2932003696333 -253.49536463514806 lineto
82.67837206142406 -253.31353231364278 83.0606109566172 -253.22261616101866 83.43991707269342 -253.22261616101866 curveto
83.84659581326439 -253.22261616101866 84.17311189929285 -253.3321065911724 84.41946535612585 -253.55108744169064 curveto
84.66581882397173 -253.77006830199807 84.78899554688181 -254.0604134507415 84.78899554688181 -254.42212289132965 curveto
84.78899554688181 -254.68216266294473 84.72691838335716 -254.91287462914397 84.60276406185798 -255.11425880417414 curveto
84.47860973480867 -255.31564298820686 84.2474089659717 -255.56004126079742 83.90916175936765 -255.8474536271026 curveto
83.68627053319739 -256.038084281064 lineto
83.22289139129683 -256.4310767178658 82.95503089538542 -256.8064724608247 82.88268900726779 -257.16427152908216 curveto
84.76846609183981 -257.16427152908216 lineto
84.76846609183981 -257.67164234654865 lineto
closepath
fill
newpath
1.0 setlinewidth
10.0 setmiterlimit
0 setlinejoin
0 setlinecap
[ ] 0 setdash
newpath
83.10518999198098 -249.29696352850513 moveto
83.10518999198098 -251.69949632427713 lineto
stroke
newpath
0.0 0.0 0.0 setrgbcolor
1.0 setlinewidth
10.0 setmiterlimit
0 setlinejoin
0 setlinecap
[ ] 0 setdash
newpath
140.40680859080229 -257.67164234654865 moveto
140.40680859080229 -256.4428078233205 lineto
138.45357758252084 -256.4428078233205 lineto
138.45357758252084 -256.00582370885513 lineto
140.40680859080229 -253.33112899481208 lineto
140.94937275976935 -253.33112899481208 lineto
140.94937275976935 -255.9706303573546 lineto
141.53006305952871 -255.9706303573546 lineto
141.53006305952871 -256.4428078233205 lineto
140.94937275976935 -256.4428078233205 lineto
140.94937275976935 -257.67164234654865 lineto
closepath
139.01960398582162 -255.9706303573546 moveto
140.44493472159456 -255.9706303573546 lineto
140.44493472159456 -254.04086158340684 lineto
closepath
fill
newpath
1.0 setlinewidth
10.0 setmiterlimit
0 setlinejoin
0 setlinecap
[ ] 0 setdash
newpath
139.79810337780776 -249.29696352850513 moveto
139.79810337780776 -251.69949632427713 lineto
stroke
newpath
0.0 0.0 0.0 setrgbcolor
1.0 setlinewidth
10.0 setmiterlimit
0 setlinejoin
0 setlinecap
[ ] 0 setdash
newpath
195.63749476821653 -255.42220062980408 moveto
195.9131760298536 -255.06440154555173 196.26022157739192 -254.88550201942044 196.67863141677495 -254.88550201942044 curveto
197.0579375498075 -254.88550201942044 197.36832335047444 -255.0111227361593 197.6097888418941 -255.2623641584057 curveto
197.85125434410813 -255.51360559188342 197.9719870844208 -255.8357225157918 197.9719870844208 -256.2287149350254 curveto
197.9719870844208 -256.6803629594095 197.8365904364182 -257.0518483272408 197.5657971525184 -257.3431710658767 curveto
197.29500385651323 -257.63449381753566 196.9513798846987 -257.78015518034204 196.53492523148097 -257.78015518034204 curveto
196.05590459955843 -257.78015518034204 195.68148645357167 -257.58756933444664 195.41167076275457 -257.2023976598744 curveto
195.14185505987575 -256.8172259680836 195.00694722049803 -256.2824825451764 195.00694722049803 -255.59816738730692 curveto
195.00694722049803 -254.84542068000007 195.16189573102807 -254.26082002407972 195.47179273823468 -253.84436537086202 curveto
195.78168975929478 -253.42791069902734 196.2181850763666 -253.21968338172695 196.78127869198494 -253.21968338172695 curveto
197.0393632773473 -253.21968338172695 197.36196899751292 -253.27442859680383 197.7490958582505 -253.38391902206294 curveto
197.7490958582505 -253.88835706023772 lineto
197.3404619314268 -253.73194216001812 197.00612510047478 -253.65373471690063 196.74608534048437 -253.65373471690063 curveto
196.00702493694675 -253.65373471690063 195.63749476821653 -254.24322337210324 195.63749476821653 -255.42220062980408 curveto
closepath
197.39129678466142 -256.3577572238608 moveto
197.39129678466142 -256.02928593339965 197.3174885036203 -255.77120136272114 197.16987194813703 -255.58350349084836 curveto
197.02225538605478 -255.39580561058483 196.81744963267872 -255.30195667884382 196.55545468652298 -255.30195667884382 curveto
196.31105640492984 -255.30195667884382 196.1008738936852 -255.3840745014591 195.92490713880449 -255.5483101393478 curveto
195.74894037605745 -255.71254578457837 195.66095700255025 -255.9100195887637 195.66095700255025 -256.140731556274 curveto
195.66095700255025 -256.50439619928454 195.7445412148551 -256.7962077312497 195.91170963199178 -257.0161661748506 curveto
196.07887805660147 -257.2361246282844 196.30030289225184 -257.3461038451684 196.57598414156496 -257.3461038451684 curveto
196.82429279566358 -257.3461038451684 197.02225539265376 -257.2566540741053 197.16987194813703 -257.0777545399766 curveto
197.31748851021928 -256.89885499785044 197.39129678466142 -256.6588558933234 197.39129678466142 -256.3577572238608 curveto
closepath
fill
newpath
1.0 setlinewidth
10.0 setmiterlimit
0 setlinejoin
0 setlinecap
[ ] 0 setdash
newpath
196.49101676363452 -249.29696352850513 moveto
196.49101676363452 -251.69949632427713 lineto
stroke
newpath
0.0 0.0 0.0 setrgbcolor
1.0 setlinewidth
10.0 setmiterlimit
0 setlinejoin
0 setlinecap
[ ] 0 setdash
newpath
253.04664940351583 -255.30782223742725 moveto
252.62237398667017 -255.01258911326275 252.41023629721394 -254.6860730222523 252.41023629721394 -254.3282739539948 curveto
252.41023629721394 -253.99980266353364 252.53048025175775 -253.73291975471778 252.77096815009475 -253.52762520735692 curveto
253.0114560591824 -253.32233065081869 253.3252634419973 -253.21968338172695 253.7123903027349 -253.21968338172695 curveto
254.07018938698724 -253.21968338172695 254.36004573296182 -253.3066891699741 254.58195936272807 -253.4807007386895 curveto
254.80387300241463 -253.65471231518382 254.9148298123376 -253.88053631959693 254.9148298123376 -254.1581727550754 curveto
254.9148298123376 -254.57853779941559 254.64501410945877 -254.9617542861618 254.10538272782455 -255.30782223742725 curveto
254.76037012249412 -255.62847278287742 255.0878637905487 -256.0419946609988 255.0878637905487 -256.5483878778222 curveto
255.0878637905487 -256.9120525208328 254.95051195629338 -257.2082632218666 254.6758083000629 -257.4370200032115 curveto
254.40110463155224 -257.6657767947827 254.04672713552242 -257.78015518034204 253.6126758068166 -257.78015518034204 curveto
253.1864452037182 -257.78015518034204 252.84184364572587 -257.6721311398779 252.57887110648747 -257.45608306860765 curveto
252.31589855549328 -257.24003498767934 252.18441229175195 -256.9560441941262 252.18441229175195 -256.6041106843648 curveto
252.18441229175195 -256.08403114113463 252.47182467090548 -255.65193500252732 253.04664940351583 -255.30782223742725 curveto
closepath
253.78277700573602 -255.125989921341 moveto
254.18750056005425 -254.86008459096766 254.3898623191208 -254.5638738855637 254.3898623191208 -254.23735779595168 curveto
254.3898623191208 -254.06334621945737 254.3224083934011 -253.92306161360185 254.18750054799256 -253.81650396759073 curveto
254.05259269655315 -253.70994631681614 253.8746707535842 -253.65666749619234 253.65373471690063 -253.65666749619234 curveto
253.44061941535142 -253.65666749619234 253.26758544151048 -253.70896872845327 253.13463278226726 -253.81357118829902 curveto
253.00168011708058 -253.91817365282088 252.9352037904307 -254.05357029614737 252.9352037904307 -254.21976112020138 curveto
252.9352037904307 -254.38204157917923 252.9953257677026 -254.52721415119103 253.1155697168711 -254.65527884502092 curveto
253.23581367141492 -254.7833435445757 253.45821610228936 -254.94024723563356 253.78277700573602 -255.125989921341 curveto
closepath
253.36045678772922 -255.54244458076437 moveto
253.12778962365255 -255.7223217160169 252.96990834414444 -255.87922540475856 252.88681293211744 -256.01315565708444 curveto
252.80371751637577 -256.14708591539744 252.76216981221958 -256.3137655374568 252.76216981221958 -256.5131945263216 curveto
252.76216981221958 -256.7615031804203 252.84233244858214 -256.96239855678954 253.00265771414013 -257.11588067076883 curveto
253.16298298686522 -257.2693627916093 253.3741430949946 -257.3461038451684 253.63613804115033 -257.3461038451684 curveto
253.88835706775444 -257.3461038451684 254.09414040958077 -257.2806051057014 254.2534880820561 -257.14960763262354 curveto
254.4128357616548 -257.0186101536897 254.49250959433078 -256.8485089555569 254.49250959433078 -256.63930403586534 curveto
254.49250959433078 -256.4711580181293 254.44314114144896 -256.3289182257588 254.34440424009924 -256.212584648921 curveto
254.24566733433562 -256.09625106688264 254.0545478825437 -255.95401127219597 253.77104588856918 -255.78586526197662 curveto
closepath
fill
newpath
1.0 setlinewidth
10.0 setmiterlimit
0 setlinejoin
0 setlinecap
[ ] 0 setdash
newpath
253.18393014946133 -249.29696352850513 moveto
253.18393014946133 -251.69949632427713 lineto
stroke
newpath
0.0 0.0 0.0 setrgbcolor
1.0 setlinewidth
10.0 setmiterlimit
0 setlinejoin
0 setlinecap
[ ] 0 setdash
newpath
307.22622748277985 -257.67164234654865 moveto
307.22622748277985 -257.237591011375 lineto
308.09433015312715 -257.237591011375 lineto
308.09433015312715 -253.81210479865317 lineto
307.22622748277985 -254.02913046624 lineto
307.22622748277985 -253.5833480138995 lineto
308.6750204528865 -253.22261616101866 lineto
308.6750204528865 -257.237591011375 lineto
309.5431231232338 -257.237591011375 lineto
309.5431231232338 -257.67164234654865 lineto
closepath
312.00372494898176 -257.78015518034204 moveto
311.5559872971031 -257.78015518034204 311.19378906379757 -257.5694838616088 310.91713022140175 -257.1481412429777 curveto
310.64047136663834 -256.7267986055112 310.50214195162425 -256.17690249076213 310.50214195162425 -255.49845289138864 curveto
310.50214195162425 -254.8141377029279 310.6414489721323 -254.26375280337146 310.92006300069346 -253.84729815015373 curveto
311.19867704170963 -253.43084347831905 311.5657632482075 -253.22261616101866 312.021321624732 -253.22261616101866 curveto
312.47688002162164 -253.22261616101866 312.84396622020944 -253.430843496936 313.1225802487706 -253.84729815015373 curveto
313.40119428978676 -254.26375282198842 313.5405012978398 -254.81120495414007 313.5405012978398 -255.4896545535135 curveto
313.5405012978398 -256.18570085949074 313.40119427733174 -256.7414625207178 313.1225802487706 -257.15693958085285 curveto
312.8439662077544 -257.57241665956116 312.47101444249836 -257.78015518034204 312.00372494898176 -257.78015518034204 curveto
closepath
312.0095905075652 -257.3461038451684 moveto
312.6215638046744 -257.3461038451684 312.92755042587163 -256.7243546167955 312.92755042587163 -255.48085621563837 curveto
312.92755042587163 -254.26473036643097 312.62547414982254 -253.65666749619234 312.021321624732 -253.65666749619234 curveto
311.41912425888654 -253.65666749619234 311.11802560288413 -254.27059597955426 311.11802560288413 -255.49845289138864 curveto
311.11802560288413 -256.730220230618 311.4152139133014 -257.3461038451684 312.0095905075652 -257.3461038451684 curveto
closepath
fill
newpath
1.0 setlinewidth
10.0 setmiterlimit
0 setlinejoin
0 setlinecap
[ ] 0 setdash
newpath
309.87684353528806 -249.29696352850513 moveto
309.87684353528806 -251.69949632427713 lineto
stroke
newpath
0.0 0.0 0.0 setrgbcolor
1.0 setlinewidth
10.0 setmiterlimit
0 setlinejoin
0 setlinecap
[ ] 0 setdash
newpath
363.68574818342216 -257.67164234654865 moveto
363.68574818342216 -257.237591011375 lineto
364.5538508537695 -257.237591011375 lineto
364.5538508537695 -253.81210479865317 lineto
363.68574818342216 -254.02913046624 lineto
363.68574818342216 -253.5833480138995 lineto
365.13454115352886 -253.22261616101866 lineto
365.13454115352886 -257.237591011375 lineto
366.00264382387616 -257.237591011375 lineto
366.00264382387616 -257.67164234654865 lineto
closepath
367.07897382393514 -257.67164234654865 moveto
367.07897382393514 -257.16427152908216 lineto
367.24711984167124 -256.7712790922804 367.58732224213213 -256.34309332049736 368.09958101745156 -255.87971419931145 curveto
368.43098507741524 -255.58350349084836 lineto
368.85721568051366 -255.1983317990576 369.07033096300887 -254.81609290386447 369.07033096300887 -254.43678678778824 curveto
369.07033096300887 -254.19434369244783 368.9975002750941 -254.00371304364324 368.8518389057762 -253.864894825904 curveto
368.7061775299467 -253.72607660195914 368.5062597421151 -253.65666749619234 368.2520855406207 -253.65666749619234 curveto
367.95098685769796 -253.65666749619234 367.5961205662849 -253.77300107823066 367.1874866577286 -254.00566823190627 curveto
367.1874866577286 -253.49536463514806 lineto
367.5726583495194 -253.31353231364278 367.95489724471247 -253.22261616101866 368.3342033607887 -253.22261616101866 curveto
368.74088210135966 -253.22261616101866 369.0673981873881 -253.3321065911724 369.31375164422116 -253.55108744169064 curveto
369.560105112067 -253.77006830199807 369.6832818349771 -254.0604134507415 369.6832818349771 -254.42212289132965 curveto
369.6832818349771 -254.68216266294473 369.62120467145246 -254.91287462914397 369.49705034995327 -255.11425880417414 curveto
369.37289602290394 -255.31564298820686 369.141695254067 -255.56004126079742 368.8034480474629 -255.8474536271026 curveto
368.58055682129265 -256.038084281064 lineto
368.11717767939206 -256.4310767178658 367.84931718348065 -256.8064724608247 367.77697529536306 -257.16427152908216 curveto
369.66275237993506 -257.16427152908216 lineto
369.66275237993506 -257.67164234654865 lineto
closepath
fill
newpath
1.0 setlinewidth
10.0 setmiterlimit
0 setlinejoin
0 setlinecap
[ ] 0 setdash
newpath
366.56975692111484 -249.29696352850513 moveto
366.56975692111484 -251.69949632427713 lineto
stroke
newpath
0.0 0.0 0.0 setrgbcolor
1.0 setlinewidth
10.0 setmiterlimit
0 setlinejoin
0 setlinecap
[ ] 0 setdash
newpath
20.502473472513433 -248.170023997254 moveto
20.054735820634825 -248.170023997254 19.692537587329245 -247.9593526785207 19.415878744933437 -247.53801005988964 curveto
19.13921989017002 -247.1166674224231 19.000890475155924 -246.56677130767403 19.000890475155924 -245.8883217083006 curveto
19.000890475155924 -245.20400651983985 19.140197495664005 -244.6536216202834 19.418811524225152 -244.23716696706566 curveto
19.697425565241318 -243.82071229523098 20.064511771739173 -243.61248497793062 20.520070148263716 -243.61248497793062 curveto
20.975628545153306 -243.61248497793062 21.342714743741134 -243.82071231384796 21.62132877230228 -244.23716696706566 curveto
21.899942813318447 -244.65362163890035 22.03924982137151 -245.201073771052 22.03924982137151 -245.87952337042546 curveto
22.03924982137151 -246.57556967640267 21.89994280086343 -247.13133133762975 21.62132877230228 -247.54680839776478 curveto
21.342714731286115 -247.9622854764731 20.96976296603002 -248.170023997254 20.502473472513433 -248.170023997254 curveto
closepath
20.50833903109686 -247.73597266208034 moveto
21.12031232820605 -247.73597266208034 21.426298949403307 -247.11422343370742 21.426298949403307 -245.8707250325503 curveto
21.426298949403307 -244.6545991833429 21.124222673354204 -244.04653631310427 20.520070148263716 -244.04653631310427 curveto
19.917872782418254 -244.04653631310427 19.61677412641584 -244.66046479646621 19.61677412641584 -245.8883217083006 curveto
19.61677412641584 -247.12008904752994 19.91396243683308 -247.73597266208034 20.50833903109686 -247.73597266208034 curveto
closepath
fill
newpath
1.0 setlinewidth
10.0 setmiterlimit
0 setlinejoin
0 setlinecap
[ ] 0 setdash
newpath
24.009743810382197 -249.29696352850513 moveto
26.41227660615421 -249.29696352850513 lineto
stroke
newpath
0.0 0.0 0.0 setrgbcolor
1.0 setlinewidth
10.0 setmiterlimit
0 setlinejoin
0 setlinecap
[ ] 0 setdash
newpath
19.118201646824478 -194.60515645753324 moveto
19.118201646824478 -194.09778564006675 lineto
19.286347664560548 -193.70479320326498 19.62655006502147 -193.27660743148195 20.13880884034091 -192.81322831029604 curveto
20.47021290030458 -192.51701760183295 lineto
20.896443503402995 -192.1318459100422 21.10955878589821 -191.74960701484906 21.10955878589821 -191.37030089877283 curveto
21.10955878589821 -191.12785780343245 21.036728097983456 -190.93722715462786 20.891066728665525 -190.79840893688862 curveto
20.74540535283602 -190.65959071294373 20.54548756500441 -190.59018160717693 20.291313363510035 -190.59018160717693 curveto
19.990214680587304 -190.59018160717693 19.63534838917424 -190.70651518921525 19.226714480617893 -190.9391823428909 curveto
19.226714480617893 -190.42887874613265 lineto
19.61188617240866 -190.24704642462737 19.994125067601797 -190.15613027200328 20.373431183678022 -190.15613027200328 curveto
20.780109924248983 -190.15613027200328 21.106626010277445 -190.265620702157 21.352979467110462 -190.48460155267523 curveto
21.599332934956333 -190.70358241298266 21.72250965786641 -190.99392756172608 21.72250965786641 -191.35563700231424 curveto
21.72250965786641 -191.61567677392932 21.660432494341755 -191.84638874012856 21.53627817284258 -192.04777291515873 curveto
21.41212384579327 -192.24915709919145 21.180923076956304 -192.493555371782 20.842675870352245 -192.7809677380872 curveto
20.619784644181987 -192.9715983920486 lineto
20.15640550228142 -193.36459082885037 19.888545006370016 -193.73998657180928 19.816203118252385 -194.09778564006675 curveto
21.701980202824412 -194.09778564006675 lineto
21.701980202824412 -194.60515645753324 lineto
closepath
fill
newpath
1.0 setlinewidth
10.0 setmiterlimit
0 setlinejoin
0 setlinecap
[ ] 0 setdash
newpath
24.009743810382197 -192.60405014267835 moveto
26.41227660615421 -192.60405014267835 lineto
stroke
newpath
0.0 0.0 0.0 setrgbcolor
1.0 setlinewidth
10.0 setmiterlimit
0 setlinejoin
0 setlinecap
[ ] 0 setdash
newpath
20.880802001144524 -138.14563575689087 moveto
20.880802001144524 -136.91680123366277 lineto
18.927570992863078 -136.91680123366277 lineto
18.927570992863078 -136.47981711919738 lineto
20.880802001144524 -133.80512240515432 lineto
21.423366170111592 -133.80512240515432 lineto
21.423366170111592 -136.4446237676968 lineto
22.004056469870942 -136.4446237676968 lineto
22.004056469870942 -136.91680123366277 lineto
21.423366170111592 -136.91680123366277 lineto
21.423366170111592 -138.14563575689087 lineto
closepath
19.493597396163857 -136.4446237676968 moveto
20.918928131936806 -136.4446237676968 lineto
20.918928131936806 -134.51485499374908 lineto
closepath
fill
newpath
1.0 setlinewidth
10.0 setmiterlimit
0 setlinejoin
0 setlinecap
[ ] 0 setdash
newpath
24.009743810382197 -135.91113675685156 moveto
26.41227660615421 -135.91113675685156 lineto
stroke
newpath
0.0 0.0 0.0 setrgbcolor
1.0 setlinewidth
10.0 setmiterlimit
0 setlinejoin
0 setlinecap
[ ] 0 setdash
newpath
19.651967477916408 -78.83604014056097 moveto
19.927648739553455 -78.47824105630863 20.27469428709178 -78.29934153017733 20.693104126474836 -78.29934153017733 curveto
21.072410259507368 -78.29934153017733 21.382796060174336 -78.4249622469162 21.624261551593996 -78.67620366916256 curveto
21.865727053808005 -78.92744510264029 21.98645979412066 -79.24956202654866 21.98645979412066 -79.64255444578228 curveto
21.98645979412066 -80.09420247016638 21.85106314611807 -80.46568783799769 21.580269862218287 -80.75701057663356 curveto
21.309476566213103 -81.04833332829257 20.96585259439857 -81.19399469109894 20.549397941180857 -81.19399469109894 curveto
20.070377309258326 -81.19399469109894 19.69595916327155 -81.00140884520356 19.426143472454438 -80.6162371706313 curveto
19.156327769575626 -80.23106547884052 19.021419930197922 -79.69632205593328 19.021419930197922 -79.0120068980638 curveto
19.021419930197922 -78.25926019075696 19.176368440727963 -77.67465953483661 19.48626544793457 -77.2582048816189 curveto
19.796162468994655 -76.84175020978421 20.232657786066504 -76.63352289248384 20.79575140168482 -76.63352289248384 curveto
21.05383598704716 -76.63352289248384 21.37644170721281 -76.6882681075607 21.763568567950404 -76.79775853281981 curveto
21.763568567950404 -77.30219657099461 lineto
21.354934641126697 -77.14578167077501 21.02059781017466 -77.06757422765749 20.760558050184255 -77.06757422765749 curveto
20.02149764664664 -77.06757422765749 19.651967477916408 -77.65706288286012 19.651967477916408 -78.83604014056097 curveto
closepath
21.40576949436131 -79.77159673461769 moveto
21.40576949436131 -79.44312544415654 21.331961213320184 -79.185040873478 21.184344657836913 -78.99734300160523 curveto
21.036728095754665 -78.8096451213417 20.831922342378597 -78.7157961896007 20.56992739622285 -78.7157961896007 curveto
20.325529114629727 -78.7157961896007 20.115346603385092 -78.79791401221598 19.939379848504366 -78.96214965010466 curveto
19.763413085757318 -79.12638529533524 19.675429712250118 -79.32385909952059 19.675429712250118 -79.55457106703086 curveto
19.675429712250118 -79.91823571004144 19.759013924554967 -80.21004724200655 19.926182341691653 -80.43000568560747 curveto
20.093350766301352 -80.64996413904127 20.314775601951716 -80.75994335592527 20.59045685126485 -80.75994335592527 curveto
20.83876550536347 -80.75994335592527 21.03672810235364 -80.67049358486219 21.184344657836913 -80.49159405073345 curveto
21.331961219919158 -80.31269450860728 21.40576949436131 -80.07269540408026 21.40576949436131 -79.77159673461769 curveto
closepath
fill
newpath
1.0 setlinewidth
10.0 setmiterlimit
0 setlinejoin
0 setlinecap
[ ] 0 setdash
newpath
24.009743810382197 -79.21822337102476 moveto
26.41227660615421 -79.21822337102476 lineto
stroke
newpath
0.0 0.0 0.0 setrgbcolor
1.0 setlinewidth
10.0 setmiterlimit
0 setlinejoin
0 setlinecap
[ ] 0 setdash
newpath
20.000968213630358 -22.262141047541764 moveto
19.57669279678469 -21.966907923377267 19.364555107328446 -21.6403918323668 19.364555107328446 -21.282592764109328 curveto
19.364555107328446 -20.954121473648165 19.484799061872263 -20.68723856483228 19.725286960209253 -20.481944017471434 curveto
19.96577486929689 -20.276649460933207 20.279582252111815 -20.174002191841478 20.66670911284941 -20.174002191841478 curveto
21.02450819710175 -20.174002191841478 21.314364543076334 -20.261007980088632 21.53627817284258 -20.435019548804014 curveto
21.758191812529137 -20.609031125298323 21.869148622452105 -20.834855129711446 21.869148622452105 -21.11249156518992 curveto
21.869148622452105 -21.532856609530096 21.599332919573293 -21.91607309627634 21.05970153793907 -22.262141047541764 curveto
21.714688932608652 -22.582791592991946 22.042182600663224 -22.996313471113318 22.042182600663224 -23.502706687936737 curveto
22.042182600663224 -23.86637133094731 21.904830766407887 -24.162582031981103 21.630127110177423 -24.391338813326044 curveto
21.355423441666748 -24.620095604897212 21.001045945636925 -24.73447399045657 20.56699461693114 -24.73447399045657 curveto
20.140764013832726 -24.73447399045657 19.79616245584041 -24.62644994999241 19.533189916601994 -24.410401878722187 curveto
19.270217365607788 -24.194353797793863 19.138731101866476 -23.91036300424075 19.138731101866476 -23.558429494479302 curveto
19.138731101866476 -23.038349951249128 19.42614348101999 -22.606253812641846 20.000968213630358 -22.262141047541764 curveto
closepath
20.737095815850545 -22.080308731455503 moveto
21.14181937016876 -21.81440340108218 21.34418112923532 -21.518192695678206 21.34418112923532 -21.191676606066196 curveto
21.34418112923532 -21.017665029571887 21.276727203515616 -20.877380423716357 21.14181935810706 -20.770822777705252 curveto
21.006911506667652 -20.664265126930648 20.82898956369871 -20.610986306306845 20.608053527015134 -20.610986306306845 curveto
20.39493822546593 -20.610986306306845 20.221904251624988 -20.663287538567776 20.088951592381775 -20.76788999841354 curveto
19.955998927195115 -20.872492462935398 19.88952260054523 -21.007889106261896 19.88952260054523 -21.174079930315912 curveto
19.88952260054523 -21.33636038929375 19.94964457781714 -21.481532961305565 20.069888526985636 -21.609597655135424 curveto
20.190132481529453 -21.737662354690226 20.412534912403874 -21.894566045748075 20.737095815850545 -22.080308731455503 curveto
closepath
20.314775597843745 -22.496763390878876 moveto
20.082108433767086 -22.67664052613142 19.92422715425896 -22.833544214873072 19.84113174223195 -22.967474467198954 curveto
19.758036326490288 -23.101404725511987 19.71648862233411 -23.26808434757135 19.71648862233411 -23.467513336436173 curveto
19.71648862233411 -23.71582199053479 19.796651258696656 -23.916717366904077 19.95697652425465 -24.070199480883375 curveto
20.11730179697974 -24.223681601723857 20.328461905109105 -24.300422655282915 20.59045685126485 -24.300422655282915 curveto
20.842675877868956 -24.300422655282915 21.0484592196953 -24.23492391581596 21.207806892170623 -24.103926442738086 curveto
21.367154571769344 -23.972928963804172 21.446828404445306 -23.8028277656714 21.446828404445306 -23.59362284597987 curveto
21.446828404445306 -23.4254768282438 21.397459951563494 -23.28323703587331 21.298723050213752 -23.1669034590355 curveto
21.19998614445013 -23.050569876997173 21.008866692658188 -22.90833008231049 20.725364698683688 -22.74018407209113 curveto
closepath
fill
newpath
1.0 setlinewidth
10.0 setmiterlimit
0 setlinejoin
0 setlinecap
[ ] 0 setdash
newpath
24.009743810382197 -22.525309985197982 moveto
26.41227660615421 -22.525309985197982 lineto
stroke
newpath
1.0 0.0 0.0 setrgbcolor
2.0 setlinewidth
10.0 setmiterlimit
1 setlinejoin
1 setlinecap
[ ] 0 setdash
newpath
0.0 -238.13249522201036 moveto
2.9280868448471438 -236.91759140041788 lineto
5.8561736896942875 -235.57045589251024 lineto
8.784260534541431 -234.07673640962864 lineto
11.712347379388575 -232.42048596437436 lineto
14.640434224235719 -230.58397957190314 lineto
17.568521069082863 -228.54764093044275 lineto
20.496607913930006 -226.28969415375224 lineto
23.42469475877715 -223.7860354620278 lineto
26.352781603624294 -221.00993990397373 lineto
29.280868448471438 -217.93174974900256 lineto
32.20895529331858 -214.51858120930595 lineto
35.137042138165725 -210.73399450218432 lineto
38.06512898301287 -206.5375722630238 lineto
40.99321582786001 -201.88449795827285 lineto
43.92130267270716 -196.72507930880747 lineto
46.8493895175543 -191.00419839381405 lineto
48.31343293997787 -187.91438710089946 lineto
49.777476362401444 -184.66078008454267 lineto
51.241519784825016 -181.23472564583307 lineto
52.70556320724859 -177.62707717935467 lineto
54.16960662967216 -173.82819317318595 lineto
55.63365005209573 -169.8279555387705 lineto
57.0976934745193 -165.61567796156416 lineto
58.561736896942875 -161.1801242309055 lineto
60.02578031936645 -156.50947158027483 lineto
61.48982374179002 -151.59125569768236 lineto
62.95386716421359 -146.41234323086238 lineto
64.41791058663716 -140.958922622338 lineto
65.88195400906073 -135.21643995487406 lineto
66.61397572027252 -132.232043747626 lineto
67.3459974314843 -129.16957145667135 lineto
68.07801914269609 -126.0269884663765 lineto
68.81004085390788 -122.80219600656076 lineto
69.54206256511966 -119.49304031743183 lineto
70.27408427633145 -116.09731264958563 lineto
71.00610598754324 -112.61274926400635 lineto
71.73812769875502 -109.03703143206648 lineto
72.47014940996681 -105.36777627059152 lineto
73.2021711211786 -101.60252757692466 lineto
73.93419283239038 -97.73877415879734 lineto
74.66621454360217 -93.77394983432934 lineto
75.39823625481395 -89.70539677228753 lineto
76.13025796602574 -85.53041131676237 lineto
76.86227967723752 -81.24620732742672 lineto
77.59430138844931 -76.84992992693881 lineto
78.3263230996611 -72.33864175353929 lineto
79.05834481087288 -67.70933670845415 lineto
79.79036652208467 -62.958926208491796 lineto
80.52238823329645 -58.0842437685107 lineto
81.25440994450824 -53.08203583648414 lineto
81.98643165572003 -47.94896637596777 lineto
82.71845336693181 -42.681616866099695 lineto
83.4504750781436 -37.2764725541975 lineto
84.18249678935538 -31.729924746992086 lineto
84.91451850056717 -26.038277684329124 lineto
85.64654021177896 -20.197734791766145 lineto
86.37856192299074 -14.204399826189423 lineto
86.74457277859663 -11.149190746449413 lineto
87.11058363420253 -8.054276875814004 lineto
87.47659448980842 -4.919142686673325 lineto
87.84260534541431 -1.7432644888970148 lineto
88.2086162010202 1.4738864197192727 lineto
88.5746270566261 4.732846760698259 lineto
stroke
newpath
0.0 0.0 0.0 setrgbcolor
1.0 setlinewidth
10.0 setmiterlimit
1 setlinejoin
1 setlinecap
[ ] 0 setdash
newpath
0.0 -275.7092431334706 moveto
2.9280868448471438 -272.78115628862344 lineto
5.8561736896942875 -269.8530694437763 lineto
8.784260534541431 -266.92498259892915 lineto
11.712347379388575 -263.996895754082 lineto
14.640434224235719 -261.06880890923486 lineto
17.568521069082863 -258.1407220643877 lineto
20.496607913930006 -255.21263521954054 lineto
23.42469475877715 -252.2845483746934 lineto
26.352781603624294 -249.35646152984626 lineto
29.280868448471438 -246.42837468499914 lineto
32.20895529331858 -243.500287840152 lineto
35.137042138165725 -240.57220099530485 lineto
38.06512898301287 -237.6441141504577 lineto
40.99321582786001 -234.71602730561057 lineto
43.92130267270716 -231.78794046076342 lineto
46.8493895175543 -228.85985361591628 lineto
49.777476362401444 -225.93176677106914 lineto
52.70556320724859 -223.003679926222 lineto
55.63365005209573 -220.07559308137485 lineto
58.561736896942875 -217.1475062365277 lineto
61.48982374179002 -214.21941939168056 lineto
64.41791058663716 -211.29133254683342 lineto
67.3459974314843 -208.36324570198627 lineto
70.27408427633145 -205.43515885713913 lineto
73.2021711211786 -202.50707201229199 lineto
76.13025796602574 -199.57898516744484 lineto
79.05834481087288 -196.6508983225977 lineto
81.98643165572003 -193.72281147775055 lineto
84.91451850056717 -190.7947246329034 lineto
87.84260534541431 -187.86663778805627 lineto
90.77069219026146 -184.93855094320912 lineto
93.6987790351086 -182.01046409836198 lineto
96.62686587995574 -179.08237725351484 lineto
99.55495272480289 -176.1542904086677 lineto
102.48303956965003 -173.22620356382055 lineto
105.41112641449718 -170.2981167189734 lineto
108.33921325934432 -167.37002987412626 lineto
111.26730010419146 -164.44194302927912 lineto
114.1953869490386 -161.51385618443197 lineto
117.12347379388575 -158.58576933958483 lineto
120.0515606387329 -155.65768249473768 lineto
122.97964748358004 -152.72959564989054 lineto
125.90773432842718 -149.8015088050434 lineto
128.83582117327433 -146.87342196019625 lineto
131.76390801812147 -143.9453351153491 lineto
134.6919948629686 -141.01724827050197 lineto
137.62008170781576 -138.08916142565482 lineto
140.5481685526629 -135.16107458080768 lineto
143.47625539751004 -132.23298773596053 lineto
146.4043422423572 -129.3049008911134 lineto
149.33242908720433 -126.37681404626623 lineto
152.26051593205148 -123.44872720141909 lineto
155.18860277689862 -120.52064035657195 lineto
158.11668962174576 -117.5925535117248 lineto
161.0447764665929 -114.66446666687766 lineto
163.97286331144005 -111.73637982203051 lineto
166.9009501562872 -108.80829297718337 lineto
169.82903700113434 -105.88020613233623 lineto
172.75712384598148 -102.95211928748908 lineto
175.68521069082863 -100.02403244264194 lineto
178.61329753567577 -97.09594559779481 lineto
181.5413843805229 -94.16785875294767 lineto
184.46947122537006 -91.23977190810052 lineto
187.3975580702172 -88.31168506325338 lineto
190.32564491506434 -85.38359821840623 lineto
193.2537317599115 -82.45551137355909 lineto
196.18181860475863 -79.52742452871195 lineto
199.10990544960578 -76.59933310139715 lineto
202.03799229445292 -73.67124625655 lineto
204.96607913930006 -70.74315941170286 lineto
207.8941659841472 -67.81507256685572 lineto
210.82225282899435 -64.88698572200857 lineto
213.7503396738415 -61.95889887716144 lineto
216.67842651868864 -59.030812032314294 lineto
219.60651336353578 -56.10272518746715 lineto
222.53460020838293 -53.17463834262001 lineto
225.46268705323007 -50.24655149777286 lineto
228.3907738980772 -47.31846465292572 lineto
231.31886074292436 -44.390377808078576 lineto
234.2469475877715 -41.46229096323143 lineto
237.17503443261865 -38.53420411838429 lineto
240.1031212774658 -35.606119564770964 lineto
243.03120812231293 -32.67803271992382 lineto
245.95929496716008 -29.749945875076676 lineto
248.88738181200722 -26.821859030229533 lineto
251.81546865685436 -23.89377218538239 lineto
254.7435555017015 -20.965685340535245 lineto
257.67164234654865 -18.03759735007119 lineto
260.5997291913958 -15.109510505224048 lineto
263.52781603624294 -12.181423660376906 lineto
266.4559028810901 -9.253337388338217 lineto
269.3839897259372 -6.325250543491073 lineto
272.31207657078437 -3.3971636986439293 lineto
275.2401634156315 -0.46907671059467193 lineto
278.16825026047866 2.459009991050358 lineto
281.0963371053258 5.387096835897501 lineto
stroke
newpath
1.0 0.0 0.0 setrgbcolor
2.0 setlinewidth
10.0 setmiterlimit
1 setlinejoin
1 setlinecap
[ ] 0 setdash
newpath
33.67299871574215 -287.90548076612134 moveto
35.137042138165725 -282.6986244116125 lineto
36.6010855605893 -278.30139844032243 lineto
38.06512898301287 -274.4955674132065 lineto
39.52917240543644 -271.140761181415 lineto
40.99321582786001 -268.14131615042635 lineto
43.92130267270716 -262.95387112885453 lineto
46.8493895175543 -258.5705025397178 lineto
49.777476362401444 -254.77504621934628 lineto
52.70556320724859 -251.4282868007364 lineto
55.63365005209573 -248.43527555431893 lineto
58.561736896942875 -245.72832026806702 lineto
61.48982374179002 -243.25749037453923 lineto
64.41791058663716 -240.98486137151957 lineto
67.3459974314843 -238.88099548686745 lineto
70.27408427633145 -236.92254046547265 lineto
73.2021711211786 -235.09070818999757 lineto
76.13025796602574 -233.37008323929018 lineto
79.05834481087288 -231.74796301304323 lineto
81.98643165572003 -230.21366119671254 lineto
84.91451850056717 -228.75817782384667 lineto
87.84260534541431 -227.37375935919312 lineto
90.77069219026146 -226.05384370908672 lineto
93.6987790351086 -224.79265696429687 lineto
96.62686587995574 -223.5851950701571 lineto
99.55495272480289 -222.42707718760045 lineto
102.48303956965003 -221.31441738406537 lineto
105.41112641449718 -220.24378797375462 lineto
108.33921325934432 -219.2121461981531 lineto
111.26730010419146 -218.2167059169337 lineto
114.1953869490386 -217.2550659170513 lineto
117.12347379388575 -216.3249716244254 lineto
120.0515606387329 -215.4244250831635 lineto
122.97964748358004 -214.55161163607886 lineto
125.90773432842718 -213.70486326494935 lineto
128.83582117327433 -212.8826952502585 lineto
131.76390801812147 -212.0836961919722 lineto
134.6919948629686 -211.30660132902088 lineto
137.62008170781576 -210.55023754968786 lineto
140.5481685526629 -209.81352339160935 lineto
143.47625539751004 -209.09548737164494 lineto
146.4043422423572 -208.39519466639535 lineto
149.33242908720433 -207.71178377194374 lineto
152.26051593205148 -207.04444817398482 lineto
155.18860277689862 -206.39247300756625 lineto
158.11668962174576 -205.75516173760624 lineto
161.0447764665929 -205.1318544887642 lineto
163.97286331144005 -204.52196470518172 lineto
166.9009501562872 -203.92492416087106 lineto
169.82903700113434 -203.3402012895856 lineto
172.75712384598148 -202.7672828549493 lineto
175.68521069082863 -202.20572894006838 lineto
178.61329753567577 -201.65506296830793 lineto
181.5413843805229 -201.11491834225654 lineto
184.46947122537006 -200.5848551450204 lineto
187.3975580702172 -200.06452510905865 lineto
190.32564491506434 -199.55357996683037 lineto
193.2537317599115 -199.0516714507947 lineto
196.18181860475863 -198.5585062830224 lineto
199.10990544960578 -198.07377285571383 lineto
202.03799229445292 -197.5971962208103 lineto
204.96607913930006 -197.1284831003827 lineto
207.8941659841472 -196.66741353598414 lineto
210.82225282899435 -196.21371257955602 lineto
213.7503396738415 -195.76716027265144 lineto
216.67842651868864 -195.32751832695294 lineto
219.60651336353578 -194.89460344375482 lineto
222.53460020838293 -194.46821399448078 lineto
225.46268705323007 -194.0481300206839 lineto
228.3907738980772 -193.63418655352908 lineto
231.31886074292436 -193.2262002943105 lineto
234.2469475877715 -192.82398794432254 lineto
237.17503443261865 -192.4274211944711 lineto
240.1031212774658 -192.03631674605046 lineto
243.03120812231293 -191.65054628996666 lineto
245.95929496716008 -191.26994485738447 lineto
248.88738181200722 -190.89438413920996 lineto
251.81546865685436 -190.52373582634903 lineto
254.7435555017015 -190.15787160970774 lineto
257.67164234654865 -189.7966815100626 lineto
260.5997291913958 -189.44001888844903 lineto
263.52781603624294 -189.0877920955142 lineto
266.4559028810901 -188.73989115203463 lineto
269.3839897259372 -188.3962244086575 lineto
272.31207657078437 -188.05664522641817 lineto
275.2401634156315 -187.72109861570496 lineto
278.16825026047866 -187.38949292716498 lineto
281.0963371053258 -187.06169985170422 lineto
284.02442395017295 -186.737664399711 lineto
286.9525107950201 -186.4172949218324 lineto
289.88059763986723 -186.1004997687156 lineto
292.8086844847144 -185.78720562087824 lineto
295.7367713295615 -185.47732082896752 lineto
298.66485817440866 -185.17080873324227 lineto
301.5929450192558 -184.86757768434964 lineto
304.52103186410295 -184.56753603293674 lineto
307.4491187089501 -184.2706471192624 lineto
310.37720555379724 -183.9768376238444 lineto
313.3052923986444 -183.68605255707098 lineto
316.2333792434915 -183.39820026958927 lineto
319.16146608833867 -183.11326243152868 lineto
322.0895529331858 -182.83114739353638 lineto
325.01763977803296 -182.55180016600062 lineto
327.9457266228801 -182.27520241905086 lineto
330.87381346772725 -182.0012625033342 lineto
333.8019003125744 -181.72994375910955 lineto
336.72998715742153 -181.46120952663568 lineto
339.6580740022687 -181.19498648643034 lineto
342.5861608471158 -180.93125630862298 lineto
345.51424769196296 -180.66994567373126 lineto
348.4423345368101 -180.41101792201408 lineto
351.37042138165725 -180.15445472360082 lineto
354.2985082265044 -179.90016442913867 lineto
357.22659507135154 -179.64814703862757 lineto
360.1546819161987 -179.3983658923264 lineto
363.0827687610458 -179.1507476707529 lineto
366.01085560589297 -178.90527404403645 lineto
368.9389424507401 -178.66190835243592 lineto
371.86702929558726 -178.42063226608073 lineto
374.7951161404344 -178.1813724654886 lineto
stroke
newpath
grestore
grestore
showpage

%%EOF