%!PS-Adobe-3.0 EPSF-3.0
%%Creator: EpsGraphics 1.0.0 by Thomas Abeel, http://www.sourceforge.net/epsgraphics/
%%Title: GeoGebra, http://www.geogebra.org/
%%CreationDate: Tue May 21 18:12:41 CEST 2013
%%BoundingBox: 0 0 316 257
%%DocumentData: Clean7Bit
%%LanguageLevel: 2
%%DocumentProcessColors: Black
%%ColorUsage: Color
%%Origin: 0 0
%%Pages: 1
%%Page: 1 1
%%EndComments

gsave
0.0 257.0 translate
0.0 0.0 0.0 setrgbcolor
0.0 0.0 0.0 setrgbcolor
gsave
newpath
0.0 -0.0 moveto
316.69750489722026 -0.0 lineto
316.69750489722026 -257.18021518377714 lineto
0.0 -257.18021518377714 lineto
0.0 -0.0 lineto
closepath
clip
newpath
1.0 1.0 1.0 setrgbcolor
newpath
0.0 -0.0 moveto
316.69750489722026 -0.0 lineto
316.69750489722026 -257.18021518377714 lineto
0.0 -257.18021518377714 lineto
0.0 -0.0 lineto
closepath
fill
newpath
0.0 0.0 0.0 setrgbcolor
1.0 setlinewidth
10.0 setmiterlimit
0 setlinejoin
0 setlinecap
[ ] 0 setdash
newpath
14.727230735808513 -1.0920603617145526 moveto
14.727230735808513 -257.18021518377714 lineto
stroke
newpath
1.0 setlinewidth
10.0 setmiterlimit
0 setlinejoin
0 setlinecap
[ ] 0 setdash
newpath
15.000245826237151 -0.5460301808572763 moveto
13.089140193236684 -2.184120723429105 lineto
stroke
newpath
1.0 setlinewidth
10.0 setmiterlimit
0 setlinejoin
0 setlinecap
[ ] 0 setdash
newpath
14.454215645379875 -0.5460301808572763 moveto
16.365321278380343 -2.184120723429105 lineto
stroke
newpath
1.0 setlinewidth
10.0 setmiterlimit
0 setlinejoin
0 setlinecap
[ ] 0 setdash
newpath
0.0 -119.06876539404477 moveto
315.6054445355057 -119.06876539404477 lineto
stroke
newpath
1.0 setlinewidth
10.0 setmiterlimit
0 setlinejoin
0 setlinecap
[ ] 0 setdash
newpath
316.15147471636294 -119.3417804844734 moveto
314.5133841737911 -117.43067485147294 lineto
stroke
newpath
1.0 setlinewidth
10.0 setmiterlimit
0 setlinejoin
0 setlinecap
[ ] 0 setdash
newpath
316.15147471636294 -118.79575030361613 moveto
314.5133841737911 -120.70685593661659 lineto
stroke
newpath
0.0 0.0 0.0 setrgbcolor
1.0 setlinewidth
10.0 setmiterlimit
0 setlinejoin
0 setlinecap
[ ] 0 setdash
newpath
19.184642428596764 -126.77764998960939 moveto
18.77760819961621 -126.77764998960939 18.44833707842932 -126.58613060894277 18.196829039887678 -126.20309186473271 curveto
17.94532099010275 -125.82005310339949 17.819566976453572 -125.32014754453671 17.819566976453572 -124.70337518146992 curveto
17.819566976453572 -124.08127046468742 17.94620972237001 -123.58092055599974 18.199495202880144 -123.2023254167109 curveto
18.45278069471302 -122.82373026049756 18.78649542789289 -122.6344326993154 19.200639406551566 -122.6344326993154 curveto
19.61478340372392 -122.6344326993154 19.948498129712856 -122.82373027742207 20.20178361022299 -123.2023254167109 curveto
20.455069102055866 -123.58092057292426 20.58171183664956 -124.07860432942574 20.58171183664956 -124.69537669249253 curveto
20.58171183664956 -125.32814606156273 20.455069090733122 -125.83338393540552 20.20178361022299 -126.2110903537101 curveto
19.948498118390113 -126.58879678889949 19.60945105906639 -126.77764998960939 19.184642428596764 -126.77764998960939 curveto
closepath
19.189974754581698 -126.38305786672424 moveto
19.74631411559005 -126.38305786672424 20.02448377122392 -125.81783129547614 20.02448377122392 -124.68737820351512 curveto
20.02448377122392 -123.58180924969021 19.749868974815644 -123.02902482220054 19.200639406551566 -123.02902482220054 curveto
18.653187255782964 -123.02902482220054 18.379461204871678 -123.58714162525685 18.379461204871678 -124.70337518146992 curveto
18.379461204871678 -125.82316367167843 18.64963239616008 -126.38305786672424 19.189974754581698 -126.38305786672424 curveto
closepath
fill
newpath
1.0 setlinewidth
10.0 setmiterlimit
0 setlinejoin
0 setlinecap
[ ] 0 setdash
newpath
14.727230735808513 -119.06876539404477 moveto
14.727230735808513 -121.25288611747388 lineto
stroke
newpath
0.0 0.0 0.0 setrgbcolor
1.0 setlinewidth
10.0 setmiterlimit
0 setlinejoin
0 setlinecap
[ ] 0 setdash
newpath
42.319471946832884 -126.6790019588881 moveto
42.319471946832884 -126.28440983600295 lineto
43.10865619260317 -126.28440983600295 lineto
43.10865619260317 -123.17033146080131 lineto
42.319471946832884 -123.36762752224388 lineto
42.319471946832884 -122.96237074738886 lineto
43.63655646511167 -122.6344326993154 lineto
43.63655646511167 -126.28440983600295 lineto
44.425740710881946 -126.28440983600295 lineto
44.425740710881946 -126.6790019588881 lineto
closepath
fill
newpath
1.0 setlinewidth
10.0 setmiterlimit
0 setlinejoin
0 setlinecap
[ ] 0 setdash
newpath
43.0736874287219 -119.06876539404477 moveto
43.0736874287219 -121.25288611747388 lineto
stroke
newpath
0.0 0.0 0.0 setrgbcolor
1.0 setlinewidth
10.0 setmiterlimit
0 setlinejoin
0 setlinecap
[ ] 0 setdash
newpath
70.34511085845078 -126.6790019588881 moveto
70.34511085845078 -126.21775576119127 lineto
70.49797087457449 -125.86048990955332 70.80724578408442 -125.4712301170233 71.27293557982935 -125.04997637049065 curveto
71.57421199797815 -124.78069390825148 lineto
71.96169436443125 -124.43053782480533 72.15543553033599 -124.0830479200843 72.15543553033599 -123.73822417819682 curveto
72.15543553033599 -123.517821364251 72.08922581404985 -123.34452077442866 71.9568063873972 -123.2183223946657 curveto
71.82438695482492 -123.09212400926125 71.64264351134163 -123.02902482220054 71.41157605543765 -123.02902482220054 curveto
71.13784998005335 -123.02902482220054 70.81524426058694 -123.13478262405357 70.44375888917207 -123.34629821830414 curveto
70.44375888917207 -122.88238585761485 lineto
70.79391497261823 -122.7170837471555 71.14140487733926 -122.6344326993154 71.48622861922674 -122.6344326993154 curveto
71.85593656520034 -122.6344326993154 72.15276937068076 -122.7339694540006 72.37672705871077 -122.93304295447173 curveto
72.60068475675247 -123.13211646384212 72.71266359576163 -123.39606659906343 72.71266359576163 -123.72489336323447 curveto
72.71266359576163 -123.96129315561183 72.65622981073922 -124.17103130670203 72.54336224573997 -124.35410782945672 curveto
72.43049467569514 -124.53718436039559 72.22031215857062 -124.75936460820517 71.91281469802148 -125.02064857757352 curveto
71.71018631059397 -125.19394917208389 lineto
71.28893254522981 -125.55121502372184 71.04542300349217 -125.89248388095722 70.97965765065797 -126.21775576119127 curveto
72.69400045481436 -126.21775576119127 lineto
72.69400045481436 -126.6790019588881 lineto
closepath
fill
newpath
1.0 setlinewidth
10.0 setmiterlimit
0 setlinejoin
0 setlinecap
[ ] 0 setdash
newpath
71.42014412163527 -119.06876539404477 moveto
71.42014412163527 -121.25288611747388 lineto
stroke
newpath
0.0 0.0 0.0 setrgbcolor
1.0 setlinewidth
10.0 setmiterlimit
0 setlinejoin
0 setlinecap
[ ] 0 setdash
newpath
98.8399944567429 -126.64967416597096 moveto
98.8399944567429 -126.159100175357 lineto
99.2168121709083 -126.3084053073848 99.51364497607089 -126.38305786672424 99.73049289622693 -126.38305786672424 curveto
99.98111222498788 -126.38305786672424 100.1850736887866 -126.30973838224631 100.34237730299816 -126.1630994198457 curveto
100.49968092424173 -126.01646045088982 100.5783327278315 -125.82671851882642 100.5783327278315 -125.59387362095396 curveto
100.5783327278315 -125.03931170199355 100.18996164035441 -124.7620307673042 99.41321950012335 -124.7620307673042 curveto
99.2052587867109 -124.7620307673042 lineto
99.2052587867109 -124.40743108930607 lineto
99.38922403319114 -124.4047649263136 lineto
100.11797527285064 -124.4047649263136 100.48235086010268 -124.14792455038483 100.48235086010268 -123.63424382149059 curveto
100.48235086010268 -123.23076447660594 100.24239618362944 -123.02902482220054 99.76248685213655 -123.02902482220054 curveto
99.49942542903995 -123.02902482220054 99.20970238698385 -123.10278866719047 98.89331771659225 -123.25031635057532 curveto
98.89331771659225 -122.79173631587096 lineto
99.2043700749835 -122.68686723504192 99.50653520922988 -122.6344326993154 99.79981313403108 -122.6344326993154 curveto
100.60677182380039 -122.6344326993154 101.01025113261117 -122.93926401053882 101.01025113261117 -123.54892660573164 curveto
101.01025113261117 -124.01283898024658 100.7356363362029 -124.3434431804268 100.18640676793882 -124.54073923892943 curveto
100.82273102110493 -124.68826692890927 101.14089311924207 -125.03664556371248 101.14089311924207 -125.58587513197656 curveto
101.14089311924207 -125.95736051999812 101.01824961793352 -126.24886099925523 100.7729626262816 -126.46037659350579 curveto
100.52767562366449 -126.67189219721185 100.19085036654316 -126.77764998960939 99.76248685213655 -126.77764998960939 curveto
99.51897729156738 -126.77764998960939 99.21147982815776 -126.73499138045858 98.8399944567429 -126.64967416597096 curveto
closepath
fill
newpath
1.0 setlinewidth
10.0 setmiterlimit
0 setlinejoin
0 setlinecap
[ ] 0 setdash
newpath
99.76660081454867 -119.06876539404477 moveto
99.76660081454867 -121.25288611747388 lineto
stroke
newpath
0.0 0.0 0.0 setrgbcolor
1.0 setlinewidth
10.0 setmiterlimit
0 setlinejoin
0 setlinecap
[ ] 0 setdash
newpath
128.7346136260803 -126.6790019588881 moveto
128.7346136260803 -125.56187966504436 lineto
126.95894907309714 -125.56187966504436 lineto
126.95894907309714 -125.16462137916675 lineto
128.7346136260803 -122.73308073003669 lineto
129.2278537796867 -122.73308073003669 lineto
129.2278537796867 -125.13262742325713 lineto
129.75575405219521 -125.13262742325713 lineto
129.75575405219521 -125.56187966504436 lineto
129.2278537796867 -125.56187966504436 lineto
129.2278537796867 -126.6790019588881 lineto
closepath
127.47351853064332 -125.13262742325713 moveto
128.76927374498237 -125.13262742325713 lineto
128.76927374498237 -123.37829217421374 lineto
closepath
fill
newpath
1.0 setlinewidth
10.0 setmiterlimit
0 setlinejoin
0 setlinecap
[ ] 0 setdash
newpath
128.11305750746203 -119.06876539404477 moveto
128.11305750746203 -121.25288611747388 lineto
stroke
newpath
0.0 0.0 0.0 setrgbcolor
1.0 setlinewidth
10.0 setmiterlimit
0 setlinejoin
0 setlinecap
[ ] 0 setdash
newpath
155.73644594859078 -126.69499893684291 moveto
155.73644594859078 -126.22575425016868 lineto
155.99772992963943 -126.33062333099772 156.24657180467216 -126.38305786672424 156.4829715864816 -126.38305786672424 curveto
156.7424781254823 -126.38305786672424 156.94643958888372 -126.3066278586624 157.09485599325282 -126.15376784937206 curveto
157.24327240425663 -126.00090783324836 157.3174806031238 -125.79028095739966 157.3174806031238 -125.52188722015734 curveto
157.3174806031238 -124.92999901818999 156.9095576531193 -124.63405494366577 156.0937117895814 -124.63405494366577 curveto
156.001284803088 -124.63405494366577 155.90441421560652 -124.6402759908336 155.80310002340246 -124.65271808461304 curveto
155.80310002340246 -122.73308073003669 lineto
157.8000561047604 -122.73308073003669 lineto
157.8000561047604 -123.19166076474104 lineto
156.2643462210993 -123.19166076474104 lineto
156.2643462210993 -124.23146433180324 lineto
156.77091720476503 -124.23146433180324 157.16639803778844 -124.34788678594397 157.45078875274717 -124.58073168381644 curveto
157.73517948041916 -124.81357659209789 157.8773748315419 -125.13618231339184 157.8773748315419 -125.54854885008201 curveto
157.8773748315419 -125.93247633243922 157.74806592255356 -126.23330838189186 157.48944811613796 -126.45104502303215 curveto
157.23083029816124 -126.66878167390604 156.87223137654843 -126.77764998960939 156.41365134867746 -126.77764998960939 curveto
156.21457783930705 -126.77764998960939 155.98884270811666 -126.75009963786616 155.73644594859078 -126.69499893684291 curveto
closepath
fill
newpath
1.0 setlinewidth
10.0 setmiterlimit
0 setlinejoin
0 setlinecap
[ ] 0 setdash
newpath
156.45951420037545 -119.06876539404477 moveto
156.45951420037545 -121.25288611747388 lineto
stroke
newpath
0.0 0.0 0.0 setrgbcolor
1.0 setlinewidth
10.0 setmiterlimit
0 setlinejoin
0 setlinecap
[ ] 0 setdash
newpath
184.40463014139328 -124.63405494366577 moveto
184.65524947015425 -124.30878304889093 184.9707454224618 -124.14614711604429 185.3511180037191 -124.14614711604429 curveto
185.6959417610214 -124.14614711604429 185.97811067071865 -124.26034776762508 186.19762475382745 -124.48874906057632 curveto
186.41713884674928 -124.7171503637379 186.52689588339715 -125.00998393092732 186.52689588339715 -125.36724976659426 curveto
186.52689588339715 -125.7778388796707 186.4038080215766 -126.11555285042644 186.15763230894044 -126.38039170373177 curveto
185.91145658529936 -126.64523056887633 185.59907115637705 -126.77764998960939 185.22047601708823 -126.77764998960939 curveto
184.78500271534045 -126.77764998960939 184.44462258262521 -126.6025719478863 184.1993355909733 -126.25241588009335 curveto
183.9540485883562 -125.9022597966472 183.83140509801282 -125.41612941218607 183.83140509801282 -124.79402472321381 curveto
183.83140509801282 -124.10970953475305 183.97226738031287 -123.57825439300727 184.25399193231888 -123.19965925371844 curveto
184.53571649691895 -122.82106409750509 184.93253042152972 -122.63176653632293 185.44443370845548 -122.63176653632293 curveto
185.67905605878488 -122.63176653632293 185.9723339862082 -122.68153491366553 186.32426749596965 -122.7810716639011 curveto
186.32426749596965 -123.23965169860544 lineto
185.95278210794808 -123.09745633476945 185.64883953435532 -123.02635865920807 185.41243975254585 -123.02635865920807 curveto
184.74056665842076 -123.02635865920807 184.40463014139328 -123.56225743666499 184.40463014139328 -124.63405494366577 curveto
closepath
185.99899561088864 -125.4845609382628 moveto
185.99899561088864 -125.1859506742072 185.93189717357853 -124.95132833722673 185.79770030495737 -124.78069390825148 curveto
185.66350343033716 -124.61005947164827 185.47731638181347 -124.52474226097462 185.2391391580355 -124.52474226097462 curveto
185.01695890204175 -124.52474226097462 184.82588389181936 -124.59939482698852 184.66591411465507 -124.74869995234187 curveto
184.50594433033956 -124.89800508436967 184.425959445333 -125.07752672453816 184.425959445333 -125.28726487682023 curveto
184.425959445333 -125.61786909773893 184.50194509288286 -125.88315230861632 184.65391638118896 -126.08311453007168 curveto
184.80588767628868 -126.28307676046606 185.00718298142536 -126.38305786672424 185.25780229898277 -126.38305786672424 curveto
185.48353743907242 -126.38305786672424 185.6635034363362 -126.30173989303053 185.79770030495737 -126.1391039529135 curveto
185.9318971795776 -125.97646800552607 185.99899561088864 -125.7582870014106 185.99899561088864 -125.4845609382628 curveto
closepath
fill
newpath
1.0 setlinewidth
10.0 setmiterlimit
0 setlinejoin
0 setlinecap
[ ] 0 setdash
newpath
184.80597089328884 -119.06876539404477 moveto
184.80597089328884 -121.25288611747388 lineto
stroke
newpath
0.0 0.0 0.0 setrgbcolor
1.0 setlinewidth
10.0 setmiterlimit
0 setlinejoin
0 setlinecap
[ ] 0 setdash
newpath
212.6808883743031 -126.6790019588881 moveto
212.73243419369362 -126.37150448459273 212.8057536758673 -126.10577691217043 212.90084682118163 -125.88181922414041 curveto
212.99593997074695 -125.65786152609871 213.16435260053922 -125.35036406181504 213.40608470825416 -124.95932682874677 curveto
214.48321455721089 -123.22632088364311 lineto
212.4515983569509 -123.22632088364311 lineto
212.4515983569509 -122.73308073003669 lineto
214.98445319979473 -122.73308073003669 lineto
214.98445319979473 -123.22632088364311 lineto
213.97308867451116 -124.71759476187317 213.4069734274506 -125.86848842125566 213.28610737359313 -126.6790019588881 curveto
closepath
fill
newpath
1.0 setlinewidth
10.0 setmiterlimit
0 setlinejoin
0 setlinecap
[ ] 0 setdash
newpath
213.15242758620224 -119.06876539404477 moveto
213.15242758620224 -121.25288611747388 lineto
stroke
newpath
0.0 0.0 0.0 setrgbcolor
1.0 setlinewidth
10.0 setmiterlimit
0 setlinejoin
0 setlinecap
[ ] 0 setdash
newpath
241.5090423466536 -124.53007458695956 moveto
241.12333742224843 -124.26168083771911 240.93048497728822 -123.96484802770959 240.93048497728822 -123.63957614747552 curveto
240.93048497728822 -123.34096588341993 241.03979766323715 -123.09834505722367 241.25842302536168 -122.911713650532 curveto
241.47704839725952 -122.72508223549724 241.7623278361822 -122.63176653632293 242.11426134594365 -122.63176653632293 curveto
242.4395332407185 -122.63176653632293 242.7030390097863 -122.71086270745671 242.90477867321016 -122.86905504265252 curveto
243.1065183456525 -123.02724738492007 243.2073881728552 -123.23254193438655 243.2073881728552 -123.48493869391243 curveto
243.2073881728552 -123.86708873422168 242.9621011702381 -124.21546735853644 242.47152718693425 -124.53007458695956 curveto
243.0669702729975 -124.82157508282336 243.36469178941076 -125.1975040629337 243.36469178941076 -125.65786153277317 curveto
243.36469178941076 -125.98846575369187 243.23982648554227 -126.25774820917714 242.9900958889691 -126.46570891949072 curveto
242.74036528123213 -126.67366963910088 242.41820392120502 -126.77764998960939 242.02361180419976 -126.77764998960939 curveto
241.63612943774666 -126.77764998960939 241.3228552941173 -126.67944631646014 241.0837893493551 -126.48303897894176 curveto
240.84472339390584 -126.28663163264329 240.72519042686827 -126.02845818395863 240.72519042686827 -125.70851862963005 curveto
240.72519042686827 -125.23571904487535 240.98647440791692 -124.84290437341419 241.5090423466536 -124.53007458695956 curveto
closepath
242.17824925776287 -124.3647724814266 moveto
242.5461797616885 -124.12304036290539 242.73014499720355 -123.85375790344723 242.73014499720355 -123.55692509470904 curveto
242.73014499720355 -123.39873275244149 242.66882324654927 -123.27120129257283 242.54617975072333 -123.17433070529 curveto
242.42353624941478 -123.07746011367672 242.2617890285339 -123.02902482220054 242.0609380860943 -123.02902482220054 curveto
241.86719690286773 -123.02902482220054 241.70989329028507 -123.0765713969832 241.58902723642763 -123.17166454229753 curveto
241.46816117716702 -123.26675769186286 241.40772815293985 -123.38984554943241 241.40772815293985 -123.54092811675424 curveto
241.40772815293985 -123.68845580673408 241.4623844959143 -123.82043087219937 241.57169717697658 -123.93685332113562 curveto
241.68100986292552 -124.05327577527633 241.88319389099317 -124.19591549441984 242.17824925776287 -124.3647724814266 curveto
closepath
241.79432178684758 -124.74336762635693 moveto
241.5828061831415 -124.90689229476833 241.43927774722505 -125.04953201180619 241.36373646356415 -125.17128678664791 curveto
241.28819517652627 -125.29304156693249 241.2504245363843 -125.44456849607737 241.2504245363843 -125.62586757686357 curveto
241.2504245363843 -125.85160271695322 241.32329966035024 -126.03423487728894 241.4690499017666 -126.17376407181557 curveto
241.6148001496985 -126.31329327257964 241.80676388436154 -126.38305786672424 242.0449411081395 -126.38305786672424 curveto
242.27423113232504 -126.38305786672424 242.4613068976217 -126.32351355811792 242.60616841805384 -126.20442494622894 curveto
242.75102994496177 -126.08533632901629 242.82346070193992 -125.93069887616831 242.82346070193992 -125.74051258553965 curveto
242.82346070193992 -125.58765256941595 242.77858029022917 -125.45834366726096 242.68881947082033 -125.35258587013568 curveto
242.59905864739883 -125.24682806828265 242.42531369122435 -125.11751916402204 242.167584605793 -124.9646591547317 curveto
closepath
fill
newpath
1.0 setlinewidth
10.0 setmiterlimit
0 setlinejoin
0 setlinecap
[ ] 0 setdash
newpath
241.49888427911563 -119.06876539404477 moveto
241.49888427911563 -121.25288611747388 lineto
stroke
newpath
0.0 0.0 0.0 setrgbcolor
1.0 setlinewidth
10.0 setmiterlimit
0 setlinejoin
0 setlinecap
[ ] 0 setdash
newpath
269.2680649590248 -126.65500649195589 moveto
269.2680649590248 -126.20975727221388 lineto
269.6022240640394 -126.32529100533063 269.88661477677334 -126.38305786672424 270.1212371166143 -126.38305786672424 curveto
270.44828645343705 -126.38305786672424 270.70379373320964 -126.24397302647216 270.8877589769486 -125.96580335840314 curveto
271.0717242289114 -125.68763367789896 271.16370684666896 -125.30059568439299 271.16370684666896 -124.80468937518367 curveto
270.89709053947644 -125.13351615405443 270.59403668221967 -125.2979295287901 270.25454526623764 -125.2979295287901 curveto
269.922163603271 -125.2979295287901 269.6404390535295 -125.17573038799354 269.4093715976255 -124.93133211732587 curveto
269.17830413139205 -124.68693383573275 269.0627704086048 -124.38876794311459 269.0627704086048 -124.03683443335314 curveto
269.0627704086048 -123.63335508846849 269.18585827042534 -123.29875164097882 269.4320339830615 -123.03302406668924 curveto
269.6782097067026 -122.76729648052071 269.987928972553 -122.6344326993154 270.36119178593634 -122.6344326993154 curveto
270.78955531949225 -122.6344326993154 271.1272692894534 -122.80640021745457 271.37433372307385 -123.1503352383578 curveto
271.6213981677389 -123.49427027463612 271.74493037902675 -123.9648480414558 271.74493037902675 -124.56206854286917 curveto
271.74493037902675 -125.24105140518607 271.594292165463 -125.78006067587401 271.2930157518036 -126.1790963978005 curveto
270.9917393246761 -126.57813213756529 270.5842607486516 -126.77764998960939 270.0705800197574 -126.77764998960939 curveto
269.8643967421952 -126.77764998960939 269.5968917231958 -126.73676882250653 269.2680649590248 -126.65500649195589 curveto
closepath
269.58800451812084 -123.93285407664692 moveto
269.58800451812084 -124.23857410889431 269.65599167645496 -124.47941749272479 269.7919659870446 -124.65538424760551 curveto
269.9279403037128 -124.83135101035256 270.114127352157 -124.91933438385976 270.35052713396647 -124.91933438385976 curveto
270.5727073899602 -124.91933438385976 270.76244931864665 -124.84379309682188 270.9197529328582 -124.69271052950006 curveto
271.0770565541018 -124.5416279554243 271.15570835769154 -124.35944015226335 271.15570835769154 -124.14614711604429 curveto
271.15570835769154 -123.81021056898173 271.07972271014165 -123.53959503219887 270.9277514218356 -123.33430048483804 curveto
270.77578012673587 -123.1290059282998 270.5762622636471 -123.02635865920807 270.3291978300267 -123.02635865920807 curveto
270.09990780584116 -123.02635865920807 269.9190530877123 -123.10767663290179 269.7866336610596 -123.27031257301883 curveto
269.6542142284874 -123.43294852040626 269.58800451812084 -123.65379568759364 269.58800451812084 -123.93285407664692 curveto
closepath
fill
newpath
1.0 setlinewidth
10.0 setmiterlimit
0 setlinejoin
0 setlinecap
[ ] 0 setdash
newpath
269.845340972029 -119.06876539404477 moveto
269.845340972029 -121.25288611747388 lineto
stroke
newpath
0.0 0.0 0.0 setrgbcolor
1.0 setlinewidth
10.0 setmiterlimit
0 setlinejoin
0 setlinecap
[ ] 0 setdash
newpath
295.6774758646091 -126.6790019588881 moveto
295.6774758646091 -126.28440983600295 lineto
296.46666011037934 -126.28440983600295 lineto
296.46666011037934 -123.17033146080131 lineto
295.6774758646091 -123.36762752224388 lineto
295.6774758646091 -122.96237074738886 lineto
296.99456038288787 -122.6344326993154 lineto
296.99456038288787 -126.28440983600295 lineto
297.78374462865816 -126.28440983600295 lineto
297.78374462865816 -126.6790019588881 lineto
closepath
300.0206553793381 -126.77764998960939 moveto
299.6136211503576 -126.77764998960939 299.2843500291707 -126.58613060894277 299.03284199062904 -126.20309186473271 curveto
298.7813339408441 -125.82005310339949 298.65557992719494 -125.32014754453671 298.65557992719494 -124.70337518146992 curveto
298.65557992719494 -124.08127046468742 298.7822226731114 -123.58092055599974 299.0355081536215 -123.2023254167109 curveto
299.28879364545435 -122.82373026049756 299.6225083786342 -122.6344326993154 300.0366523572929 -122.6344326993154 curveto
300.45079635446524 -122.6344326993154 300.7845110804542 -122.82373027742207 301.03779656096435 -123.2023254167109 curveto
301.2910820527972 -123.58092057292426 301.4177247873909 -124.07860432942574 301.4177247873909 -124.69537669249253 curveto
301.4177247873909 -125.32814606156273 301.29108204147445 -125.83338393540552 301.03779656096435 -126.2110903537101 curveto
300.78451106913144 -126.58879678889949 300.4454640098077 -126.77764998960939 300.0206553793381 -126.77764998960939 curveto
closepath
300.025987705323 -126.38305786672424 moveto
300.5823270663314 -126.38305786672424 300.86049672196526 -125.81783129547614 300.86049672196526 -124.68737820351512 curveto
300.86049672196526 -123.58180924969021 300.585881925557 -123.02902482220054 300.0366523572929 -123.02902482220054 curveto
299.4892002065243 -123.02902482220054 299.21547415561304 -123.58714162525685 299.21547415561304 -124.70337518146992 curveto
299.21547415561304 -125.82316367167843 299.48564534690144 -126.38305786672424 300.025987705323 -126.38305786672424 curveto
closepath
fill
newpath
1.0 setlinewidth
10.0 setmiterlimit
0 setlinejoin
0 setlinecap
[ ] 0 setdash
newpath
298.1917976649424 -119.06876539404477 moveto
298.1917976649424 -121.25288611747388 lineto
stroke
newpath
0.0 0.0 0.0 setrgbcolor
1.0 setlinewidth
10.0 setmiterlimit
0 setlinejoin
0 setlinecap
[ ] 0 setdash
newpath
5.194218741924539 -232.79922108286186 moveto
5.194218741924539 -232.43662291588632 lineto
7.364475417792815 -232.43662291588632 lineto
7.364475417792815 -232.79922108286186 lineto
closepath
9.700034199194056 -234.24694758777153 moveto
9.700034199194056 -233.12982529392778 lineto
7.924369646210921 -233.12982529392778 lineto
7.924369646210921 -232.73256700805018 lineto
9.700034199194056 -230.30102635892013 lineto
10.193274352800481 -230.30102635892013 lineto
10.193274352800481 -232.70057305214056 lineto
10.721174625308981 -232.70057305214056 lineto
10.721174625308981 -233.12982529392778 lineto
10.193274352800481 -233.12982529392778 lineto
10.193274352800481 -234.24694758777153 lineto
closepath
8.438939103757084 -232.70057305214056 moveto
9.734694318096128 -232.70057305214056 lineto
9.734694318096128 -230.94623780309718 lineto
closepath
fill
newpath
1.0 setlinewidth
10.0 setmiterlimit
0 setlinejoin
0 setlinecap
[ ] 0 setdash
newpath
12.543110012379408 -232.4545921656984 moveto
14.727230735808513 -232.4545921656984 lineto
stroke
newpath
0.0 0.0 0.0 setrgbcolor
1.0 setlinewidth
10.0 setmiterlimit
0 setlinejoin
0 setlinecap
[ ] 0 setdash
newpath
5.194218741924539 -204.40565167828348 moveto
5.194218741924539 -204.04305351130796 lineto
7.364475417792815 -204.04305351130796 lineto
7.364475417792815 -204.40565167828348 lineto
closepath
8.198984434435038 -205.82405039027603 moveto
8.198984434435038 -205.33347639966206 lineto
8.575802148600442 -205.48278153168985 8.87263495376303 -205.5574340910293 9.089482873919074 -205.5574340910293 curveto
9.340102202680026 -205.5574340910293 9.544063666478733 -205.48411460655137 9.70136728069029 -205.33747564415077 curveto
9.858670901933866 -205.19083667519487 9.937322705523634 -205.0010947431315 9.937322705523634 -204.76824984525902 curveto
9.937322705523634 -204.2136879262986 9.548951618046557 -203.93640699160926 8.77220947781548 -203.93640699160926 curveto
8.564248764403041 -203.93640699160926 lineto
8.564248764403041 -203.58180731361114 lineto
8.748214010883276 -203.57914115061865 lineto
9.476965250542781 -203.57914115061865 9.841340837794815 -203.3223007746899 9.841340837794815 -202.80862004579566 curveto
9.841340837794815 -202.405140700911 9.601386161321564 -202.2034010465056 9.12147682982868 -202.2034010465056 curveto
8.858415406732078 -202.2034010465056 8.568692364675988 -202.27716489149552 8.252307694284383 -202.42469257488037 curveto
8.252307694284383 -201.96611254017603 lineto
8.563360052675634 -201.86124345934698 8.865525186922014 -201.80880892362046 9.15880311172322 -201.80880892362046 curveto
9.965761801492526 -201.80880892362046 10.369241110303316 -202.1136402348439 10.369241110303316 -202.72330283003672 curveto
10.369241110303316 -203.18721520455165 10.094626313895038 -203.51781940473185 9.54539674563096 -203.7151154632345 curveto
10.181720998797065 -203.86264315321435 10.499883096934207 -204.21102178801755 10.499883096934207 -204.76025135628163 curveto
10.499883096934207 -205.13173674430317 10.377239595625657 -205.42323722356028 10.131952603973737 -205.63475281781086 curveto
9.886665601356635 -205.84626842151692 9.54984034423529 -205.95202621391445 9.12147682982868 -205.95202621391445 curveto
8.877967269259528 -205.95202621391445 8.5704698058499 -205.90936760476364 8.198984434435038 -205.82405039027603 curveto
closepath
fill
newpath
1.0 setlinewidth
10.0 setmiterlimit
0 setlinejoin
0 setlinecap
[ ] 0 setdash
newpath
12.543110012379408 -204.10813547278497 moveto
14.727230735808513 -204.10813547278497 lineto
stroke
newpath
0.0 0.0 0.0 setrgbcolor
1.0 setlinewidth
10.0 setmiterlimit
0 setlinejoin
0 setlinecap
[ ] 0 setdash
newpath
5.194218741924539 -176.01208227370512 moveto
5.194218741924539 -175.64948410672957 lineto
7.364475417792815 -175.64948410672957 lineto
7.364475417792815 -176.01208227370512 lineto
closepath
8.097670240721287 -177.45980877861479 moveto
8.097670240721287 -176.99856258091796 lineto
8.250530256844987 -176.64129672928001 8.559805166354915 -176.25203693675 9.025494962099861 -175.83078319021735 curveto
9.326771380248651 -175.56150072797817 lineto
9.714253746701754 -175.211344644532 9.907994912606494 -174.86385473981096 9.907994912606494 -174.5190309979235 curveto
9.907994912606494 -174.2986281839777 9.841785196320357 -174.12532759415535 9.709365769667691 -173.9991292143924 curveto
9.576946337095416 -173.87293082898796 9.395202893612137 -173.80983164192725 9.164135437708154 -173.80983164192725 curveto
8.890409362323853 -173.80983164192725 8.567803642857433 -173.91558944378028 8.196318271442571 -174.12710503803083 curveto
8.196318271442571 -173.66319267734156 lineto
8.546474354888725 -173.4978905668822 8.893964259609756 -173.4152395190421 9.238788001497236 -173.4152395190421 curveto
9.60849594747084 -173.4152395190421 9.905328752951258 -173.5147762737273 10.12928644098127 -173.71384977419842 curveto
10.353244139022971 -173.91292328356883 10.465222978032132 -174.1768734187901 10.465222978032132 -174.50570018296116 curveto
10.465222978032132 -174.7420999753385 10.40878919300972 -174.95183812642873 10.295921628010468 -175.13491464918343 curveto
10.183054057965641 -175.31799118012228 9.972871540841126 -175.54017142793185 9.665374080291983 -175.8014553973002 curveto
9.462745692864477 -175.97475599181058 lineto
9.041491927500324 -176.33202184344853 8.797982385762683 -176.6732907006839 8.732217032928473 -176.99856258091796 curveto
10.446559837084862 -176.99856258091796 lineto
10.446559837084862 -177.45980877861479 lineto
closepath
fill
newpath
1.0 setlinewidth
10.0 setmiterlimit
0 setlinejoin
0 setlinecap
[ ] 0 setdash
newpath
12.543110012379408 -175.76167877987157 moveto
14.727230735808513 -175.76167877987157 lineto
stroke
newpath
0.0 0.0 0.0 setrgbcolor
1.0 setlinewidth
10.0 setmiterlimit
0 setlinejoin
0 setlinecap
[ ] 0 setdash
newpath
5.194218741924539 -147.61851286912676 moveto
5.194218741924539 -147.25591470215122 lineto
7.364475417792815 -147.25591470215122 lineto
7.364475417792815 -147.61851286912676 lineto
closepath
8.465600733681756 -149.06623937403643 moveto
8.465600733681756 -148.67164725115128 lineto
9.254784979452038 -148.67164725115128 lineto
9.254784979452038 -145.55756887594964 lineto
8.465600733681756 -145.7548649373922 lineto
8.465600733681756 -145.34960816253718 lineto
9.782685251960539 -145.02167011446372 lineto
9.782685251960539 -148.67164725115128 lineto
10.57186949773082 -148.67164725115128 lineto
10.57186949773082 -149.06623937403643 lineto
closepath
fill
newpath
1.0 setlinewidth
10.0 setmiterlimit
0 setlinejoin
0 setlinecap
[ ] 0 setdash
newpath
12.543110012379408 -147.41522208695818 moveto
14.727230735808513 -147.41522208695818 lineto
stroke
newpath
0.0 0.0 0.0 setrgbcolor
1.0 setlinewidth
10.0 setmiterlimit
0 setlinejoin
0 setlinecap
[ ] 0 setdash
newpath
9.356099173165791 -118.04116709589296 moveto
8.949064944185238 -118.04116709589296 8.619793822998345 -117.84964771522634 8.368285784456704 -117.46660897101629 curveto
8.116777734671778 -117.08357020968306 7.9910237210226 -116.58366465082028 7.9910237210226 -115.96689228775351 curveto
7.9910237210226 -115.34478757097101 8.117666466939038 -114.84443766228333 8.370951947449171 -114.46584252299449 curveto
8.624237439282048 -114.08724736678114 8.957952172461919 -113.89794980559898 9.372096151120594 -113.89794980559898 curveto
9.786240148292947 -113.89794980559898 10.119954874281882 -114.08724738370566 10.373240354792015 -114.46584252299449 curveto
10.626525846624892 -114.84443767920784 10.753168581218587 -115.34212143570933 10.753168581218587 -115.9588937987761 curveto
10.753168581218587 -116.5916631678463 10.626525835302148 -117.09690104168911 10.373240354792015 -117.47460745999369 curveto
10.119954862959139 -117.85231389518306 9.780907803635419 -118.04116709589296 9.356099173165791 -118.04116709589296 curveto
closepath
9.361431499150726 -117.64657497300782 moveto
9.917770860159079 -117.64657497300782 10.195940515792948 -117.08134840175971 10.195940515792948 -115.9508953097987 curveto
10.195940515792948 -114.8453263559738 9.921325719384672 -114.29254192848413 9.372096151120594 -114.29254192848413 curveto
8.82464400035199 -114.29254192848413 8.550917949440706 -114.85065873154043 8.550917949440706 -115.96689228775351 curveto
8.550917949440706 -117.08668077796202 8.821089140729107 -117.64657497300782 9.361431499150726 -117.64657497300782 curveto
closepath
fill
newpath
1.0 setlinewidth
10.0 setmiterlimit
0 setlinejoin
0 setlinecap
[ ] 0 setdash
newpath
12.543110012379408 -119.06876539404479 moveto
14.727230735808513 -119.06876539404479 lineto
stroke
newpath
0.0 0.0 0.0 setrgbcolor
1.0 setlinewidth
10.0 setmiterlimit
0 setlinejoin
0 setlinecap
[ ] 0 setdash
newpath
8.465600733681756 -92.82513074573697 moveto
8.465600733681756 -92.43053862285183 lineto
9.254784979452038 -92.43053862285183 lineto
9.254784979452038 -89.31646024765017 lineto
8.465600733681756 -89.51375630909274 lineto
8.465600733681756 -89.10849953423774 lineto
9.782685251960539 -88.78056148616427 lineto
9.782685251960539 -92.43053862285183 lineto
10.57186949773082 -92.43053862285183 lineto
10.57186949773082 -92.82513074573697 lineto
closepath
fill
newpath
1.0 setlinewidth
10.0 setmiterlimit
0 setlinejoin
0 setlinecap
[ ] 0 setdash
newpath
12.543110012379408 -90.72230870113138 moveto
14.727230735808513 -90.72230870113138 lineto
stroke
newpath
0.0 0.0 0.0 setrgbcolor
1.0 setlinewidth
10.0 setmiterlimit
0 setlinejoin
0 setlinecap
[ ] 0 setdash
newpath
8.097670240721287 -64.4315613411586 moveto
8.097670240721287 -63.97031514346178 lineto
8.250530256844987 -63.61304929182383 8.559805166354915 -63.2237894992938 9.025494962099861 -62.80253575276116 curveto
9.326771380248651 -62.53325329052198 lineto
9.714253746701754 -62.183097207075825 9.907994912606494 -61.835607302354795 9.907994912606494 -61.490783560467314 curveto
9.907994912606494 -61.27038074652151 9.841785196320357 -61.09708015669916 9.709365769667691 -60.97088177693622 curveto
9.576946337095416 -60.84468339153177 9.395202893612137 -60.781584204471045 9.164135437708154 -60.781584204471045 curveto
8.890409362323853 -60.781584204471045 8.567803642857433 -60.88734200632407 8.196318271442571 -61.09885760057464 curveto
8.196318271442571 -60.634945239885354 lineto
8.546474354888725 -60.469643129426 8.893964259609756 -60.3869920815859 9.238788001497236 -60.3869920815859 curveto
9.60849594747084 -60.3869920815859 9.905328752951258 -60.486528836271106 10.12928644098127 -60.68560233674223 curveto
10.353244139022971 -60.88467584611263 10.465222978032132 -61.14862598133393 10.465222978032132 -61.477452745504976 curveto
10.465222978032132 -61.71385253788233 10.40878919300972 -61.92359068897254 10.295921628010468 -62.10666721172723 curveto
10.183054057965641 -62.28974374266608 9.972871540841126 -62.51192399047567 9.665374080291983 -62.77320795984402 curveto
9.462745692864477 -62.94650855435439 lineto
9.041491927500324 -63.30377440599234 8.797982385762683 -63.64504326322772 8.732217032928473 -63.97031514346178 curveto
10.446559837084862 -63.97031514346178 lineto
10.446559837084862 -64.4315613411586 lineto
closepath
fill
newpath
1.0 setlinewidth
10.0 setmiterlimit
0 setlinejoin
0 setlinecap
[ ] 0 setdash
newpath
12.543110012379408 -62.37585200821799 moveto
14.727230735808513 -62.37585200821799 lineto
stroke
newpath
0.0 0.0 0.0 setrgbcolor
1.0 setlinewidth
10.0 setmiterlimit
0 setlinejoin
0 setlinecap
[ ] 0 setdash
newpath
8.198984434435038 -36.0086641436631 moveto
8.198984434435038 -35.51809015304914 lineto
8.575802148600442 -35.667395285076935 8.87263495376303 -35.742047844416376 9.089482873919074 -35.742047844416376 curveto
9.340102202680026 -35.742047844416376 9.544063666478733 -35.66872835993844 9.70136728069029 -35.52208939753784 curveto
9.858670901933866 -35.37545042858196 9.937322705523634 -35.18570849651857 9.937322705523634 -34.9528635986461 curveto
9.937322705523634 -34.39830167968569 9.548951618046557 -34.121020744996336 8.77220947781548 -34.121020744996336 curveto
8.564248764403041 -34.121020744996336 lineto
8.564248764403041 -33.766421066998205 lineto
8.748214010883276 -33.76375490400574 lineto
9.476965250542781 -33.76375490400574 9.841340837794815 -33.50691452807696 9.841340837794815 -32.993233799182725 curveto
9.841340837794815 -32.589754454298074 9.601386161321564 -32.38801479989268 9.12147682982868 -32.38801479989268 curveto
8.858415406732078 -32.38801479989268 8.568692364675988 -32.46177864488261 8.252307694284383 -32.60930632826746 curveto
8.252307694284383 -32.1507262935631 lineto
8.563360052675634 -32.04585721273405 8.865525186922014 -31.993422677007537 9.15880311172322 -31.993422677007537 curveto
9.965761801492526 -31.993422677007537 10.369241110303316 -32.29825398823096 10.369241110303316 -32.90791658342378 curveto
10.369241110303316 -33.37182895793873 10.094626313895038 -33.702433158118936 9.54539674563096 -33.899729216621566 curveto
10.181720998797065 -34.04725690660141 10.499883096934207 -34.395635541404616 10.499883096934207 -34.9448651096687 curveto
10.499883096934207 -35.316350497690244 10.377239595625657 -35.607850976947354 10.131952603973737 -35.819366571197925 curveto
9.886665601356635 -36.03088217490398 9.54984034423529 -36.13663996730152 9.12147682982868 -36.13663996730152 curveto
8.877967269259528 -36.13663996730152 8.5704698058499 -36.09398135815072 8.198984434435038 -36.0086641436631 curveto
closepath
fill
newpath
1.0 setlinewidth
10.0 setmiterlimit
0 setlinejoin
0 setlinecap
[ ] 0 setdash
newpath
12.543110012379408 -34.02939531530459 moveto
14.727230735808513 -34.02939531530459 lineto
stroke
newpath
0.0 0.0 0.0 setrgbcolor
1.0 setlinewidth
10.0 setmiterlimit
0 setlinejoin
0 setlinecap
[ ] 0 setdash
newpath
9.700034199194056 -7.644422532001868 moveto
9.700034199194056 -6.527300238158124 lineto
7.924369646210921 -6.527300238158124 lineto
7.924369646210921 -6.130041952280516 lineto
9.700034199194056 -3.6985013031504574 lineto
10.193274352800481 -3.6985013031504574 lineto
10.193274352800481 -6.0980479963709096 lineto
10.721174625308981 -6.0980479963709096 lineto
10.721174625308981 -6.527300238158124 lineto
10.193274352800481 -6.527300238158124 lineto
10.193274352800481 -7.644422532001868 lineto
closepath
8.438939103757084 -6.0980479963709096 moveto
9.734694318096128 -6.0980479963709096 lineto
9.734694318096128 -4.343712747327512 lineto
closepath
fill
newpath
1.0 setlinewidth
10.0 setmiterlimit
0 setlinejoin
0 setlinecap
[ ] 0 setdash
newpath
12.543110012379408 -5.682938622391194 moveto
14.727230735808513 -5.682938622391194 lineto
stroke
newpath
1.0 0.0 0.0 setrgbcolor
2.0 setlinewidth
10.0 setmiterlimit
1 setlinejoin
1 setlinecap
[ ] 0 setdash
newpath
14.922514268838746 -260.17190001410586 moveto
14.96117363222952 -255.0518339304093 lineto
14.999832995620295 -250.71661957762026 lineto
15.03849235901107 -246.95731309472285 lineto
15.077151722401842 -243.63869002744286 lineto
15.115811085792616 -240.66818452938557 lineto
15.15447044918339 -237.97965909481908 lineto
15.231789175964938 -233.2645498426409 lineto
15.309107902746486 -229.22303000699083 lineto
15.386426629528033 -225.68649810563275 lineto
15.463745356309582 -222.54264202250897 lineto
15.618382809872678 -217.14019595087277 lineto
15.773020263435773 -212.6044194869754 lineto
15.92765771699887 -208.69529130742004 lineto
16.082295170561967 -205.26050685126197 lineto
16.23693262412506 -202.19730219866034 lineto
16.391570077688158 -199.43305773510778 lineto
16.70084498481435 -194.60173710349542 lineto
17.01011989194054 -190.47519999542308 lineto
17.319394799066732 -186.8737470251984 lineto
17.628669706192923 -183.67870061261928 lineto
17.937944613319114 -180.8075930036249 lineto
18.556494427571497 -175.81353644835983 lineto
19.175044241823883 -171.56893831027728 lineto
19.793594056076266 -167.87793559054313 lineto
20.41214387032865 -164.61261911959377 lineto
21.03069368458103 -161.68490553756558 lineto
22.2677933130858 -156.60529847727972 lineto
23.504892941590565 -152.2990953105525 lineto
24.74199257009533 -148.5616013736372 lineto
25.9790921986001 -145.25999175895288 lineto
27.216191827104865 -142.30313368271328 lineto
29.6903910841144 -137.17962658240458 lineto
32.16459034112393 -132.84193769708818 lineto
34.638789598133464 -129.08078156361475 lineto
37.112988855142994 -125.76071710196695 lineto
39.58718811215253 -122.78906182111915 lineto
42.06138736916206 -120.0995865659866 lineto
44.5355866261716 -117.6433172551014 lineto
47.00978588318113 -115.3830192559219 lineto
49.48398514019066 -113.28972304118305 lineto
51.9581843972002 -111.34043295507485 lineto
54.43238365420973 -109.51660250128093 lineto
56.90658291121926 -107.80306787778163 lineto
59.3807821682288 -106.18723146443755 lineto
61.85498142523833 -104.65856191742844 lineto
64.32918068224787 -103.20812759072955 lineto
66.8033799392574 -101.82830492453427 lineto
69.27757919626693 -100.51255348775172 lineto
71.75177845327646 -99.25516602522615 lineto
74.22597771028599 -98.05119347190279 lineto
76.70017696729553 -96.89628664940017 lineto
79.17437622430506 -95.78658795313858 lineto
81.6485754813146 -94.71870635706196 lineto
84.12277473832413 -93.68960076900704 lineto
86.59697399533366 -92.69654670366589 lineto
89.0711732523432 -91.73711128730787 lineto
91.54537250935273 -90.80908660370487 lineto
94.01957176636226 -89.91048136237185 lineto
96.49377102337179 -89.03948757152959 lineto
98.96797028038132 -88.19446387458582 lineto
101.44216953739085 -87.37391055485729 lineto
103.9163687944004 -86.57643620853231 lineto
106.39056805140993 -85.8007827399488 lineto
108.86476730841946 -85.04579203455691 lineto
111.33896656542899 -84.3103892954003 lineto
113.81316582243852 -83.59358304311615 lineto
116.28736507944805 -82.89446511593515 lineto
118.7615643364576 -82.21216901088475 lineto
121.23576359346713 -81.54590321082655 lineto
123.70996285047666 -80.89495118445635 lineto
126.18416210748619 -80.25860473222924 lineto
128.65836136449573 -79.63623064043453 lineto
131.13256062150526 -79.02722902239893 lineto
133.6067598785148 -78.43104165024586 lineto
136.08095913552432 -77.84713529137684 lineto
138.55515839253385 -77.2750100402308 lineto
141.02935764954339 -76.71419931828403 lineto
143.50355690655292 -76.16427820580962 lineto
145.97775616356245 -75.62482178308065 lineto
148.45195542057198 -75.0954384574076 lineto
150.92615467758154 -74.57575329961963 lineto
153.40035393459107 -74.06543303934271 lineto
155.8745531916006 -73.56413607444343 lineto
158.34875244861013 -73.07155412982577 lineto
160.82295170561966 -72.58737893039373 lineto
163.2971509626292 -72.11133552808872 lineto
165.77135021963872 -71.64315730661149 lineto
168.24554947664825 -71.18258598142212 lineto
170.71974873365778 -70.72937993149947 lineto
173.1939479906673 -70.28330586758166 lineto
175.66814724767684 -69.84414299804588 lineto
178.1423465046864 -69.41167886302867 lineto
180.61654576169593 -68.98571350030561 lineto
183.09074501870546 -68.5660552794116 lineto
185.564944275715 -68.15252090164091 lineto
188.03914353272452 -67.74492706828782 lineto
190.51334278973405 -67.34311547592465 lineto
192.98754204674358 -66.94691948936435 lineto
195.46174130375312 -66.55618497105893 lineto
197.93594056076265 -66.17076194934008 lineto
200.41013981777218 -65.79051295017847 lineto
202.8843390747817 -65.41529216778547 lineto
205.35853833179124 -65.04497879165048 lineto
207.8327375888008 -64.6794353477442 lineto
210.30693684581033 -64.3185493573154 lineto
212.78113610281986 -63.96220000985346 lineto
215.2553353598294 -63.610274826607146 lineto
217.72953461683892 -63.26266132882521 lineto
220.20373387384845 -62.91926370127511 lineto
222.67793313085798 -62.57997363108529 lineto
225.1521323878675 -62.244699468902866 lineto
227.62633164487704 -61.91334123361563 lineto
230.10053090188657 -61.58581560763007 lineto
232.5747301588961 -61.26202677571363 lineto
235.04892941590566 -60.941899752032164 lineto
237.5231286729152 -60.6253428872328 lineto
239.99732792992472 -60.31228536136104 lineto
242.47152718693425 -60.00264385682338 lineto
244.94572644394378 -59.696351719545014 lineto
247.4199257009533 -59.39333396369177 lineto
249.89412495796284 -59.09351976930916 lineto
252.36832421497238 -58.796842482322376 lineto
254.8425234719819 -58.503239614536284 lineto
257.31672272899146 -58.212644511876064 lineto
259.79092198600097 -57.92500301790594 lineto
262.2651212430105 -57.640248478551094 lineto
264.73932050002 -57.35832257149607 lineto
267.2135197570296 -57.07917947206443 lineto
269.6877190140391 -56.80275252618137 lineto
272.16191827104865 -56.52900007505013 lineto
274.6361175280582 -56.257863796355245 lineto
277.1103167850677 -55.98929369954061 lineto
279.58451604207727 -55.72324812580947 lineto
282.05871529908677 -55.459672918726035 lineto
284.53291455609633 -55.19853058537323 lineto
287.00711381310583 -54.93977113519493 lineto
289.4813130701154 -54.68334874351473 lineto
291.9555123271249 -54.42922591741553 lineto
294.42971158413445 -54.17736516398025 lineto
296.90391084114395 -53.92772065853245 lineto
299.3781100981535 -53.680254908155064 lineto
301.8523093551631 -53.43493041993101 lineto
304.3265086121726 -53.191709700943186 lineto
306.80070786918213 -52.95055942415421 lineto
309.27490712619164 -52.711442096646984 lineto
311.7491063832012 -52.47432855726379 lineto
314.2233056402107 -52.239181313087535 lineto
316.69750489722026 -52.00596703708082 lineto
stroke
newpath
1.0 0.0 0.0 setrgbcolor
2.0 setlinewidth
10.0 setmiterlimit
1 setlinejoin
1 setlinecap
[ ] 0 setdash
newpath
21.585255587014203 -251.4490312151697 moveto
21.585255587014203 -254.45006427949076 lineto
20.951775260004002 -254.45006427949076 lineto
20.951775260004002 -251.4490312151697 lineto
20.459068338996072 -251.4490312151697 lineto
20.459068338996072 -250.97552066770754 lineto
20.951775260004002 -250.97552066770754 lineto
20.951775260004002 -250.55959924088265 lineto
20.951775260004002 -249.73202222335712 21.329303950988585 -249.31823375158993 22.08436129920406 -249.31823375158993 curveto
22.29552141450052 -249.31823375158993 22.535476081534178 -249.35342710413934 22.804225307170192 -249.42381380609163 curveto
22.804225307170192 -249.9229195182815 lineto
22.52054555631737 -249.83546936952237 22.29338847527083 -249.7917442990521 22.122754046295583 -249.7917442990521 curveto
21.915859791914205 -249.7917442990521 21.774553158351072 -249.8413349321899 21.698834130493303 -249.94051619403177 curveto
21.623115099250633 -250.03969746030737 21.585255587014203 -250.22366270783647 21.585255587014203 -250.49241193347248 curveto
21.585255587014203 -250.97552066770754 lineto
22.452291792164527 -250.97552066770754 lineto
22.452291792164527 -251.4490312151697 lineto
closepath
fill
newpath
0.0 0.0 0.0 setrgbcolor
1.0 setlinewidth
10.0 setmiterlimit
1 setlinejoin
1 setlinecap
[ ] 0 setdash
newpath
0.0 -162.14245243411037 moveto
2.4741992570095332 -159.66825317710084 lineto
4.9483985140190665 -157.1940539200913 lineto
7.4225977710286 -154.71985466308175 lineto
9.896797028038133 -152.24565540607222 lineto
12.370996285047665 -149.7714561490627 lineto
14.8451955420572 -147.29725689205316 lineto
17.319394799066732 -144.82305763504363 lineto
19.793594056076266 -142.3488583780341 lineto
22.2677933130858 -139.87465912102456 lineto
24.74199257009533 -137.40045986401503 lineto
27.216191827104865 -134.9262606070055 lineto
29.6903910841144 -132.45206134999597 lineto
32.16459034112393 -129.97786209298644 lineto
34.638789598133464 -127.5036628359769 lineto
37.112988855142994 -125.02946357896737 lineto
39.58718811215253 -122.55526432195784 lineto
42.06138736916206 -120.08106506494829 lineto
44.5355866261716 -117.60686580793876 lineto
47.00978588318113 -115.13266655092923 lineto
49.48398514019066 -112.6584672939197 lineto
51.9581843972002 -110.18426803691017 lineto
54.43238365420973 -107.71006877990062 lineto
56.90658291121926 -105.2358695228911 lineto
59.3807821682288 -102.76167026588156 lineto
61.85498142523833 -100.28747100887203 lineto
64.32918068224787 -97.8132717518625 lineto
66.8033799392574 -95.33907249485297 lineto
69.27757919626693 -92.86487323784343 lineto
71.75177845327646 -90.3906739808339 lineto
74.22597771028599 -87.91647472382436 lineto
76.70017696729553 -85.44227546681483 lineto
79.17437622430506 -82.9680762098053 lineto
81.6485754813146 -80.49387695279576 lineto
84.12277473832413 -78.01967769578623 lineto
86.59697399533366 -75.5454784387767 lineto
89.0711732523432 -73.07127918176717 lineto
91.54537250935273 -70.59707992475764 lineto
94.01957176636226 -68.1228806677481 lineto
96.49377102337179 -65.64868141073856 lineto
98.96797028038132 -63.17448215372903 lineto
101.44216953739085 -60.7002828967195 lineto
103.9163687944004 -58.22608363970997 lineto
106.39056805140993 -55.75188438270043 lineto
108.86476730841946 -53.2776851256909 lineto
111.33896656542899 -50.80348586868137 lineto
113.81316582243852 -48.32928661167183 lineto
116.28736507944805 -45.8550873546623 lineto
118.7615643364576 -43.38088809765277 lineto
121.23576359346713 -40.906688840643234 lineto
123.70996285047666 -38.4324895836337 lineto
126.18416210748619 -35.958290326624166 lineto
128.65836136449573 -33.484091069614635 lineto
131.13256062150526 -31.0098918126051 lineto
133.6067598785148 -28.53569255559557 lineto
136.08095913552432 -26.061493298586036 lineto
138.55515839253385 -23.587294041576502 lineto
141.02935764954339 -21.11309478456697 lineto
143.50355690655292 -18.638895527557438 lineto
145.97775616356245 -16.164696270547903 lineto
148.45195542057198 -13.690497013538371 lineto
150.92615467758154 -11.216297756528837 lineto
153.40035393459107 -8.742098499519305 lineto
155.8745531916006 -6.26789976324473 lineto
158.34875244861013 -3.793700245867718 lineto
160.82295170561966 -1.3195011190419246 lineto
163.2971509626292 1.1546981379676085 lineto
165.77135021963872 3.6288975251608817 lineto
stroke
newpath
grestore
grestore
showpage

%%EOF