%!PS-Adobe-3.0 EPSF-3.0
%%Creator: EpsGraphics 1.0.0 by Thomas Abeel, http://www.sourceforge.net/epsgraphics/
%%Title: GeoGebra, http://www.geogebra.org/
%%CreationDate: Tue May 21 18:47:27 CEST 2013
%%BoundingBox: 0 0 340 257
%%DocumentData: Clean7Bit
%%LanguageLevel: 2
%%DocumentProcessColors: Black
%%ColorUsage: Color
%%Origin: 0 0
%%Pages: 1
%%Page: 1 1
%%EndComments

gsave
0.0 257.0 translate
0.0 0.0 0.0 setrgbcolor
0.0 0.0 0.0 setrgbcolor
gsave
newpath
0.0 -0.0 moveto
340.72283285494035 -0.0 lineto
340.72283285494035 -257.1802151837771 lineto
0.0 -257.1802151837771 lineto
0.0 -0.0 lineto
closepath
clip
newpath
1.0 1.0 1.0 setrgbcolor
newpath
0.0 -0.0 moveto
340.72283285494035 -0.0 lineto
340.72283285494035 -257.1802151837771 lineto
0.0 -257.1802151837771 lineto
0.0 -0.0 lineto
closepath
fill
newpath
0.0 0.0 0.0 setrgbcolor
1.0 setlinewidth
10.0 setmiterlimit
0 setlinejoin
0 setlinecap
[ ] 0 setdash
newpath
14.727230735808503 -1.0920603617145523 moveto
14.727230735808503 -257.1802151837771 lineto
stroke
newpath
1.0 setlinewidth
10.0 setmiterlimit
0 setlinejoin
0 setlinecap
[ ] 0 setdash
newpath
15.00024582623714 -0.5460301808572762 moveto
13.089140193236673 -2.1841207234291047 lineto
stroke
newpath
1.0 setlinewidth
10.0 setmiterlimit
0 setlinejoin
0 setlinecap
[ ] 0 setdash
newpath
14.454215645379865 -0.5460301808572762 moveto
16.365321278380332 -2.1841207234291047 lineto
stroke
newpath
1.0 setlinewidth
10.0 setmiterlimit
0 setlinejoin
0 setlinecap
[ ] 0 setdash
newpath
0.0 -234.82716373578725 moveto
339.6307724932258 -234.82716373578725 lineto
stroke
newpath
1.0 setlinewidth
10.0 setmiterlimit
0 setlinejoin
0 setlinecap
[ ] 0 setdash
newpath
340.17680267408304 -235.10017882621588 moveto
338.5387121315112 -233.18907319321542 lineto
stroke
newpath
1.0 setlinewidth
10.0 setmiterlimit
0 setlinejoin
0 setlinecap
[ ] 0 setdash
newpath
340.17680267408304 -234.5541486453586 moveto
338.5387121315112 -236.46525427835908 lineto
stroke
newpath
0.0 0.0 0.0 setrgbcolor
1.0 setlinewidth
10.0 setmiterlimit
0 setlinejoin
0 setlinecap
[ ] 0 setdash
newpath
19.18464242859676 -242.5360483313519 moveto
18.777608199616207 -242.5360483313519 18.448337078429315 -242.3445289506853 18.196829039887675 -241.96149020647522 curveto
17.945320990102747 -241.578451445142 17.81956697645357 -241.07854588627924 17.81956697645357 -240.46177352321246 curveto
17.81956697645357 -239.83966880642996 17.946209722370007 -239.33931889774226 18.19949520288014 -238.96072375845344 curveto
18.452780694713017 -238.5821286022401 18.786495427892888 -238.39283104105792 19.200639406551563 -238.39283104105792 curveto
19.614783403723916 -238.39283104105792 19.948498129712853 -238.5821286191646 20.201783610222986 -238.96072375845344 curveto
20.455069102055862 -239.3393189146668 20.581711836649557 -239.83700267116825 20.581711836649557 -240.45377503423504 curveto
20.581711836649557 -241.08654440330525 20.45506909073312 -241.59178227714807 20.201783610222986 -241.96948869545264 curveto
19.94849811839011 -242.347195130642 19.609451059066387 -242.5360483313519 19.18464242859676 -242.5360483313519 curveto
closepath
19.189974754581694 -242.14145620846676 moveto
19.746314115590046 -242.14145620846676 20.024483771223917 -241.57622963721866 20.024483771223917 -240.44577654525764 curveto
20.024483771223917 -239.34020759143274 19.74986897481564 -238.78742316394306 19.200639406551563 -238.78742316394306 curveto
18.65318725578296 -238.78742316394306 18.379461204871674 -239.34553996699938 18.379461204871674 -240.46177352321246 curveto
18.379461204871674 -241.58156201342095 18.649632396160076 -242.14145620846676 19.189974754581694 -242.14145620846676 curveto
closepath
fill
newpath
1.0 setlinewidth
10.0 setmiterlimit
0 setlinejoin
0 setlinecap
[ ] 0 setdash
newpath
14.727230735808503 -234.82716373578725 moveto
14.727230735808503 -237.01128445921634 lineto
stroke
newpath
0.0 0.0 0.0 setrgbcolor
1.0 setlinewidth
10.0 setmiterlimit
0 setlinejoin
0 setlinecap
[ ] 0 setdash
newpath
42.31947194683288 -242.43740030063063 moveto
42.31947194683288 -242.04280817774548 lineto
43.108656192603156 -242.04280817774548 lineto
43.108656192603156 -238.9287298025438 lineto
42.31947194683288 -239.1260258639864 lineto
42.31947194683288 -238.72076908913138 lineto
43.63655646511166 -238.39283104105792 lineto
43.63655646511166 -242.04280817774548 lineto
44.42574071088194 -242.04280817774548 lineto
44.42574071088194 -242.43740030063063 lineto
closepath
fill
newpath
1.0 setlinewidth
10.0 setmiterlimit
0 setlinejoin
0 setlinecap
[ ] 0 setdash
newpath
43.07368742872189 -234.82716373578725 moveto
43.07368742872189 -237.01128445921634 lineto
stroke
newpath
0.0 0.0 0.0 setrgbcolor
1.0 setlinewidth
10.0 setmiterlimit
0 setlinejoin
0 setlinecap
[ ] 0 setdash
newpath
70.34511085845077 -242.43740030063063 moveto
70.34511085845077 -241.9761541029338 lineto
70.49797087457448 -241.61888825129586 70.8072457840844 -241.22962845876583 71.27293557982934 -240.8083747122332 curveto
71.57421199797814 -240.53909224999398 lineto
71.96169436443124 -240.18893616654785 72.15543553033598 -239.8414462618268 72.15543553033598 -239.49662251993934 curveto
72.15543553033598 -239.27621970599353 72.08922581404984 -239.10291911617117 71.95680638739717 -238.97672073640823 curveto
71.82438695482489 -238.85052235100378 71.64264351134162 -238.78742316394306 71.41157605543764 -238.78742316394306 curveto
71.13784998005333 -238.78742316394306 70.81524426058692 -238.8931809657961 70.44375888917206 -239.10469656004665 curveto
70.44375888917206 -238.64078419935737 lineto
70.79391497261821 -238.47548208889802 71.14140487733924 -238.39283104105792 71.48622861922672 -238.39283104105792 curveto
71.85593656520032 -238.39283104105792 72.15276937068074 -238.49236779574312 72.37672705871076 -238.69144129621424 curveto
72.60068475675246 -238.89051480558464 72.71266359576161 -239.15446494080595 72.71266359576161 -239.483291704977 curveto
72.71266359576161 -239.71969149735435 72.65622981073919 -239.92942964844454 72.54336224573994 -240.11250617119924 curveto
72.43049467569513 -240.2955827021381 72.22031215857061 -240.5177629499477 71.91281469802146 -240.77904691931604 curveto
71.71018631059395 -240.9523475138264 lineto
71.2889325452298 -241.30961336546437 71.04542300349216 -241.65088222269975 70.97965765065796 -241.9761541029338 curveto
72.69400045481434 -241.9761541029338 lineto
72.69400045481434 -242.43740030063063 lineto
closepath
fill
newpath
1.0 setlinewidth
10.0 setmiterlimit
0 setlinejoin
0 setlinecap
[ ] 0 setdash
newpath
71.42014412163526 -234.82716373578725 moveto
71.42014412163526 -237.01128445921634 lineto
stroke
newpath
0.0 0.0 0.0 setrgbcolor
1.0 setlinewidth
10.0 setmiterlimit
0 setlinejoin
0 setlinecap
[ ] 0 setdash
newpath
98.83999445674289 -242.40807250771348 moveto
98.83999445674289 -241.91749851709952 lineto
99.21681217090828 -242.0668036491273 99.51364497607088 -242.14145620846676 99.73049289622692 -242.14145620846676 curveto
99.98111222498787 -242.14145620846676 100.18507368878657 -242.06813672398883 100.34237730299813 -241.92149776158823 curveto
100.49968092424172 -241.77485879263236 100.57833272783148 -241.58511686056897 100.57833272783148 -241.35227196269648 curveto
100.57833272783148 -240.79771004373606 100.1899616403544 -240.52042910904672 99.41321950012332 -240.52042910904672 curveto
99.20525878671089 -240.52042910904672 lineto
99.20525878671089 -240.1658294310486 lineto
99.38922403319111 -240.16316326805614 lineto
100.11797527285061 -240.16316326805614 100.48235086010266 -239.90632289212735 100.48235086010266 -239.39264216323312 curveto
100.48235086010266 -238.98916281834846 100.24239618362941 -238.78742316394306 99.76248685213652 -238.78742316394306 curveto
99.49942542903992 -238.78742316394306 99.20970238698382 -238.861187008933 98.89331771659222 -239.00871469231785 curveto
98.89331771659222 -238.55013465761348 lineto
99.20437007498347 -238.44526557678444 99.50653520922987 -238.39283104105792 99.79981313403107 -238.39283104105792 curveto
100.60677182380037 -238.39283104105792 101.01025113261116 -238.69766235228136 101.01025113261116 -239.30732494747417 curveto
101.01025113261116 -239.7712373219891 100.73563633620289 -240.1018415221693 100.1864067679388 -240.29913758067195 curveto
100.82273102110491 -240.4466652706518 101.14089311924205 -240.795043905455 101.14089311924205 -241.34427347371908 curveto
101.14089311924205 -241.71575886174065 101.0182496179335 -242.00725934099776 100.77296262628158 -242.21877493524832 curveto
100.52767562366448 -242.43029053895438 100.19085036654313 -242.5360483313519 99.76248685213652 -242.5360483313519 curveto
99.51897729156737 -242.5360483313519 99.21147982815775 -242.4933897222011 98.83999445674289 -242.40807250771348 curveto
closepath
fill
newpath
1.0 setlinewidth
10.0 setmiterlimit
0 setlinejoin
0 setlinecap
[ ] 0 setdash
newpath
99.76660081454865 -234.82716373578725 moveto
99.76660081454865 -237.01128445921634 lineto
stroke
newpath
0.0 0.0 0.0 setrgbcolor
1.0 setlinewidth
10.0 setmiterlimit
0 setlinejoin
0 setlinecap
[ ] 0 setdash
newpath
128.73461362608026 -242.43740030063063 moveto
128.73461362608026 -241.32027800678688 lineto
126.95894907309713 -241.32027800678688 lineto
126.95894907309713 -240.92301972090928 lineto
128.73461362608026 -238.4914790717792 lineto
129.22785377968668 -238.4914790717792 lineto
129.22785377968668 -240.89102576499965 lineto
129.7557540521952 -240.89102576499965 lineto
129.7557540521952 -241.32027800678688 lineto
129.22785377968668 -241.32027800678688 lineto
129.22785377968668 -242.43740030063063 lineto
closepath
127.47351853064329 -240.89102576499965 moveto
128.76927374498234 -240.89102576499965 lineto
128.76927374498234 -239.13669051595627 lineto
closepath
fill
newpath
1.0 setlinewidth
10.0 setmiterlimit
0 setlinejoin
0 setlinecap
[ ] 0 setdash
newpath
128.11305750746206 -234.82716373578725 moveto
128.11305750746206 -237.01128445921634 lineto
stroke
newpath
0.0 0.0 0.0 setrgbcolor
1.0 setlinewidth
10.0 setmiterlimit
0 setlinejoin
0 setlinecap
[ ] 0 setdash
newpath
155.73644594859076 -242.4533972785854 moveto
155.73644594859076 -241.9841525919112 lineto
155.9977299296394 -242.08902167274024 156.24657180467213 -242.14145620846676 156.48297158648157 -242.14145620846676 curveto
156.74247812548228 -242.14145620846676 156.9464395888837 -242.0650262004049 157.0948559932528 -241.91216619111458 curveto
157.2432724042566 -241.75930617499088 157.31748060312378 -241.54867929914218 157.31748060312378 -241.28028556189986 curveto
157.31748060312378 -240.6883973599325 156.90955765311926 -240.3924532854083 156.09371178958136 -240.3924532854083 curveto
156.00128480308797 -240.3924532854083 155.9044142156065 -240.39867433257612 155.80310002340244 -240.41111642635556 curveto
155.80310002340244 -238.4914790717792 lineto
157.80005610476036 -238.4914790717792 lineto
157.80005610476036 -238.95005910648356 lineto
156.26434622109926 -238.95005910648356 lineto
156.26434622109926 -239.98986267354576 lineto
156.770917204765 -239.98986267354576 157.1663980377884 -240.10628512768648 157.45078875274714 -240.33913002555894 curveto
157.73517948041913 -240.5719749338404 157.87737483154189 -240.89458065513435 157.87737483154189 -241.30694719182455 curveto
157.87737483154189 -241.69087467418174 157.7480659225535 -241.99170672363437 157.4894481161379 -242.20944336477467 curveto
157.2308302981612 -242.42718001564856 156.8722313765484 -242.5360483313519 156.4136513486774 -242.5360483313519 curveto
156.214577839307 -242.5360483313519 155.98884270811664 -242.50849797960868 155.73644594859076 -242.4533972785854 curveto
closepath
fill
newpath
1.0 setlinewidth
10.0 setmiterlimit
0 setlinejoin
0 setlinecap
[ ] 0 setdash
newpath
156.45951420037545 -234.82716373578725 moveto
156.45951420037545 -237.01128445921634 lineto
stroke
newpath
0.0 0.0 0.0 setrgbcolor
1.0 setlinewidth
10.0 setmiterlimit
0 setlinejoin
0 setlinecap
[ ] 0 setdash
newpath
184.40463014139323 -240.3924532854083 moveto
184.6552494701542 -240.06718139063344 184.97074542246176 -239.9045454577868 185.35111800371908 -239.9045454577868 curveto
185.69594176102137 -239.9045454577868 185.97811067071862 -240.01874610936758 186.1976247538274 -240.24714740231883 curveto
186.41713884674925 -240.4755487054804 186.52689588339712 -240.76838227266987 186.52689588339712 -241.12564810833678 curveto
186.52689588339712 -241.53623722141322 186.40380802157657 -241.87395119216896 186.1576323089404 -242.1387900454743 curveto
185.91145658529933 -242.40362891061886 185.59907115637702 -242.5360483313519 185.2204760170882 -242.5360483313519 curveto
184.78500271534043 -242.5360483313519 184.4446225826252 -242.36097028962882 184.19933559097328 -242.0108142218359 curveto
183.95404858835616 -241.66065813838972 183.8314050980128 -241.1745277539286 183.8314050980128 -240.55242306495634 curveto
183.8314050980128 -239.8681078764956 183.97226738031284 -239.3366527347498 184.25399193231885 -238.95805759546096 curveto
184.53571649691892 -238.5794624392476 184.9325304215297 -238.39016487806546 185.44443370845542 -238.39016487806546 curveto
185.67905605878482 -238.39016487806546 185.97233398620816 -238.43993325540805 186.3242674959696 -238.5394700056436 curveto
186.3242674959696 -238.99805004034798 lineto
185.95278210794802 -238.85585467651197 185.64883953435526 -238.7847570009506 185.41243975254582 -238.7847570009506 curveto
184.7405666584207 -238.7847570009506 184.40463014139323 -239.32065577840754 184.40463014139323 -240.3924532854083 curveto
closepath
185.9989956108886 -241.24295928000532 moveto
185.9989956108886 -240.9443490159497 185.9318971735785 -240.70972667896922 185.79770030495735 -240.53909224999398 curveto
185.6635034303371 -240.3684578133908 185.4773163818134 -240.28314060271714 185.23913915803547 -240.28314060271714 curveto
185.01695890204172 -240.28314060271714 184.8258838918193 -240.35779316873104 184.665914114655 -240.5070982940844 curveto
184.50594433033953 -240.65640342611218 184.42595944533298 -240.83592506628068 184.42595944533298 -241.04566321856277 curveto
184.42595944533298 -241.37626743948147 184.50194509288283 -241.64155065035882 184.6539163811889 -241.84151287181422 curveto
184.80588767628865 -242.04147510220858 185.00718298142533 -242.14145620846676 185.25780229898274 -242.14145620846676 curveto
185.48353743907236 -242.14145620846676 185.66350343633616 -242.06013823477306 185.79770030495735 -241.89750229465602 curveto
185.93189717957756 -241.7348663472686 185.9989956108886 -241.5166853431531 185.9989956108886 -241.24295928000532 curveto
closepath
fill
newpath
1.0 setlinewidth
10.0 setmiterlimit
0 setlinejoin
0 setlinecap
[ ] 0 setdash
newpath
184.80597089328884 -234.82716373578725 moveto
184.80597089328884 -237.01128445921634 lineto
stroke
newpath
0.0 0.0 0.0 setrgbcolor
1.0 setlinewidth
10.0 setmiterlimit
0 setlinejoin
0 setlinecap
[ ] 0 setdash
newpath
212.68088837430304 -242.43740030063063 moveto
212.7324341936936 -242.12990282633527 212.80575367586727 -241.86417525391295 212.90084682118157 -241.64021756588295 curveto
212.99593997074692 -241.41625986784123 213.1643526005392 -241.10876240355756 213.4060847082541 -240.7177251704893 curveto
214.48321455721086 -238.98471922538565 lineto
212.45159835695085 -238.98471922538565 lineto
212.45159835695085 -238.4914790717792 lineto
214.98445319979467 -238.4914790717792 lineto
214.98445319979467 -238.98471922538565 lineto
213.97308867451113 -240.4759931036157 213.40697342745057 -241.6268867629982 213.2861073735931 -242.43740030063063 curveto
closepath
fill
newpath
1.0 setlinewidth
10.0 setmiterlimit
0 setlinejoin
0 setlinecap
[ ] 0 setdash
newpath
213.15242758620224 -234.82716373578725 moveto
213.15242758620224 -237.01128445921634 lineto
stroke
newpath
0.0 0.0 0.0 setrgbcolor
1.0 setlinewidth
10.0 setmiterlimit
0 setlinejoin
0 setlinecap
[ ] 0 setdash
newpath
241.50904234665356 -240.28847292870208 moveto
241.1233374222484 -240.02007917946162 240.9304849772882 -239.7232463694521 240.9304849772882 -239.39797448921806 curveto
240.9304849772882 -239.09936422516245 241.03979766323712 -238.8567433989662 241.25842302536165 -238.6701119922745 curveto
241.4770483972595 -238.48348057723976 241.76232783618215 -238.39016487806546 242.1142613459436 -238.39016487806546 curveto
242.43953324071845 -238.39016487806546 242.70303900978627 -238.46926104919925 242.9047786732101 -238.62745338439504 curveto
243.10651834565243 -238.78564572666258 243.20738817285513 -238.99094027612907 243.20738817285513 -239.24333703565495 curveto
243.20738817285513 -239.6254870759642 242.96210117023804 -239.97386570027896 242.4715271869342 -240.28847292870208 curveto
243.06697027299745 -240.57997342456588 243.3646917894107 -240.95590240467624 243.3646917894107 -241.4162598745157 curveto
243.3646917894107 -241.7468640954344 243.2398264855422 -242.01614655091967 242.99009588896905 -242.22410726123326 curveto
242.74036528123207 -242.4320679808434 242.41820392120496 -242.5360483313519 242.0236118041997 -242.5360483313519 curveto
241.6361294377466 -242.5360483313519 241.32285529411723 -242.43784465820266 241.08378934935504 -242.24143732068427 curveto
240.84472339390578 -242.0450299743858 240.7251904268682 -241.78685652570115 240.7251904268682 -241.46691697137257 curveto
240.7251904268682 -240.99411738661786 240.98647440791686 -240.6013027151567 241.50904234665356 -240.28847292870208 curveto
closepath
242.17824925776281 -240.12317082316912 moveto
242.54617976168848 -239.8814387046479 242.73014499720352 -239.61215624518974 242.73014499720352 -239.31532343645156 curveto
242.73014499720352 -239.15713109418402 242.66882324654924 -239.02959963431536 242.54617975072327 -238.93272904703252 curveto
242.42353624941472 -238.83585845541924 242.26178902853388 -238.78742316394306 242.06093808609427 -238.78742316394306 curveto
241.8671969028677 -238.78742316394306 241.70989329028504 -238.83496973872573 241.58902723642757 -238.93006288404007 curveto
241.46816117716696 -239.02515603360538 241.4077281529398 -239.14824389117493 241.4077281529398 -239.29932645849675 curveto
241.4077281529398 -239.4468541484766 241.46238449591425 -239.5788292139419 241.57169717697653 -239.69525166287815 curveto
241.68100986292546 -239.81167411701887 241.8831938909931 -239.95431383616236 242.17824925776281 -240.12317082316912 curveto
closepath
241.79432178684755 -240.50176596809945 moveto
241.58280618314149 -240.66529063651086 241.439277747225 -240.80793035354873 241.3637364635641 -240.92968512839045 curveto
241.28819517652622 -241.051439908675 241.25042453638423 -241.2029668378199 241.25042453638423 -241.38426591860608 curveto
241.25042453638423 -241.61000105869573 241.3232996603502 -241.79263321903144 241.46904990176654 -241.9321624135581 curveto
241.61480014969845 -242.07169161432216 241.8067638843615 -242.14145620846676 242.04494110813945 -242.14145620846676 curveto
242.274231132325 -242.14145620846676 242.46130689762168 -242.08191189986044 242.60616841805378 -241.96282328797147 curveto
242.75102994496172 -241.8437346707588 242.82346070193987 -241.68909721791084 242.82346070193987 -241.49891092728217 curveto
242.82346070193987 -241.34605091115847 242.77858029022912 -241.2167420090035 242.68881947082028 -241.1109842118782 curveto
242.5990586473988 -241.00522641002516 242.42531369122432 -240.87591750576456 242.16758460579294 -240.72305749647424 curveto
closepath
fill
newpath
1.0 setlinewidth
10.0 setmiterlimit
0 setlinejoin
0 setlinecap
[ ] 0 setdash
newpath
241.4988842791156 -234.82716373578725 moveto
241.4988842791156 -237.01128445921634 lineto
stroke
newpath
0.0 0.0 0.0 setrgbcolor
1.0 setlinewidth
10.0 setmiterlimit
0 setlinejoin
0 setlinecap
[ ] 0 setdash
newpath
269.26806495902474 -242.41340483369842 moveto
269.26806495902474 -241.96815561395638 lineto
269.6022240640393 -242.08368934707315 269.8866147767733 -242.14145620846676 270.1212371166142 -242.14145620846676 curveto
270.448286453437 -242.14145620846676 270.7037937332096 -242.00237136821468 270.88775897694853 -241.72420170014564 curveto
271.07172422891136 -241.44603201964148 271.1637068466689 -241.0589940261355 271.1637068466689 -240.5630877169262 curveto
270.8970905394764 -240.89191449579695 270.5940366822196 -241.0563278705326 270.2545452662376 -241.0563278705326 curveto
269.9221636032709 -241.0563278705326 269.64043905352946 -240.93412872973605 269.40937159762547 -240.6897304590684 curveto
269.178304131392 -240.44533217747528 269.06277040860476 -240.1471662848571 269.06277040860476 -239.79523277509566 curveto
269.06277040860476 -239.391753430211 269.1858582704253 -239.05714998272134 269.43203398306144 -238.79142240843177 curveto
269.67820970670255 -238.52569482226323 269.98792897255294 -238.39283104105792 270.3611917859363 -238.39283104105792 curveto
270.78955531949225 -238.39283104105792 271.1272692894534 -238.56479855919707 271.3743337230738 -238.90873358010032 curveto
271.62139816773885 -239.25266861637866 271.7449303790267 -239.72324638319833 271.7449303790267 -240.32046688461168 curveto
271.7449303790267 -240.99944974692858 271.59429216546295 -241.53845901761653 271.2930157518035 -241.937494739543 curveto
270.991739324676 -242.3365304793078 270.58426074865156 -242.5360483313519 270.07058001975736 -242.5360483313519 curveto
269.86439674219514 -242.5360483313519 269.59689172319577 -242.49516716424907 269.26806495902474 -242.41340483369842 curveto
closepath
269.5880045181208 -239.69125241838944 moveto
269.5880045181208 -239.99697245063683 269.6559916764549 -240.2378158344673 269.79196598704453 -240.41378258934805 curveto
269.9279403037127 -240.58974935209508 270.11412735215697 -240.67773272560228 270.3505271339664 -240.67773272560228 curveto
270.57270738996016 -240.67773272560228 270.7624493186466 -240.6021914385644 270.91975293285816 -240.45110887124258 curveto
271.0770565541017 -240.30002629716682 271.1557083576915 -240.11783849400587 271.1557083576915 -239.9045454577868 curveto
271.1557083576915 -239.56860891072427 271.0797227101416 -239.2979933739414 270.9277514218355 -239.09269882658054 curveto
270.7757801267358 -238.88740427004234 270.5762622636471 -238.7847570009506 270.32919783002666 -238.7847570009506 curveto
270.0999078058411 -238.7847570009506 269.91905308771226 -238.8660749746443 269.78663366105957 -239.02871091476135 curveto
269.6542142284873 -239.19134686214878 269.5880045181208 -239.41219402933618 269.5880045181208 -239.69125241838944 curveto
closepath
fill
newpath
1.0 setlinewidth
10.0 setmiterlimit
0 setlinejoin
0 setlinecap
[ ] 0 setdash
newpath
269.845340972029 -234.82716373578725 moveto
269.845340972029 -237.01128445921634 lineto
stroke
newpath
0.0 0.0 0.0 setrgbcolor
1.0 setlinewidth
10.0 setmiterlimit
0 setlinejoin
0 setlinecap
[ ] 0 setdash
newpath
295.677475864609 -242.43740030063063 moveto
295.677475864609 -242.04280817774548 lineto
296.4666601103793 -242.04280817774548 lineto
296.4666601103793 -238.9287298025438 lineto
295.677475864609 -239.1260258639864 lineto
295.677475864609 -238.72076908913138 lineto
296.9945603828878 -238.39283104105792 lineto
296.9945603828878 -242.04280817774548 lineto
297.7837446286581 -242.04280817774548 lineto
297.7837446286581 -242.43740030063063 lineto
closepath
300.02065537933805 -242.5360483313519 moveto
299.6136211503575 -242.5360483313519 299.2843500291706 -242.3445289506853 299.0328419906289 -241.96149020647522 curveto
298.781333940844 -241.578451445142 298.6555799271948 -241.07854588627924 298.6555799271948 -240.46177352321246 curveto
298.6555799271948 -239.83966880642996 298.7822226731113 -239.33931889774226 299.03550815362144 -238.96072375845344 curveto
299.2887936454543 -238.5821286022401 299.62250837863417 -238.39283104105792 300.03665235729284 -238.39283104105792 curveto
300.4507963544652 -238.39283104105792 300.78451108045414 -238.5821286191646 301.03779656096424 -238.96072375845344 curveto
301.29108205279715 -239.3393189146668 301.41772478739085 -239.83700267116825 301.41772478739085 -240.45377503423504 curveto
301.41772478739085 -241.08654440330525 301.2910820414744 -241.59178227714807 301.03779656096424 -241.96948869545264 curveto
300.7845110691314 -242.347195130642 300.44546400980767 -242.5360483313519 300.02065537933805 -242.5360483313519 curveto
closepath
300.02598770532296 -242.14145620846676 moveto
300.58232706633135 -242.14145620846676 300.8604967219652 -241.57622963721866 300.8604967219652 -240.44577654525764 curveto
300.8604967219652 -239.34020759143274 300.5858819255569 -238.78742316394306 300.03665235729284 -238.78742316394306 curveto
299.48920020652423 -238.78742316394306 299.215474155613 -239.34553996699938 299.215474155613 -240.46177352321246 curveto
299.215474155613 -241.58156201342095 299.4856453469014 -242.14145620846676 300.02598770532296 -242.14145620846676 curveto
closepath
fill
newpath
1.0 setlinewidth
10.0 setmiterlimit
0 setlinejoin
0 setlinecap
[ ] 0 setdash
newpath
298.1917976649424 -234.82716373578725 moveto
298.1917976649424 -237.01128445921634 lineto
stroke
newpath
0.0 0.0 0.0 setrgbcolor
1.0 setlinewidth
10.0 setmiterlimit
0 setlinejoin
0 setlinecap
[ ] 0 setdash
newpath
324.0710452691874 -242.43740030063063 moveto
324.0710452691874 -242.04280817774548 lineto
324.86022951495767 -242.04280817774548 lineto
324.86022951495767 -238.9287298025438 lineto
324.0710452691874 -239.1260258639864 lineto
324.0710452691874 -238.72076908913138 lineto
325.38812978746614 -238.39283104105792 lineto
325.38812978746614 -242.04280817774548 lineto
326.1773140332364 -242.04280817774548 lineto
326.1773140332364 -242.43740030063063 lineto
closepath
327.52372634443236 -242.43740030063063 moveto
327.52372634443236 -242.04280817774548 lineto
328.31291059020265 -242.04280817774548 lineto
328.31291059020265 -238.9287298025438 lineto
327.52372634443236 -239.1260258639864 lineto
327.52372634443236 -238.72076908913138 lineto
328.8408108627111 -238.39283104105792 lineto
328.8408108627111 -242.04280817774548 lineto
329.6299951084814 -242.04280817774548 lineto
329.6299951084814 -242.43740030063063 lineto
closepath
fill
newpath
1.0 setlinewidth
10.0 setmiterlimit
0 setlinejoin
0 setlinecap
[ ] 0 setdash
newpath
326.53825435785575 -234.82716373578725 moveto
326.53825435785575 -237.01128445921634 lineto
stroke
newpath
0.0 0.0 0.0 setrgbcolor
1.0 setlinewidth
10.0 setmiterlimit
0 setlinejoin
0 setlinecap
[ ] 0 setdash
newpath
9.356099173165788 -233.7995654376355 moveto
8.949064944185235 -233.7995654376355 8.619793822998343 -233.60804605696887 8.368285784456702 -233.2250073127588 curveto
8.116777734671777 -232.8419685514256 7.991023721022598 -232.3420629925628 7.991023721022598 -231.72529062949602 curveto
7.991023721022598 -231.1031859127135 8.117666466939037 -230.60283600402585 8.37095194744917 -230.22424086473703 curveto
8.624237439282046 -229.84564570852368 8.957952172461917 -229.6563481473415 9.372096151120592 -229.6563481473415 curveto
9.786240148292945 -229.6563481473415 10.11995487428188 -229.84564572544818 10.373240354792014 -230.22424086473703 curveto
10.62652584662489 -230.60283602095038 10.753168581218585 -231.10051977745184 10.753168581218585 -231.71729214051862 curveto
10.753168581218585 -232.3500615095888 10.626525835302147 -232.85529938343163 10.373240354792014 -233.23300580173623 curveto
10.119954862959137 -233.6107122369256 9.780907803635415 -233.7995654376355 9.356099173165788 -233.7995654376355 curveto
closepath
9.361431499150724 -233.40497331475035 moveto
9.917770860159077 -233.40497331475035 10.195940515792946 -232.83974674350225 10.195940515792946 -231.70929365154123 curveto
10.195940515792946 -230.60372469771633 9.92132571938467 -230.05094027022665 9.372096151120592 -230.05094027022665 curveto
8.824644000351988 -230.05094027022665 8.550917949440704 -230.60905707328294 8.550917949440704 -231.72529062949602 curveto
8.550917949440704 -232.84507911970454 8.821089140729105 -233.40497331475035 9.361431499150724 -233.40497331475035 curveto
closepath
fill
newpath
1.0 setlinewidth
10.0 setmiterlimit
0 setlinejoin
0 setlinecap
[ ] 0 setdash
newpath
12.543110012379397 -234.82716373578725 moveto
14.727230735808503 -234.82716373578725 lineto
stroke
newpath
0.0 0.0 0.0 setrgbcolor
1.0 setlinewidth
10.0 setmiterlimit
0 setlinejoin
0 setlinecap
[ ] 0 setdash
newpath
8.465600733681754 -208.5835290874795 moveto
8.465600733681754 -208.18893696459435 lineto
9.254784979452037 -208.18893696459435 lineto
9.254784979452037 -205.0748585893927 lineto
8.465600733681754 -205.27215465083526 lineto
8.465600733681754 -204.86689787598027 lineto
9.782685251960535 -204.5389598279068 lineto
9.782685251960535 -208.18893696459435 lineto
10.571869497730818 -208.18893696459435 lineto
10.571869497730818 -208.5835290874795 lineto
closepath
fill
newpath
1.0 setlinewidth
10.0 setmiterlimit
0 setlinejoin
0 setlinecap
[ ] 0 setdash
newpath
12.543110012379397 -206.48070704287386 moveto
14.727230735808503 -206.48070704287386 lineto
stroke
newpath
0.0 0.0 0.0 setrgbcolor
1.0 setlinewidth
10.0 setmiterlimit
0 setlinejoin
0 setlinecap
[ ] 0 setdash
newpath
8.097670240721285 -180.18995968290113 moveto
8.097670240721285 -179.7287134852043 lineto
8.250530256844986 -179.37144763356636 8.559805166354913 -178.98218784103634 9.02549496209986 -178.5609340945037 curveto
9.32677138024865 -178.29165163226452 lineto
9.714253746701752 -177.94149554881835 9.907994912606492 -177.5940056440973 9.907994912606492 -177.24918190220984 curveto
9.907994912606492 -177.02877908826406 9.841785196320354 -176.8554784984417 9.709365769667688 -176.72928011867876 curveto
9.576946337095412 -176.6030817332743 9.395202893612135 -176.5399825462136 9.164135437708152 -176.5399825462136 curveto
8.890409362323851 -176.5399825462136 8.567803642857431 -176.64574034806662 8.19631827144257 -176.85725594231718 curveto
8.19631827144257 -176.39334358162787 lineto
8.546474354888723 -176.22804147116855 8.893964259609755 -176.14539042332845 9.238788001497234 -176.14539042332845 curveto
9.608495947470837 -176.14539042332845 9.905328752951256 -176.24492717801365 10.129286440981268 -176.44400067848477 curveto
10.35324413902297 -176.64307418785518 10.46522297803213 -176.90702432307646 10.46522297803213 -177.2358510872475 curveto
10.46522297803213 -177.47225087962485 10.408789193009719 -177.68198903071507 10.295921628010467 -177.86506555346978 curveto
10.18305405796564 -178.04814208440862 9.972871540841124 -178.2703223322182 9.665374080291981 -178.53160630158655 curveto
9.462745692864475 -178.70490689609693 lineto
9.041491927500322 -179.06217274773488 8.797982385762682 -179.40344160497025 8.732217032928471 -179.7287134852043 curveto
10.44655983708486 -179.7287134852043 lineto
10.44655983708486 -180.18995968290113 lineto
closepath
fill
newpath
1.0 setlinewidth
10.0 setmiterlimit
0 setlinejoin
0 setlinecap
[ ] 0 setdash
newpath
12.543110012379397 -178.13425034996047 moveto
14.727230735808503 -178.13425034996047 lineto
stroke
newpath
0.0 0.0 0.0 setrgbcolor
1.0 setlinewidth
10.0 setmiterlimit
0 setlinejoin
0 setlinecap
[ ] 0 setdash
newpath
8.198984434435037 -151.76706248540563 moveto
8.198984434435037 -151.27648849479166 lineto
8.57580214860044 -151.42579362681946 8.872634953763027 -151.5004461861589 9.089482873919073 -151.5004461861589 curveto
9.340102202680024 -151.5004461861589 9.54406366647873 -151.42712670168098 9.701367280690286 -151.28048773928037 curveto
9.858670901933863 -151.1338487703245 9.937322705523632 -150.94410683826112 9.937322705523632 -150.71126194038862 curveto
9.937322705523632 -150.15670002142824 9.548951618046555 -149.8794190867389 8.772209477815478 -149.8794190867389 curveto
8.56424876440304 -149.8794190867389 lineto
8.56424876440304 -149.52481940874074 lineto
8.748214010883274 -149.52215324574829 lineto
9.47696525054278 -149.52215324574829 9.841340837794814 -149.2653128698195 9.841340837794814 -148.75163214092527 curveto
9.841340837794814 -148.3481527960406 9.601386161321562 -148.1464131416352 9.121476829828678 -148.1464131416352 curveto
8.858415406732076 -148.1464131416352 8.568692364675986 -148.22017698662515 8.252307694284381 -148.36770467001 curveto
8.252307694284381 -147.90912463530563 lineto
8.563360052675632 -147.80425555447658 8.865525186922012 -147.7518210187501 9.158803111723218 -147.7518210187501 curveto
9.965761801492524 -147.7518210187501 10.369241110303314 -148.0566523299735 10.369241110303314 -148.66631492516632 curveto
10.369241110303314 -149.13022729968128 10.094626313895036 -149.46083149986148 9.545396745630958 -149.6581275583641 curveto
10.181720998797061 -149.80565524834395 10.499883096934203 -150.15403388314715 10.499883096934203 -150.70326345141123 curveto
10.499883096934203 -151.0747488394328 10.377239595625653 -151.3662493186899 10.131952603973735 -151.57776491294047 curveto
9.886665601356633 -151.78928051664653 9.549840344235289 -151.89503830904405 9.121476829828678 -151.89503830904405 curveto
8.877967269259527 -151.89503830904405 8.570469805849898 -151.85237969989325 8.198984434435037 -151.76706248540563 curveto
closepath
fill
newpath
1.0 setlinewidth
10.0 setmiterlimit
0 setlinejoin
0 setlinecap
[ ] 0 setdash
newpath
12.543110012379397 -149.78779365704708 moveto
14.727230735808503 -149.78779365704708 lineto
stroke
newpath
0.0 0.0 0.0 setrgbcolor
1.0 setlinewidth
10.0 setmiterlimit
0 setlinejoin
0 setlinecap
[ ] 0 setdash
newpath
9.700034199194054 -123.40282087374442 moveto
9.700034199194054 -122.28569857990067 lineto
7.924369646210919 -122.28569857990067 lineto
7.924369646210919 -121.88844029402306 lineto
9.700034199194054 -119.456899644893 lineto
10.19327435280048 -119.456899644893 lineto
10.19327435280048 -121.85644633811346 lineto
10.72117462530898 -121.85644633811346 lineto
10.72117462530898 -122.28569857990067 lineto
10.19327435280048 -122.28569857990067 lineto
10.19327435280048 -123.40282087374442 lineto
closepath
8.438939103757082 -121.85644633811346 moveto
9.734694318096127 -121.85644633811346 lineto
9.734694318096127 -120.10211108907006 lineto
closepath
fill
newpath
1.0 setlinewidth
10.0 setmiterlimit
0 setlinejoin
0 setlinecap
[ ] 0 setdash
newpath
12.543110012379397 -121.44133696413368 moveto
14.727230735808503 -121.44133696413368 lineto
stroke
newpath
0.0 0.0 0.0 setrgbcolor
1.0 setlinewidth
10.0 setmiterlimit
0 setlinejoin
0 setlinecap
[ ] 0 setdash
newpath
8.308297117126191 -95.02524844712086 moveto
8.308297117126191 -94.55600376044663 lineto
8.569581098174844 -94.66087284127568 8.818422973207541 -94.7133073770022 9.054822755016998 -94.7133073770022 curveto
9.3143292940177 -94.7133073770022 9.518290757419118 -94.63687736894035 9.666707161788214 -94.48401735965003 curveto
9.81512357279204 -94.33115734352631 9.889331771659222 -94.12053046767761 9.889331771659222 -93.8521367304353 curveto
9.889331771659222 -93.26024852846795 9.481408821654695 -92.96430445394374 8.665562958116793 -92.96430445394374 curveto
8.573135971623392 -92.96430445394374 8.476265384141925 -92.97052550111157 8.374951191937871 -92.98296759489101 curveto
8.374951191937871 -91.06333024031464 lineto
10.37190727329578 -91.06333024031464 lineto
10.37190727329578 -91.521910275019 lineto
8.836197389634691 -91.521910275019 lineto
8.836197389634691 -92.56171384208119 lineto
9.342768373300444 -92.56171384208119 9.738249206323834 -92.67813629622192 10.02263992128258 -92.91098119409439 curveto
10.307030648954584 -93.14382610237584 10.449226000077328 -93.4664318236698 10.449226000077328 -93.87879836035998 curveto
10.449226000077328 -94.26272584271717 10.319917091088964 -94.56355789216983 10.061299284673355 -94.78129453331012 curveto
9.802681466696628 -94.99903118418399 9.44408254508383 -95.10789949988734 8.985502517212852 -95.10789949988734 curveto
8.78642900784245 -95.10789949988734 8.560693876652078 -95.08034914814411 8.308297117126191 -95.02524844712086 curveto
closepath
fill
newpath
1.0 setlinewidth
10.0 setmiterlimit
0 setlinejoin
0 setlinecap
[ ] 0 setdash
newpath
12.543110012379397 -93.09488027122029 moveto
14.727230735808503 -93.09488027122029 lineto
stroke
newpath
0.0 0.0 0.0 setrgbcolor
1.0 setlinewidth
10.0 setmiterlimit
0 setlinejoin
0 setlinecap
[ ] 0 setdash
newpath
8.58291190535031 -64.57073504936537 moveto
8.833531234111263 -64.24546315459052 9.149027186418833 -64.08282722174388 9.529399767676155 -64.08282722174388 curveto
9.874223524978458 -64.08282722174388 10.156392434675698 -64.19702787332467 10.37590651778448 -64.42542916627592 curveto
10.595420610706308 -64.6538304694375 10.705177647354176 -64.94666403662691 10.705177647354176 -65.30392987229385 curveto
10.705177647354176 -65.71451898537029 10.582089785533638 -66.05223295612603 10.335914072897474 -66.31707180943137 curveto
10.089738349256397 -66.58191067457592 9.777352920334094 -66.71433009530898 9.398757781045264 -66.71433009530898 curveto
8.96328447929751 -66.71433009530898 8.622904346582256 -66.5392520535859 8.377617354930338 -66.18909598579295 curveto
8.132330352313236 -65.8389399023468 8.009686861969868 -65.35280951788566 8.009686861969868 -64.7307048289134 curveto
8.009686861969868 -64.04638964045265 8.150549144269908 -63.51493449870687 8.432273696275915 -63.13633935941804 curveto
8.713998260875991 -62.75774420320469 9.110812185486763 -62.56844664202253 9.622715472412505 -62.56844664202253 curveto
9.857337822741908 -62.56844664202253 10.150615750165223 -62.61821501936513 10.50254925992667 -62.71775176960069 curveto
10.50254925992667 -63.17633180430504 lineto
10.13106387190512 -63.03413644046904 9.827121298312358 -62.96303876490767 9.5907215165029 -62.96303876490767 curveto
8.918848422377796 -62.96303876490767 8.58291190535031 -63.4989375423646 8.58291190535031 -64.57073504936537 curveto
closepath
10.177277374845676 -65.4212410439624 moveto
10.177277374845676 -65.1226307799068 10.110178937535563 -64.88800844292632 9.975982068914405 -64.71737401395107 curveto
9.841785194294179 -64.54673957734786 9.655598145770483 -64.46142236667421 9.417420921992534 -64.46142236667421 curveto
9.195240665998783 -64.46142236667421 9.004165655776388 -64.53607493268811 8.844195878612092 -64.68538005804146 curveto
8.68422609429659 -64.83468519006927 8.604241209290047 -65.01420683023775 8.604241209290047 -65.22394498251982 curveto
8.604241209290047 -65.55454920343854 8.68022685683991 -65.81983241431591 8.83219814514599 -66.01979463577128 curveto
8.984169440245715 -66.21975686616565 9.185464745382408 -66.31973797242384 9.436084062939804 -66.31973797242384 curveto
9.661819203029454 -66.31973797242384 9.841785200293247 -66.23841999873012 9.975982068914405 -66.0757840586131 curveto
10.110178943534631 -65.91314811122567 10.177277374845676 -65.69496710711019 10.177277374845676 -65.4212410439624 curveto
closepath
fill
newpath
1.0 setlinewidth
10.0 setmiterlimit
0 setlinejoin
0 setlinecap
[ ] 0 setdash
newpath
12.543110012379397 -64.7484235783069 moveto
14.727230735808503 -64.7484235783069 lineto
stroke
newpath
0.0 0.0 0.0 setrgbcolor
1.0 setlinewidth
10.0 setmiterlimit
0 setlinejoin
0 setlinecap
[ ] 0 setdash
newpath
8.465600733681754 -38.22211266000933 moveto
8.517146553072305 -37.91461518571398 8.590466035245965 -37.64888761329166 8.685559180560295 -37.42492992526165 curveto
8.780652330125621 -37.20097222721995 8.94906495991789 -36.893474762936286 9.190797067632824 -36.50243752986801 curveto
10.26792691658956 -34.76943158476435 lineto
8.236310716329578 -34.76943158476435 lineto
8.236310716329578 -34.27619143115792 lineto
10.769165559173388 -34.27619143115792 lineto
10.769165559173388 -34.76943158476435 lineto
9.757801033889832 -36.26070546299441 9.19168578682927 -37.411599122376906 9.070819732971803 -38.22211266000933 curveto
closepath
fill
newpath
1.0 setlinewidth
10.0 setmiterlimit
0 setlinejoin
0 setlinecap
[ ] 0 setdash
newpath
12.543110012379397 -36.401966885393506 moveto
14.727230735808503 -36.401966885393506 lineto
stroke
newpath
0.0 0.0 0.0 setrgbcolor
1.0 setlinewidth
10.0 setmiterlimit
0 setlinejoin
0 setlinecap
[ ] 0 setdash
newpath
8.900185301453902 -7.679615883502433 moveto
8.51448037704875 -7.411222134261981 8.321627932088527 -7.114389324252464 8.321627932088527 -6.789117444018399 curveto
8.321627932088527 -6.490507179962797 8.430940618037452 -6.247886353766538 8.64956598016199 -6.061254947074861 curveto
8.86819135205984 -5.87462353204011 9.153470790982503 -5.781307832865809 9.505404300743951 -5.781307832865809 curveto
9.830676195518803 -5.781307832865809 10.094181964586605 -5.860404003999585 10.295921628010467 -6.018596339195387 curveto
10.497661300452792 -6.176788681462938 10.59853112765549 -6.382083230929416 10.59853112765549 -6.6344799904553025 curveto
10.59853112765549 -7.016630030764555 10.353244125038387 -7.36500865507932 9.86267014173455 -7.679615883502433 curveto
10.458113227797805 -7.971116379366236 10.755834744211052 -8.347045359476576 10.755834744211052 -8.807402829316045 curveto
10.755834744211052 -9.138007050234748 10.630969440342565 -9.407289505720016 10.381238843769415 -9.615250216033598 curveto
10.131508236032438 -9.823210935643749 9.809346876005327 -9.927191286152256 9.414754759000067 -9.927191286152256 curveto
9.027272392546964 -9.927191286152256 8.713998248917585 -9.828987613003019 8.47493230415539 -9.632580275484635 curveto
8.235866348706113 -9.436172929186158 8.116333381668555 -9.17799948050151 8.116333381668555 -8.858059926172922 curveto
8.116333381668555 -8.385260341418219 8.377617362717206 -7.992445669957054 8.900185301453902 -7.679615883502433 curveto
closepath
9.569392212563162 -7.514313777969469 moveto
9.937322716488815 -7.272581659448267 10.121287952003867 -7.003299199990107 10.121287952003867 -6.706466391251916 curveto
10.121287952003867 -6.548274048984365 10.05996620134959 -6.420742589115701 9.937322705523632 -6.323872001832878 curveto
9.81467920421508 -6.227001410219602 9.65293198333422 -6.178566118743417 9.452081040894607 -6.178566118743417 curveto
9.258339857668055 -6.178566118743417 9.101036245085385 -6.22611269352608 8.980170191227918 -6.32120583884041 curveto
8.859304131967317 -6.416298988405736 8.798871107740151 -6.5393868459752795 8.798871107740151 -6.690469413297113 curveto
8.798871107740151 -6.837997103276964 8.853527450714614 -6.969972168742252 8.96284013177688 -7.086394617678488 curveto
9.072152817725806 -7.202817071819214 9.274336845793464 -7.3454567909627135 9.569392212563162 -7.514313777969469 curveto
closepath
9.18546474164789 -7.892908922899807 moveto
8.973949137941839 -8.056433591311208 8.830420702025359 -8.199073308349075 8.754879418364443 -8.320828083190786 curveto
8.679338131326567 -8.442582863475362 8.641567491184588 -8.59410979262024 8.641567491184588 -8.77540887340644 curveto
8.641567491184588 -9.00114401349609 8.714442615150539 -9.183776173831808 8.860192856566895 -9.323305368358442 curveto
9.005943104498797 -9.462834569122517 9.197906839161854 -9.532599163267115 9.436084062939804 -9.532599163267115 curveto
9.665374087125354 -9.532599163267115 9.852449852422032 -9.47305485466079 9.997311372854142 -9.353966242771815 curveto
10.142172899762068 -9.234877625559164 10.214603656740216 -9.08024017271119 10.214603656740216 -8.890053882082528 curveto
10.214603656740216 -8.737193865958826 10.169723245029479 -8.607884963803839 10.079962425620625 -8.502127166678555 curveto
9.99020160219915 -8.39636936482553 9.816456646024658 -8.267060460564908 9.558727560593294 -8.11420045127458 curveto
closepath
fill
newpath
1.0 setlinewidth
10.0 setmiterlimit
0 setlinejoin
0 setlinecap
[ ] 0 setdash
newpath
12.543110012379397 -8.055510192480112 moveto
14.727230735808503 -8.055510192480112 lineto
stroke
newpath
1.0 0.0 0.0 setrgbcolor
2.0 setlinewidth
10.0 setmiterlimit
1 setlinejoin
1 setlinecap
[ ] 0 setdash
newpath
29.863158446026265 4.484506982728156 moveto
29.94634273139124 0.06631894525108585 lineto
30.029527016756216 -4.246879998674926 lineto
30.11271130212119 -8.458135477302847 lineto
30.195895587486167 -12.570388825437044 lineto
30.279079872851142 -16.58648013154645 lineto
30.362264158216117 -20.509156793277207 lineto
30.445448443581093 -24.341068310103076 lineto
30.528632728946068 -28.08478190537423 lineto
30.611817014311047 -31.74277211161805 lineto
30.695001299676022 -35.317440558467595 lineto
30.778185585040998 -38.81110139208273 lineto
30.861369870405973 -42.225993772789174 lineto
30.94455415577095 -45.56429228977764 lineto
31.027738441135924 -48.82808821464535 lineto
31.1109227265009 -52.01941449667407 lineto
31.194107011865874 -55.14023743107072 lineto
31.27729129723085 -58.19246082484714 lineto
31.360475582595825 -61.17791766506063 lineto
31.4436598679608 -64.09840344585143 lineto
31.52684415332578 -66.95563450964596 lineto
31.610028438690755 -69.75128554007384 lineto
31.776397009420705 -75.16429211668805 lineto
31.942765580150656 -80.34979583833095 lineto
32.10913415088061 -85.31941534341819 lineto
32.27550272161056 -90.08408190021886 lineto
32.44187129234051 -94.65406856801332 lineto
32.60823986307046 -99.03905685116796 lineto
32.77460843380041 -103.24813669913523 lineto
32.94097700453037 -107.28990648756584 lineto
33.10734557526032 -111.1724480230307 lineto
33.27371414599027 -114.90339319709574 lineto
33.44008271672022 -118.48994064984062 lineto
33.60645128745017 -121.93888909689615 lineto
33.77281985818012 -125.2566623247223 lineto
33.93918842891007 -128.44933418588627 lineto
34.10555699964002 -131.52264526258122 lineto
34.27192557036997 -134.48201119838563 lineto
34.438294141099924 -137.332589352338 lineto
34.604662711829874 -140.0792371401403 lineto
34.93739985328978 -145.27897150675548 lineto
35.270136994749684 -150.1153078574974 lineto
35.602874136209586 -154.61890706677943 lineto
35.93561127766949 -158.8174472391671 lineto
36.26834841912939 -162.7359069891961 lineto
36.60108556058929 -166.3968487211902 lineto
36.9338227020492 -169.82076856315393 lineto
37.2665598435091 -173.026196347885 lineto
37.599296984969 -176.03001221982942 lineto
37.9320341264289 -178.84756327971263 lineto
38.59750840934871 -183.97854396815958 lineto
39.262982692268515 -188.516953268012 lineto
39.92845697518832 -192.54464238313864 lineto
40.59393125810813 -196.13036499170772 lineto
41.25940554102793 -199.33217679288026 lineto
42.590354106867544 -204.77378213346836 lineto
43.92130267270715 -209.1827492200365 lineto
45.25225123854676 -212.7895678432835 lineto
47.91414837022598 -218.24248771307086 lineto
50.576045501905206 -222.06923145615897 lineto
53.237942633584424 -224.82676052167426 lineto
55.89983976526365 -226.85959315879956 lineto
58.56173689694287 -228.3881377294184 lineto
61.223634028622094 -229.5576667895828 lineto
63.88553116030131 -230.46637845500913 lineto
66.54742829198054 -231.18215990089305 lineto
69.20932542365975 -231.75296873406157 lineto
71.87122255533897 -232.2132317841549 lineto
74.5331196870182 -232.5881109644145 lineto
77.19501681869743 -232.8962527522689 lineto
79.85691395037664 -233.15165450342855 lineto
82.51881108205586 -233.36499753338205 lineto
85.18070821373509 -233.5444636298125 lineto
87.8426053454143 -233.6964182568644 lineto
90.50450247709352 -233.82586047014868 lineto
93.16639960877275 -233.93677285063532 lineto
95.82829674045196 -234.03227147632177 lineto
98.49019387213119 -234.11493919260695 lineto
101.15209100381041 -234.18680894877264 lineto
103.81398813548964 -234.24956376020785 lineto
106.47588526716885 -234.30458669896487 lineto
109.13778239884807 -234.35301088431555 lineto
111.7996795305273 -234.39576947330724 lineto
114.46157666220651 -234.4336789783564 lineto
117.12347379388574 -234.46738927669242 lineto
119.78537092556496 -234.49745026443247 lineto
122.44726805724419 -234.52434518361898 lineto
125.1091651889234 -234.54845729518212 lineto
127.77106232060262 -234.5701531965333 lineto
130.43295945228184 -234.58969950397184 lineto
133.09485658396108 -234.60737949731563 lineto
135.7567537156403 -234.62337647527045 lineto
138.4186508473195 -234.63790706357938 lineto
141.08054797899874 -234.6511212339108 lineto
143.74244511067795 -234.663168957933 lineto
146.40434224235716 -234.67416688027694 lineto
149.0662393740364 -234.6842316455735 lineto
151.7281365057156 -234.6934632349349 lineto
154.39003363739485 -234.701928302436 lineto
157.05193076907406 -234.70971016567026 lineto
159.71382790075327 -234.71689214223122 lineto
162.3757250324325 -234.72350755915627 lineto
165.03762216411172 -234.72960640700154 lineto
167.69951929579094 -234.73527200336054 lineto
170.36141642747017 -234.74050434823326 lineto
173.0233135591494 -234.74535343217582 lineto
175.6852106908286 -234.7498692457443 lineto
178.34710782250784 -234.75405178893874 lineto
181.00900495418705 -234.75796771583393 lineto
183.67090208586626 -234.76160036291117 lineto
186.3327992175455 -234.76499972072656 lineto
188.9946963492247 -234.76816578928012 lineto
191.65659348090392 -234.77113189560922 lineto
194.31849061258316 -234.7738980397139 lineto
196.98038774426237 -234.77649754863157 lineto
199.6422848759416 -234.77893042236218 lineto
202.30418200762082 -234.7812299879432 lineto
204.96607913930004 -234.78337958185588 lineto
207.62797627097927 -234.78539586761892 lineto
210.2898734026585 -234.78729550875107 lineto
212.9517705343377 -234.78909516877098 lineto
215.61366766601694 -234.79077818415996 lineto
218.27556479769615 -234.79236121843675 lineto
220.93746192937536 -234.79387759863872 lineto
223.5993590610546 -234.79529399772846 lineto
226.2612561927338 -234.79664374274338 lineto
228.92315332441302 -234.7979101701648 lineto
231.58505045609226 -234.79910994351144 lineto
234.24694758777147 -234.80024306278324 lineto
236.9088447194507 -234.80132619149893 lineto
239.57074185112992 -234.8023593296585 lineto
242.23263898280914 -234.80332581374327 lineto
244.89453611448837 -234.80425897079064 lineto
247.5564332461676 -234.80512547376318 lineto
250.2183303778468 -234.80595864969834 lineto
252.88022750952604 -234.80675849859608 lineto
255.54212464120525 -234.8075250204564 lineto
258.20402177288446 -234.80824155176063 lineto
260.86591890456367 -234.80892475602744 lineto
263.52781603624294 -234.80957463325686 lineto
266.18971316792215 -234.8102078469676 lineto
268.85161029960136 -234.81080773364087 lineto
271.5135074312806 -234.81137429327677 lineto
274.1754045629598 -234.81190752587528 lineto
276.837301694639 -234.81244075847377 lineto
279.49919882631826 -234.81294066403484 lineto
282.1610959579975 -234.81340724255853 lineto
284.8229930896767 -234.81385715756352 lineto
287.4848902213559 -234.81430707256848 lineto
290.1467873530351 -234.81472366053606 lineto
292.8086844847143 -234.81512358498495 lineto
295.4705816163936 -234.8155068459151 lineto
298.1324787480728 -234.81587344332655 lineto
300.794375879752 -234.81622337721933 lineto
303.4562730114312 -234.8165566475934 lineto
306.11817014311043 -234.81688991796744 lineto
308.7800672747897 -234.8172065248228 lineto
311.4419644064689 -234.81750646815945 lineto
314.1038615381481 -234.8177897479774 lineto
316.76575866982733 -234.81807302779535 lineto
319.42765580150655 -234.8183396440946 lineto
322.08955293318576 -234.81858959687514 lineto
324.751450064865 -234.81883954965568 lineto
327.41334719654424 -234.81907283891752 lineto
330.07524432822345 -234.81930612817936 lineto
332.73714145990266 -234.8195227539225 lineto
335.39903859158187 -234.81973937966563 lineto
338.0609357232611 -234.81995600540878 lineto
340.72283285494035 -234.8201559676332 lineto
stroke
newpath
0.0 0.0 0.0 setrgbcolor
2.0 setlinewidth
10.0 setmiterlimit
1 setlinejoin
1 setlinecap
[ ] 0 setdash
newpath
105.29317536371042 -151.36873773433103 moveto
104.55731435585912 -151.36873773433103 103.98888842182025 -151.1527785255051 103.58789751372842 -150.72086012716153 curveto
103.1869065877109 -150.28894170950966 102.98641114262782 -149.67732392011834 102.98641114262782 -148.88600675574563 curveto
102.98641114262782 -148.0968224864558 103.19063923393728 -147.48467148042113 103.59909539829678 -147.04955368653424 curveto
104.00755158091569 -146.61443587319607 104.5829095535777 -146.39687698597825 105.32516931962002 -146.39687698597825 curveto
105.74962248067048 -146.39687698597825 106.24659525830278 -146.4661972258483 106.81608766500766 -146.6048376993907 curveto
106.81608766500766 -147.23511863080995 lineto
106.1676768059155 -147.01116093276823 105.66750464260859 -146.89918209375907 105.31557113284714 -146.89918209375907 curveto
104.80153489258 -146.89918209375907 104.403743385228 -147.07301592604858 104.12219657741883 -147.42068357508566 curveto
103.84064975702356 -147.76835123966467 103.69987635941203 -148.25892522935692 103.69987635941203 -148.89240554692753 curveto
103.69987635941203 -149.49602486641137 103.8502479566686 -149.9722015640733 104.15099113773748 -150.32093567829145 curveto
104.45173433225062 -150.66966980809923 104.86232343188281 -150.8440368574135 105.38275844025732 -150.8440368574135 curveto
105.83067383634072 -150.8440368574135 106.31058316926385 -150.70646284290217 106.82248645618958 -150.43131482617957 curveto
106.82248645618958 -151.0072060325525 lineto
106.35537468598832 -151.2482271742545 105.84560432751778 -151.36873773433103 105.29317536371042 -151.36873773433103 curveto
closepath
109.60916001591627 -150.80884350591293 moveto
109.2316313249317 -151.15651117049197 108.86796669879797 -151.33034498723953 108.5181661193987 -151.33034498723953 curveto
108.2302205076308 -151.33034498723953 107.9913323092585 -151.24022867540847 107.80150150702353 -151.05999605980335 curveto
107.61167069630247 -150.87976343614122 107.51675529942804 -150.65207311785585 107.51675529942804 -150.37692510113325 curveto
107.51675529942804 -149.99726347969113 107.67619185112916 -149.70558525659473 107.99506494027665 -149.50189040700553 curveto
108.31393804367887 -149.29819554831045 108.77091837995209 -149.1963481280688 109.36600595100326 -149.1963481280688 curveto
109.51637754377842 -149.1963481280688 lineto
109.51637754377842 -148.77722730565296 lineto
109.51637754377842 -148.3741034491779 109.30948328939704 -148.1725415389614 108.89569479913206 -148.1725415389614 curveto
108.56295764775581 -148.1725415389614 108.20355888053483 -148.27492220092333 107.81749848497833 -148.4796835156936 curveto
107.81749848497833 -147.95818203436704 lineto
108.2419516460288 -147.7854146673063 108.63974315738547 -147.69903099149923 109.01087304040664 -147.69903099149923 curveto
109.39906638367891 -147.69903099149923 109.68541228025006 -147.78648114025836 109.86991075657956 -147.961381429958 curveto
110.05440924115678 -148.13628172747627 110.14665847519765 -148.40823035299397 110.14665847519765 -148.77722730565296 curveto
110.14665847519765 -150.35132993640556 lineto
110.14665847519765 -150.71179518372983 110.25757085898974 -150.8920277912779 110.47939561665756 -150.8920277912779 curveto
110.50712371260558 -150.8920277912779 110.54764939005929 -150.88776193036284 110.60097264911406 -150.87923020891407 curveto
110.6457641873875 -151.22796432832877 lineto
110.50285784673233 -151.29621810297007 110.34502099926277 -151.33034498723953 110.17225363992533 -151.33034498723953 curveto
109.87790923678482 -151.33034498723953 109.69021136967952 -151.15651115495 109.60916001591627 -150.80884350591293 curveto
closepath
109.51637754377842 -150.46650817768014 moveto
109.51637754377842 -149.5674780166202 lineto
109.30521743477502 -149.5610792254383 lineto
108.95968270065353 -149.5610792254383 108.68026882616239 -149.62666683700766 108.46697578994333 -149.75784205428238 curveto
108.25368274418933 -149.8890172774211 108.14703623084728 -150.06125140600346 108.14703623084728 -150.27454444222252 curveto
108.14703623084728 -150.42598250470786 108.20035949228577 -150.55395832539045 108.3070060103953 -150.6584719131378 curveto
108.4136525332723 -150.76298550555725 108.54376128641478 -150.81524229709487 108.6973322724925 -150.81524229709487 curveto
108.95968271876991 -150.81524229709487 109.23269780560706 -150.69899758715894 109.51637754377842 -150.46650817768014 curveto
closepath
112.35744082855143 -151.33034498723953 moveto
112.06949521678354 -151.33034498723953 111.71969463461915 -151.26315767782702 111.30803907471635 -151.128783065009 curveto
111.30803907471635 -150.54969246304512 lineto
111.71969465302158 -150.75445378696895 112.07802695148587 -150.85683443977734 112.38303599327911 -150.85683443977734 curveto
112.56433508217002 -150.85683443977734 112.71470667132189 -150.80777703925392 112.83415077160456 -150.70966224259317 curveto
112.95359487722679 -150.61154744154632 113.01331692469834 -150.48890394462384 113.01331692469834 -150.3417317496327 curveto
113.01331692469834 -150.12630577342114 112.84588188378146 -149.94820608984685 112.51101181691753 -149.80743268594227 curveto
112.14308132395706 -149.6506623019852 lineto
111.59918405728436 -149.42457167348596 111.32723544826212 -149.09929978881814 111.32723544826212 -148.67484664674222 curveto
111.32723544826212 -148.37197052177152 111.4344152037535 -148.13361555668104 111.64877470515366 -147.95978173216253 curveto
111.86313421613643 -147.785947899873 112.15694537707995 -147.69903099149923 112.5302081904633 -147.69903099149923 curveto
112.72430486209944 -147.69903099149923 112.9642595298959 -147.72569262221847 113.25007219842944 -147.77901588127324 curveto
113.38124741765883 -147.80461104600093 lineto
113.38124741765883 -148.32931192291846 lineto
113.02931389216472 -148.22479833049903 112.74990001795963 -148.1725415389614 112.54300577282714 -148.1725415389614 curveto
112.13774898589455 -148.1725415389614 111.93512061054463 -148.31971374053168 111.93512061054463 -148.61405813051397 curveto
111.93512061054463 -148.80388894123502 112.0886916034875 -148.96385871706443 112.39583357564295 -149.09396746915806 curveto
112.69977615678421 -149.22194329279648 lineto
113.04317796044815 -149.3669825639092 113.28633201725646 -149.52002031775393 113.42923835152322 -149.68105656009934 curveto
113.57214469217841 -149.8420928096436 113.6435978561176 -150.04312149806785 113.6435978561176 -150.2841426289954 curveto
113.6435978561176 -150.58915168442363 113.52308728526658 -150.83977099954961 113.28206615433905 -151.03600059287115 curveto
113.04104501263701 -151.23223019496484 112.73283657229697 -151.33034498723953 112.35744082855143 -151.33034498723953 curveto
closepath
119.38331354630091 -148.9595928543377 moveto
119.53261867832872 -148.55220313694758 119.64566398590388 -148.15761102051442 119.72244947894274 -147.7758164856823 curveto
120.31113826767948 -147.7758164856823 lineto
120.19809295342986 -148.2621246300014 119.96880293429783 -148.84014876225507 119.62326821562296 -149.50988889598293 curveto
119.68725612744217 -149.66345988434904 lineto
119.71498422339019 -149.7253148676177 119.78110506633439 -149.86715474027898 119.88561865408172 -150.0889794979468 curveto
119.94960656780793 -150.22548704722936 120.02425913096135 -150.38758975590002 120.10957634544897 -150.5752876277728 curveto
120.23755217290137 -150.8674991004558 120.34206575959986 -151.0925232506634 120.4231171133631 -151.2503600974655 curveto
119.75124403926138 -151.2503600974655 lineto
119.72564887377091 -151.197036836027 119.71071836171232 -151.16504288154763 119.70645250098794 -151.1543782297367 curveto
119.5624796993947 -150.82164108827678 lineto
119.43130448016532 -150.51449911154455 lineto
119.32572442566362 -150.26814565104058 lineto
119.27453409620826 -150.14976801417504 lineto
119.07830449411458 -150.5848858275132 118.8794087377211 -150.89042809610456 118.6778468184941 -151.06639485098526 curveto
118.47628489025657 -151.24236161373233 118.22513233789175 -151.33034498723953 117.92438915682287 -151.33034498723953 curveto
117.53619581355059 -151.33034498723953 117.22532121671773 -151.17837369213981 116.99176534205786 -150.87443111552764 curveto
116.75820945695723 -150.5704885253282 116.64143152484768 -150.16576498459725 116.64143152484768 -149.66026048875807 curveto
116.64143152484768 -149.0694387520195 116.77527291105831 -148.59432851901425 117.04295567151323 -148.23492975298512 curveto
117.31063844393451 -147.87553097088963 117.66523812053418 -147.69583159590826 118.10675470550763 -147.69583159590826 curveto
118.40109910864815 -147.69583159590826 118.63572144581934 -147.78221527943865 118.81062173551896 -147.95498263877607 curveto
118.98552203303724 -148.12775000583682 119.17641930116842 -148.4626200799473 119.38331354630091 -148.9595928543377 curveto
closepath
119.06017459161389 -149.63786471962135 moveto
118.90340420765682 -149.28273180902474 lineto
118.71144046647822 -148.8433481347715 118.55626978427362 -148.54847051865855 118.43789214917206 -148.3980989281241 curveto
118.31951450877858 -148.24772733086755 118.18567312785984 -148.1725415389614 118.03636800250649 -148.1725415389614 curveto
117.82520788721004 -148.1725415389614 117.6519072969745 -148.30265029687135 117.5164662189754 -148.5628678010586 curveto
117.3810251349216 -148.82308531687846 117.3133045989494 -149.15475599139333 117.3133045989494 -149.55787982984734 curveto
117.3133045989494 -149.94820610357715 117.37675928006121 -150.26228009600098 117.50366863661155 -150.50010183138525 curveto
117.6305779988352 -150.73792357740095 117.79854626669318 -150.85683443977734 118.00757344218785 -150.85683443977734 curveto
118.18887253107876 -150.85683443977734 118.35524109866218 -150.7693842910182 118.50667915437771 -150.59448400131856 curveto
118.65811721686305 -150.4195837038003 118.84261569467044 -150.1007106082167 119.06017459161389 -149.63786471962135 curveto
closepath
125.2638026424865 -151.2503600974655 moveto
121.47571826278914 -149.3563179076168 lineto
125.2638026424865 -147.46227571776814 lineto
125.2638026424865 -147.99017599027664 lineto
122.5347182033971 -149.3563179076168 lineto
125.2638026424865 -150.71926042936605 lineto
closepath
128.02808043307647 -151.36873773433103 moveto
127.53963935829981 -151.36873773433103 127.14451401287553 -151.1389144775311 126.84270436662555 -150.67926798447903 curveto
126.54089470688365 -150.21962147087916 126.38998989050464 -149.61973480024383 126.38998989050464 -148.8796079645637 curveto
126.38998989050464 -148.13308230442468 126.54196118560436 -147.53266241399947 126.84590376221652 -147.07834824685287 curveto
127.14984635241598 -146.62403405939685 127.55030403223182 -146.39687698597825 128.04727680662222 -146.39687698597825 curveto
128.54424960322905 -146.39687698597825 128.94470727441575 -146.62403407970626 129.24864985102792 -147.07834824685287 curveto
129.55259244122738 -147.5326624343089 129.7045637227398 -148.12988294211067 129.7045637227398 -148.8700097777908 curveto
129.7045637227398 -149.62933302067506 129.5525924276401 -150.2356184692864 129.24864985102792 -150.6888661712519 curveto
128.94470726082847 -151.14211389347915 128.53785078964 -151.36873773433103 128.02808043307647 -151.36873773433103 curveto
closepath
128.03447922425838 -150.89522718686888 moveto
128.7020864574684 -150.89522718686888 129.03589004422903 -150.21695530137114 129.03589004422903 -148.86041159101794 curveto
129.03589004422903 -147.53372884642803 128.7063522885391 -146.87038753344044 128.04727680662222 -146.87038753344044 curveto
127.3903342256999 -146.87038753344044 127.06186296460636 -147.540127697108 127.06186296460636 -148.8796079645637 curveto
127.06186296460636 -150.2233541528139 127.38606839415245 -150.89522718686888 128.03447922425838 -150.89522718686888 curveto
closepath
fill
newpath
grestore
grestore
showpage

%%EOF