input TEX;

verbatimtex
%&latex
 \documentclass{article}
 \usepackage[latin1]{inputenc}
 \usepackage[frenchb]{babel}
 \usepackage{amsmath}
 \begin{document}
etex

vardef func(expr x) = x*x*x enddef;

outputtemplate := "cube.mps";
beginfig(1);
  u:=2.5cm;
  v:=2.5cm;

   % Graphe de la fonction

  path graphe;
  graphe=(-1.1*u, (func(-1.1))*v) for i=-1 step .1 until 1.2: ..(i*u, (func(i))*v) endfor;
  draw graphe withpen pencircle scaled 2bp withcolor red;

  for i=-1 step 1 until -1: draw (i*u,-0.03v)--(i*u,0.03v); label.bot(decimal(i) infont "cmr10" scaled 0.7, (i*u,-0.05v)); endfor;
  for i=1 step 1 until 1: draw (i*u,-0.03v)--(i*u,0.03v); label.bot(decimal(i)  infont "cmr10" scaled 0.7, (i*u,-0.05v)); endfor;
  for j=-1 step 1 until -1: draw (-0.03u,j*v)--(0.03u,j*v); label.lrt(decimal j  infont "cmr10" scaled 0.7, (0,j*v)); endfor;
  for j=1 step 1 until 1: draw (-0.03u,j*v)--(0.03u,j*v); label.lft(decimal j  infont "cmr10" scaled 0.7, (0,j*v)); endfor;
  label.llft(decimal 0  infont "cmr10" scaled 0.7, (0,-0.05v));
  drawarrow (-1.1u,0)--(1.1u,0);
  drawarrow (0,func(-1.1)*v)--(0,func(1.1)*v);

  draw (-0.7u,0)--(0.7u,0) withcolor blue withpen pencircle scaled 1.3bp;
  
  label.lrt("Tangente" infont "cmr10" scaled 0.7, (0, 0)) withcolor blue;
%  for i=-3 step 1 until 3: draw (i*u, -3*v)--(i*u,5v) dashed withdots; endfor;
%  for j=-3 step 1 until 5: draw (-3u, j*v)--(3u,j*v) dashed withdots; endfor; 
%  draw (-3u,3v)--(-u,-3v) withcolor blue;
endfig;

end
