input TEX;

verbatimtex
%&latex
 \documentclass{article}
 \usepackage[latin1]{inputenc}
 \usepackage[frenchb]{babel}
 \usepackage{amsmath}
 \begin{document}
etex

vardef exp(expr x) = (mexp(256)**x) enddef;

vardef func (expr x) = (exp(x)-1)/(exp(x)+1) enddef;

outputtemplate := "exo7.mps";
beginfig(1);
  u:=0.5cm;
  v:=1.5cm;

   % Graphe de la fonction

  path graphe;  
  graphe=(-9.5*u, (func (-9.5))*v) for i=-9.4 step .1 until 9.5: ..(i*u, (func (i))*v) endfor;
  draw graphe withpen pencircle scaled 2bp withcolor red;

  for i=-9 upto -1: draw (i*u,-0.1v)--(i*u,0.1v); label.bot(decimal(i) infont "cmr10" scaled 0.7, (i*u,-0.1v)); endfor;
  for i=1 upto 9: draw (i*u,-0.1v)--(i*u,0.1v); label.bot(decimal(i)  infont "cmr10" scaled 0.7, (i*u,-0.1v)); endfor;
  for j=-1 step .5 until -0.5: draw (-0.1u,j*v)--(0.1u,j*v); label.lrt(decimal j  infont "cmr10" scaled 0.7, (0,j*v)); endfor;
  for j=0.5 step .5 until 1: draw (-0.1u,j*v)--(0.1u,j*v); label.lft(decimal j  infont "cmr10" scaled 0.7, (0,j*v)); endfor;
  label.lrt(decimal 0  infont "cmr10" scaled 0.7, (0,-0.1v));
  drawarrow (-10u,0)--(10u,0);
  drawarrow (0,-1.5v)--(0,1.5v);

  draw (-9.5*u,1v)--(9.5*u,1v) dashed withdots scaled .25;
  draw (-9.5*u,-1v)--(9.5*u,-1v) dashed withdots scaled .25;
  draw (-2u,-1v)--(2u,1v)  withpen pencircle scaled 1.2bp withcolor blue ;
endfig;

end
