%!PS
%%BoundingBox: -142 -65 142 65 
%%HiResBoundingBox: -141.98233 -64.02953 141.98233 64.02953 
%%Creator: MetaPost 2.00
%%CreationDate: 2019.12.13:1149
%%Pages: 1
%*Font: cmr10 6.97382 9.96265 2d:dff8
%%BeginProlog
%%EndProlog
%%Page: 1 1
 1 0 0 setrgbcolor 0 2 dtransform truncate idtransform setlinewidth pop
 [] 0 setdash 1 setlinecap 1 setlinejoin 10 setmiterlimit
newpath -134.64572 -42.5145 moveto
-133.2283 -42.5132 lineto
-131.8109 -42.5119 lineto
-130.39348 -42.5119 lineto
-128.97607 -42.5106 lineto
-127.55867 -42.50931 lineto
-126.14125 -42.50931 lineto
-124.72385 -42.50801 lineto
-123.30644 -42.50542 lineto
-121.88902 -42.50542 lineto
-120.47162 -42.5028 lineto
-119.0542 -42.50151 lineto
-117.6368 -42.49892 lineto
-116.21939 -42.49762 lineto
-114.80197 -42.49503 lineto
-113.38457 -42.49243 lineto
-111.96716 -42.48854 lineto
-110.54974 -42.48595 lineto
-109.13234 -42.48206 lineto
-107.71492 -42.47687 lineto
-106.29752 -42.47427 lineto
-104.88011 -42.46777 lineto
-103.46269 -42.46259 lineto
-102.04529 -42.4574 lineto
-100.62788 -42.44962 lineto
-99.21046 -42.44313 lineto
-97.79306 -42.43533 lineto
-96.37566 -42.42625 lineto
-94.95824 -42.41588 lineto
-93.54083 -42.40419 lineto
-92.12341 -42.39252 lineto
-90.70601 -42.37955 lineto
-89.2886 -42.36397 lineto
-87.87119 -42.34775 lineto
-86.45378 -42.32959 lineto
-85.03638 -42.31012 lineto
-83.61896 -42.28806 lineto
-82.20155 -42.26341 lineto
-80.78413 -42.23616 lineto
-79.36673 -42.20697 lineto
-77.94933 -42.17453 lineto
-76.5319 -42.13754 lineto
-75.1145 -42.09732 lineto
-73.6971 -42.05385 lineto
-72.27968 -42.00519 lineto
-70.86227 -41.95134 lineto
-69.44487 -41.89099 lineto
-68.02745 -41.82611 lineto
-66.61005 -41.75345 lineto
-65.19263 -41.673 lineto
-63.77522 -41.58542 lineto
-62.35782 -41.48874 lineto
-61.88521 -41.45486 -61.41272 -41.41933 -60.9404 -41.38168 curveto
-60.46777 -41.34402 -59.99532 -41.30426 -59.523 -41.26295 curveto
-59.05035 -41.22162 -58.57785 -41.17874 -58.10559 -41.1332 curveto
-57.63287 -41.0876 -57.16043 -41.0393 -56.68817 -40.98917 curveto
-56.21547 -40.93896 -55.74297 -40.8869 -55.27077 -40.83215 curveto
-54.79794 -40.77733 -54.32544 -40.7198 -53.85335 -40.65894 curveto
-53.38048 -40.59798 -52.90804 -40.53368 -52.43594 -40.46689 curveto
-51.96304 -40.4 -51.4905 -40.33063 -51.01854 -40.25732 curveto
-50.54547 -40.18385 -50.073 -40.10646 -49.60112 -40.0257 curveto
-49.12802 -39.94472 -48.65549 -39.86037 -48.18372 -39.77202 curveto
-47.71045 -39.6834 -47.23793 -39.59073 -46.76631 -39.49368 curveto
-46.2929 -39.39627 -45.82039 -39.29442 -45.34889 -39.1881 curveto
-44.8753 -39.0813 -44.40274 -38.96999 -43.93149 -38.85332 curveto
-43.45766 -38.73601 -42.98517 -38.6133 -42.51407 -38.48546 curveto
-42.04007 -38.35683 -41.56749 -38.223 -41.09666 -38.08319 curveto
-40.62236 -37.94232 -40.14989 -37.79538 -39.67926 -37.64267 curveto
-39.20476 -37.48871 -38.73216 -37.32887 -38.26184 -37.16255 curveto
-37.7869 -36.99458 -37.31432 -36.82 -36.84444 -36.63832 curveto
-36.36919 -36.45454 -35.89677 -36.26353 -35.42703 -36.06609 curveto
-34.95148 -35.8662 -34.47873 -35.65973 -34.00961 -35.44518 curveto
-33.53337 -35.22737 -33.06097 -35.00127 -32.59221 -34.76784 curveto
-32.11584 -34.53061 -31.64328 -34.28584 -31.1748 -34.0334 curveto
-30.6979 -33.77643 -30.22533 -33.51154 -29.75739 -33.23862 curveto
-29.28003 -32.96019 -28.80759 -32.67345 -28.33998 -32.37895 curveto
-27.86223 -32.07806 -27.38959 -31.76912 -26.92256 -31.45183 curveto
-26.44427 -31.12689 -25.97195 -30.79327 -25.50516 -30.45203 curveto
-25.02672 -30.10228 -24.55415 -29.74457 -24.08775 -29.3789 curveto
-23.60886 -29.00345 -23.13655 -28.61967 -22.67033 -28.22859 curveto
-22.19135 -27.8268 -21.71883 -27.41733 -21.25293 -27.00041 curveto
-20.7736 -26.57147 -20.30135 -26.13469 -19.83553 -25.69113 curveto
-19.3562 -25.23471 -18.88371 -24.77116 -18.4181 -24.30077 curveto
-17.93864 -23.81639 -17.46654 -23.32481 -17.0007 -22.82735 curveto
-16.52159 -22.31569 -16.04915 -21.79785 -15.58328 -21.27411 curveto
-15.10411 -20.73541 -14.63193 -20.19054 -14.16588 -19.64044 curveto
-13.68713 -19.07538 -13.2149 -18.50482 -12.74847 -17.92955 curveto
-12.2701 -17.33954 -11.79785 -16.74458 -11.33105 -16.14536 curveto
-10.85315 -15.53189 -10.38097 -14.91397 -9.91365 -14.29239 curveto
-9.43626 -13.65741 -8.96396 -13.01862 -8.49625 -12.37648 curveto
-8.01938 -11.72177 -7.54729 -11.0636 -7.07883 -10.40285 curveto
-6.60281 -9.73145 -6.13058 -9.05739 -5.66142 -8.38118 curveto
-5.18599 -7.69592 -4.71373 -7.00848 -4.24402 -6.3193 curveto
-3.76936 -5.6229 -3.29732 -4.92471 -2.8266 -4.22563 curveto
-1.4092 -2.11249 lineto
0.00822 0.01233 lineto
1.42563 2.13649 lineto
2.84303 4.25027 lineto
3.3136 4.94902 3.78584 5.64664 4.26045 6.34265 curveto
4.73033 7.03172 5.2025 7.71922 5.67786 8.40454 curveto
6.14694 9.0808 6.61911 9.7549 7.09526 10.4262 curveto
7.56366 11.08656 8.0359 11.7442 8.51268 12.39854 curveto
8.9805 13.0406 9.45267 13.67949 9.93008 14.31445 curveto
10.39734 14.93587 10.8696 15.55351 11.3475 16.16676 curveto
11.81432 16.76576 12.2865 17.36055 12.76491 17.95032 curveto
13.23128 18.52522 13.70352 19.0953 14.18231 19.6599 curveto
14.6484 20.20953 15.12067 20.75392 15.59973 21.29228 curveto
16.06558 21.81581 16.53786 22.3336 17.01714 22.84486 curveto
17.48291 23.34175 17.95528 23.83243 18.43454 24.31633 curveto
18.9003 24.78659 19.37253 25.2504 19.85196 25.70671 curveto
20.31767 26.14996 20.79015 26.58607 21.26936 27.0147 curveto
21.73537 27.43149 22.2077 27.84116 22.68677 28.24286 curveto
23.15285 28.63368 23.62526 29.0169 24.10419 29.39189 curveto
24.5706 29.75708 25.04314 30.11441 25.52159 30.4637 curveto
25.9884 30.8045 26.46078 31.13762 26.93901 31.4622 curveto
27.40608 31.77922 27.87866 32.08803 28.35641 32.38869 curveto
28.82404 32.68297 29.29654 32.96938 29.77382 33.2477 curveto
30.24179 33.52058 30.71428 33.78563 31.19124 34.04248 curveto
31.6596 34.29471 32.1322 34.53899 32.60864 34.77562 curveto
33.07748 35.00848 33.54999 35.23393 34.02605 35.45168 curveto
34.49524 35.66628 34.9678 35.87337 35.44347 36.07321 curveto
35.91309 36.27052 36.38565 36.46074 36.86087 36.64417 curveto
37.33086 36.82556 37.80338 37.00029 38.27829 37.1684 curveto
38.74855 37.33484 39.22112 37.49478 39.6957 37.6485 curveto
40.16628 37.80093 40.63881 37.94725 41.1131 38.08774 curveto
41.58397 38.2272 42.05652 38.36093 42.53052 38.48935 curveto
43.00162 38.61699 43.47412 38.73938 43.94792 38.85657 curveto
44.4192 38.97313 44.89175 39.08452 45.36533 39.19135 curveto
45.83682 39.2977 46.30933 39.39954 46.78275 39.49693 curveto
47.25436 39.59396 47.72688 39.6866 48.20015 39.77527 curveto
48.67194 39.86366 49.14444 39.94814 49.61757 40.02895 curveto
50.08943 40.10954 50.56194 40.18651 51.03497 40.25992 curveto
51.50694 40.33316 51.97943 40.40285 52.45238 40.46948 curveto
52.92445 40.53598 53.39696 40.59943 53.8698 40.66023 curveto
54.34192 40.72095 54.81439 40.77902 55.2872 40.8341 curveto
55.75937 40.88911 56.23187 40.94113 56.7046 40.99112 curveto
57.17686 41.04106 57.64932 41.08897 58.12202 41.13449 curveto
58.59428 41.17996 59.06679 41.22302 59.53943 41.26425 curveto
60.95683 41.38234 lineto
62.37425 41.4894 lineto
63.79166 41.58606 lineto
65.20908 41.6743 lineto
66.62648 41.7541 lineto
68.04388 41.82611 lineto
69.4613 41.89165 lineto
70.87871 41.95134 lineto
72.29611 42.00453 lineto
73.71353 42.05385 lineto
75.13094 42.09796 lineto
76.54836 42.13754 lineto
77.96576 42.17387 lineto
79.38316 42.20697 lineto
80.80058 42.23616 lineto
82.21799 42.26341 lineto
83.63539 42.28741 lineto
85.05281 42.30948 lineto
86.47021 42.32959 lineto
87.88762 42.34775 lineto
89.30504 42.36397 lineto
90.72244 42.37889 lineto
92.13986 42.39188 lineto
93.55727 42.40419 lineto
94.97467 42.41522 lineto
96.39209 42.42496 lineto
97.8095 42.43404 lineto
99.2269 42.44247 lineto
100.64432 42.44962 lineto
102.06172 42.4561 lineto
103.47914 42.46259 lineto
104.89655 42.46777 lineto
106.31395 42.47298 lineto
107.73137 42.47751 lineto
109.14877 42.4814 lineto
110.56618 42.48465 lineto
111.9836 42.4879 lineto
113.401 42.49113 lineto
114.8184 42.49373 lineto
116.23582 42.49632 lineto
117.65323 42.49828 lineto
119.07065 42.50087 lineto
120.48805 42.50217 lineto
121.90546 42.50412 lineto
123.32288 42.50542 lineto
124.74028 42.50671 lineto
126.15768 42.50801 lineto
127.5751 42.50931 lineto
128.99251 42.50995 lineto
130.40993 42.51125 lineto
131.82733 42.5119 lineto
133.24474 42.51254 lineto stroke
 0 0 0 setrgbcolor 0.5 0 dtransform exch truncate exch idtransform pop setlinewidth
newpath -127.5591 -4.25223 moveto
-127.5591 4.25223 lineto stroke
-130.46487 -11.74646 moveto
(-9) cmr10 6.97382 fshow
newpath -113.38586 -4.25223 moveto
-113.38586 4.25223 lineto stroke
-116.29164 -11.74646 moveto
(-8) cmr10 6.97382 fshow
newpath -99.21263 -4.25223 moveto
-99.21263 4.25223 lineto stroke
-102.11841 -11.74646 moveto
(-7) cmr10 6.97382 fshow
newpath -85.0394 -4.25223 moveto
-85.0394 4.25223 lineto stroke
-87.94518 -11.74646 moveto
(-6) cmr10 6.97382 fshow
newpath -70.86617 -4.25223 moveto
-70.86617 4.25223 lineto stroke
-73.77194 -11.74646 moveto
(-5) cmr10 6.97382 fshow
newpath -56.69293 -4.25223 moveto
-56.69293 4.25223 lineto stroke
-59.59871 -11.74646 moveto
(-4) cmr10 6.97382 fshow
newpath -42.5197 -4.25223 moveto
-42.5197 4.25223 lineto stroke
-45.42548 -11.74646 moveto
(-3) cmr10 6.97382 fshow
newpath -28.34647 -4.25223 moveto
-28.34647 4.25223 lineto stroke
-31.25224 -11.74646 moveto
(-2) cmr10 6.97382 fshow
newpath -14.17323 -4.25223 moveto
-14.17323 4.25223 lineto stroke
-17.07901 -11.74646 moveto
(-1) cmr10 6.97382 fshow
newpath 14.17323 -4.25223 moveto
14.17323 4.25223 lineto stroke
12.42976 -11.74646 moveto
(1) cmr10 6.97382 fshow
newpath 28.34647 -4.25223 moveto
28.34647 4.25223 lineto stroke
26.603 -11.74646 moveto
(2) cmr10 6.97382 fshow
newpath 42.5197 -4.25223 moveto
42.5197 4.25223 lineto stroke
40.77623 -11.74646 moveto
(3) cmr10 6.97382 fshow
newpath 56.69293 -4.25223 moveto
56.69293 4.25223 lineto stroke
54.94946 -11.74646 moveto
(4) cmr10 6.97382 fshow
newpath 70.86617 -4.25223 moveto
70.86617 4.25223 lineto stroke
69.1227 -11.74646 moveto
(5) cmr10 6.97382 fshow
newpath 85.0394 -4.25223 moveto
85.0394 4.25223 lineto stroke
83.29593 -11.74646 moveto
(6) cmr10 6.97382 fshow
newpath 99.21263 -4.25223 moveto
99.21263 4.25223 lineto stroke
97.46916 -11.74646 moveto
(7) cmr10 6.97382 fshow
newpath 113.38586 -4.25223 moveto
113.38586 4.25223 lineto stroke
111.6424 -11.74646 moveto
(8) cmr10 6.97382 fshow
newpath 127.5591 -4.25223 moveto
127.5591 4.25223 lineto stroke
125.81563 -11.74646 moveto
(9) cmr10 6.97382 fshow
 0 0.5 dtransform truncate idtransform setlinewidth pop
newpath -1.4174 -42.51968 moveto
1.4174 -42.51968 lineto stroke
2.09999 -49.1139 moveto
(-1) cmr10 6.97382 fshow
newpath -1.4174 -21.25984 moveto
1.4174 -21.25984 lineto stroke
2.09999 -27.85406 moveto
(-0.5) cmr10 6.97382 fshow
newpath -1.4174 21.25984 moveto
1.4174 21.25984 lineto stroke
-11.91103 19.01273 moveto
(0.5) cmr10 6.97382 fshow
newpath -1.4174 42.51968 moveto
1.4174 42.51968 lineto stroke
-6.48692 40.27257 moveto
(1) cmr10 6.97382 fshow
2.09999 -10.84645 moveto
(0) cmr10 6.97382 fshow
newpath -141.73233 0 moveto
141.73233 0 lineto stroke
newpath 138.03596 -1.53113 moveto
141.73233 0 lineto
138.03596 1.53113 lineto
 closepath
gsave fill grestore stroke
 0.5 0 dtransform exch truncate exch idtransform pop setlinewidth
newpath 0 -63.77953 moveto
0 63.77953 lineto stroke
 0 0.5 dtransform truncate idtransform setlinewidth pop
newpath 1.5307 60.08417 moveto
0 63.77953 lineto
-1.5307 60.08417 lineto
 closepath
gsave fill grestore stroke
 [0 1.25 ] 0.625 setdash
newpath -134.64572 42.51968 moveto
134.64572 42.51968 lineto stroke
newpath -134.64572 -42.51968 moveto
134.64572 -42.51968 lineto stroke
 0 0 1 setrgbcolor 0 1.2 dtransform truncate idtransform setlinewidth pop
 [] 0 setdash
newpath -28.34647 -42.51968 moveto
28.34647 42.51968 lineto stroke
showpage
%%EOF
