input TEX;

verbatimtex
%&latex
 \documentclass{article}
 \usepackage[latin1]{inputenc}
 \usepackage[frenchb]{babel}
 \usepackage{amsmath}
 \begin{document}
etex

vardef ln(expr x) = (mlog(x)/256) enddef;
vardef func (expr x) = (x-ln(x+1))/x enddef;

outputtemplate := "exo8.mps";
beginfig(1);
  u:=1cm;
  v:=1cm;

   % Graphe de la fonction

  path graphe;  
  graphe=(-0.99*u, (func (-.99))*v) for i=-0.99 step .01 until 11: ..(i*u, (func (i))*v) endfor;
  draw graphe withpen pencircle scaled 1.5bp withcolor red;

  for i=-1 upto -1: draw (i*u,-0.1v)--(i*u,0.1v); label.bot(decimal(i) infont "cmr10" scaled 0.7, (i*u,-0.1v)); endfor;
  for i=1 upto 11: draw (i*u,-0.1v)--(i*u,0.1v); label.bot(decimal(i)  infont "cmr10" scaled 0.7, (i*u,-0.1v)); endfor;
  for j=-4 step 1 until -1: draw (-0.1u,j*v)--(0.1u,j*v); label.lrt(decimal j  infont "cmr10" scaled 0.7, (0,j*v)); endfor;
  for j=0.5 step 1 until 1: draw (-0.1u,j*v)--(0.1u,j*v); label.lft(decimal j  infont "cmr10" scaled 0.7, (0,j*v)); endfor;
  label.lrt(decimal 0  infont "cmr10" scaled 0.7, (0,-0.1v));
  drawarrow (-1.5u,0)--(11.5u,0);
  drawarrow (0,-4.5v)--(0,1.5v);

  draw (-1.5*u,1v)--(11.5*u,1v) dashed withdots scaled .25;
  draw (-u,-4.5v)--(-u,1.5v) dashed withdots scaled .25;
  draw (-1.5u,-0.75v)--(2u,1v)  withpen pencircle scaled 1.2bp withcolor blue ;
endfig;

end
