%!PS
%%BoundingBox: -44 -128 327 43 
%%HiResBoundingBox: -43.11969 -127.80904 326.23419 42.76968 
%%Creator: MetaPost 2.00
%%CreationDate: 2019.12.13:1325
%%Pages: 1
%*Font: cmr10 6.97382 9.96265 2d:dff8
%%BeginProlog
%%EndProlog
%%Page: 1 1
 1 0 0 setrgbcolor 0 1.5 dtransform truncate idtransform setlinewidth pop
 [] 0 setdash 1 setlinecap 1 setlinejoin 10 setmiterlimit
newpath -28.06314 -103.52708 moveto
-28.06314 -103.52708 lineto
-28.00923 -97.29187 -27.9148 -91.05707 -27.77983 -84.82309 curveto
-27.70273 -81.26175 -27.6124 -77.70068 -27.49652 -74.1404 curveto
-27.41592 -71.66408 -27.32297 -69.18816 -27.21321 -66.71295 curveto
-27.12956 -64.82645 -27.03616 -62.94037 -26.9299 -61.055 curveto
-26.84445 -59.53871 -26.75069 -58.0229 -26.64659 -56.50778 curveto
-26.55983 -55.24509 -26.46591 -53.9829 -26.3633 -52.72139 curveto
-26.27557 -51.64294 -26.18152 -50.56502 -26.07999 -49.48778 curveto
-25.99152 -48.54916 -25.8974 -47.6111 -25.79668 -46.67372 curveto
-25.70761 -45.84482 -25.6134 -45.01646 -25.51337 -44.18881 curveto
-25.4238 -43.44785 -25.32957 -42.70746 -25.23006 -41.96776 curveto
-25.1401 -41.29915 -25.04582 -40.63115 -24.94675 -39.96384 curveto
-24.85643 -39.3555 -24.76213 -38.74776 -24.66344 -38.14072 curveto
-24.57283 -37.5834 -24.47855 -37.02669 -24.38013 -36.4707 curveto
-24.28926 -35.95735 -24.19489 -35.44463 -24.09682 -34.93262 curveto
-24.0057 -34.4569 -23.91139 -33.9818 -23.8135 -33.50743 curveto
-23.72221 -33.065 -23.6278 -32.62321 -23.5302 -32.18214 curveto
-23.43869 -31.76869 -23.34436 -31.35588 -23.24689 -30.9438 curveto
-23.15526 -30.55644 -23.06084 -30.16974 -22.96358 -29.78375 curveto
-22.87175 -29.41933 -22.7774 -29.05553 -22.68027 -28.69247 curveto
-22.58835 -28.34894 -22.49391 -28.00607 -22.39697 -27.66391 curveto
-22.30487 -27.33884 -22.21053 -27.0144 -22.11366 -26.69072 curveto
-22.02151 -26.38278 -21.9271 -26.07552 -21.83035 -25.76898 curveto
-21.73804 -25.47649 -21.64362 -25.18466 -21.54704 -24.89354 curveto
-21.45465 -24.61502 -21.36028 -24.33716 -21.26373 -24.06006 curveto
-20.98042 -23.26593 lineto
-20.69711 -22.50684 lineto
-20.4138 -21.78104 lineto
-20.1305 -21.08595 lineto
-19.84718 -20.41943 lineto
-19.56387 -19.77885 lineto
-19.28056 -19.16249 lineto
-18.99725 -18.56949 lineto
-18.71396 -17.99811 lineto
-18.43065 -17.44662 lineto
-18.14734 -16.91418 lineto
-17.86403 -16.39948 lineto
-17.58072 -15.90205 lineto
-17.29741 -15.41978 lineto
-17.0141 -14.95308 lineto
-16.73079 -14.50021 lineto
-16.44748 -14.0612 lineto
-16.16417 -13.6343 lineto
-15.88086 -13.22035 lineto
-15.59755 -12.81767 lineto
-15.31424 -12.42622 lineto
-15.03094 -12.04474 lineto
-14.74763 -11.67319 lineto
-14.46432 -11.31203 lineto
-14.18102 -10.9595 lineto
-13.8977 -10.61565 lineto
-13.6144 -10.28087 lineto
-13.33109 -9.953 lineto
-13.04778 -9.63379 lineto
-12.76447 -9.32195 lineto
-12.48116 -9.017 lineto
-12.19785 -8.71855 lineto
-11.91454 -8.42703 lineto
-11.63123 -8.142 lineto
-11.34792 -7.86258 lineto
-11.06462 -7.58922 lineto
-10.78131 -7.32277 lineto
-10.498 -7.06023 lineto
-10.21469 -6.8033 lineto
-9.93138 -6.55157 lineto
-9.64807 -6.3046 lineto
-9.36476 -6.06325 lineto
-9.08145 -5.82578 lineto
-8.79814 -5.59221 lineto
-8.51483 -5.36383 lineto
-8.23152 -5.13892 lineto
-7.94821 -4.91919 lineto
-7.6649 -4.70293 lineto
-7.3816 -4.48969 lineto
-7.0983 -4.28207 lineto
-6.81499 -4.07661 lineto
-6.53168 -3.87419 lineto
-6.24837 -3.67523 lineto
-5.96506 -3.47972 lineto
-5.68175 -3.28854 lineto
-5.39844 -3.09996 lineto
-5.11513 -2.91484 lineto
-4.83182 -2.73015 lineto
-4.54851 -2.54977 lineto
-4.2652 -2.3746 lineto
-3.98189 -2.19856 lineto
-3.6986 -2.02858 lineto
-3.41528 -1.85945 lineto
-3.13197 -1.69121 lineto
-2.84866 -1.52814 lineto
-2.56535 -1.3668 lineto
-2.28204 -1.20892 lineto
-1.99873 -1.04889 lineto
-1.71542 -0.89362 lineto
-1.62111 -0.84378 -1.52583 -0.79578 -1.43211 -0.74483 curveto
-1.33713 -0.69319 -1.2438 -0.63855 -1.1488 -0.58694 curveto
-1.05518 -0.5361 -0.95999 -0.48822 -0.8655 -0.43903 curveto
-0.77151 -0.39009 -0.67818 -0.33984 -0.58218 -0.29498 curveto
-0.4879 -0.25092 -0.39114 -0.21211 -0.29887 -0.16393 curveto
-0.20213 -0.1134 -0.11101 -0.0529 -0.01556 0 curveto
0.0763 0.05092 0.17188 0.09464 0.26773 0.13754 curveto
0.36249 0.17995 0.45761 0.22159 0.55104 0.26688 curveto
0.64644 0.31313 0.73994 0.3631 0.83435 0.41133 curveto
0.9278 0.45906 1.02211 0.50508 1.11766 0.54845 curveto
1.2117 0.59113 1.30692 0.63123 1.40097 0.67389 curveto
1.49612 0.71704 1.59006 0.76282 1.68428 0.80797 curveto
1.96759 0.94077 lineto
2.2509 1.06749 lineto
2.53421 1.19508 lineto
2.81752 1.32268 lineto
3.10083 1.44725 lineto
3.38414 1.5688 lineto
3.66745 1.68817 lineto
3.95074 1.80928 lineto
4.23405 1.92867 lineto
4.51736 2.04372 lineto
4.80067 2.1605 lineto
5.08398 2.27426 lineto
5.3673 2.38715 lineto
5.6506 2.49744 lineto
5.93391 2.60947 lineto
6.21722 2.7176 lineto
6.50053 2.8253 lineto
6.78384 2.9317 lineto
7.06715 3.03767 lineto
7.35046 3.14235 lineto
7.63377 3.24615 lineto
7.91707 3.34824 lineto
8.20038 3.44945 lineto
8.48369 3.54936 lineto
8.767 3.64885 lineto
9.05031 3.74573 lineto
9.33362 3.84349 lineto
9.61693 3.9395 lineto
9.90024 4.03337 lineto
10.18355 4.12852 lineto
10.46686 4.22151 lineto
10.75017 4.31364 lineto
11.03348 4.4049 lineto
11.31679 4.49487 lineto
11.60008 4.58528 lineto
11.88339 4.67265 lineto
12.1667 4.76045 lineto
12.45001 4.84825 lineto
12.73332 4.9339 lineto
13.01663 5.01955 lineto
13.29994 5.10345 lineto
13.58325 5.18736 lineto
13.86656 5.27084 lineto
14.14987 5.35216 lineto
14.43318 5.43434 lineto
14.71649 5.51436 lineto
14.9998 5.59525 lineto
15.2831 5.6744 lineto
15.5664 5.75311 lineto
15.84972 5.83054 lineto
16.13303 5.90753 lineto
16.41634 5.98366 lineto
16.69965 6.06021 lineto
16.98296 6.13504 lineto
17.26627 6.20987 lineto
17.54958 6.2834 lineto
17.83289 6.35606 lineto
18.1162 6.4296 lineto
18.3995 6.50096 lineto
18.68282 6.57233 lineto
18.96613 6.64369 lineto
19.24942 6.71333 lineto
19.53273 6.78297 lineto
19.81604 6.85262 lineto
20.09935 6.92052 lineto
20.38266 6.98843 lineto
20.66597 7.05591 lineto
20.94928 7.12338 lineto
21.23259 7.18912 lineto
21.5159 7.2553 lineto
21.79921 7.32018 lineto
22.08252 7.38506 lineto
22.36583 7.44951 lineto
22.64914 7.51309 lineto
22.93243 7.57668 lineto
23.21574 7.63939 lineto
23.49905 7.70168 lineto
23.78236 7.76309 lineto
24.06567 7.82451 lineto
24.34898 7.8855 lineto
24.6323 7.94606 lineto
24.9156 8.00574 lineto
25.19891 8.065 lineto
25.48222 8.12425 lineto
25.76553 8.18309 lineto
26.04884 8.24104 lineto
26.33215 8.299 lineto
26.61546 8.35652 lineto
26.89876 8.4132 lineto
27.18207 8.46985 lineto
27.46538 8.52608 lineto
27.74869 8.58188 lineto
28.032 8.63724 lineto
28.3153 8.69217 lineto
28.59862 8.74667 lineto
28.88193 8.80118 lineto
29.16524 8.85481 lineto
29.44855 8.908 lineto
29.73186 8.96121 lineto
30.01517 9.01398 lineto
30.29848 9.06631 lineto
30.58177 9.11865 lineto
30.86508 9.1697 lineto
31.14839 9.22116 lineto
31.4317 9.2722 lineto
31.71501 9.3228 lineto
31.99832 9.37299 lineto
32.28163 9.42316 lineto
32.56494 9.47246 lineto
32.84825 9.52177 lineto
33.13156 9.57065 lineto
33.41487 9.61952 lineto
33.69818 9.66754 lineto
33.98149 9.71597 lineto
34.26479 9.76312 lineto
34.5481 9.81114 lineto
34.8314 9.85785 lineto
35.11472 9.90456 lineto
35.39803 9.95128 lineto
35.68134 9.99713 lineto
35.96465 10.04341 lineto
36.24796 10.08882 lineto
36.53127 10.13423 lineto
36.81458 10.17921 lineto
37.09789 10.22377 lineto
37.3812 10.26833 lineto
37.6645 10.31244 lineto
37.94781 10.357 lineto
38.23111 10.40024 lineto
38.51442 10.44392 lineto
38.79773 10.48718 lineto
39.08104 10.53 lineto
39.36435 10.57239 lineto
39.64766 10.61478 lineto
39.93097 10.65717 lineto
40.21428 10.69868 lineto
40.49759 10.74065 lineto
40.7809 10.78174 lineto
41.06421 10.82326 lineto
41.34752 10.86392 lineto
41.63083 10.90457 lineto
41.91412 10.94481 lineto
42.19743 10.98546 lineto
42.48074 11.02525 lineto
42.76405 11.06505 lineto
43.04736 11.1044 lineto
43.33067 11.14377 lineto
43.61398 11.18312 lineto
43.8973 11.22162 lineto
44.1806 11.26056 lineto
44.46391 11.29861 lineto
44.74722 11.33711 lineto
45.03053 11.37474 lineto
45.31384 11.4128 lineto
45.59714 11.45044 lineto
45.88045 11.48763 lineto
46.16376 11.52483 lineto
46.44707 11.5616 lineto
46.73038 11.59836 lineto
47.01369 11.63513 lineto
47.297 11.67146 lineto
47.5803 11.7078 lineto
47.86362 11.74326 lineto
48.14693 11.77916 lineto
48.43024 11.81506 lineto
48.71355 11.85052 lineto
48.99686 11.88556 lineto
49.28017 11.92017 lineto
49.56346 11.9552 lineto
49.84677 11.9898 lineto
50.13008 12.0244 lineto
50.41339 12.059 lineto
50.6967 12.09274 lineto
50.98001 12.1269 lineto
51.26332 12.16064 lineto
51.54663 12.19395 lineto
51.82994 12.22726 lineto
52.11325 12.26056 lineto
52.39656 12.29387 lineto
52.67987 12.32675 lineto
52.96318 12.35962 lineto
53.24648 12.39206 lineto
53.52979 12.4245 lineto
53.8131 12.4565 lineto
54.0964 12.48894 lineto
54.37971 12.52095 lineto
54.66302 12.55252 lineto
54.94633 12.5841 lineto
55.22964 12.61568 lineto
55.51295 12.64682 lineto
55.79626 12.67796 lineto
56.07957 12.7091 lineto
56.36288 12.7398 lineto
56.6462 12.77052 lineto
56.9295 12.8008 lineto
57.2128 12.83151 lineto
57.49611 12.86179 lineto
57.77942 12.89163 lineto
58.06273 12.9219 lineto
58.34604 12.95175 lineto
58.62935 12.98117 lineto
58.91266 13.01102 lineto
59.19597 13.04 lineto
59.47928 13.0694 lineto
59.76259 13.09839 lineto
60.0459 13.12737 lineto
60.32921 13.15634 lineto
60.61252 13.18489 lineto
60.89581 13.21387 lineto
61.17912 13.24199 lineto
61.46243 13.27052 lineto
61.74574 13.29865 lineto
62.02905 13.32675 lineto
62.31236 13.35487 lineto
62.59567 13.38255 lineto
62.87898 13.41023 lineto
63.1623 13.43748 lineto
63.4456 13.46516 lineto
63.72891 13.49242 lineto
64.01222 13.51967 lineto
64.29553 13.54648 lineto
64.57883 13.57373 lineto
64.86214 13.60056 lineto
65.14545 13.62694 lineto
65.42876 13.65375 lineto
65.71207 13.68015 lineto
65.99538 13.70653 lineto
66.27869 13.73291 lineto
66.562 13.75887 lineto
66.8453 13.7848 lineto
67.12862 13.81076 lineto
67.41193 13.83629 lineto
67.69524 13.86223 lineto
67.97855 13.88776 lineto
68.26186 13.91284 lineto
68.54515 13.93835 lineto
68.82846 13.96344 lineto
69.11177 13.98854 lineto
69.39508 14.01363 lineto
69.67839 14.03871 lineto
69.9617 14.06337 lineto
70.24501 14.08801 lineto
70.52832 14.11267 lineto
70.81163 14.13733 lineto
71.09494 14.16154 lineto
71.37825 14.18578 lineto
71.66156 14.20999 lineto
71.94487 14.2342 lineto
72.22816 14.258 lineto
72.51147 14.28178 lineto
72.79478 14.30559 lineto
73.0781 14.32938 lineto
73.3614 14.35316 lineto
73.64471 14.37651 lineto
73.92802 14.39987 lineto
74.21133 14.42323 lineto
74.49464 14.44615 lineto
74.77795 14.46951 lineto
75.06126 14.49243 lineto
75.34457 14.51537 lineto
75.62788 14.53828 lineto
75.9112 14.56078 lineto
76.19449 14.58327 lineto
76.4778 14.60619 lineto
76.76111 14.62868 lineto
77.04442 14.65117 lineto
77.32773 14.67323 lineto
77.61104 14.6953 lineto
77.89435 14.71735 lineto
78.17766 14.73941 lineto
78.46097 14.76147 lineto
78.74428 14.7831 lineto
79.02759 14.80516 lineto
79.3109 14.82678 lineto
79.59421 14.8484 lineto
79.8775 14.8696 lineto
80.16081 14.89124 lineto
80.44412 14.91243 lineto
80.72743 14.93405 lineto
81.01074 14.95525 lineto
81.29405 14.97601 lineto
81.57736 14.9972 lineto
81.86067 15.01796 lineto
82.14398 15.03873 lineto
82.42729 15.05948 lineto
82.7106 15.08025 lineto
82.99391 15.10101 lineto
83.27722 15.12134 lineto
83.56052 15.1421 lineto
83.84383 15.16243 lineto
84.12714 15.18275 lineto
84.41045 15.20308 lineto
84.69376 15.22298 lineto
84.97707 15.24332 lineto
85.26038 15.26321 lineto
85.54369 15.2831 lineto
85.827 15.303 lineto
86.1103 15.32289 lineto
86.39362 15.34236 lineto
86.67693 15.36226 lineto
86.96024 15.38171 lineto
87.24355 15.40118 lineto
87.52684 15.42065 lineto
87.81015 15.44011 lineto
88.09346 15.45914 lineto
88.37677 15.4786 lineto
88.66008 15.49763 lineto
88.94339 15.51668 lineto
89.2267 15.5357 lineto
89.51001 15.55473 lineto
89.79332 15.57376 lineto
90.07663 15.59236 lineto
90.35994 15.61096 lineto
90.64325 15.62956 lineto
90.92656 15.64816 lineto
91.20985 15.66676 lineto
91.49316 15.68536 lineto
91.77647 15.70396 lineto
92.05978 15.72212 lineto
92.3431 15.7403 lineto
92.6264 15.75845 lineto
92.90971 15.77705 lineto
93.19302 15.79478 lineto
93.47633 15.81296 lineto
93.75964 15.83069 lineto
94.04295 15.84886 lineto
94.32626 15.8666 lineto
94.60957 15.88432 lineto
94.89287 15.90205 lineto
95.17618 15.91978 lineto
95.45949 15.93753 lineto
95.7428 15.95483 lineto
96.02611 15.97256 lineto
96.30942 15.98987 lineto
96.59273 16.00716 lineto
96.87604 16.02446 lineto
97.15935 16.04176 lineto
97.44266 16.05864 lineto
97.72597 16.07594 lineto
98.00928 16.09323 lineto
98.29259 16.1101 lineto
98.5759 16.12697 lineto
98.85919 16.14384 lineto
99.1425 16.1607 lineto
99.42581 16.17758 lineto
99.70912 16.19444 lineto
99.99243 16.21089 lineto
100.27574 16.22775 lineto
100.55905 16.24419 lineto
100.84236 16.26062 lineto
101.12567 16.27707 lineto
101.40898 16.2935 lineto
101.69229 16.30994 lineto
101.9756 16.32594 lineto
102.25891 16.34238 lineto
102.5422 16.35838 lineto
102.82552 16.37482 lineto
103.10883 16.39082 lineto
103.39214 16.40683 lineto
103.67545 16.42282 lineto
103.95876 16.43883 lineto
104.24207 16.4544 lineto
104.52538 16.47041 lineto
104.80869 16.4864 lineto
105.092 16.50198 lineto
105.3753 16.51755 lineto
105.65862 16.53313 lineto
105.94193 16.54869 lineto
106.22523 16.56427 lineto
106.50853 16.57983 lineto
106.79184 16.59541 lineto
107.07515 16.61055 lineto
107.35846 16.62611 lineto
107.64177 16.64125 lineto
107.92508 16.65639 lineto
108.20839 16.67154 lineto
108.4917 16.68668 lineto
108.77501 16.70181 lineto
109.05832 16.71695 lineto
109.34163 16.73166 lineto
109.62494 16.7468 lineto
109.90825 16.76193 lineto
110.19154 16.77664 lineto
110.47485 16.79135 lineto
110.75816 16.80605 lineto
111.04147 16.82076 lineto
111.32478 16.83546 lineto
111.6081 16.85017 lineto
111.8914 16.86487 lineto
112.17471 16.87915 lineto
112.45802 16.89386 lineto
112.74133 16.90813 lineto
113.02464 16.92284 lineto
113.30795 16.9371 lineto
113.59126 16.95139 lineto
113.87456 16.96565 lineto
114.15787 16.97993 lineto
114.44118 16.9942 lineto
114.72449 17.00804 lineto
115.0078 17.02232 lineto
115.2911 17.03659 lineto
115.57442 17.05043 lineto
115.85773 17.06427 lineto
116.14104 17.07855 lineto
116.42435 17.09239 lineto
116.70766 17.10623 lineto
116.99097 17.12007 lineto
117.27428 17.13391 lineto
117.55759 17.14732 lineto
117.84088 17.16116 lineto
118.12419 17.175 lineto
118.4075 17.18842 lineto
118.69081 17.20181 lineto
118.97412 17.21565 lineto
119.25743 17.22906 lineto
119.54074 17.24248 lineto
119.82405 17.25589 lineto
120.10736 17.26929 lineto
120.39067 17.2827 lineto
120.67398 17.29611 lineto
120.95729 17.30908 lineto
121.2406 17.3225 lineto
121.5239 17.33546 lineto
121.8072 17.34888 lineto
122.09052 17.36186 lineto
122.37383 17.37483 lineto
122.65714 17.3878 lineto
122.94044 17.40079 lineto
123.22375 17.41418 lineto
123.50706 17.42674 lineto
123.79037 17.43971 lineto
124.07368 17.45268 lineto
124.357 17.46567 lineto
124.6403 17.47821 lineto
124.92361 17.49118 lineto
125.20692 17.50372 lineto
125.49022 17.51627 lineto
125.77353 17.52925 lineto
126.05684 17.5418 lineto
126.34015 17.55434 lineto
126.62346 17.56688 lineto
126.90677 17.57898 lineto
127.19008 17.59154 lineto
127.47339 17.60408 lineto
127.7567 17.61662 lineto
128.04001 17.62872 lineto
128.32332 17.64127 lineto
128.60663 17.65338 lineto
128.88994 17.66592 lineto
129.17323 17.67804 lineto
129.45654 17.69014 lineto
129.73985 17.70226 lineto
130.02316 17.71437 lineto
130.30647 17.72649 lineto
130.58978 17.73859 lineto
130.8731 17.7507 lineto
131.1564 17.76282 lineto
131.43971 17.77449 lineto
131.72302 17.7866 lineto
132.00633 17.79828 lineto
132.28964 17.8104 lineto
132.57295 17.82207 lineto
132.85625 17.83418 lineto
133.13956 17.84586 lineto
133.42287 17.85754 lineto
133.70618 17.86922 lineto
133.98949 17.88089 lineto
134.2728 17.89258 lineto
134.5561 17.90425 lineto
134.83942 17.91592 lineto
135.12273 17.92717 lineto
135.40604 17.93886 lineto
135.68935 17.9501 lineto
135.97266 17.96178 lineto
136.25597 17.97302 lineto
136.53928 17.9847 lineto
136.82257 17.99594 lineto
137.10588 18.00719 lineto
137.38919 18.01843 lineto
137.6725 18.03012 lineto
137.95581 18.04137 lineto
138.23912 18.05217 lineto
138.52243 18.06342 lineto
138.80574 18.07466 lineto
139.08905 18.0859 lineto
139.37236 18.09717 lineto
139.65567 18.10797 lineto
139.93898 18.11922 lineto
140.22229 18.13004 lineto
140.50558 18.14128 lineto
140.7889 18.1521 lineto
141.0722 18.1629 lineto
141.35551 18.17415 lineto
141.63882 18.18497 lineto
141.92213 18.19577 lineto
142.20544 18.20659 lineto
142.48875 18.2174 lineto
142.77206 18.22821 lineto
143.05537 18.23903 lineto
143.33868 18.2494 lineto
143.622 18.26022 lineto
143.9053 18.27104 lineto
144.1886 18.28142 lineto
144.47191 18.29224 lineto
144.75522 18.30261 lineto
145.03853 18.31343 lineto
145.32184 18.3238 lineto
145.60515 18.33463 lineto
145.88846 18.345 lineto
146.17177 18.35538 lineto
146.45508 18.36577 lineto
146.73839 18.37614 lineto
147.0217 18.38652 lineto
147.30501 18.39691 lineto
147.58832 18.40729 lineto
147.87163 18.41766 lineto
148.15492 18.42761 lineto
148.43823 18.438 lineto
148.72154 18.44838 lineto
149.00485 18.45833 lineto
149.28816 18.4687 lineto
149.57147 18.47865 lineto
149.85478 18.48903 lineto
150.13809 18.49898 lineto
150.4214 18.50893 lineto
150.70471 18.51932 lineto
150.98802 18.52927 lineto
151.27133 18.53922 lineto
151.55464 18.54916 lineto
151.83794 18.55911 lineto
152.12125 18.56905 lineto
152.40456 18.579 lineto
152.68787 18.58894 lineto
152.97118 18.59846 lineto
153.25449 18.60841 lineto
153.5378 18.61836 lineto
153.8211 18.62788 lineto
154.10442 18.63783 lineto
154.38773 18.64778 lineto
154.67104 18.65729 lineto
154.95435 18.66681 lineto
155.23766 18.67676 lineto
155.52097 18.68626 lineto
155.80426 18.69579 lineto
156.08757 18.70573 lineto
156.37088 18.71526 lineto
156.65419 18.72476 lineto
156.9375 18.73428 lineto
157.22081 18.74379 lineto
157.50412 18.75331 lineto
157.78743 18.76283 lineto
158.07074 18.77234 lineto
158.35405 18.78143 lineto
158.63736 18.79094 lineto
158.92067 18.80046 lineto
159.20398 18.80954 lineto
159.48727 18.81906 lineto
159.77058 18.82814 lineto
160.0539 18.83766 lineto
160.3372 18.84674 lineto
160.62051 18.85626 lineto
160.90382 18.86534 lineto
161.18713 18.87442 lineto
161.47044 18.88394 lineto
161.75375 18.89302 lineto
162.03706 18.9021 lineto
162.32037 18.9112 lineto
162.60368 18.92027 lineto
162.887 18.92935 lineto
163.17029 18.93843 lineto
163.4536 18.94753 lineto
163.73691 18.9566 lineto
164.02022 18.96568 lineto
164.30353 18.97433 lineto
164.58684 18.98341 lineto
164.87015 18.99251 lineto
165.15346 19.00116 lineto
165.43677 19.01024 lineto
165.72008 19.01889 lineto
166.00339 19.02797 lineto
166.2867 19.03662 lineto
166.57 19.0457 lineto
166.85332 19.05435 lineto
167.13661 19.063 lineto
167.41992 19.07208 lineto
167.70323 19.08073 lineto
167.98654 19.08939 lineto
168.26985 19.09804 lineto
168.55316 19.10669 lineto
168.83647 19.11534 lineto
169.11978 19.124 lineto
169.40309 19.13264 lineto
169.6864 19.1413 lineto
169.96971 19.14995 lineto
170.25302 19.1586 lineto
170.53633 19.16681 lineto
170.81963 19.17546 lineto
171.10294 19.18411 lineto
171.38625 19.19234 lineto
171.66956 19.20099 lineto
171.95287 19.20964 lineto
172.23618 19.21785 lineto
172.51949 19.2265 lineto
172.8028 19.23473 lineto
173.0861 19.24294 lineto
173.36942 19.25159 lineto
173.65273 19.25981 lineto
173.93604 19.26802 lineto
174.21935 19.27625 lineto
174.50264 19.2849 lineto
174.78595 19.2931 lineto
175.06926 19.30133 lineto
175.35257 19.30956 lineto
175.63588 19.31776 lineto
175.91919 19.32599 lineto
176.2025 19.3342 lineto
176.48581 19.34242 lineto
176.76912 19.3502 lineto
177.05243 19.35843 lineto
177.33574 19.36664 lineto
177.61905 19.37486 lineto
177.90236 19.38264 lineto
178.18567 19.39087 lineto
178.46896 19.39908 lineto
178.75227 19.40688 lineto
179.03558 19.41508 lineto
179.3189 19.42287 lineto
179.6022 19.43109 lineto
179.88551 19.43887 lineto
180.16882 19.44666 lineto
180.45213 19.45488 lineto
180.73544 19.46266 lineto
181.01875 19.47044 lineto
181.30206 19.47824 lineto
181.58537 19.48645 lineto
181.86868 19.49425 lineto
182.15198 19.50203 lineto
182.43529 19.50981 lineto
182.7186 19.5176 lineto
183.0019 19.52538 lineto
183.28522 19.53317 lineto
183.56853 19.54095 lineto
183.85184 19.54874 lineto
184.13515 19.55609 lineto
184.41846 19.56387 lineto
184.70177 19.57167 lineto
184.98508 19.57945 lineto
185.26839 19.5868 lineto
185.5517 19.59459 lineto
185.835 19.60237 lineto
186.1183 19.60973 lineto
186.40161 19.61751 lineto
186.68492 19.62486 lineto
186.96823 19.63264 lineto
187.25154 19.64 lineto
187.53485 19.6478 lineto
187.81816 19.65514 lineto
188.10147 19.66249 lineto
188.38478 19.67029 lineto
188.66809 19.67763 lineto
188.9514 19.68498 lineto
189.23471 19.69234 lineto
189.51802 19.70012 lineto
189.80132 19.70747 lineto
190.08463 19.71483 lineto
190.36794 19.72218 lineto
190.65125 19.72954 lineto
190.93456 19.7369 lineto
191.21786 19.74425 lineto
191.50117 19.7516 lineto
191.78448 19.75896 lineto
192.0678 19.76587 lineto
192.3511 19.77322 lineto
192.63441 19.78058 lineto
192.91772 19.78793 lineto
193.20103 19.79485 lineto
193.48433 19.8022 lineto
193.76764 19.80956 lineto
194.05095 19.81648 lineto
194.33426 19.82384 lineto
194.61757 19.83075 lineto
194.90088 19.8381 lineto
195.18419 19.84503 lineto
195.4675 19.85237 lineto
195.75081 19.8593 lineto
196.03412 19.86665 lineto
196.31743 19.87357 lineto
196.60074 19.8805 lineto
196.88405 19.88785 lineto
197.16736 19.89476 lineto
197.45065 19.90169 lineto
197.73396 19.9086 lineto
198.01727 19.91595 lineto
198.30058 19.92288 lineto
198.5839 19.9298 lineto
198.8672 19.93672 lineto
199.15051 19.94365 lineto
199.43382 19.95056 lineto
199.71713 19.95749 lineto
200.00044 19.9644 lineto
200.28375 19.97133 lineto
200.56706 19.97824 lineto
200.85037 19.98473 lineto
201.13367 19.99165 lineto
201.41698 19.99857 lineto
201.70029 20.0055 lineto
201.9836 20.01198 lineto
202.2669 20.0189 lineto
202.55022 20.02582 lineto
202.83353 20.03232 lineto
203.11684 20.03923 lineto
203.40015 20.04616 lineto
203.68346 20.05264 lineto
203.96677 20.05956 lineto
204.25008 20.06606 lineto
204.53339 20.07297 lineto
204.8167 20.07945 lineto
205.09999 20.08638 lineto
205.3833 20.09286 lineto
205.66661 20.09935 lineto
205.94992 20.10583 lineto
206.23323 20.11276 lineto
206.51654 20.11925 lineto
206.79985 20.12573 lineto
207.08316 20.13223 lineto
207.36647 20.13914 lineto
207.64978 20.14563 lineto
207.93309 20.15211 lineto
208.2164 20.15862 lineto
208.49971 20.1651 lineto
208.783 20.17159 lineto
209.06631 20.17807 lineto
209.34962 20.18456 lineto
209.63293 20.19106 lineto
209.91624 20.19754 lineto
210.19955 20.20403 lineto
210.48286 20.21051 lineto
210.76617 20.217 lineto
211.04948 20.22305 lineto
211.3328 20.22955 lineto
211.6161 20.23604 lineto
211.89941 20.24252 lineto
212.18272 20.24858 lineto
212.46602 20.25507 lineto
212.74933 20.26155 lineto
213.03264 20.26761 lineto
213.31595 20.2741 lineto
213.59926 20.28015 lineto
213.88257 20.28664 lineto
214.16588 20.2927 lineto
214.44919 20.29918 lineto
214.7325 20.30524 lineto
215.01581 20.31172 lineto
215.29912 20.31778 lineto
215.58243 20.32426 lineto
215.86574 20.33032 lineto
216.14905 20.33638 lineto
216.43234 20.34286 lineto
216.71565 20.34892 lineto
216.99896 20.35498 lineto
217.28227 20.36104 lineto
217.56558 20.3671 lineto
217.84889 20.37358 lineto
218.1322 20.37964 lineto
218.41551 20.3857 lineto
218.69882 20.39174 lineto
218.98213 20.3978 lineto
219.26544 20.40385 lineto
219.54875 20.40991 lineto
219.83206 20.41597 lineto
220.11536 20.42203 lineto
220.39867 20.42809 lineto
220.68198 20.43413 lineto
220.96529 20.44019 lineto
221.2486 20.44624 lineto
221.5319 20.4523 lineto
221.81522 20.45792 lineto
222.09853 20.46397 lineto
222.38184 20.47003 lineto
222.66515 20.47609 lineto
222.94846 20.4817 lineto
223.23177 20.48776 lineto
223.51508 20.49382 lineto
223.79837 20.49988 lineto
224.08168 20.50551 lineto
224.36499 20.51155 lineto
224.6483 20.51718 lineto
224.93161 20.52324 lineto
225.21492 20.52885 lineto
225.49823 20.53491 lineto
225.78154 20.54054 lineto
226.06485 20.54659 lineto
226.34816 20.55222 lineto
226.63147 20.55827 lineto
226.91478 20.56389 lineto
227.19809 20.56952 lineto
227.4814 20.57558 lineto
227.7647 20.58119 lineto
228.048 20.58682 lineto
228.33131 20.59288 lineto
228.61462 20.5985 lineto
228.89793 20.60413 lineto
229.18124 20.60974 lineto
229.46455 20.6158 lineto
229.74786 20.62141 lineto
230.03117 20.62704 lineto
230.31448 20.63266 lineto
230.5978 20.63829 lineto
230.8811 20.6439 lineto
231.16441 20.64954 lineto
231.44771 20.65515 lineto
231.73102 20.66078 lineto
232.01433 20.6664 lineto
232.29764 20.67203 lineto
232.58095 20.67764 lineto
232.86426 20.68327 lineto
233.14757 20.68889 lineto
233.43088 20.69452 lineto
233.71419 20.70013 lineto
233.9975 20.70534 lineto
234.2808 20.71095 lineto
234.56412 20.71658 lineto
234.84743 20.7222 lineto
235.13074 20.72783 lineto
235.41403 20.73302 lineto
235.69734 20.73863 lineto
235.98065 20.74426 lineto
236.26396 20.74945 lineto
236.54727 20.75507 lineto
236.83058 20.76027 lineto
237.11389 20.76588 lineto
237.3972 20.77151 lineto
237.68051 20.7767 lineto
237.96382 20.78232 lineto
238.24713 20.7875 lineto
238.53044 20.79314 lineto
238.81375 20.79832 lineto
239.09705 20.80396 lineto
239.38036 20.80914 lineto
239.66367 20.81433 lineto
239.94698 20.81995 lineto
240.23029 20.82515 lineto
240.5136 20.83034 lineto
240.7969 20.83595 lineto
241.08022 20.84114 lineto
241.36353 20.84634 lineto
241.64684 20.85196 lineto
241.93015 20.85715 lineto
242.21346 20.86234 lineto
242.49677 20.86754 lineto
242.78006 20.87273 lineto
243.06337 20.87834 lineto
243.34668 20.88353 lineto
243.62999 20.88872 lineto
243.9133 20.89392 lineto
244.19661 20.89911 lineto
244.47992 20.9043 lineto
244.76323 20.90948 lineto
245.04654 20.91467 lineto
245.32985 20.91986 lineto
245.61316 20.92506 lineto
245.89647 20.93025 lineto
246.17978 20.93544 lineto
246.46309 20.94063 lineto
246.74638 20.94582 lineto
247.0297 20.951 lineto
247.313 20.9562 lineto
247.59631 20.96095 lineto
247.87962 20.96616 lineto
248.16293 20.97134 lineto
248.44624 20.97653 lineto
248.72955 20.98172 lineto
249.01286 20.98648 lineto
249.29617 20.99167 lineto
249.57948 20.99686 lineto
249.8628 21.00204 lineto
250.1461 21.0068 lineto
250.4294 21.012 lineto
250.7127 21.01675 lineto
250.99602 21.02194 lineto
251.27933 21.02713 lineto
251.56264 21.03189 lineto
251.84595 21.03708 lineto
252.12926 21.04184 lineto
252.41257 21.04703 lineto
252.69588 21.05179 lineto
252.97919 21.05698 lineto
253.2625 21.06174 lineto
253.5458 21.06693 lineto
253.82912 21.07169 lineto
254.11243 21.07687 lineto
254.39572 21.08163 lineto
254.67903 21.0864 lineto
254.96234 21.09158 lineto
255.24565 21.09634 lineto
255.52896 21.10153 lineto
255.81227 21.1063 lineto
256.09558 21.11105 lineto
256.37889 21.1158 lineto
256.6622 21.121 lineto
256.94551 21.12575 lineto
257.22882 21.13051 lineto
257.51213 21.13527 lineto
257.79544 21.14046 lineto
258.07874 21.14522 lineto
258.36205 21.14998 lineto
258.64536 21.15474 lineto
258.92867 21.15948 lineto
259.21198 21.16425 lineto
259.49529 21.169 lineto
259.7786 21.17377 lineto
260.0619 21.17853 lineto
260.34521 21.18327 lineto
260.62852 21.18803 lineto
260.91183 21.1928 lineto
261.19514 21.19756 lineto
261.47845 21.20232 lineto
261.76175 21.20706 lineto
262.04506 21.21182 lineto
262.32837 21.21658 lineto
262.61168 21.22134 lineto
262.89499 21.2261 lineto
263.1783 21.23087 lineto
263.46161 21.23561 lineto
263.74492 21.23994 lineto
264.02823 21.2447 lineto
264.31154 21.24945 lineto
264.59485 21.25421 lineto
264.87816 21.25854 lineto
265.16147 21.2633 lineto
265.44478 21.26805 lineto
265.72807 21.27281 lineto
266.01138 21.27715 lineto
266.2947 21.28189 lineto
266.578 21.28665 lineto
266.86131 21.29099 lineto
267.14462 21.29575 lineto
267.42793 21.30049 lineto
267.71124 21.30482 lineto
267.99455 21.30959 lineto
268.27786 21.3139 lineto
268.56117 21.31866 lineto
268.84448 21.32298 lineto
269.12779 21.32774 lineto
269.41109 21.33208 lineto
269.6944 21.33682 lineto
269.9777 21.34116 lineto
270.26102 21.34592 lineto
270.54433 21.35023 lineto
270.82764 21.355 lineto
271.11095 21.35931 lineto
271.39426 21.36365 lineto
271.67757 21.36841 lineto
271.96088 21.37273 lineto
272.24419 21.37749 lineto
272.5275 21.3818 lineto
272.8108 21.38614 lineto
273.0941 21.39046 lineto
273.37741 21.39522 lineto
273.66072 21.39955 lineto
273.94403 21.40387 lineto
274.22734 21.4082 lineto
274.51065 21.41295 lineto
274.79396 21.41728 lineto
275.07727 21.4216 lineto
275.36058 21.42593 lineto
275.64389 21.43025 lineto
275.9272 21.43501 lineto
276.21051 21.43935 lineto
276.49382 21.44366 lineto
276.77713 21.44798 lineto
277.06042 21.45232 lineto
277.34373 21.45663 lineto
277.62704 21.46097 lineto
277.91035 21.46529 lineto
278.19366 21.46962 lineto
278.47697 21.47394 lineto
278.76028 21.47827 lineto
279.0436 21.48259 lineto
279.3269 21.48692 lineto
279.61021 21.49124 lineto
279.89352 21.49557 lineto
280.17683 21.4999 lineto
280.46014 21.50421 lineto
280.74344 21.50854 lineto
281.02675 21.51286 lineto
281.31006 21.5172 lineto
281.59337 21.52109 lineto
281.87668 21.5254 lineto
282.15999 21.52974 lineto
282.4433 21.53406 lineto
282.72661 21.53839 lineto
283.00992 21.54228 lineto
283.29323 21.5466 lineto
283.57654 21.55093 lineto
283.85985 21.55525 lineto
284.14316 21.55914 lineto
284.42647 21.56348 lineto
284.70976 21.5678 lineto
284.99307 21.57213 lineto
285.27638 21.57602 lineto
285.5597 21.58034 lineto
285.843 21.58467 lineto
286.12631 21.58856 lineto
286.40962 21.5929 lineto
286.69293 21.59679 lineto
286.97624 21.6011 lineto
287.25955 21.60544 lineto
287.54286 21.60933 lineto
287.82617 21.61365 lineto
288.10948 21.61754 lineto
288.39278 21.62187 lineto
288.67609 21.62576 lineto
288.9594 21.63008 lineto
289.2427 21.63397 lineto
289.52602 21.6383 lineto
289.80933 21.6422 lineto
290.09264 21.64651 lineto
290.37595 21.65042 lineto
290.65926 21.65431 lineto
290.94257 21.65863 lineto
291.22588 21.66252 lineto
291.50919 21.66641 lineto
291.7925 21.67075 lineto
292.07579 21.67464 lineto
292.3591 21.67896 lineto
292.64241 21.68286 lineto
292.92572 21.68675 lineto
293.20903 21.69064 lineto
293.49234 21.69496 lineto
293.77565 21.69885 lineto
294.05896 21.70276 lineto
294.34227 21.70665 lineto
294.62558 21.71097 lineto
294.90889 21.71486 lineto
295.1922 21.71875 lineto
295.47551 21.72264 lineto
295.75882 21.72655 lineto
296.04211 21.73087 lineto
296.32542 21.73476 lineto
296.60873 21.73865 lineto
296.89204 21.74254 lineto
297.17535 21.74644 lineto
297.45866 21.75034 lineto
297.74197 21.75423 lineto
298.02528 21.75812 lineto
298.3086 21.76244 lineto
298.5919 21.76633 lineto
298.87521 21.77023 lineto
299.15852 21.77412 lineto
299.44183 21.77802 lineto
299.72513 21.7819 lineto
300.00844 21.7858 lineto
300.29175 21.78969 lineto
300.57506 21.79358 lineto
300.85837 21.79747 lineto
301.14168 21.80093 lineto
301.42499 21.80482 lineto
301.7083 21.80872 lineto
301.99161 21.81262 lineto
302.27492 21.81651 lineto
302.55823 21.8204 lineto
302.84154 21.8243 lineto
303.12485 21.82819 lineto
303.40816 21.83165 lineto
303.69145 21.83554 lineto
303.97476 21.83943 lineto
304.25807 21.84332 lineto
304.54138 21.84721 lineto
304.82469 21.8511 lineto
305.108 21.85457 lineto
305.39131 21.85846 lineto
305.67462 21.86235 lineto
305.95793 21.86624 lineto
306.24124 21.8697 lineto
306.52455 21.8736 lineto
306.80786 21.87749 lineto
307.09117 21.88095 lineto
307.37447 21.88484 lineto
307.65778 21.88873 lineto
307.94109 21.8922 lineto
308.2244 21.89609 lineto
308.5077 21.89998 lineto
308.79102 21.90344 lineto
309.07433 21.90733 lineto
309.35764 21.9108 lineto
309.64095 21.91469 lineto
309.92426 21.91858 lineto
310.20757 21.92204 lineto
310.49088 21.92593 lineto
310.77419 21.9294 lineto
311.05748 21.93329 lineto
311.34079 21.93675 lineto
311.6241 21.94064 lineto stroke
 0 0 0 setrgbcolor 0.5 0 dtransform exch truncate exch idtransform pop setlinewidth
newpath -28.34645 -2.83482 moveto
-28.34645 2.83482 lineto stroke
-31.25223 -10.32906 moveto
(-1) cmr10 6.97382 fshow
newpath 28.34645 -2.83482 moveto
28.34645 2.83482 lineto stroke
26.60298 -10.32906 moveto
(1) cmr10 6.97382 fshow
newpath 56.6929 -2.83482 moveto
56.6929 2.83482 lineto stroke
54.94943 -10.32906 moveto
(2) cmr10 6.97382 fshow
newpath 85.03935 -2.83482 moveto
85.03935 2.83482 lineto stroke
83.29588 -10.32906 moveto
(3) cmr10 6.97382 fshow
newpath 113.3858 -2.83482 moveto
113.3858 2.83482 lineto stroke
111.64233 -10.32906 moveto
(4) cmr10 6.97382 fshow
newpath 141.73225 -2.83482 moveto
141.73225 2.83482 lineto stroke
139.98878 -10.32906 moveto
(5) cmr10 6.97382 fshow
newpath 170.0787 -2.83482 moveto
170.0787 2.83482 lineto stroke
168.33524 -10.32906 moveto
(6) cmr10 6.97382 fshow
newpath 198.42516 -2.83482 moveto
198.42516 2.83482 lineto stroke
196.68169 -10.32906 moveto
(7) cmr10 6.97382 fshow
newpath 226.7716 -2.83482 moveto
226.7716 2.83482 lineto stroke
225.02814 -10.32906 moveto
(8) cmr10 6.97382 fshow
newpath 255.11806 -2.83482 moveto
255.11806 2.83482 lineto stroke
253.37459 -10.32906 moveto
(9) cmr10 6.97382 fshow
newpath 283.46451 -2.83482 moveto
283.46451 2.83482 lineto stroke
279.97758 -10.32906 moveto
(10) cmr10 6.97382 fshow
newpath 311.81096 -2.83482 moveto
311.81096 2.83482 lineto stroke
308.32404 -10.32906 moveto
(11) cmr10 6.97382 fshow
 0 0.5 dtransform truncate idtransform setlinewidth pop
newpath -2.83482 -113.3858 moveto
2.83482 -113.3858 lineto stroke
2.09999 -119.98003 moveto
(-4) cmr10 6.97382 fshow
newpath -2.83482 -85.03935 moveto
2.83482 -85.03935 lineto stroke
2.09999 -91.63358 moveto
(-3) cmr10 6.97382 fshow
newpath -2.83482 -56.6929 moveto
2.83482 -56.6929 lineto stroke
2.09999 -63.28712 moveto
(-2) cmr10 6.97382 fshow
newpath -2.83482 -28.34645 moveto
2.83482 -28.34645 lineto stroke
2.09999 -34.94067 moveto
(-1) cmr10 6.97382 fshow
newpath -2.83482 14.17323 moveto
2.83482 14.17323 lineto stroke
-11.91103 11.92612 moveto
(0.5) cmr10 6.97382 fshow
2.09999 -9.42905 moveto
(0) cmr10 6.97382 fshow
newpath -42.51968 0 moveto
325.98419 0 lineto stroke
newpath 322.29065 -1.52995 moveto
325.98419 0 lineto
322.29065 1.52995 lineto
 closepath
gsave fill grestore stroke
 0.5 0 dtransform exch truncate exch idtransform pop setlinewidth
newpath 0 -127.55904 moveto
0 42.51968 lineto stroke
 0 0.5 dtransform truncate idtransform setlinewidth pop
newpath 1.53046 38.82492 moveto
0 42.51968 lineto
-1.53046 38.82492 lineto
 closepath
gsave fill grestore stroke
 [0 1.25 ] 0.625 setdash
newpath -42.51968 28.34645 moveto
325.98419 28.34645 lineto stroke
 0.5 0 dtransform exch truncate exch idtransform pop setlinewidth
newpath -28.34645 -127.55904 moveto
-28.34645 42.51968 lineto stroke
 0 0 1 setrgbcolor 0 1.2 dtransform truncate idtransform setlinewidth pop
 [] 0 setdash
newpath -42.51968 -21.25984 moveto
56.6929 28.34645 lineto stroke
showpage
%%EOF
