%!PS-Adobe-3.0 EPSF-3.0
%%Creator: EpsGraphics 1.0.0 by Thomas Abeel, http://www.sourceforge.net/epsgraphics/
%%Title: GeoGebra, http://www.geogebra.org/
%%CreationDate: Tue May 01 12:23:07 CEST 2012
%%BoundingBox: 0 0 252 165
%%DocumentData: Clean7Bit
%%LanguageLevel: 2
%%DocumentProcessColors: Black
%%ColorUsage: Color
%%Origin: 0 0
%%Pages: 1
%%Page: 1 1
%%EndComments

gsave
0.0 165.0 translate
0.0 0.0 0.0 setrgbcolor
0.0 0.0 0.0 setrgbcolor
gsave
newpath
0.0 -0.0 moveto
252.55691420084946 -0.0 lineto
252.55691420084946 -165.04114804580828 lineto
0.0 -165.04114804580828 lineto
0.0 -0.0 lineto
closepath
clip
newpath
1.0 1.0 1.0 setrgbcolor
newpath
0.0 -0.0 moveto
252.55691420084946 -0.0 lineto
252.55691420084946 -165.04114804580828 lineto
0.0 -165.04114804580828 lineto
0.0 -0.0 lineto
closepath
fill
newpath
0.0 0.0 0.0 setrgbcolor
1.0 setlinewidth
10.0 setmiterlimit
0 setlinejoin
0 setlinecap
[ ] 0 setdash
newpath
9.153189468687762 -136.02339651499207 moveto
9.153189468687762 -137.62185799727592 lineto
stroke
newpath
1.0 setlinewidth
10.0 setmiterlimit
0 setlinejoin
0 setlinecap
[ ] 0 setdash
newpath
37.49964616160115 -136.02339651499207 moveto
37.49964616160115 -137.62185799727592 lineto
stroke
newpath
1.0 setlinewidth
10.0 setmiterlimit
0 setlinejoin
0 setlinecap
[ ] 0 setdash
newpath
65.84610285451454 -136.02339651499207 moveto
65.84610285451454 -137.62185799727592 lineto
stroke
newpath
1.0 setlinewidth
10.0 setmiterlimit
0 setlinejoin
0 setlinecap
[ ] 0 setdash
newpath
94.19255954742792 -136.02339651499207 moveto
94.19255954742792 -137.62185799727592 lineto
stroke
newpath
1.0 setlinewidth
10.0 setmiterlimit
0 setlinejoin
0 setlinecap
[ ] 0 setdash
newpath
122.5390162403413 -136.02339651499207 moveto
122.5390162403413 -137.62185799727592 lineto
stroke
newpath
1.0 setlinewidth
10.0 setmiterlimit
0 setlinejoin
0 setlinecap
[ ] 0 setdash
newpath
150.88547293325468 -136.02339651499207 moveto
150.88547293325468 -137.62185799727592 lineto
stroke
newpath
1.0 setlinewidth
10.0 setmiterlimit
0 setlinejoin
0 setlinecap
[ ] 0 setdash
newpath
179.23192962616804 -136.02339651499207 moveto
179.23192962616804 -137.62185799727592 lineto
stroke
newpath
1.0 setlinewidth
10.0 setmiterlimit
0 setlinejoin
0 setlinecap
[ ] 0 setdash
newpath
207.57838631908146 -136.02339651499207 moveto
207.57838631908146 -137.62185799727592 lineto
stroke
newpath
1.0 setlinewidth
10.0 setmiterlimit
0 setlinejoin
0 setlinecap
[ ] 0 setdash
newpath
235.92484301199482 -136.02339651499207 moveto
235.92484301199482 -137.62185799727592 lineto
stroke
newpath
1.0 setlinewidth
10.0 setmiterlimit
0 setlinejoin
0 setlinecap
[ ] 0 setdash
newpath
0.0 -136.02339651499207 moveto
251.75768345970755 -136.02339651499207 lineto
stroke
newpath
1.0 setlinewidth
10.0 setmiterlimit
0 setlinejoin
0 setlinecap
[ ] 0 setdash
newpath
252.1572988302785 -136.22320420027754 moveto
250.9584527185656 -134.82455040327918 lineto
stroke
newpath
1.0 setlinewidth
10.0 setmiterlimit
0 setlinejoin
0 setlinecap
[ ] 0 setdash
newpath
252.1572988302785 -135.82358882970658 moveto
250.9584527185656 -137.22224262670497 lineto
stroke
newpath
1.0 setlinewidth
10.0 setmiterlimit
0 setlinejoin
0 setlinecap
[ ] 0 setdash
newpath
35.90118467931729 -164.36985320790538 moveto
37.49964616160115 -164.36985320790538 lineto
stroke
newpath
1.0 setlinewidth
10.0 setmiterlimit
0 setlinejoin
0 setlinecap
[ ] 0 setdash
newpath
35.90118467931729 -136.02339651499207 moveto
37.49964616160115 -136.02339651499207 lineto
stroke
newpath
1.0 setlinewidth
10.0 setmiterlimit
0 setlinejoin
0 setlinecap
[ ] 0 setdash
newpath
35.90118467931729 -107.67693982207875 moveto
37.49964616160115 -107.67693982207875 lineto
stroke
newpath
1.0 setlinewidth
10.0 setmiterlimit
0 setlinejoin
0 setlinecap
[ ] 0 setdash
newpath
35.90118467931729 -79.33048312916544 moveto
37.49964616160115 -79.33048312916544 lineto
stroke
newpath
1.0 setlinewidth
10.0 setmiterlimit
0 setlinejoin
0 setlinecap
[ ] 0 setdash
newpath
35.90118467931729 -50.98402643625214 moveto
37.49964616160115 -50.98402643625214 lineto
stroke
newpath
1.0 setlinewidth
10.0 setmiterlimit
0 setlinejoin
0 setlinecap
[ ] 0 setdash
newpath
35.90118467931729 -22.637569743338833 moveto
37.49964616160115 -22.637569743338833 lineto
stroke
newpath
1.0 setlinewidth
10.0 setmiterlimit
0 setlinejoin
0 setlinecap
[ ] 0 setdash
newpath
37.49964616160115 -0.7992307411419287 moveto
37.49964616160115 -165.04114804580828 lineto
stroke
newpath
1.0 setlinewidth
10.0 setmiterlimit
0 setlinejoin
0 setlinecap
[ ] 0 setdash
newpath
37.69945384688663 -0.39961537057096436 moveto
36.30080004988825 -1.5984614822838574 lineto
stroke
newpath
1.0 setlinewidth
10.0 setmiterlimit
0 setlinejoin
0 setlinecap
[ ] 0 setdash
newpath
37.299838476315664 -0.39961537057096436 moveto
38.69849227331404 -1.5984614822838574 lineto
stroke
newpath
0.6 0.2 0.0 setrgbcolor
1.0 setlinewidth
10.0 setmiterlimit
0 setlinejoin
0 setlinecap
[ ] 0 setdash
newpath
65.84610194680711 -136.02339889191714 moveto
122.53901431849802 -136.02339889191714 lineto
122.53901431849802 -79.33048042257958 lineto
65.84610194680711 -22.637569575300336 lineto
closepath
fill
newpath
0.0 0.0 0.8 setrgbcolor
1.0 setlinewidth
10.0 setmiterlimit
0 setlinejoin
0 setlinecap
[ ] 0 setdash
newpath
122.53901431849802 -79.33048042257958 moveto
122.53901431849802 -136.02339889191714 lineto
207.57837982721105 -136.02339889191714 lineto
207.57837982721105 -50.98402728555745 lineto
closepath
fill
newpath
0.6 0.2 0.0 setrgbcolor
1.0 setlinewidth
10.0 setmiterlimit
1 setlinejoin
1 setlinecap
[ ] 0 setdash
newpath
65.84610285451454 -22.637569743338847 moveto
65.84610285451454 -136.02339651499207 lineto
stroke
newpath
0.6 0.2 0.0 setrgbcolor
1.0 setlinewidth
10.0 setmiterlimit
1 setlinejoin
1 setlinecap
[ ] 0 setdash
newpath
122.53901624034131 -79.33048312916546 moveto
65.84610285451454 -22.637569743338847 lineto
stroke
newpath
0.6 0.2 0.0 setrgbcolor
1.0 setlinewidth
10.0 setmiterlimit
1 setlinejoin
1 setlinecap
[ ] 0 setdash
newpath
122.53901624034131 -136.02339651499207 moveto
122.53901624034131 -79.33048312916546 lineto
stroke
newpath
0.6 0.2 0.0 setrgbcolor
1.0 setlinewidth
10.0 setmiterlimit
1 setlinejoin
1 setlinecap
[ ] 0 setdash
newpath
65.84610285451454 -136.02339651499207 moveto
122.53901624034131 -136.02339651499207 lineto
stroke
newpath
0.0 0.0 0.8 setrgbcolor
1.0 setlinewidth
10.0 setmiterlimit
1 setlinejoin
1 setlinecap
[ ] 0 setdash
newpath
207.57838631908146 -50.98402643625216 moveto
122.53901624034131 -79.33048312916546 lineto
stroke
newpath
0.0 0.0 0.8 setrgbcolor
1.0 setlinewidth
10.0 setmiterlimit
1 setlinejoin
1 setlinecap
[ ] 0 setdash
newpath
207.57838631908146 -136.02339651499207 moveto
207.57838631908146 -50.98402643625216 lineto
stroke
newpath
0.0 0.0 0.8 setrgbcolor
1.0 setlinewidth
10.0 setmiterlimit
1 setlinejoin
1 setlinecap
[ ] 0 setdash
newpath
122.53901624034131 -136.02339651499207 moveto
207.57838631908146 -136.02339651499207 lineto
stroke
newpath
0.0 0.0 0.8 setrgbcolor
1.0 setlinewidth
10.0 setmiterlimit
1 setlinejoin
1 setlinecap
[ ] 0 setdash
newpath
122.53901624034131 -79.33048312916546 moveto
122.53901624034131 -136.02339651499207 lineto
stroke
newpath
0.0 0.0 0.0 setrgbcolor
1.0 setlinewidth
10.0 setmiterlimit
1 setlinejoin
1 setlinecap
[ ] 0 setdash
newpath
67.13538225592201 -135.86922599412787 moveto
67.13538225592201 -136.53133041902086 66.59864056910209 -137.06807210584077 65.93653614420911 -137.06807210584077 curveto
65.27443171931615 -137.06807210584077 64.73769003249623 -136.53133041902086 64.73769003249623 -135.86922599412787 curveto
64.73769003249623 -135.2071215692349 65.27443171931615 -134.67037988241498 65.93653614420911 -134.67037988241498 curveto
66.59864056910209 -134.67037988241498 67.13538225592201 -135.2071215692349 67.13538225592201 -135.86922599412787 curveto
closepath
fill
newpath
0.0 0.0 0.0 setrgbcolor
1.0 setlinewidth
10.0 setmiterlimit
1 setlinejoin
1 setlinecap
[ ] 0 setdash
newpath
67.13538225592201 -135.86922599412787 moveto
67.13538225592201 -136.53133041902086 66.59864056910209 -137.06807210584077 65.93653614420911 -137.06807210584077 curveto
65.27443171931615 -137.06807210584077 64.73769003249623 -136.53133041902086 64.73769003249623 -135.86922599412787 curveto
64.73769003249623 -135.2071215692349 65.27443171931615 -134.67037988241498 65.93653614420911 -134.67037988241498 curveto
66.59864056910209 -134.67037988241498 67.13538225592201 -135.2071215692349 67.13538225592201 -135.86922599412787 curveto
closepath
stroke
newpath
0.0 0.0 0.0 setrgbcolor
1.0 setlinewidth
10.0 setmiterlimit
1 setlinejoin
1 setlinecap
[ ] 0 setdash
newpath
66.9098181112052 -143.1387915439286 moveto
66.63352153816209 -143.3932341507423 66.36737146179118 -143.52045544277468 66.11136786883391 -143.52045544277468 curveto
65.900633194479 -143.52045544277468 65.72580147406438 -143.45450329468952 65.58687269495952 -143.32259900441582 curveto
65.44794390964407 -143.19069470824553 65.37847952319693 -143.02405822164295 65.37847952319693 -142.8226895418168 curveto
65.37847952319693 -142.54483197118589 65.49516409288604 -142.3313655634735 65.72853322183185 -142.18229030050142 curveto
65.96190236121006 -142.03321503086516 66.29634608396684 -141.9586774027112 66.73186439149782 -141.9586774027112 curveto
66.84191471815896 -141.9586774027112 lineto
66.84191471815896 -141.65194138584718 lineto
66.84191471815896 -141.3569128417503 66.69049795214099 -141.20939858289066 66.38766443364274 -141.20939858289066 curveto
66.14414880994373 -141.20939858289066 65.88112072728303 -141.28432646710573 65.59858017651922 -141.43418222883682 curveto
65.59858017651922 -141.05251832999073 lineto
65.90921869649425 -140.9260775253778 66.20034473273496 -140.86285712872365 66.47195830087256 -140.86285712872365 curveto
66.75605986185474 -140.86285712872365 66.96562377531846 -140.92685802982402 67.10065006062824 -141.05485982630267 curveto
67.23567635197418 -141.18286162850342 67.303189491611 -141.3818888152276 67.303189491611 -141.65194138584718 curveto
67.303189491611 -142.80395757132126 lineto
67.303189491611 -143.06776616366187 67.38436136617733 -143.199670448039 67.54670510805268 -143.199670448039 curveto
67.56699807669426 -143.199670448039 67.59665702995557 -143.19654845286337 67.63568196790636 -143.19030446279126 curveto
67.66846291627351 -143.44552756079264 lineto
67.56387607788997 -143.49547948360268 67.44836226106712 -143.52045544277468 67.3219214621065 -143.52045544277468 curveto
67.10650379498814 -143.52045544277468 66.96913601689042 -143.39323413936782 66.9098181112052 -143.1387915439286 curveto
closepath
66.84191471815896 -142.8882514385511 moveto
66.84191471815896 -142.23029097489615 lineto
66.68737596157096 -142.2256079822723 lineto
66.43449435234507 -142.2256079822723 66.2300036796461 -142.27360865809757 66.07390392784289 -142.36961000545654 curveto
65.91780416906147 -142.46561135710712 65.83975429664896 -142.5916619080315 65.83975429664896 -142.74776165983474 curveto
65.83975429664896 -142.85859248856954 65.87877923634431 -142.95225233888388 65.95682911224593 -143.02874121726745 curveto
66.03487899163663 -143.10523009907035 66.1300998410042 -143.14347453655247 66.24249166230251 -143.14347453655247 curveto
66.43449436560365 -143.14347453655247 66.63430204826068 -143.0584001680166 66.84191471815896 -142.8882514385511 curveto
closepath
fill
newpath
0.0 0.0 0.0 setrgbcolor
1.0 setlinewidth
10.0 setmiterlimit
1 setlinejoin
1 setlinecap
[ ] 0 setdash
newpath
123.88076487699895 -135.86922599412787 moveto
123.88076487699895 -136.53133041902086 123.34402319017903 -137.06807210584077 122.68191876528606 -137.06807210584077 curveto
122.01981434039308 -137.06807210584077 121.48307265357316 -136.53133041902086 121.48307265357316 -135.86922599412787 curveto
121.48307265357316 -135.2071215692349 122.01981434039308 -134.67037988241498 122.68191876528606 -134.67037988241498 curveto
123.34402319017903 -134.67037988241498 123.88076487699895 -135.2071215692349 123.88076487699895 -135.86922599412787 curveto
closepath
fill
newpath
0.0 0.0 0.0 setrgbcolor
1.0 setlinewidth
10.0 setmiterlimit
1 setlinejoin
1 setlinecap
[ ] 0 setdash
newpath
123.88076487699895 -135.86922599412787 moveto
123.88076487699895 -136.53133041902086 123.34402319017903 -137.06807210584077 122.68191876528606 -137.06807210584077 curveto
122.01981434039308 -137.06807210584077 121.48307265357316 -136.53133041902086 121.48307265357316 -135.86922599412787 curveto
121.48307265357316 -135.2071215692349 122.01981434039308 -134.67037988241498 122.68191876528606 -134.67037988241498 curveto
123.34402319017903 -134.67037988241498 123.88076487699895 -135.2071215692349 123.88076487699895 -135.86922599412787 curveto
closepath
stroke
newpath
0.0 0.0 0.0 setrgbcolor
1.0 setlinewidth
10.0 setmiterlimit
1 setlinejoin
1 setlinecap
[ ] 0 setdash
newpath
122.34396279759616 -143.49001599071948 moveto
122.34396279759616 -139.76469535842415 lineto
122.8052375710482 -139.76469535842415 lineto
122.8052375710482 -141.3967182878458 lineto
122.9941182791737 -141.04081083782415 123.27743933291836 -140.86285712872365 123.65520073228214 -140.86285712872365 curveto
123.96115625949372 -140.86285712872365 124.20194012373678 -140.97446845625237 124.3775523445154 -141.19769110133095 curveto
124.55316457314449 -141.4209137563884 124.64097067960856 -141.72608877482725 124.64097067960856 -142.1132161592992 curveto
124.64097067960856 -142.53468550800903 124.54145708338541 -142.8745927139144 124.3424298998363 -143.13293780314874 curveto
124.14340270739 -143.39128290393197 123.88154537093138 -143.52045544277468 123.55685788718068 -143.52045544277468 curveto
123.25558535273255 -143.52045544277468 123.00504525335631 -143.40494162127644 122.8052375710482 -143.17391398860767 curveto
122.74904165956166 -143.49001599071948 lineto
closepath
122.8052375710482 -142.85547049018393 moveto
123.04250920439596 -143.06776616212665 123.26885384402213 -143.17391398860767 123.48427150151058 -143.17391398860767 curveto
123.9275948164498 -143.17391398860767 124.14925645410132 -142.8359580108459 124.14925645410132 -142.16004608553797 curveto
124.14925645410132 -141.56374500699295 123.95257075803673 -141.26559449437718 123.55919938349263 -141.26559449437718 curveto
123.3016347815033 -141.26559449437718 123.05031418137925 -141.40530377848654 122.8052375710482 -141.6847223342143 curveto
closepath
fill
newpath
0.0 0.0 0.0 setrgbcolor
1.0 setlinewidth
10.0 setmiterlimit
1 setlinejoin
1 setlinecap
[ ] 0 setdash
newpath
208.5992234380434 -135.86922599412787 moveto
208.5992234380434 -136.53133041902086 208.0624817512235 -137.06807210584077 207.4003773263305 -137.06807210584077 curveto
206.7382729014375 -137.06807210584077 206.2015312146176 -136.53133041902086 206.2015312146176 -135.86922599412787 curveto
206.2015312146176 -135.2071215692349 206.7382729014375 -134.67037988241498 207.4003773263305 -134.67037988241498 curveto
208.0624817512235 -134.67037988241498 208.5992234380434 -135.2071215692349 208.5992234380434 -135.86922599412787 curveto
closepath
fill
newpath
0.0 0.0 0.0 setrgbcolor
1.0 setlinewidth
10.0 setmiterlimit
1 setlinejoin
1 setlinecap
[ ] 0 setdash
newpath
208.5992234380434 -135.86922599412787 moveto
208.5992234380434 -136.53133041902086 208.0624817512235 -137.06807210584077 207.4003773263305 -137.06807210584077 curveto
206.7382729014375 -137.06807210584077 206.2015312146176 -136.53133041902086 206.2015312146176 -135.86922599412787 curveto
206.2015312146176 -135.2071215692349 206.7382729014375 -134.67037988241498 207.4003773263305 -134.67037988241498 curveto
208.0624817512235 -134.67037988241498 208.5992234380434 -135.2071215692349 208.5992234380434 -135.86922599412787 curveto
closepath
stroke
newpath
0.0 0.0 0.0 setrgbcolor
1.0 setlinewidth
10.0 setmiterlimit
1 setlinejoin
1 setlinecap
[ ] 0 setdash
newpath
208.45483116547382 -143.52045544277468 moveto
208.1114116961547 -143.52045544277468 207.82652965173065 -143.39323413936782 207.600185011616 -143.1387915439286 curveto
207.37384036138292 -142.88434893711488 207.26066804638478 -142.56356394419353 207.26066804638478 -142.17643655972157 curveto
207.26066804638478 -141.7627721989508 207.37266962331046 -141.44042621555943 207.59667276714808 -141.20939858289066 curveto
207.8206759209994 -140.97837093989415 208.13326567794547 -140.86285712872365 208.53444204007974 -140.86285712872365 curveto
208.73268873373215 -140.86285712872365 208.95435038233944 -140.8901745865104 209.19942699267048 -140.9448094996415 curveto
209.19942699267048 -141.3311563911115 lineto
208.9387403955055 -141.2546675093086 208.72644473521638 -141.21642307182645 208.56253999582302 -141.21642307182645 curveto
208.32682936006307 -141.21642307182645 208.1375584130777 -141.3050096849349 207.99472714017776 -141.48218290323157 curveto
207.85189586089277 -141.65935612944847 207.7804802276353 -141.89545700668512 207.7804802276353 -142.1904855375932 curveto
207.7804802276353 -142.4761480961632 207.85384711426258 -142.70717572638958 208.00058088095759 -142.8835684459272 curveto
208.14731465421212 -143.05996117335022 208.33931735095376 -143.14815752917636 208.57658897369464 -143.14815752917636 curveto
208.78732364804958 -143.14815752917636 209.00430230333518 -143.09430311239677 209.22752494841376 -142.98659428365255 curveto
209.22752494841376 -143.3846486566822 lineto
208.92937440914125 -143.4751865167754 208.67180982048026 -143.52045544277468 208.45483116547382 -143.52045544277468 curveto
closepath
fill
newpath
grestore
grestore
showpage

%%EOF