%!PS-Adobe-3.0 EPSF-3.0
%%Creator: EpsGraphics 1.0.0 by Thomas Abeel, http://www.sourceforge.net/epsgraphics/
%%Title: GeoGebra, http://www.geogebra.org/
%%CreationDate: Tue May 01 12:17:46 CEST 2012
%%BoundingBox: 0 0 296 275
%%DocumentData: Clean7Bit
%%LanguageLevel: 2
%%DocumentProcessColors: Black
%%ColorUsage: Color
%%Origin: 0 0
%%Pages: 1
%%Page: 1 1
%%EndComments

gsave
0.0 275.0 translate
0.0 0.0 0.0 setrgbcolor
0.0 0.0 0.0 setrgbcolor
gsave
newpath
0.0 -0.0 moveto
296.8242686946281 -0.0 lineto
296.8242686946281 -275.28057177324376 lineto
0.0 -275.28057177324376 lineto
0.0 -0.0 lineto
closepath
clip
newpath
1.0 1.0 1.0 setrgbcolor
newpath
0.0 -0.0 moveto
296.8242686946281 -0.0 lineto
296.8242686946281 -275.28057177324376 lineto
0.0 -275.28057177324376 lineto
0.0 -0.0 lineto
closepath
fill
newpath
0.0 0.0 1.0 setrgbcolor
1.0 setlinewidth
10.0 setmiterlimit
1 setlinejoin
1 setlinecap
[ ] 0 setdash
newpath
60.439419696870125 -101.56924762859789 moveto
61.03292476155989 -98.91453515978728 lineto
61.62642617368601 -96.31788384248328 lineto
62.21993123837578 -93.7789065049408 lineto
62.81343630306554 -91.29720867028753 lineto
63.4069413677553 -88.87241047190564 lineto
64.00044643244506 -86.50410282266826 lineto
64.59395149713482 -84.19191316108484 lineto
65.18744925669732 -81.9354397051558 lineto
65.78095432138707 -79.7343025882633 lineto
66.37445938607684 -77.58810002840777 lineto
66.9679644507666 -75.4964448538441 lineto
67.56146951545635 -73.45894989282723 lineto
68.15497458014612 -71.47522797361209 lineto
68.74847964483588 -69.54488461932634 lineto
69.34197740439838 -67.6675326582249 lineto
69.93548246908813 -65.84277030830818 lineto
70.5289875337779 -64.07022500808561 lineto
71.12249259846766 -62.34948767043034 lineto
71.71599766315742 -60.68018573385182 lineto
72.30950272784717 -59.061921068914074 lineto
72.90300048740967 -57.49429919874477 lineto
73.49650555209944 -55.97693660416247 lineto
74.0900106167892 -54.509442460858445 lineto
74.68351568147895 -53.09141863939674 lineto
75.27702074616872 -51.722485273159556 lineto
75.87052581085848 -50.402247885274534 lineto
76.46403087554823 -49.13031199886934 lineto
77.05752863511073 -47.90629409476253 lineto
77.6510336998005 -46.72979969608177 lineto
78.24453876449026 -45.600441631081985 lineto
78.83804382918001 -44.517829075454465 lineto
79.43154889386977 -43.48156755232687 lineto
80.02505395855954 -42.49126988995413 lineto
80.61855171812203 -41.546545264027536 lineto
81.21205678281179 -40.64700650280201 lineto
81.80556184750155 -39.79225912940522 lineto
82.39906691219132 -38.98191597209208 lineto
82.99257197688108 -38.21558255399026 lineto
83.58607704157083 -37.49287170335468 lineto
84.1795821062606 -36.81339624844028 lineto
84.77307986582309 -36.176758059811064 lineto
85.36658493051286 -35.58257361828561 lineto
85.96008999520261 -35.030448446991564 lineto
86.55359505989237 -34.519995374183864 lineto
87.14710012458214 -34.05082357555379 lineto
87.74060518927189 -33.62253857422902 lineto
88.33410294883438 -33.2347568510281 lineto
88.92760801352415 -32.88708392907869 lineto
89.52111307821392 -32.57913263663572 lineto
90.11461814290367 -32.31050849682684 lineto
90.70812320759343 -32.08082068534336 lineto
91.3016282722832 -31.889685683003833 lineto
91.89513333697295 -31.73670901293591 lineto
92.48863109653544 -31.62149619826726 lineto
93.08213616122521 -31.543663719816436 lineto
93.67564122591497 -31.502820753274737 lineto
94.26914629060472 -31.49857282176982 lineto
94.86265135529449 -31.530532753556606 lineto
95.45615641998425 -31.5983097243264 lineto
96.04965417954675 -31.701512909770482 lineto
96.64315924423651 -31.839751485580152 lineto
97.23666430892627 -32.0126346274467 lineto
97.83016937361603 -32.21977516362506 lineto
98.4236744383058 -32.460782269806515 lineto
99.01717950299555 -32.73526512168236 lineto
99.61068456768531 -33.04282924238026 lineto
100.2041823272478 -33.38309111271876 lineto
100.79768739193757 -33.75565625582554 lineto
101.39119245662732 -34.16013384739188 lineto
101.98469752131709 -34.59613671567271 lineto
102.57820258600685 -35.063274036359324 lineto
103.1717076506966 -35.561154985143006 lineto
103.7652054102591 -36.089385085151434 lineto
104.35871047494886 -36.64758081720315 lineto
104.95221553963863 -37.23535135698945 lineto
105.54572060432838 -37.852298575074364 lineto
106.13922566901815 -38.49804260484009 lineto
106.73273073370791 -39.172185316850644 lineto
107.32623579839768 -39.87433953936095 lineto
107.91973355796016 -40.60411810062595 lineto
108.51323862264992 -41.361122871209666 lineto
109.10674368733969 -42.144970331930644 lineto
109.70024875202945 -42.955269658480184 lineto
110.2937538167192 -43.791626373985956 lineto
110.88725888140897 -44.65365330670287 lineto
111.48075664097146 -45.54095963232223 lineto
112.07426170566123 -46.453158179098956 lineto
112.66776677035098 -47.38985081759707 lineto
113.26127183504074 -48.35065768119878 lineto
113.85477689973051 -49.335176987904475 lineto
114.44828196442026 -50.34302887109634 lineto
115.04178702911003 -51.37381885390203 lineto
115.63528478867252 -52.42715245944922 lineto
116.22878985336229 -53.50264616855646 lineto
116.82229491805204 -54.599905504351405 lineto
117.4157999827418 -55.718543295089 lineto
118.00930504743157 -56.858165063896884 lineto
118.60281011212133 -58.018387291593626 lineto
119.19630787168381 -59.198811848743254 lineto
119.78981293637358 -60.39905521616432 lineto
120.38331800106334 -61.61871926442086 lineto
120.97682306575311 -62.85742047433143 lineto
121.57032813044286 -64.11477167415094 lineto
122.16383319513263 -65.39037108187982 lineto
122.75733095469512 -66.68383883090023 lineto
123.35084332451214 -67.99478044433984 lineto
123.94434108407464 -69.3228014453263 lineto
124.53785345389167 -70.66752196724183 lineto
125.13135121345417 -72.02854022808678 lineto
125.72484897301666 -73.40547636124339 lineto
126.31836134283368 -74.79792858471203 lineto
126.91185910239618 -76.20551703187489 lineto
127.5053714722132 -77.62784722585963 lineto
128.0988692317757 -79.06453199492118 lineto
128.6923669913382 -80.5151768621872 lineto
129.28587936115522 -81.97939465591263 lineto
129.87937712071772 -83.4567908992251 lineto
130.47288949053475 -84.94697842037955 lineto
131.06638725009725 -86.44957004763091 lineto
131.65989961991426 -87.96417130410684 lineto
132.25339737947675 -89.490387712935 lineto
132.84689513903925 -91.02783940749758 lineto
133.44040750885628 -92.57612460579496 lineto
134.03390526841878 -94.13486344120936 lineto
134.6274176382358 -95.70366143686842 lineto
135.2209153977983 -97.28212411589979 lineto
135.8144277676153 -98.8698716116857 lineto
136.4079255271778 -100.4665021422265 lineto
stroke
newpath
0.8 0.0 0.2 setrgbcolor
1.0 setlinewidth
10.0 setmiterlimit
1 setlinejoin
1 setlinecap
[ ] 0 setdash
newpath
136.4079255271778 -100.4665021422265 moveto
137.302613683899 -102.88929873573764 lineto
138.1973018406202 -105.33007324744929 lineto
139.09197538708688 -107.78748153394461 lineto
139.98666354380808 -110.26019406206126 lineto
140.88135170052928 -112.74686668838238 lineto
141.77603985725048 -115.24616987974564 lineto
142.67071340371714 -117.75675949273418 lineto
143.56540156043835 -120.27729868905838 lineto
144.46008971715955 -122.80646524068322 lineto
145.35477787388075 -125.34289308881002 lineto
146.24946603060195 -127.88528192078549 lineto
147.14413957706861 -130.43225837268375 lineto
148.03882773378982 -132.98250752159697 lineto
148.933515890511 -135.5346998343628 lineto
149.8282040472322 -138.0874765573099 lineto
150.7228922039534 -140.6395081572759 lineto
151.61756575042006 -143.1894651010985 lineto
152.51225390714126 -145.73600324536082 lineto
153.40694206386246 -148.277778446646 lineto
154.30163022058366 -150.81347578204625 lineto
155.19631837730486 -153.34173649789014 lineto
156.09099192377153 -155.86124567126993 lineto
156.98568008049273 -158.37064454851418 lineto
157.88036823721393 -160.86860359646056 lineto
158.77505639393513 -163.35379328194676 lineto
159.6697299404018 -165.82486946155595 lineto
160.564418097123 -168.28050260212572 lineto
161.45910625384417 -170.71934856023927 lineto
162.35379441056537 -173.14006319247972 lineto
163.24848256728657 -175.54131696568476 lineto
164.14315611375324 -177.921780346692 lineto
165.03784427047444 -180.28010919208464 lineto
165.93253242719564 -182.61497396870033 lineto
166.82722058391684 -184.9250305331222 lineto
167.72190874063804 -187.2089347419334 lineto
168.6165822871047 -189.4653570619716 lineto
169.5112704438259 -191.69296796007444 lineto
170.4059586005471 -193.8904232928251 lineto
171.3006467572683 -196.0563789168067 lineto
172.19532030373497 -198.18951990911143 lineto
173.09000846045618 -200.2884875160679 lineto
173.98469661717738 -202.35195220451382 lineto
174.87938477389855 -204.37856983103228 lineto
175.77407293061975 -206.36702547271548 lineto
176.66874647708642 -208.31596037589208 lineto
177.56343463380762 -210.22404500739967 lineto
178.45812279052882 -212.089949834076 lineto
179.35281094725002 -213.91231610224963 lineto
180.24749910397122 -215.68982888901277 lineto
181.14217265043789 -217.42114405094856 lineto
182.0368608071591 -219.10493205489468 lineto
182.9315489638803 -220.7398341471797 lineto
183.8262371206015 -222.32453540489587 lineto
184.72091066706815 -223.8576916846263 lineto
185.61559882378936 -225.33795884295412 lineto
186.51028698051056 -226.76402195697156 lineto
187.40497513723176 -228.1345076627527 lineto
188.29966329395293 -229.44811564764422 lineto
189.19433684041962 -230.7034871579748 lineto
190.0890249971408 -231.89929266058203 lineto
190.983713153862 -233.03420262230364 lineto
191.8784013105832 -234.10685828946822 lineto
192.7730894673044 -235.11594473916796 lineto
193.66776301377107 -236.060117827986 lineto
194.56245117049227 -236.9380334125055 lineto
195.45713932721347 -237.74836195956408 lineto
196.35182748393467 -238.48975932574496 lineto
197.24650103040133 -239.16089597788573 lineto
198.14118918712254 -239.7604423828241 lineto
199.03587734384374 -240.2870543971432 lineto
199.93056550056494 -240.73937326717166 lineto
200.8252536572861 -241.11609868025616 lineto
201.7199272037528 -241.41587188272533 lineto
202.614615360474 -241.6373633414169 lineto
203.50930351719518 -241.77924352316842 lineto
204.40399167391638 -241.8401536743086 lineto
205.29867983063758 -241.81876426167506 lineto
206.19335337710424 -241.71376036236 lineto
207.08804153382545 -241.52376861243755 lineto
207.98272969054665 -241.24748869925438 lineto
208.87741784726785 -240.8835618691391 lineto
209.7720913937345 -240.43064397867488 lineto
210.66677955045571 -239.88742010495392 lineto
211.56146770717692 -239.25254610455934 lineto
212.45615586389812 -238.52467783407428 lineto
213.35084402061932 -237.70248576033643 lineto
214.24551756708598 -236.78462573992888 lineto
215.14020572380718 -235.76975362943483 lineto
216.03489388052836 -234.65656911620098 lineto
216.92958203724956 -233.44368422604688 lineto
217.82427019397076 -232.12981325657378 lineto
218.71894374043742 -230.71356823360125 lineto
219.61363189715863 -229.19366345473054 lineto
220.50832005387983 -227.5687255560357 lineto
221.40300821060103 -225.83742500435443 lineto
222.2976817570677 -223.99843226652442 lineto
223.1923699137889 -222.05040319912877 lineto
224.0870580705101 -219.99200826900517 lineto
224.9817462272313 -217.82190333273672 lineto
225.8764343839525 -215.53874424690662 lineto
226.77110793041916 -213.14121608860702 lineto
227.66579608714036 -210.6279747144211 lineto
228.56048424386157 -207.99767598093197 lineto
229.45517240058274 -205.24897574472277 lineto
230.34986055730394 -202.3805590828857 lineto
231.2445341037706 -199.39108185200394 lineto
232.1392222604918 -196.27918529840602 lineto
233.033910417213 -193.04356910943872 lineto
233.9285985739342 -189.68285992117612 lineto
234.8232867306554 -186.1957428107104 lineto
235.71796027712207 -182.58087363462474 lineto
236.61264843384328 -178.83692285975675 lineto
237.50733659056448 -174.9625463426896 lineto
238.40202474728568 -170.95641455026097 lineto
239.29669829375234 -166.81718333905397 lineto
240.19138645047354 -162.54350856565176 lineto
241.08607460719475 -158.13407530714653 lineto
241.98076276391595 -153.5875248098669 lineto
242.87545092063712 -148.90254215090505 lineto
243.32278769387045 -146.5077022794392 lineto
243.7701244671038 -144.07775396633508 lineto
244.21747585059165 -141.6125364987929 lineto
244.664812623825 -139.11187455375824 lineto
245.11216400731286 -136.57557819792223 lineto
245.55948617029168 -134.00351593899407 lineto
246.00685216403406 -131.39549784366488 lineto
246.4541889372674 -128.7513778093893 lineto
246.90152571050072 -126.0709659028585 lineto
247.34886248373405 -123.35410141127258 lineto
247.79619925696738 -120.60062362183172 lineto
248.2435652507098 -117.81036451660879 lineto
248.69090202394312 -114.98315607767671 lineto
249.13823879717646 -112.11882298198108 lineto
249.5855755704098 -109.21720451672209 lineto
250.03291234364312 -106.27813996909988 lineto
250.48027833738553 -103.30145401606008 lineto
250.92761511061886 -100.28697863967557 lineto
stroke
newpath
0.0 0.0 0.0 setrgbcolor
1.0 setlinewidth
10.0 setmiterlimit
1 setlinejoin
1 setlinecap
[ ] 0 setdash
newpath
-2.393744102376033 -100.78503257479758 moveto
299.2180127970041 -100.7850325747972 lineto
stroke
newpath
0.0 0.0 0.0 setrgbcolor
3.0 setlinewidth
10.0 setmiterlimit
1 setlinejoin
1 setlinecap
[ ] 0 setdash
newpath
23.252787636857768 -277.6743158756198 moveto
22.88753846381885 2.393744102376033 lineto
stroke
newpath
0.0 0.0 0.0 setrgbcolor
1.0 setlinewidth
10.0 setmiterlimit
1 setlinejoin
1 setlinecap
[ ] 0 setdash
newpath
23.252787636857768 -277.6743158756198 moveto
22.88753846381885 2.393744102376033 lineto
stroke
newpath
0.2509804 0.2509804 0.2509804 setrgbcolor
1.0 setlinewidth
10.0 setmiterlimit
1 setlinejoin
1 setlinecap
[ ] 0 setdash
newpath
62.237346661776854 -101.01600112026858 moveto
62.237346661776854 -101.8092181379124 61.59431721799504 -102.45224758169421 60.801100200351236 -102.45224758169421 curveto
60.007883182707424 -102.45224758169421 59.36485373892561 -101.8092181379124 59.36485373892561 -101.01600112026858 curveto
59.36485373892561 -100.22278410262479 60.007883182707424 -99.57975465884296 60.801100200351236 -99.57975465884296 curveto
61.59431721799504 -99.57975465884296 62.237346661776854 -100.22278410262479 62.237346661776854 -101.01600112026858 curveto
closepath
fill
newpath
0.0 0.0 0.0 setrgbcolor
1.0 setlinewidth
10.0 setmiterlimit
1 setlinejoin
1 setlinecap
[ ] 0 setdash
newpath
62.237346661776854 -101.01600112026858 moveto
62.237346661776854 -101.8092181379124 61.59431721799504 -102.45224758169421 60.801100200351236 -102.45224758169421 curveto
60.007883182707424 -102.45224758169421 59.36485373892561 -101.8092181379124 59.36485373892561 -101.01600112026858 curveto
59.36485373892561 -100.22278410262479 60.007883182707424 -99.57975465884296 60.801100200351236 -99.57975465884296 curveto
61.59431721799504 -99.57975465884296 62.237346661776854 -100.22278410262479 62.237346661776854 -101.01600112026858 curveto
closepath
stroke
newpath
0.2509804 0.2509804 0.2509804 setrgbcolor
1.0 setlinewidth
10.0 setmiterlimit
1 setlinejoin
1 setlinecap
[ ] 0 setdash
newpath
65.35575938889563 -96.55578261701324 moveto
64.6488568336627 -94.76608487797117 lineto
63.939149109559814 -96.55578261701324 lineto
closepath
65.97850687802939 -98.14350819741735 moveto
65.52687468996392 -96.99338896072886 lineto
63.76803380849152 -96.99338896072886 lineto
63.310791282686104 -98.14350819741735 lineto
62.76378335304158 -98.14350819741735 lineto
64.4104174797151 -93.99185826985891 lineto
64.99389260466926 -93.99185826985891 lineto
66.61528021151302 -98.14350819741735 lineto
closepath
fill
newpath
0.2509804 0.2509804 0.2509804 setrgbcolor
1.0 setlinewidth
10.0 setmiterlimit
1 setlinejoin
1 setlinecap
[ ] 0 setdash
newpath
252.30062839043384 -101.01600112026858 moveto
252.30062839043384 -101.8092181379124 251.65759894665206 -102.45224758169421 250.86438192900823 -102.45224758169421 curveto
250.0711649113644 -102.45224758169421 249.42813546758262 -101.8092181379124 249.42813546758262 -101.01600112026858 curveto
249.42813546758262 -100.22278410262479 250.0711649113644 -99.57975465884296 250.86438192900823 -99.57975465884296 curveto
251.65759894665206 -99.57975465884296 252.30062839043384 -100.22278410262479 252.30062839043384 -101.01600112026858 curveto
closepath
fill
newpath
0.0 0.0 0.0 setrgbcolor
1.0 setlinewidth
10.0 setmiterlimit
1 setlinejoin
1 setlinecap
[ ] 0 setdash
newpath
252.30062839043384 -101.01600112026858 moveto
252.30062839043384 -101.8092181379124 251.65759894665206 -102.45224758169421 250.86438192900823 -102.45224758169421 curveto
250.0711649113644 -102.45224758169421 249.42813546758262 -101.8092181379124 249.42813546758262 -101.01600112026858 curveto
249.42813546758262 -100.22278410262479 250.0711649113644 -99.57975465884296 250.86438192900823 -99.57975465884296 curveto
251.65759894665206 -99.57975465884296 252.30062839043384 -100.22278410262479 252.30062839043384 -101.01600112026858 curveto
closepath
stroke
newpath
0.2509804 0.2509804 0.2509804 setrgbcolor
1.0 setlinewidth
10.0 setmiterlimit
1 setlinejoin
1 setlinecap
[ ] 0 setdash
newpath
253.3151644650737 -98.14350819741735 moveto
253.3151644650737 -93.99185826985891 lineto
254.3923493111429 -93.99185826985891 lineto
254.80751431627164 -93.99185826985891 255.12590097394278 -94.07040300055894 255.34750931136836 -94.22749245493655 curveto
255.56911765870058 -94.38458191633661 255.67992182246002 -94.61086553823569 255.67992182246002 -94.90634332146976 curveto
255.67992182246002 -95.40940362047708 255.39566470183135 -95.76753016772795 254.82715048598857 -95.980722998669 curveto
255.5060013727531 -96.18830550123336 255.84542678578836 -96.56326307541455 255.84542678578836 -97.10559571552774 curveto
255.84542678578836 -97.44221598995644 255.73322002764547 -97.69935646231914 255.50880652139173 -97.87701715477002 curveto
255.28439300510593 -98.05467785516294 254.9608635291593 -98.14350819741735 254.53821809238144 -98.14350819741735 curveto
closepath
253.89863959002787 -97.70309668483175 moveto
254.01926185143665 -97.70309668483175 lineto
254.4512578702868 -97.70309668483175 254.73083969001448 -97.67598005161389 254.85800734355826 -97.62174678760258 curveto
255.1011219862012 -97.51889059263826 255.2226792966546 -97.32813910839336 255.2226792966546 -97.0494923381283 curveto
255.2226792966546 -96.80263747021392 255.11234265114743 -96.59739261947948 254.8916693699979 -96.43375777116947 curveto
254.67099607898353 -96.2701229155444 254.39515447508043 -96.18830549504692 254.0641445533562 -96.18830549504692 curveto
253.89863959002787 -96.18830549504692 lineto
closepath
253.89863959002787 -95.81521803534066 moveto
254.08658590431597 -95.81521803534066 lineto
254.4007648271161 -95.81521803534066 254.64434698387308 -95.74789398045492 254.81733239494366 -95.61324587670268 curveto
254.9903178137473 -95.4785977669312 255.07681051541607 -95.28878134042537 255.07681051541607 -95.04379659609837 curveto
255.07681051541607 -94.63611204151252 254.76076147998023 -94.43226978244451 254.12866343736556 -94.43226978244451 curveto
253.89863959002787 -94.43226978244451 lineto
closepath
fill
newpath
0.2509804 0.2509804 0.2509804 setrgbcolor
1.0 setlinewidth
10.0 setmiterlimit
1 setlinejoin
1 setlinecap
[ ] 0 setdash
newpath
137.8796602968595 -101.01600112026858 moveto
137.8796602968595 -101.8092181379124 137.23663085307768 -102.45224758169421 136.44341383543386 -102.45224758169421 curveto
135.65019681779006 -102.45224758169421 135.00716737400825 -101.8092181379124 135.00716737400825 -101.01600112026858 curveto
135.00716737400825 -100.22278410262479 135.65019681779006 -99.57975465884296 136.44341383543386 -99.57975465884296 curveto
137.23663085307768 -99.57975465884296 137.8796602968595 -100.22278410262479 137.8796602968595 -101.01600112026858 curveto
closepath
fill
newpath
0.0 0.0 0.0 setrgbcolor
1.0 setlinewidth
10.0 setmiterlimit
1 setlinejoin
1 setlinecap
[ ] 0 setdash
newpath
137.8796602968595 -101.01600112026858 moveto
137.8796602968595 -101.8092181379124 137.23663085307768 -102.45224758169421 136.44341383543386 -102.45224758169421 curveto
135.65019681779006 -102.45224758169421 135.00716737400825 -101.8092181379124 135.00716737400825 -101.01600112026858 curveto
135.00716737400825 -100.22278410262479 135.65019681779006 -99.57975465884296 136.44341383543386 -99.57975465884296 curveto
137.23663085307768 -99.57975465884296 137.8796602968595 -100.22278410262479 137.8796602968595 -101.01600112026858 curveto
closepath
stroke
newpath
0.2509804 0.2509804 0.2509804 setrgbcolor
1.0 setlinewidth
10.0 setmiterlimit
1 setlinejoin
1 setlinecap
[ ] 0 setdash
newpath
140.6726734350615 -98.2472994456063 moveto
140.02748457573986 -98.2472994456063 139.529099587164 -98.05795054124016 139.1775184273665 -97.679252749437 curveto
138.82593725185208 -97.30055494070471 138.65014667981177 -96.76430015934255 138.65014667981177 -96.0704884025081 curveto
138.65014667981177 -95.37854672729357 138.82920996468147 -94.84182443177556 139.1873365184114 -94.46032147114423 curveto
139.54546308815083 -94.07881849345837 140.04992595562544 -93.88806702166995 140.70072512376123 -93.88806702166995 curveto
141.0728775382685 -93.88806702166995 141.5086137657536 -93.94884568233068 142.00793381716815 -94.07040299821813 curveto
142.00793381716815 -94.62302126560259 lineto
141.43941957591082 -94.42665943885251 141.00087818825023 -94.32847853425554 140.69230961715132 -94.32847853425554 curveto
140.24161247194402 -94.32847853425554 139.89283648553092 -94.48089271406631 139.6459816286518 -94.78572106006096 curveto
139.39912676073743 -95.0905494196825 139.27569933781552 -95.52067531227006 139.27569933781552 -96.07609874024804 curveto
139.27569933781552 -96.60534061615539 139.40754227863343 -97.0228432384198 139.67122814848156 -97.32860664069051 curveto
139.93491403011737 -97.6343700566299 140.29491070070483 -97.7872517509309 140.75121816342073 -97.7872517509309 curveto
141.1439418169209 -97.7872517509309 141.56471714240064 -97.66662948592729 142.0135441549081 -97.42538496670454 curveto
142.0135441549081 -97.93031536329948 lineto
141.6039894876865 -98.14163809113528 141.15703258605916 -98.2472994456063 140.6726734350615 -98.2472994456063 curveto
closepath
fill
newpath
0.0 0.0 0.0 setrgbcolor
1.0 setlinewidth
10.0 setmiterlimit
1 setlinejoin
1 setlinecap
[ ] 0 setdash
newpath
96.20607156455674 -78.99355537840908 moveto
96.20607156455674 -75.68158599926224 lineto
92.8941021854099 -75.68158599926224 lineto
92.8941021854099 -74.54923283208358 lineto
96.20607156455674 -74.54923283208358 lineto
96.20607156455674 -71.24380884696667 lineto
97.3384247317354 -71.24380884696667 lineto
97.3384247317354 -74.54923283208358 lineto
100.6438487168523 -74.54923283208358 lineto
100.6438487168523 -75.68158599926224 lineto
97.3384247317354 -75.68158599926224 lineto
97.3384247317354 -78.99355537840908 lineto
closepath
fill
newpath
0.0 0.0 0.0 setrgbcolor
1.0 setlinewidth
10.0 setmiterlimit
1 setlinejoin
1 setlinecap
[ ] 0 setdash
newpath
199.4914543006326 -161.61419410569184 moveto
199.4914543006326 -160.40329621015397 lineto
205.46739904996278 -160.40329621015397 lineto
205.46739904996278 -161.61419410569184 lineto
closepath
fill
newpath
grestore
grestore
showpage

%%EOF