%!PS-Adobe-3.0 EPSF-3.0
%%Creator: EpsGraphics 1.0.0 by Thomas Abeel, http://www.sourceforge.net/epsgraphics/
%%Title: GeoGebra, http://www.geogebra.org/
%%CreationDate: Tue May 01 12:00:33 CEST 2012
%%BoundingBox: 0 0 184 99
%%DocumentData: Clean7Bit
%%LanguageLevel: 2
%%DocumentProcessColors: Black
%%ColorUsage: Color
%%Origin: 0 0
%%Pages: 1
%%Page: 1 1
%%EndComments

gsave
0.0 99.0 translate
0.0 0.0 0.0 setrgbcolor
0.0 0.0 0.0 setrgbcolor
gsave
newpath
0.0 -0.0 moveto
184.36316879111703 -0.0 lineto
184.36316879111703 -99.22910613833821 lineto
0.0 -99.22910613833821 lineto
0.0 -0.0 lineto
closepath
clip
newpath
1.0 1.0 1.0 setrgbcolor
newpath
0.0 -0.0 moveto
184.36316879111703 -0.0 lineto
184.36316879111703 -99.22910613833821 lineto
0.0 -99.22910613833821 lineto
0.0 -0.0 lineto
closepath
fill
newpath
0.0 0.0 0.0 setrgbcolor
1.0 setlinewidth
10.0 setmiterlimit
0 setlinejoin
0 setlinecap
[ ] 0 setdash
newpath
8.7995606327411 -78.6585100918409 moveto
8.7995606327411 -79.78611357068566 lineto
stroke
newpath
1.0 setlinewidth
10.0 setmiterlimit
0 setlinejoin
0 setlinecap
[ ] 0 setdash
newpath
22.97278897919779 -78.6585100918409 moveto
22.97278897919779 -79.78611357068566 lineto
stroke
newpath
1.0 setlinewidth
10.0 setmiterlimit
0 setlinejoin
0 setlinecap
[ ] 0 setdash
newpath
37.146017325654476 -78.6585100918409 moveto
37.146017325654476 -79.78611357068566 lineto
stroke
newpath
1.0 setlinewidth
10.0 setmiterlimit
0 setlinejoin
0 setlinecap
[ ] 0 setdash
newpath
51.319245672111165 -78.6585100918409 moveto
51.319245672111165 -79.78611357068566 lineto
stroke
newpath
1.0 setlinewidth
10.0 setmiterlimit
0 setlinejoin
0 setlinecap
[ ] 0 setdash
newpath
65.49247401856786 -78.6585100918409 moveto
65.49247401856786 -79.78611357068566 lineto
stroke
newpath
1.0 setlinewidth
10.0 setmiterlimit
0 setlinejoin
0 setlinecap
[ ] 0 setdash
newpath
79.66570236502456 -78.6585100918409 moveto
79.66570236502456 -79.78611357068566 lineto
stroke
newpath
1.0 setlinewidth
10.0 setmiterlimit
0 setlinejoin
0 setlinecap
[ ] 0 setdash
newpath
93.83893071148125 -78.6585100918409 moveto
93.83893071148125 -79.78611357068566 lineto
stroke
newpath
1.0 setlinewidth
10.0 setmiterlimit
0 setlinejoin
0 setlinecap
[ ] 0 setdash
newpath
108.01215905793795 -78.6585100918409 moveto
108.01215905793795 -79.78611357068566 lineto
stroke
newpath
1.0 setlinewidth
10.0 setmiterlimit
0 setlinejoin
0 setlinecap
[ ] 0 setdash
newpath
122.18538740439465 -78.6585100918409 moveto
122.18538740439465 -79.78611357068566 lineto
stroke
newpath
1.0 setlinewidth
10.0 setmiterlimit
0 setlinejoin
0 setlinecap
[ ] 0 setdash
newpath
136.35861575085136 -78.6585100918409 moveto
136.35861575085136 -79.78611357068566 lineto
stroke
newpath
1.0 setlinewidth
10.0 setmiterlimit
0 setlinejoin
0 setlinecap
[ ] 0 setdash
newpath
150.53184409730804 -78.6585100918409 moveto
150.53184409730804 -79.78611357068566 lineto
stroke
newpath
1.0 setlinewidth
10.0 setmiterlimit
0 setlinejoin
0 setlinecap
[ ] 0 setdash
newpath
164.70507244376475 -78.6585100918409 moveto
164.70507244376475 -79.78611357068566 lineto
stroke
newpath
1.0 setlinewidth
10.0 setmiterlimit
0 setlinejoin
0 setlinecap
[ ] 0 setdash
newpath
178.87830079022143 -78.6585100918409 moveto
178.87830079022143 -79.78611357068566 lineto
stroke
newpath
1.0 setlinewidth
10.0 setmiterlimit
0 setlinejoin
0 setlinecap
[ ] 0 setdash
newpath
0.0 -78.6585100918409 moveto
183.79936705169465 -78.6585100918409 lineto
stroke
newpath
1.0 setlinewidth
10.0 setmiterlimit
0 setlinejoin
0 setlinecap
[ ] 0 setdash
newpath
184.08126792140584 -78.79946052669649 moveto
183.23556531227226 -77.81280748270734 lineto
stroke
newpath
1.0 setlinewidth
10.0 setmiterlimit
0 setlinejoin
0 setlinecap
[ ] 0 setdash
newpath
184.08126792140584 -78.51755965698531 moveto
183.23556531227226 -79.50421270097446 lineto
stroke
newpath
1.0 setlinewidth
10.0 setmiterlimit
0 setlinejoin
0 setlinecap
[ ] 0 setdash
newpath
7.671957153896347 -92.83173843829763 moveto
8.7995606327411 -92.83173843829763 lineto
stroke
newpath
1.0 setlinewidth
10.0 setmiterlimit
0 setlinejoin
0 setlinecap
[ ] 0 setdash
newpath
7.671957153896347 -78.6585100918409 moveto
8.7995606327411 -78.6585100918409 lineto
stroke
newpath
1.0 setlinewidth
10.0 setmiterlimit
0 setlinejoin
0 setlinecap
[ ] 0 setdash
newpath
7.671957153896347 -64.48528174538419 moveto
8.7995606327411 -64.48528174538419 lineto
stroke
newpath
1.0 setlinewidth
10.0 setmiterlimit
0 setlinejoin
0 setlinecap
[ ] 0 setdash
newpath
7.671957153896347 -50.31205339892746 moveto
8.7995606327411 -50.31205339892746 lineto
stroke
newpath
1.0 setlinewidth
10.0 setmiterlimit
0 setlinejoin
0 setlinecap
[ ] 0 setdash
newpath
7.671957153896347 -36.138825052470736 moveto
8.7995606327411 -36.138825052470736 lineto
stroke
newpath
1.0 setlinewidth
10.0 setmiterlimit
0 setlinejoin
0 setlinecap
[ ] 0 setdash
newpath
7.671957153896347 -21.965596706014015 moveto
8.7995606327411 -21.965596706014015 lineto
stroke
newpath
1.0 setlinewidth
10.0 setmiterlimit
0 setlinejoin
0 setlinecap
[ ] 0 setdash
newpath
7.671957153896347 -7.792368359557292 moveto
8.7995606327411 -7.792368359557292 lineto
stroke
newpath
1.0 setlinewidth
10.0 setmiterlimit
0 setlinejoin
0 setlinecap
[ ] 0 setdash
newpath
8.7995606327411 -0.5638017394223762 moveto
8.7995606327411 -99.22910613833821 lineto
stroke
newpath
1.0 setlinewidth
10.0 setmiterlimit
0 setlinejoin
0 setlinecap
[ ] 0 setdash
newpath
8.940511067596693 -0.2819008697111881 moveto
7.953858023607536 -1.1276034788447524 lineto
stroke
newpath
1.0 setlinewidth
10.0 setmiterlimit
0 setlinejoin
0 setlinecap
[ ] 0 setdash
newpath
8.658610197885507 -0.2819008697111881 moveto
9.645263241874666 -1.1276034788447524 lineto
stroke
newpath
0.6 0.2 0.0 setrgbcolor
1.0 setlinewidth
10.0 setmiterlimit
0 setlinejoin
0 setlinecap
[ ] 0 setdash
newpath
8.799560424478363 -78.65850683171384 moveto
37.14601858573101 -78.65850683171384 lineto
37.14601858573101 -50.3120529719271 lineto
8.799560424478363 -50.3120529719271 lineto
closepath
fill
newpath
0.2 0.8 0.0 setrgbcolor
1.0 setlinewidth
10.0 setmiterlimit
0 setlinejoin
0 setlinecap
[ ] 0 setdash
newpath
65.49247244551775 -78.65850683171384 moveto
178.8783007890624 -78.65850683171384 lineto
178.8783007890624 -21.965596961407414 lineto
65.49247244551775 -21.965596961407414 lineto
closepath
fill
newpath
0.6 0.2 0.0 setrgbcolor
1.0 setlinewidth
10.0 setmiterlimit
1 setlinejoin
1 setlinecap
[ ] 0 setdash
newpath
8.799560632741105 -50.31205339892746 moveto
8.7995606327411 -78.6585100918409 lineto
stroke
newpath
0.6 0.2 0.0 setrgbcolor
1.0 setlinewidth
10.0 setmiterlimit
1 setlinejoin
1 setlinecap
[ ] 0 setdash
newpath
37.146017325654476 -50.31205339892746 moveto
8.799560632741105 -50.31205339892746 lineto
stroke
newpath
0.6 0.2 0.0 setrgbcolor
1.0 setlinewidth
10.0 setmiterlimit
1 setlinejoin
1 setlinecap
[ ] 0 setdash
newpath
37.146017325654476 -78.6585100918409 moveto
37.146017325654476 -50.31205339892746 lineto
stroke
newpath
0.6 0.2 0.0 setrgbcolor
1.0 setlinewidth
10.0 setmiterlimit
1 setlinejoin
1 setlinecap
[ ] 0 setdash
newpath
8.7995606327411 -78.6585100918409 moveto
37.146017325654476 -78.6585100918409 lineto
stroke
newpath
0.2 0.8 0.0 setrgbcolor
1.0 setlinewidth
10.0 setmiterlimit
1 setlinejoin
1 setlinecap
[ ] 0 setdash
newpath
65.49247401856786 -21.965596706014008 moveto
65.49247401856786 -78.6585100918409 lineto
stroke
newpath
0.2 0.8 0.0 setrgbcolor
1.0 setlinewidth
10.0 setmiterlimit
1 setlinejoin
1 setlinecap
[ ] 0 setdash
newpath
178.8783007902214 -21.965596706014008 moveto
65.49247401856786 -21.965596706014008 lineto
stroke
newpath
0.2 0.8 0.0 setrgbcolor
1.0 setlinewidth
10.0 setmiterlimit
1 setlinejoin
1 setlinecap
[ ] 0 setdash
newpath
178.8783007902214 -78.6585100918409 moveto
178.8783007902214 -21.965596706014008 lineto
stroke
newpath
0.2 0.8 0.0 setrgbcolor
1.0 setlinewidth
10.0 setmiterlimit
1 setlinejoin
1 setlinecap
[ ] 0 setdash
newpath
65.49247401856786 -78.6585100918409 moveto
178.8783007902214 -78.6585100918409 lineto
stroke
newpath
0.0 0.0 0.0 setrgbcolor
1.0 setlinewidth
10.0 setmiterlimit
1 setlinejoin
0 setlinecap
[ 1.0 3.0 ] 0 setdash
newpath
8.7995606327411 -21.965596706014008 moveto
65.49247401856786 -21.965596706014008 lineto
stroke
newpath
0.0 0.0 0.0 setrgbcolor
1.0 setlinewidth
10.0 setmiterlimit
1 setlinejoin
0 setlinecap
[ 1.0 3.0 ] 0 setdash
newpath
38.05661741101039 -78.65034264942148 moveto
38.05661741101039 -79.11741130333806 37.67798345579341 -79.49604525855504 37.21091480187683 -79.49604525855504 curveto
36.743846147960255 -79.49604525855504 36.365212192743265 -79.11741130333806 36.365212192743265 -78.65034264942148 curveto
36.365212192743265 -78.1832739955049 36.743846147960255 -77.80464004028792 37.21091480187683 -77.80464004028792 curveto
37.67798345579341 -77.80464004028792 38.05661741101039 -78.1832739955049 38.05661741101039 -78.65034264942148 curveto
closepath
fill
newpath
0.0 0.0 0.0 setrgbcolor
1.0 setlinewidth
10.0 setmiterlimit
1 setlinejoin
1 setlinecap
[ ] 0 setdash
newpath
38.05661741101039 -78.65034264942148 moveto
38.05661741101039 -79.11741130333806 37.67798345579341 -79.49604525855504 37.21091480187683 -79.49604525855504 curveto
36.743846147960255 -79.49604525855504 36.365212192743265 -79.11741130333806 36.365212192743265 -78.65034264942148 curveto
36.365212192743265 -78.1832739955049 36.743846147960255 -77.80464004028792 37.21091480187683 -77.80464004028792 curveto
37.67798345579341 -77.80464004028792 38.05661741101039 -78.1832739955049 38.05661741101039 -78.65034264942148 curveto
closepath
stroke
newpath
0.0 0.0 0.0 setrgbcolor
1.0 setlinewidth
10.0 setmiterlimit
1 setlinejoin
1 setlinecap
[ ] 0 setdash
newpath
36.873955168550175 -84.00645917393406 moveto
36.873955168550175 -83.76199826348139 lineto
37.362876989455515 -83.76199826348139 lineto
37.362876989455515 -81.83273918639544 lineto
36.873955168550175 -81.95496964162177 lineto
36.873955168550175 -81.70390167953525 lineto
37.68992604533139 -81.50073484179418 lineto
37.68992604533139 -83.76199826348139 lineto
38.17884786623673 -83.76199826348139 lineto
38.17884786623673 -84.00645917393406 lineto
closepath
fill
newpath
0.0 0.0 0.0 setrgbcolor
1.0 setlinewidth
10.0 setmiterlimit
1 setlinejoin
1 setlinecap
[ ] 0 setdash
newpath
9.584629570180395 -50.178354808591486 moveto
9.584629570180395 -50.64542346250806 9.205995614963411 -51.02405741772505 8.73892696104683 -51.02405741772505 curveto
8.271858307130252 -51.02405741772505 7.8932243519132665 -50.64542346250806 7.8932243519132665 -50.178354808591486 curveto
7.8932243519132665 -49.71128615467491 8.271858307130252 -49.33265219945792 8.73892696104683 -49.33265219945792 curveto
9.205995614963411 -49.33265219945792 9.584629570180395 -49.71128615467491 9.584629570180395 -50.178354808591486 curveto
closepath
fill
newpath
0.0 0.0 0.0 setrgbcolor
1.0 setlinewidth
10.0 setmiterlimit
1 setlinejoin
1 setlinecap
[ ] 0 setdash
newpath
9.584629570180395 -50.178354808591486 moveto
9.584629570180395 -50.64542346250806 9.205995614963411 -51.02405741772505 8.73892696104683 -51.02405741772505 curveto
8.271858307130252 -51.02405741772505 7.8932243519132665 -50.64542346250806 7.8932243519132665 -50.178354808591486 curveto
7.8932243519132665 -49.71128615467491 8.271858307130252 -49.33265219945792 8.73892696104683 -49.33265219945792 curveto
9.205995614963411 -49.33265219945792 9.584629570180395 -49.71128615467491 9.584629570180395 -50.178354808591486 curveto
closepath
stroke
newpath
0.0 0.0 0.0 setrgbcolor
1.0 setlinewidth
10.0 setmiterlimit
1 setlinejoin
1 setlinecap
[ ] 0 setdash
newpath
4.455355151763543 -51.02405741772505 moveto
4.455355151763543 -50.77959650727237 lineto
4.944276972668885 -50.77959650727237 lineto
4.944276972668885 -48.850337430186435 lineto
4.455355151763543 -48.972567885412765 lineto
4.455355151763543 -48.72149992332624 lineto
5.271326028544756 -48.51833308558517 lineto
5.271326028544756 -50.77959650727237 lineto
5.7602478494500975 -50.77959650727237 lineto
5.7602478494500975 -51.02405741772505 lineto
closepath
fill
newpath
0.0 0.0 0.0 setrgbcolor
1.0 setlinewidth
10.0 setmiterlimit
1 setlinejoin
1 setlinecap
[ ] 0 setdash
newpath
66.24670438212921 -78.65034264942148 moveto
66.24670438212921 -79.11741130333806 65.86807042691221 -79.49604525855504 65.40100177299564 -79.49604525855504 curveto
64.93393311907906 -79.49604525855504 64.55529916386207 -79.11741130333806 64.55529916386207 -78.65034264942148 curveto
64.55529916386207 -78.1832739955049 64.93393311907906 -77.80464004028792 65.40100177299564 -77.80464004028792 curveto
65.86807042691221 -77.80464004028792 66.24670438212921 -78.1832739955049 66.24670438212921 -78.65034264942148 curveto
closepath
fill
newpath
0.0 0.0 0.0 setrgbcolor
1.0 setlinewidth
10.0 setmiterlimit
1 setlinejoin
1 setlinecap
[ ] 0 setdash
newpath
66.24670438212921 -78.65034264942148 moveto
66.24670438212921 -79.11741130333806 65.86807042691221 -79.49604525855504 65.40100177299564 -79.49604525855504 curveto
64.93393311907906 -79.49604525855504 64.55529916386207 -79.11741130333806 64.55529916386207 -78.65034264942148 curveto
64.55529916386207 -78.1832739955049 64.93393311907906 -77.80464004028792 65.40100177299564 -77.80464004028792 curveto
65.86807042691221 -77.80464004028792 66.24670438212921 -78.1832739955049 66.24670438212921 -78.65034264942148 curveto
closepath
stroke
newpath
0.0 0.0 0.0 setrgbcolor
1.0 setlinewidth
10.0 setmiterlimit
1 setlinejoin
1 setlinecap
[ ] 0 setdash
newpath
66.3694854249917 -82.93281328343247 moveto
66.17457739598423 -83.11230485816814 65.98682701517316 -83.20205063751209 65.80623427320548 -83.20205063751209 curveto
65.65757560701334 -83.20205063751209 65.53424397948469 -83.15552598087048 65.43623938170954 -83.06247667174688 curveto
65.33823477955325 -82.96942735846365 65.28923248285625 -82.85187689880098 65.28923248285625 -82.70982529078982 curveto
65.28923248285625 -82.51381608647723 65.37154533691448 -82.36323037226342 65.53617103767161 -82.25806813532492 curveto
65.70079674578808 -82.1529058936853 65.93672354755218 -82.10032477756661 66.24395144394843 -82.10032477756661 curveto
66.32158430064624 -82.10032477756661 lineto
66.32158430064624 -81.88394383655782 lineto
66.32158430064624 -81.67582170388883 66.21477029604893 -81.57176064685812 66.00114229640423 -81.57176064685812 curveto
65.82935894880443 -81.57176064685812 65.64381091756985 -81.62461706150422 65.44449819625186 -81.73032988607068 curveto
65.44449819625186 -81.46109253199104 lineto
65.66363208197211 -81.37189733227576 65.86900126658225 -81.32729973640546 66.06060576110893 -81.32729973640546 curveto
66.26101966664203 -81.32729973640546 66.40885244239611 -81.37244792391567 66.5041041020315 -81.46274429489951 curveto
66.59935576592498 -81.55304066991991 66.64698159361365 -81.69344051728703 66.64698159361365 -81.88394383655782 curveto
66.64698159361365 -82.69661118752211 lineto
66.64698159361365 -82.88270981408856 66.70424270948024 -82.97575911905253 66.8187649360939 -82.97575911905253 curveto
66.83308021506055 -82.97575911905253 66.85400254521802 -82.97355676844226 66.88153192661554 -82.96915206741866 curveto
66.90465660733403 -83.14919422444125 lineto
66.83087786189053 -83.1844318342053 66.7493908926093 -83.20205063751209 66.66019569688136 -83.20205063751209 curveto
66.50823350477386 -83.20205063751209 66.41133008471591 -83.11230485014424 66.3694854249917 -82.93281328343247 curveto
closepath
66.32158430064624 -82.75607465222681 moveto
66.32158430064624 -82.29192927494843 lineto
66.21256794868762 -82.2886257491315 lineto
66.03417754925707 -82.2886257491315 65.8899235922601 -82.32248688976415 65.77980606667005 -82.39020916800204 curveto
65.66968853615735 -82.45793144926735 65.61462977582364 -82.54685135212893 65.61462977582364 -82.65696887771897 curveto
65.61462977582364 -82.73515232438298 65.64215915845182 -82.80122283919552 65.69721792124685 -82.85518042673465 curveto
65.7522766865032 -82.90913801668587 65.81944837765462 -82.93611680924938 65.89873299607946 -82.93611680924938 curveto
66.03417755861007 -82.93611680924938 66.17512799161146 -82.87610275511997 66.32158430064624 -82.75607465222681 curveto
closepath
fill
newpath
0.0 0.0 0.0 setrgbcolor
1.0 setlinewidth
10.0 setmiterlimit
1 setlinejoin
1 setlinecap
[ ] 0 setdash
newpath
179.85275487573801 -78.65034264942148 moveto
179.85275487573801 -79.11741130333806 179.47412092052105 -79.49604525855504 179.00705226660446 -79.49604525855504 curveto
178.53998361268785 -79.49604525855504 178.16134965747088 -79.11741130333806 178.16134965747088 -78.65034264942148 curveto
178.16134965747088 -78.1832739955049 178.53998361268785 -77.80464004028792 179.00705226660446 -77.80464004028792 curveto
179.47412092052105 -77.80464004028792 179.85275487573801 -78.1832739955049 179.85275487573801 -78.65034264942148 curveto
closepath
fill
newpath
0.0 0.0 0.0 setrgbcolor
1.0 setlinewidth
10.0 setmiterlimit
1 setlinejoin
1 setlinecap
[ ] 0 setdash
newpath
179.85275487573801 -78.65034264942148 moveto
179.85275487573801 -79.11741130333806 179.47412092052105 -79.49604525855504 179.00705226660446 -79.49604525855504 curveto
178.53998361268785 -79.49604525855504 178.16134965747088 -79.11741130333806 178.16134965747088 -78.65034264942148 curveto
178.16134965747088 -78.1832739955049 178.53998361268785 -77.80464004028792 179.00705226660446 -77.80464004028792 curveto
179.47412092052105 -77.80464004028792 179.85275487573801 -78.1832739955049 179.85275487573801 -78.65034264942148 curveto
closepath
stroke
newpath
0.0 0.0 0.0 setrgbcolor
1.0 setlinewidth
10.0 setmiterlimit
1 setlinejoin
1 setlinecap
[ ] 0 setdash
newpath
178.2048460807271 -84.02628032883563 moveto
178.2048460807271 -81.3983255414694 lineto
178.5302433736945 -81.3983255414694 lineto
178.5302433736945 -82.54960428866882 lineto
178.66348558561486 -82.29853631909988 178.86334889753903 -82.17300234553902 179.12983330946693 -82.17300234553902 curveto
179.3456636692718 -82.17300234553902 179.51551995043926 -82.2517363798556 179.63940216672808 -82.40920444144938 curveto
179.76328438855487 -82.56667251008251 179.82522549393028 -82.78195227519545 179.82522549393028 -83.0550437386588 curveto
179.82522549393028 -83.35236107104306 179.75502556822843 -83.59214198044333 179.6146257231011 -83.77438648529487 curveto
179.47422587169743 -83.95663099829336 179.28950372053876 -84.04775324664566 179.06045926731144 -84.04775324664566 curveto
178.84793243342196 -84.04775324664566 178.67119380644976 -83.96626627406626 178.5302433736945 -83.80329233619298 curveto
178.49060106389138 -84.02628032883563 lineto
closepath
178.5302433736945 -83.57865258064189 moveto
178.6976220200738 -83.72841242213914 178.8572924318348 -83.80329233619298 179.00925461714905 -83.80329233619298 curveto
179.3219884038051 -83.80329233619298 179.47835528315284 -83.564887882633 179.47835528315284 -83.08807899682807 curveto
179.47835528315284 -82.6674300302696 179.33960719470684 -82.45710556579483 179.0621110302199 -82.45710556579483 curveto
178.88041710487397 -82.45710556579483 178.70312788887088 -82.5556607556037 178.5302433736945 -82.75277112640988 curveto
closepath
fill
newpath
0.0 0.0 0.0 setrgbcolor
1.0 setlinewidth
10.0 setmiterlimit
1 setlinejoin
1 setlinecap
[ ] 0 setdash
newpath
9.584629570180395 -21.988267837472673 moveto
9.584629570180395 -22.455336491389254 9.205995614963411 -22.833970446606237 8.73892696104683 -22.833970446606237 curveto
8.271858307130252 -22.833970446606237 7.8932243519132665 -22.455336491389254 7.8932243519132665 -21.988267837472673 curveto
7.8932243519132665 -21.521199183556092 8.271858307130252 -21.14256522833911 8.73892696104683 -21.14256522833911 curveto
9.205995614963411 -21.14256522833911 9.584629570180395 -21.521199183556092 9.584629570180395 -21.988267837472673 curveto
closepath
fill
newpath
0.0 0.0 0.0 setrgbcolor
1.0 setlinewidth
10.0 setmiterlimit
1 setlinejoin
1 setlinecap
[ ] 0 setdash
newpath
9.584629570180395 -21.988267837472673 moveto
9.584629570180395 -22.455336491389254 9.205995614963411 -22.833970446606237 8.73892696104683 -22.833970446606237 curveto
8.271858307130252 -22.833970446606237 7.8932243519132665 -22.455336491389254 7.8932243519132665 -21.988267837472673 curveto
7.8932243519132665 -21.521199183556092 8.271858307130252 -21.14256522833911 8.73892696104683 -21.14256522833911 curveto
9.205995614963411 -21.14256522833911 9.584629570180395 -21.521199183556092 9.584629570180395 -21.988267837472673 curveto
closepath
stroke
newpath
0.0 0.0 0.0 setrgbcolor
1.0 setlinewidth
10.0 setmiterlimit
1 setlinejoin
1 setlinecap
[ ] 0 setdash
newpath
5.818059551246337 -20.056255822205955 moveto
5.575800984118418 -20.056255822205955 5.374836501762558 -19.966510034838112 5.21516608965698 -19.787018468126323 curveto
5.055495670413578 -19.607526893390638 4.975660467929701 -19.38123537621096 4.975660467929701 -19.108143912747625 curveto
4.975660467929701 -18.816332456888993 5.054669796072557 -18.588939769425274 5.212688445294284 -18.425965831551995 curveto
5.370707101579995 -18.262991886393213 5.591217449367674 -18.181504921099325 5.874219490134113 -18.181504921099325 curveto
6.014068753885231 -18.181504921099325 6.170435640961503 -18.200775488939048 6.343320156137887 -18.239316622895565 curveto
6.343320156137887 -18.51185750279212 lineto
6.159423880181693 -18.457899912840904 6.009664046905238 -18.430921120277386 5.894040645035681 -18.430921120277386 curveto
5.727763173961518 -18.430921120277386 5.594245675648062 -18.49341281884334 5.493488139733163 -18.61839621038805 curveto
5.39273059931405 -18.74337960751995 5.342351833608707 -18.909932366833203 5.342351833608707 -19.118054490198407 curveto
5.342351833608707 -19.31956957103663 5.394107072949672 -19.48254350718699 5.497617547004323 -19.60697631110375 curveto
5.601128025686252 -19.73140912058309 5.7365725835895836 -19.79362551976018 5.903951222486465 -19.79362551976018 curveto
6.052609888678598 -19.79362551976018 6.205673249445678 -19.755634971733304 6.363141311039455 -19.679653879076167 curveto
6.363141311039455 -19.960453573515043 lineto
6.1528168277602155 -20.024321741212404 5.971122911816512 -20.056255822205955 5.818059551246337 -20.056255822205955 curveto
closepath
fill
newpath
0.0 0.0 0.0 setrgbcolor
1.0 setlinewidth
10.0 setmiterlimit
1 setlinejoin
1 setlinecap
[ ] 0 setdash
newpath
14.03998472194394 -66.52860525184039 moveto
14.03998472194394 -66.28414434138772 lineto
14.528906542849281 -66.28414434138772 lineto
14.528906542849281 -64.35488526430179 lineto
14.03998472194394 -64.47711571952811 lineto
14.03998472194394 -64.22604775744159 lineto
14.855955598725151 -64.02288091970051 lineto
14.855955598725151 -66.28414434138772 lineto
15.344877419630492 -66.28414434138772 lineto
15.344877419630492 -66.52860525184039 lineto
closepath
18.187561385097023 -66.52860525184039 moveto
18.187561385097023 -66.19164561851373 lineto
18.0146768621921 -66.4438147633878 17.804902974293963 -66.569899324552 17.558239716972242 -66.569899324552 curveto
17.401872823644222 -66.569899324552 17.277440021155027 -66.52062172964757 17.184941299659382 -66.42206654424447 curveto
17.09244257402872 -66.32351135443561 17.046193215348406 -66.19054444074729 17.046193215348406 -66.02316580185041 curveto
17.046193215348406 -64.7347907332485 lineto
17.371590508315812 -64.7347907332485 lineto
17.371590508315812 -65.91745297570871 lineto
17.371590508315812 -66.0517963629342 17.391136369981815 -66.14732331464835 17.430228091566285 -66.20403384032721 curveto
17.469319814898288 -66.26074436854125 17.53456444997952 -66.28909963011311 17.625961996219267 -66.28909963011311 curveto
17.82417355114211 -66.28909963011311 18.01137334415294 -66.15861035645557 18.187561385097023 -65.89763182080715 curveto
18.187561385097023 -64.7347907332485 lineto
18.512958678064432 -64.7347907332485 lineto
18.512958678064432 -66.52860525184039 lineto
closepath
19.1703603156331 -66.52860525184039 moveto
19.1703603156331 -66.12061981344979 lineto
19.578345754023708 -66.12061981344979 lineto
19.578345754023708 -66.52860525184039 lineto
closepath
21.16073462033221 -66.30066197047236 moveto
20.96582659132475 -66.48015354520805 20.778076210513678 -66.569899324552 20.59748346854599 -66.569899324552 curveto
20.448824802353858 -66.569899324552 20.325493174825205 -66.52337466791039 20.227488577050057 -66.43032535878679 curveto
20.129483974893763 -66.33727604550356 20.08048167819676 -66.21972558584089 20.08048167819676 -66.07767397782972 curveto
20.08048167819676 -65.88166477351713 20.162794532255 -65.73107905930333 20.327420233012127 -65.62591682236481 curveto
20.492045941128602 -65.5207545807252 20.7279727428927 -65.46817346460651 21.03520063928895 -65.46817346460651 curveto
21.112833495986756 -65.46817346460651 lineto
21.112833495986756 -65.25179252359773 lineto
21.112833495986756 -65.04367039092874 21.006019491389445 -64.93960933389803 20.79239149174474 -64.93960933389803 curveto
20.620608144144942 -64.93960933389803 20.435060112910374 -64.99246574854412 20.235747391592376 -65.09817857311057 curveto
20.235747391592376 -64.82894121903094 lineto
20.45488127731263 -64.73974601931566 20.66025046192275 -64.69514842344536 20.851854956449444 -64.69514842344536 curveto
21.05226886198254 -64.69514842344536 21.20010163773663 -64.74029661095557 21.295353297372028 -64.8305929819394 curveto
21.390604961265506 -64.92088935695982 21.43823078895416 -65.06128920432694 21.43823078895416 -65.25179252359773 curveto
21.43823078895416 -66.064459874562 lineto
21.43823078895416 -66.25055850112845 21.49549190482076 -66.34360780609242 21.61001413143442 -66.34360780609242 curveto
21.624329410401067 -66.34360780609242 21.645251740558535 -66.34140545548217 21.67278112195605 -66.33700075445857 curveto
21.695905802674545 -66.51704291148114 lineto
21.62212705723104 -66.55228052124521 21.540640087949818 -66.569899324552 21.451444892221875 -66.569899324552 curveto
21.29948270011436 -66.569899324552 21.202579280056433 -66.48015353718415 21.16073462033221 -66.30066197047236 curveto
closepath
21.112833495986756 -66.12392333926671 moveto
21.112833495986756 -65.65977796198834 lineto
21.003817144028133 -65.65647443617141 lineto
20.825426744597575 -65.65647443617141 20.681172787600623 -65.69033557680406 20.571055262010567 -65.75805785504194 curveto
20.460937731497875 -65.82578013630724 20.405878971164167 -65.91470003916882 20.405878971164167 -66.02481756475888 curveto
20.405878971164167 -66.10300101142289 20.43340835379234 -66.16907152623543 20.488467116587366 -66.22302911377456 curveto
20.543525881843713 -66.27698670372578 20.610697572995136 -66.3039654962893 20.689982191419976 -66.3039654962893 curveto
20.825426753950584 -66.3039654962893 20.966377186951984 -66.24395144215987 21.112833495986756 -66.12392333926671 curveto
closepath
22.108846529790544 -66.52860525184039 moveto
22.108846529790544 -66.12061981344979 lineto
22.51683196818115 -66.12061981344979 lineto
22.51683196818115 -66.52860525184039 lineto
closepath
fill
newpath
0.0 0.0 0.0 setrgbcolor
1.0 setlinewidth
10.0 setmiterlimit
1 setlinejoin
1 setlinecap
[ ] 0 setdash
newpath
107.24511153311397 -53.89702370318008 moveto
107.0502035041065 -54.076515277915775 106.86245312329544 -54.16626105725972 106.68186038132775 -54.16626105725972 curveto
106.53320171513562 -54.16626105725972 106.40987008760696 -54.1197364006181 106.31186548983182 -54.02668709149451 curveto
106.21386088767552 -53.933637778211285 106.16485859097853 -53.81608731854862 106.16485859097853 -53.674035710537446 curveto
106.16485859097853 -53.47802650622486 106.24717144503676 -53.327440792011046 106.41179714579388 -53.22227855507254 curveto
106.57642285391036 -53.11711631343292 106.81234965567445 -53.064535197314235 107.11957755207071 -53.064535197314235 curveto
107.19721040876851 -53.064535197314235 lineto
107.19721040876851 -52.84815425630545 lineto
107.19721040876851 -52.640032123636466 107.0903964041712 -52.535971066605754 106.8767684045265 -52.535971066605754 curveto
106.7049850569267 -52.535971066605754 106.51943702569213 -52.58882748125185 106.32012430437413 -52.6945403058183 curveto
106.32012430437413 -52.425302951738665 lineto
106.53925819009439 -52.33610775202339 106.74462737470452 -52.29151015615309 106.93623186923121 -52.29151015615309 curveto
107.1366457747643 -52.29151015615309 107.28447855051839 -52.33665834366329 107.37973021015378 -52.42695471464713 curveto
107.47498187404726 -52.51725108966754 107.52260770173592 -52.65765093703466 107.52260770173592 -52.84815425630545 curveto
107.52260770173592 -53.66082160726973 lineto
107.52260770173592 -53.84692023383618 107.57986881760252 -53.93996953880015 107.69439104421618 -53.93996953880015 curveto
107.70870632318282 -53.93996953880015 107.7296286533403 -53.937767188189895 107.75715803473781 -53.93336248716629 curveto
107.78028271545631 -54.11340464418887 lineto
107.7065039700128 -54.14864225395293 107.62501700073157 -54.16626105725972 107.53582180500364 -54.16626105725972 curveto
107.38385961289613 -54.16626105725972 107.28695619283819 -54.07651526989187 107.24511153311397 -53.89702370318008 curveto
closepath
107.19721040876851 -53.72028507197444 moveto
107.19721040876851 -53.25613969469605 lineto
107.0881940568099 -53.25283616887913 lineto
106.90980365737934 -53.25283616887913 106.76554970038238 -53.28669730951178 106.65543217479232 -53.35441958774966 curveto
106.54531464427963 -53.422141869014965 106.49025588394592 -53.51106177187655 106.49025588394592 -53.6211792974666 curveto
106.49025588394592 -53.69936274413061 106.5177852665741 -53.765433258943155 106.57284402936912 -53.81939084648228 curveto
106.62790279462547 -53.873348436433496 106.6950744857769 -53.900327228997014 106.77435910420174 -53.900327228997014 curveto
106.90980366673234 -53.900327228997014 107.05075409973374 -53.840313174867596 107.19721040876851 -53.72028507197444 curveto
closepath
108.1882681538469 -54.12496698454812 moveto
108.1882681538469 -52.33115246595622 lineto
108.51366544681431 -52.33115246595622 lineto
108.51366544681431 -54.12496698454812 lineto
closepath
108.1882681538469 -52.00575517298881 moveto
108.1882681538469 -51.680357880021404 lineto
108.51366544681431 -51.680357880021404 lineto
108.51366544681431 -52.00575517298881 lineto
closepath
109.1661117956576 -54.12496698454812 moveto
109.1661117956576 -52.33115246595622 lineto
109.491509088625 -52.33115246595622 lineto
109.491509088625 -52.66811209928287 lineto
109.62034659932485 -52.41704412971394 109.80754639543694 -52.29151015615309 110.05310847750276 -52.29151015615309 curveto
110.08614373665657 -52.29151015615309 110.12083075729127 -52.2942630944159 110.15716954073599 -52.2997689706954 curveto
110.15716954073599 -52.60369334585278 lineto
110.10100960017452 -52.58497336566562 110.05145671395435 -52.57561337640889 110.00851087897423 -52.57561337640889 curveto
109.80259109691549 -52.57561337640889 109.63025717086846 -52.69784383527798 109.491509088625 -52.9423047420879 curveto
109.491509088625 -54.12496698454812 lineto
closepath
111.86509238808776 -54.06715528275188 moveto
111.64705967767263 -54.13322580105949 111.46041047320044 -54.16626105725972 111.30514476211846 -54.16626105725972 curveto
111.04086268888801 -54.16626105725972 110.82530763472374 -54.07844232667585 110.6584795834548 -53.902804873359706 curveto
110.49165152472808 -53.72716741219197 110.40823750282252 -53.499499425708585 110.40823750282252 -53.21980091070985 curveto
110.40823750282252 -52.9478106103435 110.48174095443974 -52.724822623214216 110.62874785110246 -52.550836932781934 curveto
110.7757547543369 -52.37685123457188 110.96378043111561 -52.28985839324462 111.19282488434291 -52.28985839324462 curveto
111.40975641945292 -52.28985839324462 111.5774103499609 -52.366940664603504 111.6957866899702 -52.52110520042958 curveto
111.81416303527135 -52.675269743147346 111.87335120263008 -52.89440362197591 111.87335120263008 -53.17850683799825 curveto
111.87169943972161 -53.27926437541455 lineto
110.74024184742377 -53.27926437541455 lineto
110.78759238554423 -53.70541921849867 110.99626510374905 -53.91849662099012 111.36625998973163 -53.91849662099012 curveto
111.50170455226224 -53.91849662099012 111.66798201728157 -53.88215783592093 111.86509238808776 -53.809480269031496 curveto
closepath
110.75510771359995 -53.03480346496188 moveto
111.54630214675421 -53.03480346496188 lineto
111.54630214675421 -52.70114734750843 111.42186933727487 -52.534319303697295 111.17300372944135 -52.534319303697295 curveto
110.92303693517754 -52.534319303697295 110.78373827025337 -52.701147362424024 110.75510771359995 -53.03480346496188 curveto
closepath
113.5465870289041 -53.574929936029605 moveto
113.5465870289041 -53.33046902557694 lineto
115.50227431252547 -53.33046902557694 lineto
115.50227431252547 -53.574929936029605 lineto
closepath
113.5465870289041 -52.96377765989793 moveto
113.5465870289041 -52.719316749445255 lineto
115.50227431252547 -52.719316749445255 lineto
115.50227431252547 -52.96377765989793 lineto
closepath
117.2531429954973 -54.12496698454812 moveto
117.2531429954973 -51.680357880021404 lineto
117.60001320627474 -51.680357880021404 lineto
117.60001320627474 -54.12496698454812 lineto
closepath
118.89169180069358 -54.389249049902354 moveto
118.89169180069358 -54.613888805453456 lineto
118.65383793478617 -54.4520160355998 118.46526167441608 -54.23205627563698 118.32596300454466 -53.954009523522096 curveto
118.18666432844611 -53.67596275897755 118.11701499662396 -53.379471320501786 118.11701499662396 -53.064535197314235 curveto
118.11701499662396 -52.750700235353065 118.18666433467324 -52.45475938612972 118.32596300454466 -52.176712634014834 curveto
118.46526168064321 -51.89866586947029 118.65383794541907 -51.67870611470085 118.89169180069358 -51.516833352083474 curveto
118.89169180069358 -51.741473107634576 lineto
118.72981903083992 -51.917661156454884 118.61447092486415 -52.107063301060485 118.54564747137037 -52.309679548146185 curveto
118.47682401479994 -52.512295804289536 118.44241228959137 -52.76391435245339 118.44241228959137 -53.064535197314235 curveto
118.44241228959137 -53.366257230919004 118.4768240178766 -53.618426362305044 118.54564747137037 -53.821042609390744 curveto
118.6144709279408 -54.023658865534095 118.7298190380762 -54.21306100895827 118.89169180069358 -54.389249049902354 curveto
closepath
119.72748383237636 -52.57561337640889 moveto
119.72748383237636 -54.12496698454812 lineto
119.40043477650049 -54.12496698454812 lineto
119.40043477650049 -52.57561337640889 lineto
119.14606328859703 -52.57561337640889 lineto
119.14606328859703 -52.33115246595622 lineto
119.40043477650049 -52.33115246595622 lineto
119.40043477650049 -52.1164232878559 lineto
119.40043477650049 -51.68916726946666 119.59534280550795 -51.47553927937187 119.98515884609675 -51.47553927937187 curveto
120.09417520130432 -51.47553927937187 120.21805741825769 -51.49370867190647 120.35680550050114 -51.53004745535118 curveto
120.35680550050114 -51.78772246907157 lineto
120.21034918491927 -51.74257428156137 120.09307402147036 -51.720000189824546 120.00498000099832 -51.720000189824546 curveto
119.898165996401 -51.720000189824546 119.8252131372113 -51.74560251566874 119.78612141562684 -51.79680716506812 curveto
119.74702969229483 -51.84801181675652 119.72748383237636 -51.94298818453469 119.72748383237636 -52.08173626677816 curveto
119.72748383237636 -52.33115246595622 lineto
120.1751115805701 -52.33115246595622 lineto
120.1751115805701 -52.57561337640889 lineto
closepath
120.37993018121963 -54.389249049902354 moveto
120.37993018121963 -54.613888805453456 lineto
120.61778404712706 -54.4520160355998 120.80636030749714 -54.23205627563698 120.94565897736855 -53.954009523522096 curveto
121.0849576534671 -53.67596275897755 121.15460698528925 -53.379471320501786 121.15460698528925 -53.064535197314235 curveto
121.15460698528925 -52.750700235353065 121.08495764723997 -52.45475938612972 120.94565897736855 -52.176712634014834 curveto
120.80636030127 -51.89866586947029 120.61778403649416 -51.67870611470085 120.37993018121963 -51.516833352083474 curveto
120.37993018121963 -51.741473107634576 lineto
120.5418029510733 -51.917661156454884 120.65715105704906 -52.107063301060485 120.72597451054286 -52.309679548146185 curveto
120.79479796711328 -52.512295804289536 120.82920969232185 -52.76391435245339 120.82920969232185 -53.064535197314235 curveto
120.82920969232185 -53.366257230919004 120.79479796403663 -53.618426362305044 120.72597451054286 -53.821042609390744 curveto
120.65715105397241 -54.023658865534095 120.54180294383701 -54.21306100895827 120.37993018121963 -54.389249049902354 curveto
closepath
fill
newpath
grestore
grestore
showpage

%%EOF